{
  "opinion": {
    "isContribuable": false,
    "votes_total": 11,
    "arguments_yes_count": 0,
    "arguments_no_count": 1,
    "id": 645,
    "created_at": "2015-10-15T16:46:03+0200",
    "updated_at": "2015-10-15T16:46:03+0200",
    "body": "<p>Face &agrave; la d&eacute;fiance et &agrave; la crise de confiance vis &agrave; vis des Institutions, L&#39;enjeu, c&#39;est de permettre aux individus de r&eacute;cup&eacute;rer, produire, exploiter et partager leurs propres donn&eacute;es pour en faire ce qui a du sens pour eux.</p>",
    "versions_count": 1,
    "sources_count": 0,
    "arguments_count": 1,
    "author": {
      "username": "A.Seibel",
      "displayName": "A.Seibel",
      "uniqueId": "aseibel",
      "isAdmin": false,
      "media": null,
      "vip": false,
      "_links": {
        "profile": "https://www.republique-numerique.fr/profile/aseibel",
        "settings": "https://www.republique-numerique.fr/profile/edit-profile"
      }
    },
    "type": {
      "id": 86,
      "title": "Section 1",
      "subtitle": "Ouverture des données publiques",
      "voteWidgetType": 2,
      "votesHelpText": "Pensez-vous que cette proposition permet d'atteindre les objectifs présentés dans l’explication de l’article ?",
      "commentSystem": 2,
      "color": "blue",
      "versionable": true,
      "sourceable": true,
      "votesThreshold": null,
      "votesThresholdHelpText": null
    },
    "sources": [],
    "arguments": [
      {
        "isContribuable": false,
        "id": 4379,
        "body": "Et donc ? Quelle proposition ?",
        "created_at": "2015-10-15T18:43:04+0200",
        "updated_at": "2015-10-15T18:43:04+0200",
        "is_enabled": true,
        "votes_count": 1,
        "type": 0,
        "is_trashed": false,
        "author": {
          "username": "Vincent Reverdy",
          "displayName": "Vincent Reverdy",
          "uniqueId": "vincentreverdy",
          "isAdmin": false,
          "media": {
            "url": "/media/cache/default_avatar/default/0001/01/268_default_avatar.jpg"
          },
          "vip": false,
          "_links": {
            "profile": "https://www.republique-numerique.fr/profile/vincentreverdy",
            "settings": "https://www.republique-numerique.fr/profile/edit-profile"
          }
        },
        "_links": {
          "show": "https://www.republique-numerique.fr/consultations/projet-de-loi-numerique/consultation/consultation/opinions/section-1-ouverture-des-donnees-publiques-1/le-retour-des-donnees-personnelles-aux-individus-et-citoyens#arg-4379",
          "edit": "https://www.republique-numerique.fr/consultations/projet-de-loi-numerique/consultation/consultation/opinions/section-1-ouverture-des-donnees-publiques-1/le-retour-des-donnees-personnelles-aux-individus-et-citoyens/arguments/4379/edit",
          "report": "https://www.republique-numerique.fr/consultations/projet-de-loi-numerique/consultation/consultation/opinions/section-1-ouverture-des-donnees-publiques-1/le-retour-des-donnees-personnelles-aux-individus-et-citoyens/arguments/4379/report"
        },
        "has_user_voted": false,
        "has_user_reported": false
      }
    ],
    "modals": [],
    "votes": [
      {
        "user": {
          "username": "Vincent Reverdy",
          "displayName": "Vincent Reverdy",
          "uniqueId": "vincentreverdy",
          "isAdmin": false,
          "media": {
            "url": "/media/cache/default_avatar/default/0001/01/268_default_avatar.jpg"
          },
          "vip": false,
          "_links": {
            "profile": "https://www.republique-numerique.fr/profile/vincentreverdy",
            "settings": "https://www.republique-numerique.fr/profile/edit-profile"
          }
        }
      },
      {
        "user": {
          "username": "Emilien",
          "displayName": "Emilien",
          "uniqueId": "emilien",
          "isAdmin": false,
          "media": null,
          "vip": false,
          "_links": {
            "profile": "https://www.republique-numerique.fr/profile/emilien",
            "settings": "https://www.republique-numerique.fr/profile/edit-profile"
          }
        }
      },
      {
        "user": {
          "username": "Vasic Violeta",
          "displayName": "Vasic Violeta",
          "uniqueId": "vasicvioleta",
          "isAdmin": false,
          "media": null,
          "vip": false,
          "_links": {
            "profile": "https://www.republique-numerique.fr/profile/vasicvioleta",
            "settings": "https://www.republique-numerique.fr/profile/edit-profile"
          }
        }
      },
      {
        "user": {
          "username": "Vincent Guezou",
          "displayName": "Vincent Guezou",
          "uniqueId": "vincentguezou",
          "isAdmin": false,
          "media": {
            "url": "/media/cache/default_avatar/default/0001/01/845_default_avatar.jpg"
          },
          "vip": false,
          "_links": {
            "profile": "https://www.republique-numerique.fr/profile/vincentguezou",
            "settings": "https://www.republique-numerique.fr/profile/edit-profile"
          }
        }
      },
      {
        "user": {
          "username": "Jeanne Varasco",
          "displayName": "Jeanne Varasco",
          "uniqueId": "jeannevarasco",
          "isAdmin": false,
          "media": {
            "url": "/media/cache/default_avatar/default/0001/01/139_default_avatar.jpg"
          },
          "vip": false,
          "_links": {
            "profile": "https://www.republique-numerique.fr/profile/jeannevarasco",
            "settings": "https://www.republique-numerique.fr/profile/edit-profile"
          }
        }
      }
    ],
    "appendices": [
      {
        "body": null,
        "type": {
          "title": "Explication de l'article"
        }
      }
    ],
    "ranking": 364,
    "is_trashed": false,
    "title": "le retour des données personnelles aux individus et citoyens",
    "votes_nok": 1,
    "votes_ok": 8,
    "votes_mitige": 2,
    "_links": {
      "show": "https://www.republique-numerique.fr/consultations/projet-de-loi-numerique/consultation/consultation/opinions/section-1-ouverture-des-donnees-publiques-1/le-retour-des-donnees-personnelles-aux-individus-et-citoyens",
      "edit": "https://www.republique-numerique.fr/consultations/projet-de-loi-numerique/consultation/consultation/opinions/section-1-ouverture-des-donnees-publiques-1/le-retour-des-donnees-personnelles-aux-individus-et-citoyens/edit",
      "report": "https://www.republique-numerique.fr/consultations/projet-de-loi-numerique/consultation/consultation/opinions/section-1-ouverture-des-donnees-publiques-1/le-retour-des-donnees-personnelles-aux-individus-et-citoyens/report",
      "type": "https://www.republique-numerique.fr/consultations/projet-de-loi-numerique/consultation/consultation/opinions/section-1-ouverture-des-donnees-publiques-1"
    },
    "user_vote": null,
    "has_user_reported": false
  },
  "rankingThreshold": null,
  "opinionTerm": 1
}