{
  "opinion": {
    "isContribuable": false,
    "votes_total": 1,
    "arguments_yes_count": 1,
    "arguments_no_count": 0,
    "id": 731,
    "created_at": "2015-10-18T11:52:09+0200",
    "updated_at": "2015-10-18T21:43:10+0200",
    "body": "<p>Favoriser les modes de repr&eacute;sentation collective des personnes concern&eacute;es par les traitements de donn&eacute;es &agrave; caract&egrave;re personnel</p>",
    "versions_count": 0,
    "sources_count": 0,
    "arguments_count": 1,
    "author": {
      "username": "Digital New Deal Foundation",
      "displayName": "Digital New Deal Foundation",
      "uniqueId": "digitalnewdealfoundation1",
      "isAdmin": false,
      "media": {
        "url": "/media/cache/default_avatar/default/0001/01/996_default_avatar.jpg"
      },
      "vip": false,
      "_links": {
        "profile": "https://www.republique-numerique.fr/profile/digitalnewdealfoundation1",
        "settings": "https://www.republique-numerique.fr/profile/edit-profile"
      }
    },
    "type": {
      "id": 99,
      "title": "Section 1",
      "subtitle": "Protection des données à caractère personnel",
      "voteWidgetType": 2,
      "votesHelpText": "Pensez-vous que cette proposition permet d'atteindre les objectifs présentés dans l’explication de l’article ?",
      "commentSystem": 2,
      "color": "blue",
      "versionable": true,
      "sourceable": true,
      "votesThreshold": null,
      "votesThresholdHelpText": null
    },
    "sources": [],
    "arguments": [
      {
        "isContribuable": false,
        "id": 5839,
        "body": "A l'image des associations de consommateurs, avec des bans d'essai, etc... Par contre, faire un système de vote (comme sur ce site (Pour-Contre-Mitigé, arguments)) et ne réagir que si cela intéesse un minimum de monde (1000 voies avec majorité pour)",
        "created_at": "2015-10-18T14:47:53+0200",
        "updated_at": "2015-10-18T14:47:53+0200",
        "is_enabled": true,
        "votes_count": 2,
        "type": 1,
        "is_trashed": false,
        "author": {
          "username": "Jeanne Varasco",
          "displayName": "Jeanne Varasco",
          "uniqueId": "jeannevarasco",
          "isAdmin": false,
          "media": {
            "url": "/media/cache/default_avatar/default/0001/01/139_default_avatar.jpg"
          },
          "vip": false,
          "_links": {
            "profile": "https://www.republique-numerique.fr/profile/jeannevarasco",
            "settings": "https://www.republique-numerique.fr/profile/edit-profile"
          }
        },
        "_links": {
          "show": "https://www.republique-numerique.fr/consultations/projet-de-loi-numerique/consultation/consultation/opinions/section-1-protection-des-donnees-a-caractere-personnel/permettre-une-representation-collective-des-utilisateurs#arg-5839",
          "edit": "https://www.republique-numerique.fr/consultations/projet-de-loi-numerique/consultation/consultation/opinions/section-1-protection-des-donnees-a-caractere-personnel/permettre-une-representation-collective-des-utilisateurs/arguments/5839/edit",
          "report": "https://www.republique-numerique.fr/consultations/projet-de-loi-numerique/consultation/consultation/opinions/section-1-protection-des-donnees-a-caractere-personnel/permettre-une-representation-collective-des-utilisateurs/arguments/5839/report"
        },
        "has_user_voted": false,
        "has_user_reported": false
      }
    ],
    "modals": [],
    "votes": [
      {
        "user": {
          "username": "Maltese Nadine",
          "displayName": "Maltese Nadine",
          "uniqueId": "maltesenadine",
          "isAdmin": false,
          "media": {
            "url": "/media/cache/default_avatar/default/0001/01/113_default_avatar.png"
          },
          "vip": false,
          "_links": {
            "profile": "https://www.republique-numerique.fr/profile/maltesenadine",
            "settings": "https://www.republique-numerique.fr/profile/edit-profile"
          }
        }
      }
    ],
    "appendices": [
      {
        "body": "<p>Les donn&eacute;es r&eacute;colt&eacute;es ne prennent de valeur qu&rsquo;agr&eacute;g&eacute;es avec d&rsquo;autres&nbsp;; par ailleurs, le rapport de force entre responsables de traitements et personnes concern&eacute;es peuvent &ecirc;tre d&eacute;s&eacute;quilibr&eacute;s.</p>\r\n\r\n<p>Il faut donc promouvoir des modes de repr&eacute;sentation collective pour permettre des formes de n&eacute;gociations collectives en mati&egrave;re de politiques de traitements des donn&eacute;es &agrave; caract&egrave;re personnel&nbsp;: cr&eacute;ation d&rsquo;associations, de syndicats ou de tout autre structure de repr&eacute;sentation efficace pour donner aux utilisateurs un pouvoir de n&eacute;gocier les politiques de traitement des donn&eacute;es.</p>\r\n\r\n<p>Il faut &eacute;galement ouvrir la possibilit&eacute; d&rsquo;action collective, &nbsp;n&eacute;e de la Loi du 17 mars 2014 dite &laquo;&nbsp;Hamon&nbsp;&raquo;, en gommant les obstacles &agrave; de telles actions en mati&egrave;re de traitements de donn&eacute;es &agrave; caract&egrave;re personnel (exigence d&rsquo;un dommage &laquo;&nbsp;mat&eacute;riel&nbsp;&raquo;, etc.).&nbsp;</p>",
        "type": {
          "title": "Explication de l'article"
        }
      }
    ],
    "ranking": 577,
    "is_trashed": false,
    "title": "Les représentations et actions collectives",
    "votes_nok": 0,
    "votes_ok": 1,
    "votes_mitige": 0,
    "_links": {
      "show": "https://www.republique-numerique.fr/consultations/projet-de-loi-numerique/consultation/consultation/opinions/section-1-protection-des-donnees-a-caractere-personnel/permettre-une-representation-collective-des-utilisateurs",
      "edit": "https://www.republique-numerique.fr/consultations/projet-de-loi-numerique/consultation/consultation/opinions/section-1-protection-des-donnees-a-caractere-personnel/permettre-une-representation-collective-des-utilisateurs/edit",
      "report": "https://www.republique-numerique.fr/consultations/projet-de-loi-numerique/consultation/consultation/opinions/section-1-protection-des-donnees-a-caractere-personnel/permettre-une-representation-collective-des-utilisateurs/report",
      "type": "https://www.republique-numerique.fr/consultations/projet-de-loi-numerique/consultation/consultation/opinions/section-1-protection-des-donnees-a-caractere-personnel"
    },
    "user_vote": null,
    "has_user_reported": false
  },
  "rankingThreshold": null,
  "opinionTerm": 1
}