{
  "opinion": {
    "isContribuable": false,
    "votes_total": 12,
    "arguments_yes_count": 1,
    "arguments_no_count": 0,
    "id": 381,
    "created_at": "2015-10-01T17:35:16+0200",
    "updated_at": "2015-10-01T17:42:37+0200",
    "body": "<ol>\r\n\t<li>&nbsp;Il est interdit, pour tout op&eacute;rateur mobile de fixer un quota de consommation de donn&eacute;es au-del&agrave; duquel l&#39;acc&egrave;s au r&eacute;seau est alt&eacute;r&eacute;, d&eacute;grad&eacute; ou surfactur&eacute;.</li>\r\n\t<li>Le fait, pour un op&eacute;rateur mobile de d&eacute;grader, alt&eacute;rer ou surfacturer l&#39;acc&egrave;s &agrave; son r&eacute;seau au-del&agrave; d&#39;une limite de consommation est puni d&#39;une amende d&#39;un montant minimum &eacute;gal &agrave; 10% des b&eacute;n&eacute;fices que le fournisseur aura d&eacute;clar&eacute; sur la ou les ann&eacute;es concern&eacute;es.</li>\r\n</ol>",
    "versions_count": 0,
    "sources_count": 0,
    "arguments_count": 1,
    "author": {
      "username": "Augier",
      "displayName": "Augier",
      "uniqueId": "augier",
      "isAdmin": false,
      "media": {
        "url": "/media/cache/default_avatar/default/0001/01/298_default_avatar.jpg"
      },
      "vip": false,
      "_links": {
        "profile": "https://www.republique-numerique.fr/profile/augier",
        "settings": "https://www.republique-numerique.fr/profile/edit-profile"
      }
    },
    "type": {
      "id": 103,
      "title": "Section 1",
      "subtitle": "Compétences et organisation",
      "voteWidgetType": 2,
      "votesHelpText": "Pensez-vous que cette proposition permet d'atteindre les objectifs présentés dans l’explication de l’article ?",
      "commentSystem": 2,
      "color": "blue",
      "versionable": true,
      "sourceable": true,
      "votesThreshold": null,
      "votesThresholdHelpText": null
    },
    "sources": [],
    "arguments": [
      {
        "isContribuable": false,
        "id": 3195,
        "body": "Je suis assez d'accord. Techniquement plus grand chose n'empêche de donner un accès illimité. Et niveau financier, les différences de consommation entre usagers permettent de créer une marge.",
        "created_at": "2015-10-11T18:53:58+0200",
        "updated_at": "2015-10-11T18:53:58+0200",
        "is_enabled": true,
        "votes_count": 0,
        "type": 1,
        "is_trashed": false,
        "author": {
          "username": "Le Poisson Libre",
          "displayName": "Le Poisson Libre",
          "uniqueId": "lepoissonlibre",
          "isAdmin": false,
          "media": {
            "url": "/media/cache/default_avatar/default/0001/01/116_default_avatar.png"
          },
          "vip": false,
          "_links": {
            "profile": "https://www.republique-numerique.fr/profile/lepoissonlibre",
            "settings": "https://www.republique-numerique.fr/profile/edit-profile"
          }
        },
        "_links": {
          "show": "https://www.republique-numerique.fr/consultations/projet-de-loi-numerique/consultation/consultation/opinions/section-1-competences-et-organisation/interdiction-de-fixer-des-quotas-de-consommation-de-donnees-sur-les-acces-mobiles#arg-3195",
          "edit": "https://www.republique-numerique.fr/consultations/projet-de-loi-numerique/consultation/consultation/opinions/section-1-competences-et-organisation/interdiction-de-fixer-des-quotas-de-consommation-de-donnees-sur-les-acces-mobiles/arguments/3195/edit",
          "report": "https://www.republique-numerique.fr/consultations/projet-de-loi-numerique/consultation/consultation/opinions/section-1-competences-et-organisation/interdiction-de-fixer-des-quotas-de-consommation-de-donnees-sur-les-acces-mobiles/arguments/3195/report"
        },
        "has_user_voted": false,
        "has_user_reported": false
      }
    ],
    "modals": [],
    "votes": [
      {
        "user": {
          "username": "Stanislas Lange",
          "displayName": "Stanislas Lange",
          "uniqueId": "stanislaslange",
          "isAdmin": false,
          "media": {
            "url": "/media/cache/default_avatar/default/0001/01/170_default_avatar.jpg"
          },
          "vip": false,
          "_links": {
            "profile": "https://www.republique-numerique.fr/profile/stanislaslange",
            "settings": "https://www.republique-numerique.fr/profile/edit-profile"
          }
        }
      },
      {
        "user": {
          "username": "Vincent Baptiste",
          "displayName": "Vincent Baptiste",
          "uniqueId": "vincentbaptiste",
          "isAdmin": false,
          "media": null,
          "vip": false,
          "_links": {
            "profile": "https://www.republique-numerique.fr/profile/vincentbaptiste",
            "settings": "https://www.republique-numerique.fr/profile/edit-profile"
          }
        }
      },
      {
        "user": {
          "username": "berger",
          "displayName": "berger",
          "uniqueId": "berger",
          "isAdmin": false,
          "media": {
            "url": "/media/cache/default_avatar/default/0001/01/364_default_avatar.jpg"
          },
          "vip": false,
          "_links": {
            "profile": "https://www.republique-numerique.fr/profile/berger",
            "settings": "https://www.republique-numerique.fr/profile/edit-profile"
          }
        }
      },
      {
        "user": {
          "username": "Olivier Seror-Droin",
          "displayName": "Olivier Seror-Droin",
          "uniqueId": "olivierserordroin",
          "isAdmin": false,
          "media": null,
          "vip": false,
          "_links": {
            "profile": "https://www.republique-numerique.fr/profile/olivierserordroin",
            "settings": "https://www.republique-numerique.fr/profile/edit-profile"
          }
        }
      },
      {
        "user": {
          "username": "François Briat",
          "displayName": "François Briat",
          "uniqueId": "francoisbriat",
          "isAdmin": false,
          "media": {
            "url": "/media/cache/default_avatar/default/0001/01/243_default_avatar.jpg"
          },
          "vip": false,
          "_links": {
            "profile": "https://www.republique-numerique.fr/profile/francoisbriat",
            "settings": "https://www.republique-numerique.fr/profile/edit-profile"
          }
        }
      }
    ],
    "appendices": [
      {
        "body": "<p>Un fournisseur d&#39;abonnement mobile est tenu de fournir un acc&egrave;s au r&eacute;seau t&eacute;l&eacute;phonique (en particulier internet) qui respect la neutralit&eacute; du net. Fixer des quotas de consommation au del&agrave; duquel l&#39;acc&egrave;s est d&eacute;grad&eacute; est contraire &agrave; la neutralit&eacute; du net.</p>",
        "type": {
          "title": "Explication de l'article"
        }
      }
    ],
    "ranking": 577,
    "is_trashed": false,
    "title": "Interdiction de fixer des quotas de consommation de données sur les accès mobiles",
    "votes_nok": 2,
    "votes_ok": 1,
    "votes_mitige": 9,
    "_links": {
      "show": "https://www.republique-numerique.fr/consultations/projet-de-loi-numerique/consultation/consultation/opinions/section-1-competences-et-organisation/interdiction-de-fixer-des-quotas-de-consommation-de-donnees-sur-les-acces-mobiles",
      "edit": "https://www.republique-numerique.fr/consultations/projet-de-loi-numerique/consultation/consultation/opinions/section-1-competences-et-organisation/interdiction-de-fixer-des-quotas-de-consommation-de-donnees-sur-les-acces-mobiles/edit",
      "report": "https://www.republique-numerique.fr/consultations/projet-de-loi-numerique/consultation/consultation/opinions/section-1-competences-et-organisation/interdiction-de-fixer-des-quotas-de-consommation-de-donnees-sur-les-acces-mobiles/report",
      "type": "https://www.republique-numerique.fr/consultations/projet-de-loi-numerique/consultation/consultation/opinions/section-1-competences-et-organisation"
    },
    "user_vote": null,
    "has_user_reported": false
  },
  "rankingThreshold": null,
  "opinionTerm": 1
}