{
  "opinion": {
    "isContribuable": false,
    "votes_total": 1,
    "arguments_yes_count": 0,
    "arguments_no_count": 0,
    "id": 775,
    "created_at": "2015-10-18T22:15:08+0200",
    "updated_at": "2015-10-18T22:15:08+0200",
    "body": "<p><strong>Article 19 bis</strong></p>\r\n\r\n<p>&laquo; Le responsable du traitement est tenu d&#39;effacer dans les meilleurs délais les données à caractère personnel qui ont été collectées dans le cadre de l&rsquo;offre de services de la société de l&rsquo;information lorsque la personne concernée en fait la demande expresse.</p>\r\n\r\n<p>En cas de refus ou d&rsquo;absence de réponse de la part du responsable de traitement à l&rsquo;égard de la personne concernée, cette dernière peut saisir la Commission nationale de l&rsquo;informatique et des libertés, qui se prononce sur la demande dans un délai de 15 jours.</p>\r\n\r\n<p>&laquo; Les dispositions des deux alinéas précédents ne s&#39;appliquent pas lorsque le traitement de données à caractère personnel est nécessaire :</p>\r\n\r\n<ul>\r\n\t<li>pour exercer le droit à la liberté d&rsquo;expression et d&rsquo;information ;</li>\r\n\t<li>pour respecter une obligation légale qui requiert le traitement des données ou pour exercer&nbsp;une mission d&rsquo;intérêt public ou relevant de l&rsquo;exercice de l&rsquo;autorité publique dont est investi&nbsp;le responsable du traitement ;</li>\r\n\t<li>pour des motifs d&rsquo;intérêt public dans le domaine de la santé publique ;</li>\r\n\t<li>à des fins d&rsquo;archivage dans l&rsquo;intérêt public ou à des fins scientifiques statistiques et&nbsp;historiques ;</li>\r\n\t<li>à la constatation, à l&#39;exercice ou à la défense de droits en justice.</li>\r\n</ul>\r\n\r\n<p>&laquo; Les modalités d&rsquo;application des huit alinéas précédents sont fixées par décret en Conseil d&rsquo;Etat. &raquo;</p>\r\n\r\n<p>&nbsp;</p>",
    "versions_count": 0,
    "sources_count": 0,
    "arguments_count": 0,
    "author": {
      "username": "CLASSE BTS MUC2B LYCÉE PÉRIER",
      "displayName": "CLASSE BTS MUC2B LYCÉE PÉRIER",
      "uniqueId": "classebtsmuc2blyceeperier",
      "isAdmin": false,
      "media": null,
      "vip": false,
      "_links": {
        "profile": "https://www.republique-numerique.fr/profile/classebtsmuc2blyceeperier",
        "settings": "https://www.republique-numerique.fr/profile/edit-profile"
      }
    },
    "type": {
      "id": 86,
      "title": "Section 1",
      "subtitle": "Ouverture des données publiques",
      "voteWidgetType": 2,
      "votesHelpText": "Pensez-vous que cette proposition permet d'atteindre les objectifs présentés dans l’explication de l’article ?",
      "commentSystem": 2,
      "color": "blue",
      "versionable": true,
      "sourceable": true,
      "votesThreshold": null,
      "votesThresholdHelpText": null
    },
    "sources": [],
    "arguments": [],
    "modals": [],
    "votes": [
      {
        "user": {
          "username": "Maltese Nadine",
          "displayName": "Maltese Nadine",
          "uniqueId": "maltesenadine",
          "isAdmin": false,
          "media": {
            "url": "/media/cache/default_avatar/default/0001/01/113_default_avatar.png"
          },
          "vip": false,
          "_links": {
            "profile": "https://www.republique-numerique.fr/profile/maltesenadine",
            "settings": "https://www.republique-numerique.fr/profile/edit-profile"
          }
        }
      }
    ],
    "appendices": [
      {
        "body": "<p><strong>L&rsquo;article 19 traite du droit &agrave; l&rsquo;oubli pour les mineurs exclusivement.</strong></p>\r\n\r\n<p><strong>L&rsquo;article 19 bis l&rsquo;&eacute;tend aux majeurs et majeurs prot&eacute;g&eacute;s.</strong></p>\r\n\r\n<p><strong>Qu&rsquo;est-ce que le droit &agrave; l&rsquo;oubli pour les mineurs&nbsp;?</strong></p>\r\n\r\n<p>Ce droit s&rsquo;exerce sur les personnes qui souhaitent voir les informations ayant un caract&egrave;re personnel&nbsp; collect&eacute;es sur eux, retir&eacute;es des sites internet, si celles-ci ont &eacute;t&eacute; collect&eacute;es alors qu&rsquo;elles &eacute;taient mineures. N&eacute;anmoins, ce droit ne s&rsquo;exerce pas dans certains cas cit&eacute;s ci-dessus.</p>\r\n\r\n<p><strong>Probl&egrave;me pos&eacute;&nbsp;</strong></p>\r\n\r\n<p>Ce droit n&rsquo;est valable que pour les mineurs, et nous pouvons donc nous poser certaines questions. Qu&rsquo;en est-il des personnes majeures souhaitant pouvoir b&eacute;n&eacute;ficier d&rsquo;un tel droit&nbsp;? Comment orienter les individus n&rsquo;ayant pas la connaissance et/ou la capacit&eacute; requise pour faire valoir leurs droits sur ce point&nbsp;? Vers qui ces personnes souhaitant pouvoir b&eacute;n&eacute;ficier d&rsquo;une assistance et d&rsquo;informations doivent-elles se tourner&nbsp;?</p>\r\n\r\n<p>De plus, c&rsquo;est un droit limit&eacute; dans la mesure o&ugrave; il n&rsquo;est applicable que s&rsquo;il n&rsquo;entre pas dans les exceptions cit&eacute;es ci-dessus. Nous pouvons nous interroger tant sur la n&eacute;cessit&eacute; de certaines de ces exceptions, que sur la l&eacute;gitimit&eacute; d&rsquo;un &laquo;&nbsp;droit &agrave; l&rsquo;oubli&nbsp;&raquo; pout tous.</p>\r\n\r\n<ol style=\"list-style-type:upper-roman\">\r\n\t<li><strong>L&rsquo;opportunit&eacute; des exceptions</strong></li>\r\n</ol>\r\n\r\n<p>Cet article de loi prot&egrave;ge les individus dans un certain cadre. Cette protection n&rsquo;est n&eacute;anmoins pas mis en place si les informations collect&eacute;es pr&eacute;sentent sont n&eacute;cessaire &agrave;&nbsp;:</p>\r\n\r\n<ul>\r\n\t<li>exercer le droit à la libert&eacute;́ d&rsquo;expression et d&rsquo;information ;</li>\r\n\t<li>respecter une obligation l&eacute;gale qui requiert le traitement des donn&eacute;es ou pour exercer une mission d&rsquo;int&eacute;r&ecirc;t public ou relevant de l&rsquo;exercice de l&rsquo;autorit&eacute;́ publique dont est investi le responsable du traitement ;</li>\r\n\t<li>des motifs d&rsquo;int&eacute;r&ecirc;t public dans le domaine de la santé publique ;</li>\r\n\t<li>à des fins d&rsquo;archivage dans l&rsquo;int&eacute;r&ecirc;t public ou à des fins scientifiques statistiques et historiques ;</li>\r\n\t<li>la constatation, à l&#39;exercice ou à la d&eacute;fense de droits en justice.</li>\r\n</ul>\r\n\r\n<p>Premi&egrave;rement, la premi&egrave;re contrainte concerne le droit &agrave; la libert&eacute; d&rsquo;expression et d&rsquo;information. Nous sommes dans un pays de droits et de libert&eacute;s. Ces libert&eacute;s s&rsquo;appliquent dans le respect de la libert&eacute; d&rsquo;autrui. Cependant, ce terme est un terme qui n&rsquo;est en soi pas assez clair. Nous sommes dans une situation ou le caract&egrave;re de cette contrainte devient alors trop vague, non compr&eacute;hensible et difficilement &eacute;valuable et/ou applicable. Dans quel cas peut-on laisser place ou non &agrave; la libert&eacute; d&rsquo;expression et d&rsquo;information&nbsp;? Ces points sont &agrave; &eacute;claircir.</p>\r\n\r\n<p>La deuxi&egrave;me contrainte concerne le fait de r&eacute;colter des donn&eacute;es afin de respecter une obligation l&eacute;gale pour exercer une mission d&rsquo;int&eacute;r&ecirc;t public ou venant de l&rsquo;autorit&eacute; publique exer&ccedil;ant leurs droits sur le responsable du traitement. Dans ce cadre, le traitement des donn&eacute;es sert alors l&rsquo;int&eacute;r&ecirc;t g&eacute;n&eacute;ral et la s&eacute;curit&eacute; publique. La collecte n&rsquo;est donc pas remise en cause.</p>\r\n\r\n<p>Troisi&egrave;mement, cela concerne des motifs d&rsquo;int&eacute;r&ecirc;t public dans le domaine de la sant&eacute; publique. La sant&eacute; publique &eacute;tant une priorit&eacute;, cette exception n&rsquo;est &eacute;galement pas remise en cause.</p>\r\n\r\n<p>Quatri&egrave;mement, les protections ne sont pas applicables que si les donn&eacute;es servent &agrave; des fins d&rsquo;archivage ou &agrave; des fins scientifiques, statistiques et historiques. Cette contrainte peut &ecirc;tre remise en cause dans la mesure o&ugrave; les donn&eacute;es r&eacute;colt&eacute;es ne concernent en g&eacute;n&eacute;ral des faits qui ne seront en aucun cas n&eacute;cessaire pour les archives, l&rsquo;histoire et l&rsquo;int&eacute;r&ecirc;t public du pays. Cette exception ne saurait alors s&rsquo;appliquer &agrave; l&rsquo;individu.</p>\r\n\r\n<p>Enfin, dernier point, concernant l&rsquo;exercice ou la d&eacute;fense des droits en justice, le traitement des donn&eacute;es devra servir uniquement dans des cas ou l&rsquo;on estime qu&rsquo;il est n&eacute;cessaire afin de prot&eacute;ger l&rsquo;individu, auquel cas, cette contrainte n&rsquo;est pas indispensable.</p>\r\n\r\n<p>&nbsp;</p>\r\n\r\n<p><strong>II.&nbsp;&nbsp;&nbsp;&nbsp;&nbsp; Le &laquo;&nbsp;droit &agrave; l&rsquo;oubli&nbsp;&raquo; pour tous</strong></p>\r\n\r\n<p>Toute personne devrait avoir la possibilit&eacute; d&rsquo;utiliser son droit &agrave; l&rsquo;oubli, afin de pr&eacute;server ses int&eacute;r&ecirc;ts personnels. Cela passe par la protection de la communication de donn&eacute;es personnelles. Certaines personnes, telles que les personnes &acirc;g&eacute;es, ou les incapables juridiques, se trouvent bien souvent dans l&rsquo;impossibilit&eacute; de faire valoir leurs droits. L&rsquo;instauration d&rsquo;une structure, d&rsquo;une &laquo;&nbsp;commission &raquo; de la CNIL, qui prenne en charge ces personnes apparaitrait opportune. Cette structure leur permettrait de s&rsquo;adresser &agrave; des relais, des ressources qui seraient en mesure de leurs venir en aide, afin notamment d&rsquo;accomplir les d&eacute;marches n&eacute;cessaires.</p>\r\n\r\n<p>Sur l&rsquo;existence d&rsquo;un &laquo;&nbsp;droit &agrave; l&rsquo;oubli,&nbsp;&raquo; le 13 mai 2014, la Cour de Justice de l&rsquo;Union europ&eacute;enne a rendu un important arr&ecirc;t dans une affaire &ldquo;Google Spain SL and Google Inc. v Agencia Espa&ntilde;ola de Protecci&oacute;n de Datos (AEPD) and Mario Costeja Gonz&aacute;lez&rdquo; (C-131/12).</p>\r\n\r\n<p>De nombreux commentateurs de cet arr&ecirc;t ont commun&eacute;ment soulign&eacute; son caract&egrave;re in&eacute;dit, le pr&eacute;sentant comme consacrant un &laquo; droit &agrave; l&rsquo;oubli &raquo;.</p>\r\n\r\n<p>Quelques extraits des conclusions de L&rsquo;AVOCAT G&Eacute;N&Eacute;RAL, M.&nbsp;Niilo J&auml;&auml;skinen, pr&eacute;sent&eacute;es le 25&nbsp;juin 2013, m&eacute;ritent la plus grande attention sur ce sujet.</p>\r\n\r\n<p>&laquo;&nbsp;(&hellip;) Aujourd&rsquo;hui, la protection des donn&eacute;es &agrave; caract&egrave;re personnel et de la vie priv&eacute;e des individus prend une importance croissante. Tout contenu, y compris des donn&eacute;es &agrave; caract&egrave;re personnel, qu&rsquo;il s&rsquo;agisse de textes ou de mat&eacute;riaux audiovisuels, peut, au format num&eacute;rique, &ecirc;tre rendu accessible, dans le monde entier, de mani&egrave;re instantan&eacute;e et permanente. L&rsquo;Internet a r&eacute;volutionn&eacute; nos vies en &eacute;liminant les barri&egrave;res techniques et institutionnelles &agrave; la diffusion et &agrave; la r&eacute;ception des informations, et a cr&eacute;&eacute; une plate-forme pour diff&eacute;rents services de la soci&eacute;t&eacute; de l&rsquo;information. Ces innovations b&eacute;n&eacute;ficient aux consommateurs, aux entreprises et &agrave; la soci&eacute;t&eacute; en g&eacute;n&eacute;ral. Elles ont donn&eacute; lieu &agrave; une situation sans pr&eacute;c&eacute;dent, dans laquelle un &eacute;quilibre doit &ecirc;tre trouv&eacute; entre plusieurs droits fondamentaux, tels que la libert&eacute; d&rsquo;expression, la libert&eacute; d&rsquo;information et la libert&eacute; d&rsquo;entreprise, d&rsquo;une part, et la protection des donn&eacute;es &agrave; caract&egrave;re personnel et de la vie priv&eacute;e des individus, d&rsquo;autre part (&hellip;)</p>\r\n\r\n<p>(&hellip;) E&nbsp;&ndash;<em>&nbsp;&nbsp;&nbsp;&nbsp;Un droit de la personne concern&eacute;e &agrave; l&rsquo;oubli peut-il &ecirc;tre tir&eacute; de l&rsquo;article&nbsp;7 de la Charte?</em></p>\r\n\r\n<p>126.&nbsp;Enfin, il est n&eacute;cessaire de se demander si l&rsquo;interpr&eacute;tation des articles&nbsp;12, sous&nbsp;b), et 14, sous&nbsp;a), de la directive &agrave; la lumi&egrave;re de la Charte, et plus particuli&egrave;rement de son article&nbsp;7, pourrait aboutir &agrave; la reconnaissance d&rsquo;un &laquo;droit &agrave; l&rsquo;oubli&raquo; au sens vis&eacute; par la juridiction nationale. Une telle constatation ne serait a priori pas contraire &agrave; l&rsquo;article&nbsp;51, paragraphe&nbsp;2, de la Charte, puisqu&rsquo;elle pr&eacute;ciserait la port&eacute;e du droit d&rsquo;acc&egrave;s et du droit d&rsquo;opposition de la personne concern&eacute;e, que lui reconna&icirc;t d&eacute;j&agrave; la directive, sans cr&eacute;er de nouveaux droits ou &eacute;largir le champ d&rsquo;application du droit de l&rsquo;Union.</p>\r\n\r\n<p>127.&nbsp;Dans son arr&ecirc;t Aleksey Ovchinnikov c. Russie&nbsp;(<a href=\"http://curia.europa.eu/juris/document/document.jsf?text=&amp;docid=138782&amp;pageIndex=0&amp;doclang=FR&amp;mode=lst&amp;dir=&amp;occ=first&amp;part=1&amp;cid=87818#Footnote91\">91</a>), la Cour europ&eacute;enne des droits de l&rsquo;homme a jug&eacute; que, &laquo;dans certains cas, il peut &ecirc;tre justifi&eacute; de limiter la reproduction d&rsquo;informations d&eacute;j&agrave; entr&eacute;es dans le domaine public, par exemple pour emp&ecirc;cher que continuent d&rsquo;&ecirc;tre diffus&eacute;s les d&eacute;tails de la vie priv&eacute;e d&rsquo;une personne hors de tout d&eacute;bat politique ou public portant sur un sujet d&rsquo;int&eacute;r&ecirc;t g&eacute;n&eacute;ral&raquo;. Le droit fondamental &agrave; la protection de la vie priv&eacute;e peut donc en principe &ecirc;tre invoqu&eacute; m&ecirc;me si les informations concern&eacute;es sont d&eacute;j&agrave; dans le domaine public.</p>\r\n\r\n<p>128.&nbsp;Le droit d&rsquo;une personne concern&eacute;e &agrave; la protection de sa vie priv&eacute;e n&rsquo;en doit pas moins &ecirc;tre mis en balance avec d&rsquo;autres droits fondamentaux, notamment avec la libert&eacute; d&rsquo;expression et la libert&eacute; d&rsquo;information.</p>\r\n\r\n<p>129.&nbsp;La libert&eacute; d&rsquo;information de l&rsquo;&eacute;diteur d&rsquo;un journal prot&egrave;ge son droit de republier num&eacute;riquement sur l&rsquo;Internet ses journaux imprim&eacute;s. Selon moi, les autorit&eacute;s, y compris celles charg&eacute;es de la protection des donn&eacute;es, ne peuvent censurer une telle republication. L&rsquo;arr&ecirc;t Times Newspapers Ltd c. Royaume-Uni (nos&nbsp;1 et 2) de la Cour europ&eacute;enne des droits de l&rsquo;homme&nbsp;(<a href=\"http://curia.europa.eu/juris/document/document.jsf?text=&amp;docid=138782&amp;pageIndex=0&amp;doclang=FR&amp;mode=lst&amp;dir=&amp;occ=first&amp;part=1&amp;cid=87818#Footnote92\">92</a>) d&eacute;montre que la responsabilit&eacute; de l&rsquo;&eacute;diteur en ce qui concerne l&rsquo;<em>exactitude</em> des publications historiques peut &ecirc;tre plus stricte que celle aff&eacute;rente aux nouvelles contemporaines, et peut exiger l&rsquo;emploi d&rsquo;<em>avertissements </em>appropri&eacute;s venant <em>compl&eacute;ter</em> le contenu litigieux. En revanche, j&rsquo;estime que rien ne pourrait justifier d&rsquo;exiger la republication num&eacute;rique du num&eacute;ro d&rsquo;un journal avec un contenu diff&eacute;rent de la version papier initialement publi&eacute;e. Cela s&rsquo;apparenterait &agrave; de la falsification de l&rsquo;histoire.</p>\r\n\r\n<p>130.&nbsp;Le probl&egrave;me de protection des donn&eacute;es au c&oelig;ur du pr&eacute;sent litige ne surgit que si un internaute saisit les pr&eacute;nom et nom de la personne concern&eacute;e dans le moteur de recherche, et se voit ainsi fournir un lien vers les pages web du journal dans lesquelles figurent les annonces contest&eacute;es. Dans une telle situation, l&rsquo;internaute <em>exerce activement son droit de recevoir des informations relatives &agrave; la personne concern&eacute;e &agrave; partir de sources publiques</em>, pour des raisons connues de lui seul&nbsp;(<a href=\"http://curia.europa.eu/juris/document/document.jsf?text=&amp;docid=138782&amp;pageIndex=0&amp;doclang=FR&amp;mode=lst&amp;dir=&amp;occ=first&amp;part=1&amp;cid=87818#Footnote93\">93</a>).</p>\r\n\r\n<p>131.&nbsp;Dans la soci&eacute;t&eacute; contemporaine de l&rsquo;information, le droit de rechercher des informations publi&eacute;es sur Internet en recourant &agrave; des moteurs de recherche constitue l&rsquo;un des moyens les plus importants d&rsquo;exercer ce droit fondamental. Ce droit comprend indubitablement celui de rechercher des informations qui sont relatives &agrave; d&rsquo;autres personnes et qui sont en principe prot&eacute;g&eacute;es par le droit &agrave; la vie priv&eacute;e, telles que les informations figurant sur l&rsquo;Internet &agrave; propos des activit&eacute;s qu&rsquo;exerce une personne en tant qu&rsquo;entrepreneur ou qu&rsquo;homme ou femme politique. Le droit d&rsquo;un internaute &agrave; l&rsquo;information serait compromis si sa recherche d&rsquo;informations au sujet d&rsquo;une personne ne produisait pas des r&eacute;sultats de recherche refl&eacute;tant fid&egrave;lement les pages web pertinentes, mais n&rsquo;en donnait qu&rsquo;une version &laquo;bowdleris&eacute;e&raquo;&nbsp;(<a href=\"http://curia.europa.eu/juris/document/document.jsf?text=&amp;docid=138782&amp;pageIndex=0&amp;doclang=FR&amp;mode=lst&amp;dir=&amp;occ=first&amp;part=1&amp;cid=87818#Footnote94\">94</a>).</p>\r\n\r\n<p>132.&nbsp;Un fournisseur de services de moteur de recherche sur Internet exerce l&eacute;galement sa libert&eacute; d&rsquo;entreprise aussi bien que sa libert&eacute; d&rsquo;expression lorsqu&rsquo;il met &agrave; disposition des outils de localisation d&rsquo;informations sur Internet s&rsquo;appuyant sur un moteur de recherche.</p>\r\n\r\n<p>133.&nbsp;La constellation particuli&egrave;rement complexe et difficile de droits fondamentaux que pr&eacute;sente cette affaire fait obstacle &agrave; ce que l&rsquo;on puisse justifier que la situation juridique de la personne concern&eacute;e au titre de la directive soit renforc&eacute;e et se voit dot&eacute;e d&rsquo;un droit &agrave; l&rsquo;oubli. Cela obligerait &agrave; sacrifier des droits essentiels, tels que la libert&eacute; d&rsquo;expression et d&rsquo;information. Je dissuaderais &eacute;galement la Cour de conclure que ces int&eacute;r&ecirc;ts concurrents pourraient &ecirc;tre mis en balance de fa&ccedil;on satisfaisante dans les situations individuelles, sur la base d&rsquo;une analyse au cas par cas, en laissant aux fournisseurs de services de moteur de recherche sur Internet le soin de statuer. De telles &laquo;proc&eacute;dures de notification et de retrait&raquo;, si elles &eacute;taient exig&eacute;es par la Cour, conduiraient vraisemblablement soit au retrait automatique de liens vers tout contenu faisant l&rsquo;objet d&rsquo;une opposition, soit &agrave; un nombre ing&eacute;rable de demandes trait&eacute;es par les fournisseurs de services de moteur de recherche sur Internet les plus populaires et importants&nbsp;(<a href=\"http://curia.europa.eu/juris/document/document.jsf?text=&amp;docid=138782&amp;pageIndex=0&amp;doclang=FR&amp;mode=lst&amp;dir=&amp;occ=first&amp;part=1&amp;cid=87818#Footnote95\">95</a>). Dans ce cadre, il convient de rappeler que les &laquo;proc&eacute;dures de notification et de retrait&raquo; qui apparaissent dans la directive 2000/31 sur le commerce &eacute;lectronique portent sur des contenus illicites, alors que la pr&eacute;sente affaire concerne une demande tendant &agrave; faire supprimer des informations l&eacute;gales et l&eacute;gitimes qui sont entr&eacute;es dans la sph&egrave;re publique.</p>\r\n\r\n<p>134.&nbsp;Plus particuli&egrave;rement, les fournisseurs de services de moteur de recherche sur Internet ne devraient pas se voir accabl&eacute;s d&rsquo;une telle obligation. Celle-ci serait constitutive d&rsquo;une ing&eacute;rence dans la libert&eacute; d&rsquo;expression de l&rsquo;&eacute;diteur de la page web, qui ne jouirait pas, dans une telle situation, d&rsquo;une protection juridique ad&eacute;quate, puisque toute &laquo;proc&eacute;dure de notification et de retrait&raquo; non r&eacute;glement&eacute;e constituerait une affaire priv&eacute;e entre la personne concern&eacute;e et le fournisseur de services de moteur de recherche&nbsp;(<a href=\"http://curia.europa.eu/juris/document/document.jsf?text=&amp;docid=138782&amp;pageIndex=0&amp;doclang=FR&amp;mode=lst&amp;dir=&amp;occ=first&amp;part=1&amp;cid=87818#Footnote96\">96</a>). Cela reviendrait &agrave; ce qu&rsquo;un particulier censure son contenu publi&eacute;&nbsp;(<a href=\"http://curia.europa.eu/juris/document/document.jsf?text=&amp;docid=138782&amp;pageIndex=0&amp;doclang=FR&amp;mode=lst&amp;dir=&amp;occ=first&amp;part=1&amp;cid=87818#Footnote97\">97</a>). C&rsquo;est une chose totalement diff&eacute;rente que les &Eacute;tats aient des obligations positives de fournir un recours effectif &agrave; l&rsquo;encontre de l&rsquo;&eacute;diteur portant atteinte au droit &agrave; la vie priv&eacute;e, qui, dans le cadre de l&rsquo;Internet, concernerait l&rsquo;&eacute;diteur de la page web.</p>\r\n\r\n<p>135.&nbsp;Comme l&rsquo;a relev&eacute; le groupe de travail &laquo;Article&nbsp;29&raquo;, il est possible que la responsabilit&eacute; subsidiaire des fournisseurs de services de moteur de recherche sur Internet en vertu de la l&eacute;gislation nationale puisse d&eacute;boucher sur des obligations revenant &agrave; bloquer l&rsquo;acc&egrave;s &agrave; des sites Internet de tiers pr&eacute;sentant des contenus ill&eacute;gaux, tels que des pages web enfreignant les droits de propri&eacute;t&eacute; intellectuelle ou affichant des informations diffamatoires ou criminelles&nbsp;(<a href=\"http://curia.europa.eu/juris/document/document.jsf?text=&amp;docid=138782&amp;pageIndex=0&amp;doclang=FR&amp;mode=lst&amp;dir=&amp;occ=first&amp;part=1&amp;cid=87818#Footnote98\">98</a>).</p>\r\n\r\n<p>136.&nbsp;En revanche, aucun droit g&eacute;n&eacute;ralis&eacute; &agrave; l&rsquo;oubli ne saurait &ecirc;tre invoqu&eacute; &agrave; leur encontre sur la base de la directive, m&ecirc;me si celle-ci est interpr&eacute;t&eacute;e en conformit&eacute; avec la Charte.</p>\r\n\r\n<p>137.&nbsp;Pour ces raisons, je propose &agrave; la Cour de r&eacute;pondre &agrave; la troisi&egrave;me question pr&eacute;judicielle en ce sens que le droit d&rsquo;obtenir l&rsquo;effacement et le verrouillage des donn&eacute;es, pr&eacute;vu &agrave; l&rsquo;article&nbsp;12, sous&nbsp;b), et le droit d&rsquo;opposition, pr&eacute;vu &agrave; l&rsquo;article&nbsp;14, sous&nbsp;a), de la directive, ne conf&egrave;rent pas de droit &agrave; l&rsquo;oubli tel que celui d&eacute;crit dans la d&eacute;cision de renvoi. (&hellip;)</p>\r\n\r\n<p>(&hellip;) <a href=\"http://curia.europa.eu/juris/document/document.jsf?text=&amp;docid=138782&amp;pageIndex=0&amp;doclang=FR&amp;mode=lst&amp;dir=&amp;occ=first&amp;part=1&amp;cid=87818#Footref91\">91</a>&nbsp;&ndash; &sect;&nbsp;50.</p>\r\n\r\n<p><a href=\"http://curia.europa.eu/juris/document/document.jsf?text=&amp;docid=138782&amp;pageIndex=0&amp;doclang=FR&amp;mode=lst&amp;dir=&amp;occ=first&amp;part=1&amp;cid=87818#Footref92\">92</a>&nbsp;&ndash; Pr&eacute;cit&eacute;.</p>\r\n\r\n<p><a href=\"http://curia.europa.eu/juris/document/document.jsf?text=&amp;docid=138782&amp;pageIndex=0&amp;doclang=FR&amp;mode=lst&amp;dir=&amp;occ=first&amp;part=1&amp;cid=87818#Footref93\">93</a>&nbsp;&ndash; Sur le droit de recevoir des informations, voir Cour eur. D. H., arr&ecirc;ts Observer et Guardian c.&nbsp;Royaume-Uni du 26&nbsp;novembre 1991, s&eacute;rie A n&ordm;&nbsp;216, &sect;&nbsp;60, et Timpul Info-Magazin et Anghel c. Moldova du 27&nbsp;novembre 2007, n&ordm;&nbsp;42864/05, &sect;&nbsp;34.</p>\r\n\r\n<p><a href=\"http://curia.europa.eu/juris/document/document.jsf?text=&amp;docid=138782&amp;pageIndex=0&amp;doclang=FR&amp;mode=lst&amp;dir=&amp;occ=first&amp;part=1&amp;cid=87818#Footref94\">94</a>&nbsp;&ndash; Thomas Bowdler (1754-1825) a publi&eacute; une version &eacute;dulcor&eacute;e de l&rsquo;&oelig;uvre de William Shakespeare, se voulant plus adapt&eacute;e aux femmes et aux enfants que l&rsquo;&oelig;uvre originale.</p>\r\n\r\n<p><a href=\"http://curia.europa.eu/juris/document/document.jsf?text=&amp;docid=138782&amp;pageIndex=0&amp;doclang=FR&amp;mode=lst&amp;dir=&amp;occ=first&amp;part=1&amp;cid=87818#Footref95\">95</a>&nbsp;&ndash; Arr&ecirc;t SABAM, pr&eacute;cit&eacute; (points&nbsp;45 &agrave; 47).</p>\r\n\r\n<p><a href=\"http://curia.europa.eu/juris/document/document.jsf?text=&amp;docid=138782&amp;pageIndex=0&amp;doclang=FR&amp;mode=lst&amp;dir=&amp;occ=first&amp;part=1&amp;cid=87818#Footref96\">96</a>&nbsp;&ndash; Voir point&nbsp;155 de mes conclusions dans l&rsquo;affaire L&rsquo;Or&eacute;al e.a., pr&eacute;cit&eacute;e.</p>\r\n\r\n<p><a href=\"http://curia.europa.eu/juris/document/document.jsf?text=&amp;docid=138782&amp;pageIndex=0&amp;doclang=FR&amp;mode=lst&amp;dir=&amp;occ=first&amp;part=1&amp;cid=87818#Footref97\">97</a>&nbsp;&ndash; Arr&ecirc;t SABAM, pr&eacute;cit&eacute; (points&nbsp;48 et 50).</p>\r\n\r\n<p><a href=\"http://curia.europa.eu/juris/document/document.jsf?text=&amp;docid=138782&amp;pageIndex=0&amp;doclang=FR&amp;mode=lst&amp;dir=&amp;occ=first&amp;part=1&amp;cid=87818#Footref98\">98</a>&nbsp;&ndash; Groupe de travail &laquo;Article&nbsp;29&raquo;, avis 1/2008, p.&nbsp;14 et 15. (&hellip;)</p>\r\n\r\n<p>&nbsp;</p>\r\n\r\n<p>Le point 133 des conclusions de M. l&rsquo;Avocat g&eacute;n&eacute;ral J&auml;&auml;skinen pose le probl&egrave;me de la d&eacute;licate conciliation entre la libert&eacute; d&rsquo;expression et d&rsquo;entreprise, et la protection de la vie priv&eacute;e. En effet, l&rsquo;objet m&ecirc;me du &laquo;&nbsp;droit &agrave; l&rsquo;oubli&nbsp;&raquo; vise &agrave; faire supprimer des informations l&eacute;gales et l&eacute;gitimes qui sont entr&eacute;es dans la sph&egrave;re publique, du plein gr&eacute; du titulaire desdites informations.</p>\r\n\r\n<p>M. l&rsquo;Avocat g&eacute;n&eacute;ral J&auml;&auml;skinen estime que &laquo;&nbsp;cela reviendrait &agrave; ce qu&rsquo;un particulier censure un contenu publi&eacute;, au sens de l&rsquo;arr&ecirc;t SABBAM, en date du 24 novembre 2011, affaire C‑70/10.&nbsp;&raquo;</p>\r\n\r\n<p>Pour autant, le pr&eacute;sent projet consacre une avanc&eacute;e consid&eacute;rable en caract&eacute;risant un droit &agrave; l&rsquo;oubli pour les mineurs. Il faut aller plus loin et l&rsquo;octroyer aux majeurs, afin de consacrer une s&eacute;curit&eacute; juridique concr&egrave;te au sein de l&rsquo;espace num&eacute;rique.</p>\r\n\r\n<p>Selon Morgane TUAL, journaliste pour Le Monde.fr, dans son &eacute;dition du 15.07.2015 la France en t&ecirc;te des demandes de d&eacute;r&eacute;f&eacute;rencement, au nom du &laquo;&nbsp;droit &agrave; l&rsquo;oubli&nbsp;&raquo;.</p>\r\n\r\n<p>Un million&nbsp;: c&rsquo;est le nombre d&rsquo;URL (<em>Uniform Resource Locator</em>, litt&eacute;ralement &laquo; localisateur uniforme de ressource &raquo;, en fran&ccedil;ais, ou adresse d&rsquo;une ressource Internet) que les internautes europ&eacute;ens ont demand&eacute; &agrave; <a href=\"http://www.lemonde.fr/google/\">Google</a> de d&eacute;r&eacute;f&eacute;rencer, au nom du <em>&laquo;&nbsp;droit &agrave; l&rsquo;oubli&nbsp;&raquo;</em>, mis en place en&nbsp;mai&nbsp;2014.</p>\r\n\r\n<p>A la suite d&rsquo;une <a href=\"http://www.lemonde.fr/pixels/article/2014/09/23/google-condamne-au-nom-du-droit-a-l-oubli_4493067_4408996.html\">d&eacute;cision de la Cour de justice de l&rsquo;Union europ&eacute;enne</a>, le moteur de recherche leur permet de <a href=\"https://support.google.com/legal/contact/lr_eudpa?product=websearch&amp;hl=fr\">remplir un formulaire en ligne</a> afin de <a href=\"http://conjugaison.lemonde.fr/conjugaison/premier-groupe/r%C3%A9clamer/\">r&eacute;clamer</a> la suppression de r&eacute;sultats de recherche les concernant.</p>\r\n\r\n<p>Plus d&rsquo;un an apr&egrave;s le lancement de ce dispositif, Google <a href=\"http://www.google.com/transparencyreport/removals/europeprivacy/?hl=fr\">a publi&eacute; cette semaine des chiffres</a> sur le nombre de requ&ecirc;tes re&ccedil;ues.&nbsp;On y apprend que 283&nbsp;276&nbsp;demandes ont &eacute;t&eacute; faites, concernant pr&eacute;cis&eacute;ment 1&nbsp;030&nbsp;182&nbsp;URL. La firme am&eacute;ricaine a accept&eacute; d&rsquo;en d&eacute;r&eacute;f&eacute;rencer moins de la moiti&eacute;, &agrave; <a href=\"http://conjugaison.lemonde.fr/conjugaison/troisieme-groupe/savoir/\">savoir</a> 41,3&nbsp;%.</p>\r\n\r\n<p>La <a href=\"http://www.lemonde.fr/europeennes-france/\">France</a> est le pays le plus demandeur, avec pr&egrave;s de 200&nbsp;000&nbsp;URL concern&eacute;es, suivie par l&rsquo;<a href=\"http://www.lemonde.fr/allemagne/\">Allemagne</a> et la Grande-<a href=\"http://www.lemonde.fr/bretagne/\">Bretagne</a>. Ainsi 47,7&nbsp;% des requ&ecirc;tes fran&ccedil;aises ont &eacute;t&eacute; accept&eacute;es. En revanche, quand on rapporte ces requ&ecirc;tes au nombre d&rsquo;habitants, l&rsquo;<a href=\"http://www.lemonde.fr/estonie/\">Estonie</a> est en t&ecirc;te, suivie du Lichtenstein et des <a href=\"http://www.lemonde.fr/pays-bas/\">Pays-Bas</a>.</p>\r\n\r\n<p>Les sites les plus touch&eacute;s par ces d&eacute;r&eacute;f&eacute;rencements sont les principaux <a href=\"http://www.lemonde.fr/reseaux-sociaux/\">r&eacute;seaux sociaux</a>, tels que <a href=\"http://www.lemonde.fr/facebook/\">Facebook</a>, <a href=\"http://www.lemonde.fr/twitter/\">Twitter</a>, Google+ ou encore YouTube. Sont &eacute;galement concern&eacute;s les sites agr&eacute;geant des informations sur les personnes, comme ProfileEngine, Yasni, 192.com, mais aussi le site de rencontres Badoo.</p>\r\n\r\n<p>Google donne des exemples, anonymes, de requ&ecirc;tes re&ccedil;ues ces derniers mois. En France, un pr&ecirc;tre condamn&eacute; pour d&eacute;tention d&rsquo;images p&eacute;dophiles a souhait&eacute;, en vain, <a href=\"http://conjugaison.lemonde.fr/conjugaison/troisieme-groupe/faire/\">faire</a> <a href=\"http://conjugaison.lemonde.fr/conjugaison/premier-groupe/d%C3%A9sindexer/\">d&eacute;sindexer</a> des articles sur le sujet. En <a href=\"http://www.lemonde.fr/italie/\">Italie</a>, une femme a pu faire <a href=\"http://conjugaison.lemonde.fr/conjugaison/premier-groupe/retirer/\">retirer</a> des articles de plus de dix ans sur le meurtre de son mari, dans lesquels son nom &eacute;tait mentionn&eacute;. En Grande-Bretagne, un fonctionnaire a exig&eacute; le retrait d&rsquo;une p&eacute;tition r&eacute;clamant sa d&eacute;mission. Google n&rsquo;a pas acc&eacute;d&eacute; &agrave; sa demande.</p>\r\n\r\n<p>Toutefois, les requ&ecirc;tes concernant des <em>&laquo;&nbsp;crimes s&eacute;rieux&nbsp;&raquo;</em> ou des <a href=\"http://www.lemonde.fr/l-invite/\">personnalit&eacute;s</a> publiques sont tr&egrave;s marginales. C&rsquo;est ce que r&eacute;v&egrave;le le <a href=\"http://www.theguardian.com/technology/2015/jul/14/google-accidentally-reveals-right-to-be-forgotten-requests?CMP=twt_technology-gdntech\"><em>Guardian</em></a> qui, en fouillant dans le code source de la page de Google pr&eacute;sentant ces chiffres, a trouv&eacute; <a href=\"http://sytpp.github.io/rtbf/index.html\">des donn&eacute;es</a> que le g&eacute;ant du Web n&rsquo;avait pas rendues publiques, portant sur les trois quarts des requ&ecirc;tes &ndash; ces donn&eacute;es ont depuis &eacute;t&eacute; supprim&eacute;es. On en apprend plus sur le type de requ&ecirc;tes effectu&eacute;es, et on d&eacute;couvre notamment que <strong>plus de 95&nbsp;% des demandes concernent des informations relatives &agrave; la </strong><a href=\"http://www.lemonde.fr/vie-privee/\"><strong>vie priv&eacute;e</strong></a><strong>, comme des photos d&eacute;nud&eacute;es ou d&rsquo;autres contenus embarrassants.</strong></p>\r\n\r\n<p>Ce chiffre grimpe &agrave; 98,3&nbsp;% en France, o&ugrave; les requ&ecirc;tes concernant les <em>&laquo;&nbsp;crimes graves &raquo;</em> n&rsquo;atteignent que 0,6&nbsp;%. On d&eacute;couvre aussi dans ces chiffres que 224&nbsp;demandes en France &eacute;taient li&eacute;es &agrave; des politiques, dont 66 ont &eacute;t&eacute; accept&eacute;es. Cent quatre-vingt-onze &eacute;taient li&eacute;es &agrave; des &laquo;&nbsp;<a href=\"http://www.lemonde.fr/m-beaute-l-invite/\">personnalit&eacute;s</a> publiques&nbsp;&raquo; &ndash; chefs d&rsquo;<a href=\"http://www.lemonde.fr/entreprises/\">entreprises</a>, artistes, sportifs&hellip;</p>\r\n\r\n<p><strong>En France, la grande majorit&eacute; des requ&ecirc;tes concerne la vie priv&eacute;e</strong></p>\r\n\r\n<p>A <a href=\"http://conjugaison.lemonde.fr/conjugaison/premier-groupe/noter/\">noter</a> que l&rsquo;Italie est en premi&egrave;re position sur les demandes pour <em>&laquo;&nbsp;crimes grave&nbsp;&raquo;</em>, avec pas moins de 12&nbsp;% des requ&ecirc;tes, et la <a href=\"http://www.lemonde.fr/roumanie/\">Roumanie</a> en t&ecirc;te des demandes &laquo;&nbsp;politiques&nbsp;&raquo;.</p>\r\n\r\n<p>Chacune d&rsquo;entre elles est examin&eacute;e individuellement, et les employ&eacute;s de Google, &eacute;paul&eacute;s par des juristes, doivent <a href=\"http://conjugaison.lemonde.fr/conjugaison/premier-groupe/trancher/\">trancher</a>. Google <a href=\"http://www.google.com/transparencyreport/removals/europeprivacy/faq/?hl=fr\">donne quelques pr&eacute;cisions</a> sur les crit&egrave;res d&rsquo;acceptation&nbsp;:</p>\r\n\r\n<p>&laquo;&nbsp;Lors de l&rsquo;examen d&rsquo;une demande, nous regardons si les r&eacute;sultats contiennent des informations obsol&egrave;tes ou incorrectes sur la personne. Nous regardons &eacute;galement si les informations que nous conservons dans nos r&eacute;sultats de recherche sont d&rsquo;int&eacute;r&ecirc;t public ou non, si elles sont associ&eacute;es &agrave; des escroqueries financi&egrave;res, &agrave; des fautes professionnelles, &agrave; des condamnations en <a href=\"http://www.lemonde.fr/justice/\">justice</a> ou aux actions publiques de repr&eacute;sentants du gouvernement (&eacute;lus ou non).</p>\r\n\r\n<p><strong>Cette recrudescence des difficult&eacute;s li&eacute;es &agrave; la gestion des d&eacute;r&eacute;f&eacute;rencements (plus de 105 000 demandes en France n&rsquo;ont pu aboutir selon les sources propres de Google) appellent l&rsquo;instauration de ce &laquo;&nbsp;droit &agrave; l&rsquo;oubli&nbsp;&raquo;, au nom de l&rsquo;&eacute;quit&eacute;. L&rsquo;op&eacute;rateur num&eacute;rique ne peut &ecirc;tre seul juge et partie. C&rsquo;est en ce sens que l&rsquo;article 19bis ci-dessus expos&eacute; a &eacute;t&eacute; propos&eacute;.</strong></p>",
        "type": {
          "title": "Explication de l'article"
        }
      }
    ],
    "ranking": 577,
    "is_trashed": false,
    "title": "droit à l'oubli",
    "votes_nok": 0,
    "votes_ok": 1,
    "votes_mitige": 0,
    "_links": {
      "show": "https://www.republique-numerique.fr/consultations/projet-de-loi-numerique/consultation/consultation/opinions/section-1-ouverture-des-donnees-publiques-1/droit-a-l-oubli",
      "edit": "https://www.republique-numerique.fr/consultations/projet-de-loi-numerique/consultation/consultation/opinions/section-1-ouverture-des-donnees-publiques-1/droit-a-l-oubli/edit",
      "report": "https://www.republique-numerique.fr/consultations/projet-de-loi-numerique/consultation/consultation/opinions/section-1-ouverture-des-donnees-publiques-1/droit-a-l-oubli/report",
      "type": "https://www.republique-numerique.fr/consultations/projet-de-loi-numerique/consultation/consultation/opinions/section-1-ouverture-des-donnees-publiques-1"
    },
    "user_vote": null,
    "has_user_reported": false
  },
  "rankingThreshold": null,
  "opinionTerm": 1
}