{
  "opinion": {
    "isContribuable": false,
    "votes_total": 7,
    "arguments_yes_count": 1,
    "arguments_no_count": 0,
    "id": 633,
    "created_at": "2015-10-15T14:57:44+0200",
    "updated_at": "2015-10-15T14:57:44+0200",
    "body": "<div>Dans un monde de plus en plus num&eacute;rique, l&rsquo;acte d&rsquo;authentification est un geste fondamental. C&rsquo;est l&rsquo;acte que nous r&eacute;alisons pour nous connecter &agrave; notre cloud ou &agrave; un coffre-fort &eacute;lectronique afin d&rsquo;acc&eacute;der &agrave; des informations personnelles mais c&rsquo;est &eacute;galement le geste que nous faisons pour acc&eacute;der &agrave; un site de banque en ligne ou r&eacute;aliser un paiement.</div>\r\n\r\n<div>\r\n<div>\r\n<p>L&#39;acte d&#39;authentification va donc bien au-del&agrave; d&#39;un simple choix technologique : il structure nos acc&egrave;s &agrave; des services de notre quotidien et de notre vie num&eacute;rique. Impliquant pour l&#39;utilisateur, il doit permettre d&rsquo;exprimer le consentement tout en restant suffisamment simple pour pouvoir &ecirc;tre utilis&eacute; par la vaste majorit&eacute; d&rsquo;entre nous.</p>\r\n\r\n<p>L&rsquo;acte d&rsquo;authentification, &agrave; l&rsquo;origine simple point d&rsquo;entr&eacute;e, est devenu &eacute;l&eacute;ment de diff&eacute;renciation pour les fournisseurs de services. Offrir le moyen le plus simple et le plus universel d&rsquo;authentification c&rsquo;est &laquo; capturer &raquo; le client en d&eacute;finissant un guichet privil&eacute;gi&eacute; (voire unique) pour la r&eacute;alisation d&rsquo;un service.</p>\r\n\r\n<p>A ce jeu, les acteurs du monde de l&#39;internet (les GAFA : Google, Apple, Facebook, Amazon) imposent leurs r&egrave;gles, leurs technologies, leur conception de la s&eacute;curit&eacute; et leur vision de la protection des donn&eacute;es personnelles (d&rsquo;ailleurs &agrave; titre d&rsquo;illustration, les proc&eacute;dures de contribution sur ce site les utilisent). L&rsquo;authentification est donc bien une technologie souveraine, car au c&oelig;ur m&ecirc;me de l&rsquo;acc&egrave;s de chacun au num&eacute;rique.&nbsp;</p>\r\n\r\n<p>Il nous semble donc essentiel de favoriser l&rsquo;&eacute;mergence de m&eacute;thodes d&rsquo;authentification forte :<br />\r\n&bull; ouvertes (bas&eacute;es, par exemple, sur des sp&eacute;cifications accessibles &agrave; tous les industriels) ;<br />\r\n&bull; s&rsquo;inscrivant dans un sch&eacute;ma d&rsquo;&eacute;valuation et de certification, bas&eacute;es sur des tests r&eacute;alis&eacute;s par des laboratoires ind&eacute;pendants ;<br />\r\n&bull; compatibles avec les services n&eacute;cessitant une authentification forte et les diff&eacute;rentes initiatives autour de l&rsquo;identit&eacute; num&eacute;rique (France Connect, EidAS&hellip;) ;<br />\r\n&bull; offrant une s&eacute;curisation forte des donn&eacute;es utilis&eacute;es pour l&rsquo;authentification ;<br />\r\n&bull; en conformit&eacute; avec les recommandations &eacute;mises par les r&eacute;gulateurs (bancaires, autorit&eacute; de protection des donn&eacute;es personnelles&hellip;)</p>\r\n\r\n<p>Cette proposition a pour but de :<br />\r\n&bull; r&eacute;pondre aux besoins croissants de m&eacute;thodes d&rsquo;authentification simple, universelle et s&eacute;curis&eacute;e ;<br />\r\n&bull; favoriser l&rsquo;&eacute;mergence de technologies europ&eacute;ennes souveraines alors que le paysage des technologies online (terminaux, operating system, outils de recherche&hellip;) est majoritairement con&ccedil;u et exploit&eacute; hors de l&rsquo;Europe ;<br />\r\n&bull; contribuer &agrave; la diffusion et renforcer les bonnes pratiques li&eacute;es &agrave; la protection des donn&eacute;es personnelles (Privacy by Design, Privacy by Default, Privacy Rules&hellip;) ;<br />\r\n&bull; &eacute;tablir la confiance mutuelle entre les fournisseurs de services et les utilisateurs ;<br />\r\n&bull; accompagner l&rsquo;apparition d&rsquo;un &eacute;cosyst&egrave;me de services &agrave; valeur ajout&eacute;e en Europe reposant sur une authentification forte d&rsquo;un utilisateur</p>\r\n</div>\r\n</div>",
    "versions_count": 0,
    "sources_count": 0,
    "arguments_count": 1,
    "author": {
      "username": "André Delaforge",
      "displayName": "André Delaforge",
      "uniqueId": "andredelaforge",
      "isAdmin": false,
      "media": null,
      "vip": false,
      "_links": {
        "profile": "https://www.republique-numerique.fr/profile/andredelaforge",
        "settings": "https://www.republique-numerique.fr/profile/edit-profile"
      }
    },
    "type": {
      "id": 99,
      "title": "Section 1",
      "subtitle": "Protection des données à caractère personnel",
      "voteWidgetType": 2,
      "votesHelpText": "Pensez-vous que cette proposition permet d'atteindre les objectifs présentés dans l’explication de l’article ?",
      "commentSystem": 2,
      "color": "blue",
      "versionable": true,
      "sourceable": true,
      "votesThreshold": null,
      "votesThresholdHelpText": null
    },
    "sources": [],
    "arguments": [
      {
        "isContribuable": false,
        "id": 5035,
        "body": "France-connect qui sortira en 2016 va dans ce sens.",
        "created_at": "2015-10-16T21:07:06+0200",
        "updated_at": "2015-10-16T21:07:06+0200",
        "is_enabled": true,
        "votes_count": 2,
        "type": 1,
        "is_trashed": false,
        "author": {
          "username": "Jeanne Varasco",
          "displayName": "Jeanne Varasco",
          "uniqueId": "jeannevarasco",
          "isAdmin": false,
          "media": {
            "url": "/media/cache/default_avatar/default/0001/01/139_default_avatar.jpg"
          },
          "vip": false,
          "_links": {
            "profile": "https://www.republique-numerique.fr/profile/jeannevarasco",
            "settings": "https://www.republique-numerique.fr/profile/edit-profile"
          }
        },
        "_links": {
          "show": "https://www.republique-numerique.fr/consultations/projet-de-loi-numerique/consultation/consultation/opinions/section-1-protection-des-donnees-a-caractere-personnel/proposition-pour-le-developpement-de-methodes-d-authentification-forte-ouvertes-evaluables-et-respectueuses-de-la-vie-privee#arg-5035",
          "edit": "https://www.republique-numerique.fr/consultations/projet-de-loi-numerique/consultation/consultation/opinions/section-1-protection-des-donnees-a-caractere-personnel/proposition-pour-le-developpement-de-methodes-d-authentification-forte-ouvertes-evaluables-et-respectueuses-de-la-vie-privee/arguments/5035/edit",
          "report": "https://www.republique-numerique.fr/consultations/projet-de-loi-numerique/consultation/consultation/opinions/section-1-protection-des-donnees-a-caractere-personnel/proposition-pour-le-developpement-de-methodes-d-authentification-forte-ouvertes-evaluables-et-respectueuses-de-la-vie-privee/arguments/5035/report"
        },
        "has_user_voted": false,
        "has_user_reported": false
      }
    ],
    "modals": [],
    "votes": [
      {
        "user": {
          "username": "Emilien",
          "displayName": "Emilien",
          "uniqueId": "emilien",
          "isAdmin": false,
          "media": null,
          "vip": false,
          "_links": {
            "profile": "https://www.republique-numerique.fr/profile/emilien",
            "settings": "https://www.republique-numerique.fr/profile/edit-profile"
          }
        }
      },
      {
        "user": {
          "username": "André Delaforge",
          "displayName": "André Delaforge",
          "uniqueId": "andredelaforge",
          "isAdmin": false,
          "media": null,
          "vip": false,
          "_links": {
            "profile": "https://www.republique-numerique.fr/profile/andredelaforge",
            "settings": "https://www.republique-numerique.fr/profile/edit-profile"
          }
        }
      },
      {
        "user": {
          "username": "Jeanne Varasco",
          "displayName": "Jeanne Varasco",
          "uniqueId": "jeannevarasco",
          "isAdmin": false,
          "media": {
            "url": "/media/cache/default_avatar/default/0001/01/139_default_avatar.jpg"
          },
          "vip": false,
          "_links": {
            "profile": "https://www.republique-numerique.fr/profile/jeannevarasco",
            "settings": "https://www.republique-numerique.fr/profile/edit-profile"
          }
        }
      },
      {
        "user": {
          "username": "Gami",
          "displayName": "Gami",
          "uniqueId": "gami",
          "isAdmin": false,
          "media": null,
          "vip": false,
          "_links": {
            "profile": "https://www.republique-numerique.fr/profile/gami",
            "settings": "https://www.republique-numerique.fr/profile/edit-profile"
          }
        }
      },
      {
        "user": {
          "username": "Maisonobe Luc",
          "displayName": "Maisonobe Luc",
          "uniqueId": "maisonobeluc",
          "isAdmin": false,
          "media": {
            "url": "/media/cache/default_avatar/default/0001/01/710_default_avatar.jpg"
          },
          "vip": false,
          "_links": {
            "profile": "https://www.republique-numerique.fr/profile/maisonobeluc",
            "settings": "https://www.republique-numerique.fr/profile/edit-profile"
          }
        }
      }
    ],
    "appendices": [
      {
        "body": "<p>Contributition initialement propos&eacute;e dans le cadre de la consultation organis&eacute;e par le CNNum&nbsp;<a _src=\"http://contribuez.cnnumerique.fr/users/natural-security\" class=\"external-link\" href=\"http://contribuez.cnnumerique.fr/users/natural-security\">http://contribuez.cnnumerique.fr/users/natural-security</a></p>\r\n\r\n<p>Il est d&#39;ailleurs assez dommage que les seules m&eacute;thodes d&#39;authentification propos&eacute;es sur ce site s&#39;appuient sur des standards hors europ&eacute;ens.&nbsp;</p>\r\n\r\n<p>&nbsp;</p>",
        "type": {
          "title": "Explication de l'article"
        }
      }
    ],
    "ranking": 397,
    "is_trashed": false,
    "title": "Proposition pour le développement de méthodes d’authentification forte, ouvertes, évaluables et respectueuses de la vie privée",
    "votes_nok": 0,
    "votes_ok": 7,
    "votes_mitige": 0,
    "_links": {
      "show": "https://www.republique-numerique.fr/consultations/projet-de-loi-numerique/consultation/consultation/opinions/section-1-protection-des-donnees-a-caractere-personnel/proposition-pour-le-developpement-de-methodes-d-authentification-forte-ouvertes-evaluables-et-respectueuses-de-la-vie-privee",
      "edit": "https://www.republique-numerique.fr/consultations/projet-de-loi-numerique/consultation/consultation/opinions/section-1-protection-des-donnees-a-caractere-personnel/proposition-pour-le-developpement-de-methodes-d-authentification-forte-ouvertes-evaluables-et-respectueuses-de-la-vie-privee/edit",
      "report": "https://www.republique-numerique.fr/consultations/projet-de-loi-numerique/consultation/consultation/opinions/section-1-protection-des-donnees-a-caractere-personnel/proposition-pour-le-developpement-de-methodes-d-authentification-forte-ouvertes-evaluables-et-respectueuses-de-la-vie-privee/report",
      "type": "https://www.republique-numerique.fr/consultations/projet-de-loi-numerique/consultation/consultation/opinions/section-1-protection-des-donnees-a-caractere-personnel"
    },
    "user_vote": null,
    "has_user_reported": false
  },
  "rankingThreshold": null,
  "opinionTerm": 1
}