{
  "opinion": {
    "isContribuable": false,
    "votes_total": 5,
    "arguments_yes_count": 0,
    "arguments_no_count": 0,
    "id": 648,
    "created_at": "2015-10-15T17:53:59+0200",
    "updated_at": "2015-10-15T17:53:59+0200",
    "body": "<p>Un site Web permettrait aux associations de pouvoir centraliser leurs demandes et leurs besoins en terme de prestations.</p>\r\n\r\n<p>Ce site serait une plateforme de mise en relation des associations avec d&#39;autres acteurs comme les personnes sans emplois ou les d&eacute;tenus condamn&eacute;s &agrave; des travaux d&#39;int&eacute;r&ecirc;ts g&eacute;n&eacute;raux.</p>\r\n\r\n<p>Un suivi pourrait &ecirc;tre effectu&eacute; et des rapports g&eacute;n&eacute;r&eacute;s aux divers organismes afin de valider et d&#39;&eacute;valuer la prestation par les diff&eacute;rents acteurs.</p>",
    "versions_count": 0,
    "sources_count": 0,
    "arguments_count": 0,
    "author": {
      "username": "Erik Lenoir",
      "displayName": "Erik Lenoir",
      "uniqueId": "eriklenoir",
      "isAdmin": false,
      "media": null,
      "vip": false,
      "_links": {
        "profile": "https://www.republique-numerique.fr/profile/eriklenoir",
        "settings": "https://www.republique-numerique.fr/profile/edit-profile"
      }
    },
    "type": {
      "id": 88,
      "title": "Section 3",
      "subtitle": "Données d’intérêt général",
      "voteWidgetType": 2,
      "votesHelpText": "Pensez-vous que cette proposition permet d'atteindre les objectifs présentés dans l’explication de l’article ?",
      "commentSystem": 2,
      "color": "blue",
      "versionable": true,
      "sourceable": true,
      "votesThreshold": null,
      "votesThresholdHelpText": null
    },
    "sources": [],
    "arguments": [],
    "modals": [],
    "votes": [
      {
        "user": {
          "username": "Emilien",
          "displayName": "Emilien",
          "uniqueId": "emilien",
          "isAdmin": false,
          "media": null,
          "vip": false,
          "_links": {
            "profile": "https://www.republique-numerique.fr/profile/emilien",
            "settings": "https://www.republique-numerique.fr/profile/edit-profile"
          }
        }
      },
      {
        "user": {
          "username": "Jeanne Varasco",
          "displayName": "Jeanne Varasco",
          "uniqueId": "jeannevarasco",
          "isAdmin": false,
          "media": {
            "url": "/media/cache/default_avatar/default/0001/01/139_default_avatar.jpg"
          },
          "vip": false,
          "_links": {
            "profile": "https://www.republique-numerique.fr/profile/jeannevarasco",
            "settings": "https://www.republique-numerique.fr/profile/edit-profile"
          }
        }
      },
      {
        "user": {
          "username": "Isabel Pouzin",
          "displayName": "Isabel Pouzin",
          "uniqueId": "isabelpouzin",
          "isAdmin": false,
          "media": null,
          "vip": false,
          "_links": {
            "profile": "https://www.republique-numerique.fr/profile/isabelpouzin",
            "settings": "https://www.republique-numerique.fr/profile/edit-profile"
          }
        }
      },
      {
        "user": {
          "username": "Gami",
          "displayName": "Gami",
          "uniqueId": "gami",
          "isAdmin": false,
          "media": null,
          "vip": false,
          "_links": {
            "profile": "https://www.republique-numerique.fr/profile/gami",
            "settings": "https://www.republique-numerique.fr/profile/edit-profile"
          }
        }
      },
      {
        "user": {
          "username": "Aden Stringfellow",
          "displayName": "Aden Stringfellow",
          "uniqueId": "adenstringfellow",
          "isAdmin": false,
          "media": null,
          "vip": false,
          "_links": {
            "profile": "https://www.republique-numerique.fr/profile/adenstringfellow",
            "settings": "https://www.republique-numerique.fr/profile/edit-profile"
          }
        }
      }
    ],
    "appendices": [
      {
        "body": "<p>Cette plateforme pourrait permettre &agrave; des associations de demander des services ou des interventions.<br />\r\nLa plateforme pourrait &ecirc;tre connect&eacute;e &agrave; des syst&egrave;mes d&#39;information comme :</p>\r\n\r\n<ul>\r\n\t<li>le P&ocirc;le Emploi</li>\r\n\t<li>les Travaux d&#39;int&eacute;r&ecirc;ts g&eacute;n&eacute;raux</li>\r\n</ul>\r\n\r\n<p>Ainsi, la mise en relation entre la demande et les offres permettrait d&#39;avoir plusieurs b&eacute;n&eacute;fices comme :</p>\r\n\r\n<ul>\r\n\t<li>L&#39;avancement des chantiers associatifs</li>\r\n\t<li>Permettre d&#39;anticiper et faciliter la r&eacute;insertion des d&eacute;tenus</li>\r\n\t<li>Susciter des vocations afin de trouver/retrouver un emploi</li>\r\n</ul>",
        "type": {
          "title": "Explication de l'article"
        }
      }
    ],
    "ranking": 455,
    "is_trashed": false,
    "title": "Plateforme associative",
    "votes_nok": 0,
    "votes_ok": 5,
    "votes_mitige": 0,
    "_links": {
      "show": "https://www.republique-numerique.fr/consultations/projet-de-loi-numerique/consultation/consultation/opinions/section-3-donnees-d-interet-general/plateforme-associative",
      "edit": "https://www.republique-numerique.fr/consultations/projet-de-loi-numerique/consultation/consultation/opinions/section-3-donnees-d-interet-general/plateforme-associative/edit",
      "report": "https://www.republique-numerique.fr/consultations/projet-de-loi-numerique/consultation/consultation/opinions/section-3-donnees-d-interet-general/plateforme-associative/report",
      "type": "https://www.republique-numerique.fr/consultations/projet-de-loi-numerique/consultation/consultation/opinions/section-3-donnees-d-interet-general"
    },
    "user_vote": null,
    "has_user_reported": false
  },
  "rankingThreshold": null,
  "opinionTerm": 1
}