{
  "opinion": {
    "isContribuable": false,
    "votes_total": 52,
    "arguments_yes_count": 6,
    "arguments_no_count": 4,
    "id": 125,
    "created_at": "2015-09-26T17:35:12+0200",
    "updated_at": "2015-09-26T17:35:12+0200",
    "body": "<p>Comment traiter une demande faite&nbsp;num&eacute;riquement lors d&#39;&eacute;v&egrave;nements accidentels, de catastrophe ou de modification profonde du paysage num&eacute;rique sans que cela soit pr&eacute;judiciable &agrave; l&#39;usager ?</p>",
    "versions_count": 0,
    "sources_count": 0,
    "arguments_count": 10,
    "author": {
      "username": "Thomas Robin",
      "displayName": "Thomas Robin",
      "uniqueId": "thomasrobin",
      "isAdmin": false,
      "media": null,
      "vip": false,
      "_links": {
        "profile": "https://www.republique-numerique.fr/profile/thomasrobin",
        "settings": "https://www.republique-numerique.fr/profile/edit-profile"
      }
    },
    "type": {
      "id": 111,
      "title": "Section 3",
      "subtitle": "Maintien de la connexion internet",
      "voteWidgetType": 2,
      "votesHelpText": "Pensez-vous que cette proposition permet d'atteindre les objectifs présentés dans l’explication de l’article ?",
      "commentSystem": 2,
      "color": "blue",
      "versionable": true,
      "sourceable": true,
      "votesThreshold": null,
      "votesThresholdHelpText": null
    },
    "sources": [],
    "arguments": [
      {
        "isContribuable": false,
        "id": 4237,
        "body": "Si l'opérateur est défaillant, il faut demander le remboursement. Il n'y a pas de débat.",
        "created_at": "2015-10-15T15:22:52+0200",
        "updated_at": "2015-10-15T15:22:52+0200",
        "is_enabled": true,
        "votes_count": 0,
        "type": 0,
        "is_trashed": false,
        "author": {
          "username": "fismes",
          "displayName": "fismes",
          "uniqueId": "fismes",
          "isAdmin": false,
          "media": null,
          "vip": false,
          "_links": {
            "profile": "https://www.republique-numerique.fr/profile/fismes",
            "settings": "https://www.republique-numerique.fr/profile/edit-profile"
          }
        },
        "_links": {
          "show": "https://www.republique-numerique.fr/consultations/projet-de-loi-numerique/consultation/consultation/opinions/section-3-maintien-de-la-connexion-internet/defaillance-d-un-operateur-ou-tout-ou-partie-d-un-reseau#arg-4237",
          "edit": "https://www.republique-numerique.fr/consultations/projet-de-loi-numerique/consultation/consultation/opinions/section-3-maintien-de-la-connexion-internet/defaillance-d-un-operateur-ou-tout-ou-partie-d-un-reseau/arguments/4237/edit",
          "report": "https://www.republique-numerique.fr/consultations/projet-de-loi-numerique/consultation/consultation/opinions/section-3-maintien-de-la-connexion-internet/defaillance-d-un-operateur-ou-tout-ou-partie-d-un-reseau/arguments/4237/report"
        },
        "has_user_voted": false,
        "has_user_reported": false
      },
      {
        "isContribuable": false,
        "id": 2776,
        "body": " Ben oui ! il y a un toujours un plan B , heureusement dans un hôpital les groupes électrogènes + batteries subviennent au minimum fonctionnel mais néammoins onpoiunte deu doigt notre dépendance du trop numérique dans tous les domaines qui je rappellerai nous sont impos&s par les marchés .Jusqu'au jour où ?... Vous avez dit esclave!...",
        "created_at": "2015-10-09T11:17:33+0200",
        "updated_at": "2015-10-09T11:17:33+0200",
        "is_enabled": true,
        "votes_count": 0,
        "type": 1,
        "is_trashed": false,
        "author": {
          "username": "Fuda rené",
          "displayName": "Fuda rené",
          "uniqueId": "fudarene",
          "isAdmin": false,
          "media": null,
          "vip": false,
          "_links": {
            "profile": "https://www.republique-numerique.fr/profile/fudarene",
            "settings": "https://www.republique-numerique.fr/profile/edit-profile"
          }
        },
        "_links": {
          "show": "https://www.republique-numerique.fr/consultations/projet-de-loi-numerique/consultation/consultation/opinions/section-3-maintien-de-la-connexion-internet/defaillance-d-un-operateur-ou-tout-ou-partie-d-un-reseau#arg-2776",
          "edit": "https://www.republique-numerique.fr/consultations/projet-de-loi-numerique/consultation/consultation/opinions/section-3-maintien-de-la-connexion-internet/defaillance-d-un-operateur-ou-tout-ou-partie-d-un-reseau/arguments/2776/edit",
          "report": "https://www.republique-numerique.fr/consultations/projet-de-loi-numerique/consultation/consultation/opinions/section-3-maintien-de-la-connexion-internet/defaillance-d-un-operateur-ou-tout-ou-partie-d-un-reseau/arguments/2776/report"
        },
        "has_user_voted": false,
        "has_user_reported": false
      },
      {
        "isContribuable": false,
        "id": 2707,
        "body": "Une question dont la réponse peut déboucher sur une proposition : comment cette question se posait-elle du temps où la téléphonie relevait d'un service public ?",
        "created_at": "2015-10-08T21:28:16+0200",
        "updated_at": "2015-10-08T21:28:16+0200",
        "is_enabled": true,
        "votes_count": 0,
        "type": 1,
        "is_trashed": false,
        "author": {
          "username": "Alain MELLERIO",
          "displayName": "Alain MELLERIO",
          "uniqueId": "alainmellerio",
          "isAdmin": false,
          "media": null,
          "vip": false,
          "_links": {
            "profile": "https://www.republique-numerique.fr/profile/alainmellerio",
            "settings": "https://www.republique-numerique.fr/profile/edit-profile"
          }
        },
        "_links": {
          "show": "https://www.republique-numerique.fr/consultations/projet-de-loi-numerique/consultation/consultation/opinions/section-3-maintien-de-la-connexion-internet/defaillance-d-un-operateur-ou-tout-ou-partie-d-un-reseau#arg-2707",
          "edit": "https://www.republique-numerique.fr/consultations/projet-de-loi-numerique/consultation/consultation/opinions/section-3-maintien-de-la-connexion-internet/defaillance-d-un-operateur-ou-tout-ou-partie-d-un-reseau/arguments/2707/edit",
          "report": "https://www.republique-numerique.fr/consultations/projet-de-loi-numerique/consultation/consultation/opinions/section-3-maintien-de-la-connexion-internet/defaillance-d-un-operateur-ou-tout-ou-partie-d-un-reseau/arguments/2707/report"
        },
        "has_user_voted": false,
        "has_user_reported": false
      },
      {
        "isContribuable": false,
        "id": 2605,
        "body": "réflexion à faire sur la sécurité et les solutions en cas d'urgence, catastrophe, ... afin de ne pas être démuni. (Ne pas perdre certain savoir etre/faire sous pretexte d'une simplification passant par le \"tout\" numérique)",
        "created_at": "2015-10-08T09:17:08+0200",
        "updated_at": "2015-10-08T09:17:08+0200",
        "is_enabled": true,
        "votes_count": 0,
        "type": 1,
        "is_trashed": false,
        "author": {
          "username": "Mathieu Sutter",
          "displayName": "Mathieu Sutter",
          "uniqueId": "mathieusutter",
          "isAdmin": false,
          "media": null,
          "vip": false,
          "_links": {
            "profile": "https://www.republique-numerique.fr/profile/mathieusutter",
            "settings": "https://www.republique-numerique.fr/profile/edit-profile"
          }
        },
        "_links": {
          "show": "https://www.republique-numerique.fr/consultations/projet-de-loi-numerique/consultation/consultation/opinions/section-3-maintien-de-la-connexion-internet/defaillance-d-un-operateur-ou-tout-ou-partie-d-un-reseau#arg-2605",
          "edit": "https://www.republique-numerique.fr/consultations/projet-de-loi-numerique/consultation/consultation/opinions/section-3-maintien-de-la-connexion-internet/defaillance-d-un-operateur-ou-tout-ou-partie-d-un-reseau/arguments/2605/edit",
          "report": "https://www.republique-numerique.fr/consultations/projet-de-loi-numerique/consultation/consultation/opinions/section-3-maintien-de-la-connexion-internet/defaillance-d-un-operateur-ou-tout-ou-partie-d-un-reseau/arguments/2605/report"
        },
        "has_user_voted": false,
        "has_user_reported": false
      },
      {
        "isContribuable": false,
        "id": 2210,
        "body": "les urgence par internet   doive aussi être fait par un autre moyen double ressaut pour sécuriser  est assurait la transmission des information aux urgence",
        "created_at": "2015-10-04T21:37:55+0200",
        "updated_at": "2015-10-04T21:37:55+0200",
        "is_enabled": true,
        "votes_count": 0,
        "type": 1,
        "is_trashed": false,
        "author": {
          "username": "Yves Jean Gillot",
          "displayName": "Yves Jean Gillot",
          "uniqueId": "yvesjeangillot",
          "isAdmin": false,
          "media": null,
          "vip": false,
          "_links": {
            "profile": "https://www.republique-numerique.fr/profile/yvesjeangillot",
            "settings": "https://www.republique-numerique.fr/profile/edit-profile"
          }
        },
        "_links": {
          "show": "https://www.republique-numerique.fr/consultations/projet-de-loi-numerique/consultation/consultation/opinions/section-3-maintien-de-la-connexion-internet/defaillance-d-un-operateur-ou-tout-ou-partie-d-un-reseau#arg-2210",
          "edit": "https://www.republique-numerique.fr/consultations/projet-de-loi-numerique/consultation/consultation/opinions/section-3-maintien-de-la-connexion-internet/defaillance-d-un-operateur-ou-tout-ou-partie-d-un-reseau/arguments/2210/edit",
          "report": "https://www.republique-numerique.fr/consultations/projet-de-loi-numerique/consultation/consultation/opinions/section-3-maintien-de-la-connexion-internet/defaillance-d-un-operateur-ou-tout-ou-partie-d-un-reseau/arguments/2210/report"
        },
        "has_user_voted": false,
        "has_user_reported": false
      },
      {
        "isContribuable": false,
        "id": 1286,
        "body": "C'est pas une proposition, c'est une réflexion ?",
        "created_at": "2015-09-29T16:18:53+0200",
        "updated_at": "2015-09-29T16:18:53+0200",
        "is_enabled": true,
        "votes_count": 2,
        "type": 0,
        "is_trashed": false,
        "author": {
          "username": "lacombe",
          "displayName": "lacombe",
          "uniqueId": "lacombe",
          "isAdmin": false,
          "media": {
            "url": "/media/cache/default_avatar/default/0001/01/310_default_avatar.png"
          },
          "vip": false,
          "_links": {
            "profile": "https://www.republique-numerique.fr/profile/lacombe",
            "settings": "https://www.republique-numerique.fr/profile/edit-profile"
          }
        },
        "_links": {
          "show": "https://www.republique-numerique.fr/consultations/projet-de-loi-numerique/consultation/consultation/opinions/section-3-maintien-de-la-connexion-internet/defaillance-d-un-operateur-ou-tout-ou-partie-d-un-reseau#arg-1286",
          "edit": "https://www.republique-numerique.fr/consultations/projet-de-loi-numerique/consultation/consultation/opinions/section-3-maintien-de-la-connexion-internet/defaillance-d-un-operateur-ou-tout-ou-partie-d-un-reseau/arguments/1286/edit",
          "report": "https://www.republique-numerique.fr/consultations/projet-de-loi-numerique/consultation/consultation/opinions/section-3-maintien-de-la-connexion-internet/defaillance-d-un-operateur-ou-tout-ou-partie-d-un-reseau/arguments/1286/report"
        },
        "has_user_voted": false,
        "has_user_reported": false
      },
      {
        "isContribuable": false,
        "id": 1205,
        "body": "Je ne vois pas de proposition particulière",
        "created_at": "2015-09-29T12:22:52+0200",
        "updated_at": "2015-09-29T12:22:52+0200",
        "is_enabled": true,
        "votes_count": 1,
        "type": 1,
        "is_trashed": false,
        "author": {
          "username": "valM",
          "displayName": "valM",
          "uniqueId": "valm",
          "isAdmin": false,
          "media": null,
          "vip": false,
          "_links": {
            "profile": "https://www.republique-numerique.fr/profile/valm",
            "settings": "https://www.republique-numerique.fr/profile/edit-profile"
          }
        },
        "_links": {
          "show": "https://www.republique-numerique.fr/consultations/projet-de-loi-numerique/consultation/consultation/opinions/section-3-maintien-de-la-connexion-internet/defaillance-d-un-operateur-ou-tout-ou-partie-d-un-reseau#arg-1205",
          "edit": "https://www.republique-numerique.fr/consultations/projet-de-loi-numerique/consultation/consultation/opinions/section-3-maintien-de-la-connexion-internet/defaillance-d-un-operateur-ou-tout-ou-partie-d-un-reseau/arguments/1205/edit",
          "report": "https://www.republique-numerique.fr/consultations/projet-de-loi-numerique/consultation/consultation/opinions/section-3-maintien-de-la-connexion-internet/defaillance-d-un-operateur-ou-tout-ou-partie-d-un-reseau/arguments/1205/report"
        },
        "has_user_voted": false,
        "has_user_reported": false
      },
      {
        "isContribuable": false,
        "id": 1049,
        "body": "Role de la sécurité civile en cas de catastrophe",
        "created_at": "2015-09-28T21:57:00+0200",
        "updated_at": "2015-09-28T21:57:00+0200",
        "is_enabled": true,
        "votes_count": 2,
        "type": 0,
        "is_trashed": false,
        "author": {
          "username": "Fabien FOSSAT",
          "displayName": "Fabien FOSSAT",
          "uniqueId": "fabienfossat",
          "isAdmin": false,
          "media": null,
          "vip": false,
          "_links": {
            "profile": "https://www.republique-numerique.fr/profile/fabienfossat",
            "settings": "https://www.republique-numerique.fr/profile/edit-profile"
          }
        },
        "_links": {
          "show": "https://www.republique-numerique.fr/consultations/projet-de-loi-numerique/consultation/consultation/opinions/section-3-maintien-de-la-connexion-internet/defaillance-d-un-operateur-ou-tout-ou-partie-d-un-reseau#arg-1049",
          "edit": "https://www.republique-numerique.fr/consultations/projet-de-loi-numerique/consultation/consultation/opinions/section-3-maintien-de-la-connexion-internet/defaillance-d-un-operateur-ou-tout-ou-partie-d-un-reseau/arguments/1049/edit",
          "report": "https://www.republique-numerique.fr/consultations/projet-de-loi-numerique/consultation/consultation/opinions/section-3-maintien-de-la-connexion-internet/defaillance-d-un-operateur-ou-tout-ou-partie-d-un-reseau/arguments/1049/report"
        },
        "has_user_voted": false,
        "has_user_reported": false
      },
      {
        "isContribuable": false,
        "id": 893,
        "body": "Où est la proposition?",
        "created_at": "2015-09-28T14:47:53+0200",
        "updated_at": "2015-09-28T14:47:53+0200",
        "is_enabled": true,
        "votes_count": 3,
        "type": 0,
        "is_trashed": false,
        "author": {
          "username": "El_Rigolol",
          "displayName": "El_Rigolol",
          "uniqueId": "elrigolol",
          "isAdmin": false,
          "media": {
            "url": "/media/cache/default_avatar/default/0001/01/224_default_avatar.png"
          },
          "vip": false,
          "_links": {
            "profile": "https://www.republique-numerique.fr/profile/elrigolol",
            "settings": "https://www.republique-numerique.fr/profile/edit-profile"
          }
        },
        "_links": {
          "show": "https://www.republique-numerique.fr/consultations/projet-de-loi-numerique/consultation/consultation/opinions/section-3-maintien-de-la-connexion-internet/defaillance-d-un-operateur-ou-tout-ou-partie-d-un-reseau#arg-893",
          "edit": "https://www.republique-numerique.fr/consultations/projet-de-loi-numerique/consultation/consultation/opinions/section-3-maintien-de-la-connexion-internet/defaillance-d-un-operateur-ou-tout-ou-partie-d-un-reseau/arguments/893/edit",
          "report": "https://www.republique-numerique.fr/consultations/projet-de-loi-numerique/consultation/consultation/opinions/section-3-maintien-de-la-connexion-internet/defaillance-d-un-operateur-ou-tout-ou-partie-d-un-reseau/arguments/893/report"
        },
        "has_user_voted": false,
        "has_user_reported": false
      },
      {
        "isContribuable": false,
        "id": 300,
        "body": "C'est en effet la fragilité du numérique qui ne fonctionne qu'avec la fée électricité et qui peut à tout moment être gravement piratée. Quels recours prévus en cas de catastrophe numérique ?\nBeaucoup d'entreprises et hôpitaux ont des groupes électrogènes et des sauvegardes régulières de données. Le risque est donc moyennement élevé, mais la question valait d'être posée.",
        "created_at": "2015-09-26T23:33:19+0200",
        "updated_at": "2015-09-26T23:33:19+0200",
        "is_enabled": true,
        "votes_count": 3,
        "type": 1,
        "is_trashed": false,
        "author": {
          "username": "Jeanne Varasco",
          "displayName": "Jeanne Varasco",
          "uniqueId": "jeannevarasco",
          "isAdmin": false,
          "media": {
            "url": "/media/cache/default_avatar/default/0001/01/139_default_avatar.jpg"
          },
          "vip": false,
          "_links": {
            "profile": "https://www.republique-numerique.fr/profile/jeannevarasco",
            "settings": "https://www.republique-numerique.fr/profile/edit-profile"
          }
        },
        "_links": {
          "show": "https://www.republique-numerique.fr/consultations/projet-de-loi-numerique/consultation/consultation/opinions/section-3-maintien-de-la-connexion-internet/defaillance-d-un-operateur-ou-tout-ou-partie-d-un-reseau#arg-300",
          "edit": "https://www.republique-numerique.fr/consultations/projet-de-loi-numerique/consultation/consultation/opinions/section-3-maintien-de-la-connexion-internet/defaillance-d-un-operateur-ou-tout-ou-partie-d-un-reseau/arguments/300/edit",
          "report": "https://www.republique-numerique.fr/consultations/projet-de-loi-numerique/consultation/consultation/opinions/section-3-maintien-de-la-connexion-internet/defaillance-d-un-operateur-ou-tout-ou-partie-d-un-reseau/arguments/300/report"
        },
        "has_user_voted": false,
        "has_user_reported": false
      }
    ],
    "modals": [],
    "votes": [
      {
        "user": {
          "username": "Patrice S.",
          "displayName": "Patrice S.",
          "uniqueId": "patrices",
          "isAdmin": false,
          "media": {
            "url": "/media/cache/default_avatar/default/0001/01/177_default_avatar.png"
          },
          "vip": false,
          "_links": {
            "profile": "https://www.republique-numerique.fr/profile/patrices",
            "settings": "https://www.republique-numerique.fr/profile/edit-profile"
          }
        }
      },
      {
        "user": {
          "username": "Florentin Feller",
          "displayName": "Florentin Feller",
          "uniqueId": "florentinfeller",
          "isAdmin": false,
          "media": null,
          "vip": false,
          "_links": {
            "profile": "https://www.republique-numerique.fr/profile/florentinfeller",
            "settings": "https://www.republique-numerique.fr/profile/edit-profile"
          }
        }
      },
      {
        "user": {
          "username": "Jeanne Varasco",
          "displayName": "Jeanne Varasco",
          "uniqueId": "jeannevarasco",
          "isAdmin": false,
          "media": {
            "url": "/media/cache/default_avatar/default/0001/01/139_default_avatar.jpg"
          },
          "vip": false,
          "_links": {
            "profile": "https://www.republique-numerique.fr/profile/jeannevarasco",
            "settings": "https://www.republique-numerique.fr/profile/edit-profile"
          }
        }
      },
      {
        "user": {
          "username": "Lio Nel",
          "displayName": "Lio Nel",
          "uniqueId": "lionel",
          "isAdmin": false,
          "media": null,
          "vip": false,
          "_links": {
            "profile": "https://www.republique-numerique.fr/profile/lionel",
            "settings": "https://www.republique-numerique.fr/profile/edit-profile"
          }
        }
      },
      {
        "user": {
          "username": "Zeralda Rléziènne",
          "displayName": "Zeralda Rléziènne",
          "uniqueId": "zeraldarlezienne",
          "isAdmin": false,
          "media": null,
          "vip": false,
          "_links": {
            "profile": "https://www.republique-numerique.fr/profile/zeraldarlezienne",
            "settings": "https://www.republique-numerique.fr/profile/edit-profile"
          }
        }
      }
    ],
    "appendices": [
      {
        "body": "<p>L&#39;usager, ne risque t-il pas d&#39;&ecirc;tre mal pris en charge lors d&#39;une urgence m&eacute;dicale d&egrave;s lors que sa demande n&#39;est pas certaine d&#39;avoir &eacute;t&eacute; prise en compte : y a t-il un syst&egrave;me de secours (un plan B) ?</p>",
        "type": {
          "title": "Explication de l'article"
        }
      }
    ],
    "ranking": 341,
    "is_trashed": false,
    "title": "Défaillance d'un opérateur ou tout ou partie d'un réseau",
    "votes_nok": 11,
    "votes_ok": 9,
    "votes_mitige": 32,
    "_links": {
      "show": "https://www.republique-numerique.fr/consultations/projet-de-loi-numerique/consultation/consultation/opinions/section-3-maintien-de-la-connexion-internet/defaillance-d-un-operateur-ou-tout-ou-partie-d-un-reseau",
      "edit": "https://www.republique-numerique.fr/consultations/projet-de-loi-numerique/consultation/consultation/opinions/section-3-maintien-de-la-connexion-internet/defaillance-d-un-operateur-ou-tout-ou-partie-d-un-reseau/edit",
      "report": "https://www.republique-numerique.fr/consultations/projet-de-loi-numerique/consultation/consultation/opinions/section-3-maintien-de-la-connexion-internet/defaillance-d-un-operateur-ou-tout-ou-partie-d-un-reseau/report",
      "type": "https://www.republique-numerique.fr/consultations/projet-de-loi-numerique/consultation/consultation/opinions/section-3-maintien-de-la-connexion-internet"
    },
    "user_vote": null,
    "has_user_reported": false
  },
  "rankingThreshold": null,
  "opinionTerm": 1
}