{
  "opinion": {
    "isContribuable": false,
    "votes_total": 10,
    "arguments_yes_count": 2,
    "arguments_no_count": 0,
    "id": 230,
    "created_at": "2015-09-28T11:18:26+0200",
    "updated_at": "2015-09-28T11:18:26+0200",
    "body": "<p>Tout op&eacute;rateur souhaitant mettre en place des acc&egrave;s aux r&eacute;seaux doit le faire en commen&ccedil;ant par la zone de la ville ayant la plus mauvaise qualit&eacute; pour le r&eacute;seau concern&eacute; selon les organismes charg&eacute;s de ces missions, afin de garantir des acc&egrave;s &eacute;quilibr&eacute; sur le t&eacute;rritoire communal.</p>",
    "versions_count": 1,
    "sources_count": 0,
    "arguments_count": 2,
    "author": {
      "username": "Sludovic",
      "displayName": "Sludovic",
      "uniqueId": "sludovic",
      "isAdmin": false,
      "media": null,
      "vip": false,
      "_links": {
        "profile": "https://www.republique-numerique.fr/profile/sludovic",
        "settings": "https://www.republique-numerique.fr/profile/edit-profile"
      }
    },
    "type": {
      "id": 104,
      "title": "Section 2",
      "subtitle": "Couverture numérique",
      "voteWidgetType": 2,
      "votesHelpText": "Pensez-vous que cette proposition permet d'atteindre les objectifs présentés dans l’explication de l’article ?",
      "commentSystem": 2,
      "color": "blue",
      "versionable": true,
      "sourceable": true,
      "votesThreshold": null,
      "votesThresholdHelpText": null
    },
    "sources": [],
    "arguments": [
      {
        "isContribuable": false,
        "id": 2089,
        "body": "oui et déjà commencer par les zones qui n'ont même pas l'ADSL (et encore moins la fibre...)",
        "created_at": "2015-10-03T12:35:21+0200",
        "updated_at": "2015-10-03T12:35:21+0200",
        "is_enabled": true,
        "votes_count": 0,
        "type": 1,
        "is_trashed": false,
        "author": {
          "username": "Christophe Denis",
          "displayName": "Christophe Denis",
          "uniqueId": "christophedenis",
          "isAdmin": false,
          "media": null,
          "vip": false,
          "_links": {
            "profile": "https://www.republique-numerique.fr/profile/christophedenis",
            "settings": "https://www.republique-numerique.fr/profile/edit-profile"
          }
        },
        "_links": {
          "show": "https://www.republique-numerique.fr/consultations/projet-de-loi-numerique/consultation/consultation/opinions/section-2-couverture-numerique/obligation-de-mise-a-niveau-des-acces-aux-differents-reseaux#arg-2089",
          "edit": "https://www.republique-numerique.fr/consultations/projet-de-loi-numerique/consultation/consultation/opinions/section-2-couverture-numerique/obligation-de-mise-a-niveau-des-acces-aux-differents-reseaux/arguments/2089/edit",
          "report": "https://www.republique-numerique.fr/consultations/projet-de-loi-numerique/consultation/consultation/opinions/section-2-couverture-numerique/obligation-de-mise-a-niveau-des-acces-aux-differents-reseaux/arguments/2089/report"
        },
        "has_user_voted": false,
        "has_user_reported": false
      },
      {
        "isContribuable": false,
        "id": 1603,
        "body": "Cela semble tomber sous le sens, dans la pratique les FAI posent la fibre dans les zones les plus \"rentables\" en premier.",
        "created_at": "2015-09-30T16:38:22+0200",
        "updated_at": "2015-09-30T16:38:22+0200",
        "is_enabled": true,
        "votes_count": 0,
        "type": 1,
        "is_trashed": false,
        "author": {
          "username": "Mike Chang",
          "displayName": "Mike Chang",
          "uniqueId": "mikechang",
          "isAdmin": false,
          "media": null,
          "vip": false,
          "_links": {
            "profile": "https://www.republique-numerique.fr/profile/mikechang",
            "settings": "https://www.republique-numerique.fr/profile/edit-profile"
          }
        },
        "_links": {
          "show": "https://www.republique-numerique.fr/consultations/projet-de-loi-numerique/consultation/consultation/opinions/section-2-couverture-numerique/obligation-de-mise-a-niveau-des-acces-aux-differents-reseaux#arg-1603",
          "edit": "https://www.republique-numerique.fr/consultations/projet-de-loi-numerique/consultation/consultation/opinions/section-2-couverture-numerique/obligation-de-mise-a-niveau-des-acces-aux-differents-reseaux/arguments/1603/edit",
          "report": "https://www.republique-numerique.fr/consultations/projet-de-loi-numerique/consultation/consultation/opinions/section-2-couverture-numerique/obligation-de-mise-a-niveau-des-acces-aux-differents-reseaux/arguments/1603/report"
        },
        "has_user_voted": false,
        "has_user_reported": false
      }
    ],
    "modals": [],
    "votes": [
      {
        "user": {
          "username": "Sludovic",
          "displayName": "Sludovic",
          "uniqueId": "sludovic",
          "isAdmin": false,
          "media": null,
          "vip": false,
          "_links": {
            "profile": "https://www.republique-numerique.fr/profile/sludovic",
            "settings": "https://www.republique-numerique.fr/profile/edit-profile"
          }
        }
      },
      {
        "user": {
          "username": "Choisy bastien",
          "displayName": "Choisy bastien",
          "uniqueId": "choisybastien",
          "isAdmin": false,
          "media": null,
          "vip": false,
          "_links": {
            "profile": "https://www.republique-numerique.fr/profile/choisybastien",
            "settings": "https://www.republique-numerique.fr/profile/edit-profile"
          }
        }
      },
      {
        "user": {
          "username": "Olivier SERY",
          "displayName": "Olivier SERY",
          "uniqueId": "oliviersery",
          "isAdmin": false,
          "media": null,
          "vip": false,
          "_links": {
            "profile": "https://www.republique-numerique.fr/profile/oliviersery",
            "settings": "https://www.republique-numerique.fr/profile/edit-profile"
          }
        }
      },
      {
        "user": {
          "username": "Vincent Reverdy",
          "displayName": "Vincent Reverdy",
          "uniqueId": "vincentreverdy",
          "isAdmin": false,
          "media": {
            "url": "/media/cache/default_avatar/default/0001/01/268_default_avatar.jpg"
          },
          "vip": false,
          "_links": {
            "profile": "https://www.republique-numerique.fr/profile/vincentreverdy",
            "settings": "https://www.republique-numerique.fr/profile/edit-profile"
          }
        }
      },
      {
        "user": {
          "username": "Mike Chang",
          "displayName": "Mike Chang",
          "uniqueId": "mikechang",
          "isAdmin": false,
          "media": null,
          "vip": false,
          "_links": {
            "profile": "https://www.republique-numerique.fr/profile/mikechang",
            "settings": "https://www.republique-numerique.fr/profile/edit-profile"
          }
        }
      }
    ],
    "appendices": [
      {
        "body": "<p>A partir des informations fournies par les organismes officiels, comme l&#39;ARCEP et l&#39;Observatoire France Tr&egrave;s Haut D&eacute;bit, les op&eacute;rateurs doivent obligatoirement mettre &agrave; niveau les zones aux r&eacute;seaux de plus mauvaises qualit&eacute;s dans une ville.</p>\r\n\r\n<p>Cela se fait donc en fonction du type de r&eacute;seau (a&eacute;rien ou cable).</p>\r\n\r\n<p>Ce qui fait que pour d&eacute;ployer la Fibre, l&#39;op&eacute;rateur devra commencer par l&#39;une des zones de la ville ayant une mauvaise connexion ADSL.</p>\r\n\r\n<p>Ceci afin que tout le r&eacute;seau de la ville correspondante garde un &eacute;quilibre constant d&#39;acc&egrave;s aux r&eacute;seaux et ne pas avoir d&#39;un c&ocirc;t&eacute; un secteur fibr&eacute; (Exemple: 100Mo en vitesse descendante&nbsp; )et de l&#39;autre un secteur &agrave; 5 km du plus proche DSLAM ADSL (Exemple: 1 Mo en vitesse descendante)</p>\r\n\r\n<p>&nbsp;</p>",
        "type": {
          "title": "Explication de l'article"
        }
      }
    ],
    "ranking": 397,
    "is_trashed": false,
    "title": "Obligation de mise à niveau des accès aux différents réseaux",
    "votes_nok": 2,
    "votes_ok": 7,
    "votes_mitige": 1,
    "_links": {
      "show": "https://www.republique-numerique.fr/consultations/projet-de-loi-numerique/consultation/consultation/opinions/section-2-couverture-numerique/obligation-de-mise-a-niveau-des-acces-aux-differents-reseaux",
      "edit": "https://www.republique-numerique.fr/consultations/projet-de-loi-numerique/consultation/consultation/opinions/section-2-couverture-numerique/obligation-de-mise-a-niveau-des-acces-aux-differents-reseaux/edit",
      "report": "https://www.republique-numerique.fr/consultations/projet-de-loi-numerique/consultation/consultation/opinions/section-2-couverture-numerique/obligation-de-mise-a-niveau-des-acces-aux-differents-reseaux/report",
      "type": "https://www.republique-numerique.fr/consultations/projet-de-loi-numerique/consultation/consultation/opinions/section-2-couverture-numerique"
    },
    "user_vote": null,
    "has_user_reported": false
  },
  "rankingThreshold": null,
  "opinionTerm": 1
}