{
  "opinion": {
    "isContribuable": false,
    "votes_total": 44,
    "arguments_yes_count": 3,
    "arguments_no_count": 2,
    "id": 379,
    "created_at": "2015-10-01T17:24:17+0200",
    "updated_at": "2015-10-01T17:24:17+0200",
    "body": "<div>\r\n<p>Est appel&eacute; code source d&#39;un logiciel, l&#39;ensemble des fichiers qui, passant par une &eacute;tape de transformation appel&eacute;e compilation, ou non, produisent ou constituent le-dit logiciel.</p>\r\n\r\n<p>Est appel&eacute; logiciel libre, tout logiciel dont la licence garantie les 4 libert&eacute;s suivantes :</p>\r\n\r\n<ol>\r\n\t<li>le logiciel peut &ecirc;tre ex&eacute;cut&eacute; sans restriction, notamment technique ou financi&egrave;re, par n&#39;importe quelle personne morale ou physique,</li>\r\n\t<li>le code source est librement accessible sans restrictions, notamment financi&egrave;re ou technique, sur internet,</li>\r\n\t<li>le code source peut-&ecirc;tre librement modifi&eacute; par quiconque sans autorisation pr&eacute;alable tant que ces modifications n&#39;entrainent pas de restriction des 4 libert&eacute;s pr&eacute;sentes,</li>\r\n\t<li>le code source et le logiciel peuvent &ecirc;tre redistribu&eacute;s par toute personne morale ou physique autre que son auteur original tant que cette redistribution n&#39;entraine pas une restriction des 4 libert&eacute;s pr&eacute;sentes,</li>\r\n</ol>\r\n</div>",
    "versions_count": 0,
    "sources_count": 0,
    "arguments_count": 5,
    "author": {
      "username": "Augier",
      "displayName": "Augier",
      "uniqueId": "augier",
      "isAdmin": false,
      "media": {
        "url": "/media/cache/default_avatar/default/0001/01/298_default_avatar.jpg"
      },
      "vip": false,
      "_links": {
        "profile": "https://www.republique-numerique.fr/profile/augier",
        "settings": "https://www.republique-numerique.fr/profile/edit-profile"
      }
    },
    "type": {
      "id": 90,
      "title": "Section 1",
      "subtitle": "Les Communs",
      "voteWidgetType": 2,
      "votesHelpText": "Pensez-vous que cette proposition permet d'atteindre les objectifs présentés dans l’explication de l’article ?",
      "commentSystem": 2,
      "color": "blue",
      "versionable": true,
      "sourceable": true,
      "votesThreshold": null,
      "votesThresholdHelpText": null
    },
    "sources": [],
    "arguments": [
      {
        "isContribuable": false,
        "id": 5451,
        "body": "Euh...Logiciel Libre (ang :free) ou logiciel ouvert (ang : open) ?\n\nD'où le vote mitigé.",
        "created_at": "2015-10-17T18:18:32+0200",
        "updated_at": "2015-10-17T18:18:32+0200",
        "is_enabled": true,
        "votes_count": 1,
        "type": 0,
        "is_trashed": false,
        "author": {
          "username": "FairlySource",
          "displayName": "FairlySource",
          "uniqueId": "fairlysource",
          "isAdmin": false,
          "media": {
            "url": "/media/cache/default_avatar/default/0001/02/1012_default_avatar.jpg"
          },
          "vip": false,
          "_links": {
            "profile": "https://www.republique-numerique.fr/profile/fairlysource",
            "settings": "https://www.republique-numerique.fr/profile/edit-profile"
          }
        },
        "_links": {
          "show": "https://www.republique-numerique.fr/consultations/projet-de-loi-numerique/consultation/consultation/opinions/section-1-les-communs/definition-juridique-du-logiciel-libre#arg-5451",
          "edit": "https://www.republique-numerique.fr/consultations/projet-de-loi-numerique/consultation/consultation/opinions/section-1-les-communs/definition-juridique-du-logiciel-libre/arguments/5451/edit",
          "report": "https://www.republique-numerique.fr/consultations/projet-de-loi-numerique/consultation/consultation/opinions/section-1-les-communs/definition-juridique-du-logiciel-libre/arguments/5451/report"
        },
        "has_user_voted": false,
        "has_user_reported": false
      },
      {
        "isContribuable": false,
        "id": 5338,
        "body": "Hors sujet.",
        "created_at": "2015-10-17T16:10:25+0200",
        "updated_at": "2015-10-17T16:10:25+0200",
        "is_enabled": true,
        "votes_count": 0,
        "type": 0,
        "is_trashed": false,
        "author": {
          "username": "Tanéléo",
          "displayName": "Tanéléo",
          "uniqueId": "taneleo",
          "isAdmin": false,
          "media": null,
          "vip": false,
          "_links": {
            "profile": "https://www.republique-numerique.fr/profile/taneleo",
            "settings": "https://www.republique-numerique.fr/profile/edit-profile"
          }
        },
        "_links": {
          "show": "https://www.republique-numerique.fr/consultations/projet-de-loi-numerique/consultation/consultation/opinions/section-1-les-communs/definition-juridique-du-logiciel-libre#arg-5338",
          "edit": "https://www.republique-numerique.fr/consultations/projet-de-loi-numerique/consultation/consultation/opinions/section-1-les-communs/definition-juridique-du-logiciel-libre/arguments/5338/edit",
          "report": "https://www.republique-numerique.fr/consultations/projet-de-loi-numerique/consultation/consultation/opinions/section-1-les-communs/definition-juridique-du-logiciel-libre/arguments/5338/report"
        },
        "has_user_voted": false,
        "has_user_reported": false
      },
      {
        "isContribuable": false,
        "id": 4680,
        "body": "Pourquoi \"autre que son auteur original\" dans le paragraphe 4 ?",
        "created_at": "2015-10-16T13:53:25+0200",
        "updated_at": "2015-10-16T13:53:25+0200",
        "is_enabled": true,
        "votes_count": 0,
        "type": 1,
        "is_trashed": false,
        "author": {
          "username": "Frédéric Da Vitoria",
          "displayName": "Frédéric Da Vitoria",
          "uniqueId": "fredericdavitoria",
          "isAdmin": false,
          "media": null,
          "vip": false,
          "_links": {
            "profile": "https://www.republique-numerique.fr/profile/fredericdavitoria",
            "settings": "https://www.republique-numerique.fr/profile/edit-profile"
          }
        },
        "_links": {
          "show": "https://www.republique-numerique.fr/consultations/projet-de-loi-numerique/consultation/consultation/opinions/section-1-les-communs/definition-juridique-du-logiciel-libre#arg-4680",
          "edit": "https://www.republique-numerique.fr/consultations/projet-de-loi-numerique/consultation/consultation/opinions/section-1-les-communs/definition-juridique-du-logiciel-libre/arguments/4680/edit",
          "report": "https://www.republique-numerique.fr/consultations/projet-de-loi-numerique/consultation/consultation/opinions/section-1-les-communs/definition-juridique-du-logiciel-libre/arguments/4680/report"
        },
        "has_user_voted": false,
        "has_user_reported": false
      },
      {
        "isContribuable": false,
        "id": 4418,
        "body": "Le Poisson Libre\nEn effet et si cela devait arriver RMS pleurerez de joie et moi aussi.",
        "created_at": "2015-10-15T21:15:26+0200",
        "updated_at": "2015-10-15T21:15:26+0200",
        "is_enabled": true,
        "votes_count": 2,
        "type": 1,
        "is_trashed": false,
        "author": {
          "username": "BERNARD Loïc",
          "displayName": "BERNARD Loïc",
          "uniqueId": "bernardloic",
          "isAdmin": false,
          "media": {
            "url": "/media/cache/default_avatar/default/0001/01/805_default_avatar.jpg"
          },
          "vip": false,
          "_links": {
            "profile": "https://www.republique-numerique.fr/profile/bernardloic",
            "settings": "https://www.republique-numerique.fr/profile/edit-profile"
          }
        },
        "_links": {
          "show": "https://www.republique-numerique.fr/consultations/projet-de-loi-numerique/consultation/consultation/opinions/section-1-les-communs/definition-juridique-du-logiciel-libre#arg-4418",
          "edit": "https://www.republique-numerique.fr/consultations/projet-de-loi-numerique/consultation/consultation/opinions/section-1-les-communs/definition-juridique-du-logiciel-libre/arguments/4418/edit",
          "report": "https://www.republique-numerique.fr/consultations/projet-de-loi-numerique/consultation/consultation/opinions/section-1-les-communs/definition-juridique-du-logiciel-libre/arguments/4418/report"
        },
        "has_user_voted": false,
        "has_user_reported": false
      },
      {
        "isContribuable": false,
        "id": 3190,
        "body": "C'est vrai que mettre les 4 libertés dans la loi est une bonne idée !",
        "created_at": "2015-10-11T18:47:06+0200",
        "updated_at": "2015-10-11T18:47:06+0200",
        "is_enabled": true,
        "votes_count": 3,
        "type": 1,
        "is_trashed": false,
        "author": {
          "username": "Le Poisson Libre",
          "displayName": "Le Poisson Libre",
          "uniqueId": "lepoissonlibre",
          "isAdmin": false,
          "media": {
            "url": "/media/cache/default_avatar/default/0001/01/116_default_avatar.png"
          },
          "vip": false,
          "_links": {
            "profile": "https://www.republique-numerique.fr/profile/lepoissonlibre",
            "settings": "https://www.republique-numerique.fr/profile/edit-profile"
          }
        },
        "_links": {
          "show": "https://www.republique-numerique.fr/consultations/projet-de-loi-numerique/consultation/consultation/opinions/section-1-les-communs/definition-juridique-du-logiciel-libre#arg-3190",
          "edit": "https://www.republique-numerique.fr/consultations/projet-de-loi-numerique/consultation/consultation/opinions/section-1-les-communs/definition-juridique-du-logiciel-libre/arguments/3190/edit",
          "report": "https://www.republique-numerique.fr/consultations/projet-de-loi-numerique/consultation/consultation/opinions/section-1-les-communs/definition-juridique-du-logiciel-libre/arguments/3190/report"
        },
        "has_user_voted": false,
        "has_user_reported": false
      }
    ],
    "modals": [],
    "votes": [
      {
        "user": {
          "username": "Augier",
          "displayName": "Augier",
          "uniqueId": "augier",
          "isAdmin": false,
          "media": {
            "url": "/media/cache/default_avatar/default/0001/01/298_default_avatar.jpg"
          },
          "vip": false,
          "_links": {
            "profile": "https://www.republique-numerique.fr/profile/augier",
            "settings": "https://www.republique-numerique.fr/profile/edit-profile"
          }
        }
      },
      {
        "user": {
          "username": "Vincent Baptiste",
          "displayName": "Vincent Baptiste",
          "uniqueId": "vincentbaptiste",
          "isAdmin": false,
          "media": null,
          "vip": false,
          "_links": {
            "profile": "https://www.republique-numerique.fr/profile/vincentbaptiste",
            "settings": "https://www.republique-numerique.fr/profile/edit-profile"
          }
        }
      },
      {
        "user": {
          "username": "Lamourec Alain",
          "displayName": "Lamourec Alain",
          "uniqueId": "lamourecalain",
          "isAdmin": false,
          "media": null,
          "vip": false,
          "_links": {
            "profile": "https://www.republique-numerique.fr/profile/lamourecalain",
            "settings": "https://www.republique-numerique.fr/profile/edit-profile"
          }
        }
      },
      {
        "user": {
          "username": "berger",
          "displayName": "berger",
          "uniqueId": "berger",
          "isAdmin": false,
          "media": {
            "url": "/media/cache/default_avatar/default/0001/01/364_default_avatar.jpg"
          },
          "vip": false,
          "_links": {
            "profile": "https://www.republique-numerique.fr/profile/berger",
            "settings": "https://www.republique-numerique.fr/profile/edit-profile"
          }
        }
      },
      {
        "user": {
          "username": "Jeanne Varasco",
          "displayName": "Jeanne Varasco",
          "uniqueId": "jeannevarasco",
          "isAdmin": false,
          "media": {
            "url": "/media/cache/default_avatar/default/0001/01/139_default_avatar.jpg"
          },
          "vip": false,
          "_links": {
            "profile": "https://www.republique-numerique.fr/profile/jeannevarasco",
            "settings": "https://www.republique-numerique.fr/profile/edit-profile"
          }
        }
      }
    ],
    "appendices": [
      {
        "body": "<p>Les logiciels libres sont devenus une composante majeure dans le monde num&eacute;rique. De nombreuses propositions portent sur l&#39;utilisation des logiciels libres dans les services de l&#39;&Eacute;tat. Il semble donc n&eacute;cessaire d&#39;en donner une d&eacute;finition juridique afin d&#39;&eacute;viter les abus.</p>",
        "type": {
          "title": "Explication de l'article"
        }
      }
    ],
    "ranking": 158,
    "is_trashed": false,
    "title": "Définition juridique du logiciel libre",
    "votes_nok": 1,
    "votes_ok": 42,
    "votes_mitige": 1,
    "_links": {
      "show": "https://www.republique-numerique.fr/consultations/projet-de-loi-numerique/consultation/consultation/opinions/section-1-les-communs/definition-juridique-du-logiciel-libre",
      "edit": "https://www.republique-numerique.fr/consultations/projet-de-loi-numerique/consultation/consultation/opinions/section-1-les-communs/definition-juridique-du-logiciel-libre/edit",
      "report": "https://www.republique-numerique.fr/consultations/projet-de-loi-numerique/consultation/consultation/opinions/section-1-les-communs/definition-juridique-du-logiciel-libre/report",
      "type": "https://www.republique-numerique.fr/consultations/projet-de-loi-numerique/consultation/consultation/opinions/section-1-les-communs"
    },
    "user_vote": null,
    "has_user_reported": false
  },
  "rankingThreshold": null,
  "opinionTerm": 1
}