{
  "opinion": {
    "isContribuable": false,
    "votes_total": 16,
    "arguments_yes_count": 0,
    "arguments_no_count": 1,
    "id": 705,
    "created_at": "2015-10-17T11:57:14+0200",
    "updated_at": "2015-10-17T11:57:14+0200",
    "body": "<h1><strong>TITRE III</strong>&nbsp;: L&rsquo;accès au numérique</h1>\r\n\r\n<h2><strong>Chapitre Ier</strong>&nbsp;: Numérique et territoires</h2>\r\n\r\n<h3><strong>Section 2</strong>&nbsp;: Couverture numérique</h3>\r\n\r\n<p>Tous les lieux publics (caf&eacute;, h&ocirc;tels, bars, centre commerciaux, mus&eacute;es etc.) doivent fournir un acc&egrave;s internet gratuit &agrave; toutes les personnes fr&eacute;quentant ces lieux. Le d&eacute;bit de la connexion devra &ecirc;tre suffisant pour permettre &agrave; un nombre d&#39;usagers&nbsp;correspondant au nombre moyen de personnes fr&eacute;quentant ces lieux publics d&#39;avoir un acc&egrave;s &agrave; internet fonctionnel leur permettant de naviguer sans probl&egrave;me sur le web.&nbsp;</p>\r\n\r\n<p>&nbsp;</p>",
    "versions_count": 0,
    "sources_count": 0,
    "arguments_count": 1,
    "author": {
      "username": "Gautier.L",
      "displayName": "Gautier.L",
      "uniqueId": "gautierl",
      "isAdmin": false,
      "media": null,
      "vip": false,
      "_links": {
        "profile": "https://www.republique-numerique.fr/profile/gautierl",
        "settings": "https://www.republique-numerique.fr/profile/edit-profile"
      }
    },
    "type": {
      "id": 86,
      "title": "Section 1",
      "subtitle": "Ouverture des données publiques",
      "voteWidgetType": 2,
      "votesHelpText": "Pensez-vous que cette proposition permet d'atteindre les objectifs présentés dans l’explication de l’article ?",
      "commentSystem": 2,
      "color": "blue",
      "versionable": true,
      "sourceable": true,
      "votesThreshold": null,
      "votesThresholdHelpText": null
    },
    "sources": [],
    "arguments": [
      {
        "isContribuable": false,
        "id": 5208,
        "body": "Principe de précaution : nous ne connaissons pas encore suffisamment les effets du wifi sur la santé, notamment envers les personnes les plus vulnérables (les enfants par exemple).",
        "created_at": "2015-10-17T14:03:22+0200",
        "updated_at": "2015-10-17T14:03:22+0200",
        "is_enabled": true,
        "votes_count": 6,
        "type": 0,
        "is_trashed": false,
        "author": {
          "username": "Tanéléo",
          "displayName": "Tanéléo",
          "uniqueId": "taneleo",
          "isAdmin": false,
          "media": null,
          "vip": false,
          "_links": {
            "profile": "https://www.republique-numerique.fr/profile/taneleo",
            "settings": "https://www.republique-numerique.fr/profile/edit-profile"
          }
        },
        "_links": {
          "show": "https://www.republique-numerique.fr/consultations/projet-de-loi-numerique/consultation/consultation/opinions/section-1-ouverture-des-donnees-publiques-1/rendre-obligatoire-la-mise-en-place-d-une-connexion-wi-fi-gratuite-dans-les-lieux-publics#arg-5208",
          "edit": "https://www.republique-numerique.fr/consultations/projet-de-loi-numerique/consultation/consultation/opinions/section-1-ouverture-des-donnees-publiques-1/rendre-obligatoire-la-mise-en-place-d-une-connexion-wi-fi-gratuite-dans-les-lieux-publics/arguments/5208/edit",
          "report": "https://www.republique-numerique.fr/consultations/projet-de-loi-numerique/consultation/consultation/opinions/section-1-ouverture-des-donnees-publiques-1/rendre-obligatoire-la-mise-en-place-d-une-connexion-wi-fi-gratuite-dans-les-lieux-publics/arguments/5208/report"
        },
        "has_user_voted": false,
        "has_user_reported": false
      }
    ],
    "modals": [],
    "votes": [
      {
        "user": {
          "username": "POYET",
          "displayName": "POYET",
          "uniqueId": "poyet",
          "isAdmin": false,
          "media": null,
          "vip": false,
          "_links": {
            "profile": "https://www.republique-numerique.fr/profile/poyet",
            "settings": "https://www.republique-numerique.fr/profile/edit-profile"
          }
        }
      },
      {
        "user": {
          "username": "Denis Chenu",
          "displayName": "Denis Chenu",
          "uniqueId": "denischenu",
          "isAdmin": false,
          "media": null,
          "vip": false,
          "_links": {
            "profile": "https://www.republique-numerique.fr/profile/denischenu",
            "settings": "https://www.republique-numerique.fr/profile/edit-profile"
          }
        }
      },
      {
        "user": {
          "username": "Maisonobe Luc",
          "displayName": "Maisonobe Luc",
          "uniqueId": "maisonobeluc",
          "isAdmin": false,
          "media": {
            "url": "/media/cache/default_avatar/default/0001/01/710_default_avatar.jpg"
          },
          "vip": false,
          "_links": {
            "profile": "https://www.republique-numerique.fr/profile/maisonobeluc",
            "settings": "https://www.republique-numerique.fr/profile/edit-profile"
          }
        }
      },
      {
        "user": {
          "username": "Tanéléo",
          "displayName": "Tanéléo",
          "uniqueId": "taneleo",
          "isAdmin": false,
          "media": null,
          "vip": false,
          "_links": {
            "profile": "https://www.republique-numerique.fr/profile/taneleo",
            "settings": "https://www.republique-numerique.fr/profile/edit-profile"
          }
        }
      },
      {
        "user": {
          "username": "DIAZ Frédéric",
          "displayName": "DIAZ Frédéric",
          "uniqueId": "diazfrederic",
          "isAdmin": false,
          "media": null,
          "vip": false,
          "_links": {
            "profile": "https://www.republique-numerique.fr/profile/diazfrederic",
            "settings": "https://www.republique-numerique.fr/profile/edit-profile"
          }
        }
      }
    ],
    "appendices": [
      {
        "body": "<p>Rendre gratuit l&#39;acc&egrave;s &agrave; un internet correct, d&#39;un d&eacute;bit suffisant (pas forc&eacute;ment non plus un d&eacute;bit pour regarder des vid&eacute;os en streaming, juste naviguer normalement) pour tout le monde dans les lieux publics semble aujourd&#39;hui normal. Vu le faible cout d&#39;un routeur, les lieux publics devraient mettre &agrave; disposition de tous un acc&egrave;s wifi (comme c&#39;est d&eacute;j&agrave; le cas dans certains endroits). Il semble parfois aberrant que dans de grands lieux publics, on soir obliger de payer pour b&eacute;n&eacute;ficier d&#39;un acc&egrave;s correct &agrave; internet &agrave; l&#39;heure du tout num&eacute;rique.</p>",
        "type": {
          "title": "Explication de l'article"
        }
      }
    ],
    "ranking": 506,
    "is_trashed": false,
    "title": "Rendre obligatoire la mise en place d'une connexion Wi-Fi gratuite dans les lieux publics",
    "votes_nok": 10,
    "votes_ok": 3,
    "votes_mitige": 3,
    "_links": {
      "show": "https://www.republique-numerique.fr/consultations/projet-de-loi-numerique/consultation/consultation/opinions/section-1-ouverture-des-donnees-publiques-1/rendre-obligatoire-la-mise-en-place-d-une-connexion-wi-fi-gratuite-dans-les-lieux-publics",
      "edit": "https://www.republique-numerique.fr/consultations/projet-de-loi-numerique/consultation/consultation/opinions/section-1-ouverture-des-donnees-publiques-1/rendre-obligatoire-la-mise-en-place-d-une-connexion-wi-fi-gratuite-dans-les-lieux-publics/edit",
      "report": "https://www.republique-numerique.fr/consultations/projet-de-loi-numerique/consultation/consultation/opinions/section-1-ouverture-des-donnees-publiques-1/rendre-obligatoire-la-mise-en-place-d-une-connexion-wi-fi-gratuite-dans-les-lieux-publics/report",
      "type": "https://www.republique-numerique.fr/consultations/projet-de-loi-numerique/consultation/consultation/opinions/section-1-ouverture-des-donnees-publiques-1"
    },
    "user_vote": null,
    "has_user_reported": false
  },
  "rankingThreshold": null,
  "opinionTerm": 1
}