{
  "opinion": {
    "isContribuable": false,
    "votes_total": 8,
    "arguments_yes_count": 0,
    "arguments_no_count": 0,
    "id": 634,
    "created_at": "2015-10-15T15:31:10+0200",
    "updated_at": "2015-10-15T15:31:10+0200",
    "body": "<p><strong>Article 13 bis - Principe de loyaut&eacute; des plateformes dans le cadre de leurs relations Business to Business</strong></p>\r\n\r\n<p><br />\r\nSont qualifi&eacute;es de plateformes dominantes, les plateformes qui exercent une influence d&eacute;terminante sur un march&eacute; donn&eacute;.<br />\r\n<br />\r\nToute plateforme en ligne dominante est tenue &agrave; une obligation g&eacute;n&eacute;rale de loyaut&eacute; envers les utilisateurs, non professionnels ou professionnels, notamment en ne favorisant pas ses propres services ou les services d&rsquo;autres entit&eacute;s qu&rsquo;elle contr&ocirc;le directement ou indirectement.</p>\r\n\r\n<p>Aucune plateforme en ligne ne peut obliger un tiers proposant des solutions logicielles ou des appareils de communications &eacute;lectroniques, &agrave; utiliser, de fa&ccedil;on exclusive, ladite plateforme en vue d&rsquo;acc&eacute;der &agrave; un service en ligne.<br />\r\n<br />\r\nL&rsquo;Autorit&eacute; administrative veille au respect de&nbsp; l&rsquo;application des obligations d&eacute;finies au pr&eacute;sent article.&emsp;<br />\r\n&nbsp;</p>",
    "versions_count": 0,
    "sources_count": 0,
    "arguments_count": 0,
    "author": {
      "username": "Open Internet Project",
      "displayName": "Open Internet Project",
      "uniqueId": "openinternetproject",
      "isAdmin": false,
      "media": {
        "url": "/media/cache/default_avatar/default/0001/01/200_default_avatar.jpg"
      },
      "vip": false,
      "_links": {
        "profile": "https://www.republique-numerique.fr/profile/openinternetproject",
        "settings": "https://www.republique-numerique.fr/profile/edit-profile"
      }
    },
    "type": {
      "id": 96,
      "title": "Section 3",
      "subtitle": "Loyauté des plateformes",
      "voteWidgetType": 2,
      "votesHelpText": "Pensez-vous que cette proposition permet d'atteindre les objectifs présentés dans l’explication de l’article ?",
      "commentSystem": 2,
      "color": "blue",
      "versionable": true,
      "sourceable": true,
      "votesThreshold": null,
      "votesThresholdHelpText": null
    },
    "sources": [],
    "arguments": [],
    "modals": [],
    "votes": [
      {
        "user": {
          "username": "Open Internet Project",
          "displayName": "Open Internet Project",
          "uniqueId": "openinternetproject",
          "isAdmin": false,
          "media": {
            "url": "/media/cache/default_avatar/default/0001/01/200_default_avatar.jpg"
          },
          "vip": false,
          "_links": {
            "profile": "https://www.republique-numerique.fr/profile/openinternetproject",
            "settings": "https://www.republique-numerique.fr/profile/edit-profile"
          }
        }
      },
      {
        "user": {
          "username": "TERIER Joël",
          "displayName": "TERIER Joël",
          "uniqueId": "terierjoel",
          "isAdmin": false,
          "media": null,
          "vip": false,
          "_links": {
            "profile": "https://www.republique-numerique.fr/profile/terierjoel",
            "settings": "https://www.republique-numerique.fr/profile/edit-profile"
          }
        }
      },
      {
        "user": {
          "username": "Emilien",
          "displayName": "Emilien",
          "uniqueId": "emilien",
          "isAdmin": false,
          "media": null,
          "vip": false,
          "_links": {
            "profile": "https://www.republique-numerique.fr/profile/emilien",
            "settings": "https://www.republique-numerique.fr/profile/edit-profile"
          }
        }
      },
      {
        "user": {
          "username": "Jeanne Varasco",
          "displayName": "Jeanne Varasco",
          "uniqueId": "jeannevarasco",
          "isAdmin": false,
          "media": {
            "url": "/media/cache/default_avatar/default/0001/01/139_default_avatar.jpg"
          },
          "vip": false,
          "_links": {
            "profile": "https://www.republique-numerique.fr/profile/jeannevarasco",
            "settings": "https://www.republique-numerique.fr/profile/edit-profile"
          }
        }
      },
      {
        "user": {
          "username": "Jean-Sébastien Mariez",
          "displayName": "Jean-Sébastien Mariez",
          "uniqueId": "jeansebastienmariez",
          "isAdmin": false,
          "media": null,
          "vip": false,
          "_links": {
            "profile": "https://www.republique-numerique.fr/profile/jeansebastienmariez",
            "settings": "https://www.republique-numerique.fr/profile/edit-profile"
          }
        }
      }
    ],
    "appendices": [
      {
        "body": "<p><strong>Le principe de loyaut&eacute; ne saurait &ecirc;tre pleinement effectif si l&rsquo;on se limite &agrave; sa port&eacute;e actuelle, trop &eacute;troite</strong><br />\r\n<br />\r\nDans le cadre de l&rsquo;article 13, les plateformes se retrouvent sans distinction soumises aux m&ecirc;mes obligations en mati&egrave;re de loyaut&eacute; &agrave; l&rsquo;&eacute;gard des consommateurs. Cette disposition a pour but de permettre aux consommateurs de prendre des d&eacute;cisions plus avis&eacute;es.</p>\r\n\r\n<p>Or premi&egrave;rement, certaines plateformes sont privil&eacute;gi&eacute;es par ces derniers qui les utilisent pour trouver d&rsquo;autres plateformes en ligne (ces plateformes tiennent un r&ocirc;le de &laquo;gatekeeper &raquo; vers l&rsquo;acc&egrave;s &agrave; d&rsquo;autres contenus). C&rsquo;est le cas notamment des moteurs de recherche. Ainsi, d&egrave;s lors que l&rsquo;un de ces moteurs de recherche se trouve en situation de position dominante, du fait de sa capacit&eacute; &agrave; capter la quasi int&eacute;gralit&eacute; du trafic, la plateforme dispose d&rsquo;une emprise sur le reste des autres plateformes. Cette emprise peut, en cas de comportement d&eacute;loyal de la part de la plateforme dominante vis-&agrave;-vis des autres plateformes, porter&nbsp; gravement atteinte &agrave; la dynamique et au pluralisme du secteur digital. Consid&eacute;rant qu&rsquo;Internet est un moyen majeur au service de la r&eacute;alisation de la libert&eacute; de communication, toute situation de domination d&rsquo;un acteur lui permettant de g&eacute;rer en amont ou en aval les flux d&rsquo;information doit &ecirc;tre r&eacute;gul&eacute;e a priori afin de pr&eacute;server les conditions du pluralisme.<br />\r\nPar cons&eacute;quent, il appara&icirc;t n&eacute;cessaire de faire &eacute;tat de ces plateformes dominantes afin de pouvoir les contraindre l&eacute;galement &agrave; respecter plus d&rsquo;imp&eacute;ratifs en mati&egrave;re de loyaut&eacute;. Car&nbsp; un biais d&rsquo;information subsiste du fait qu&rsquo;il restera possible aux plateformes &agrave; effet structurant sur l&rsquo;&eacute;conomie de se comporter de fa&ccedil;on d&eacute;loyale dans le cadre de leurs relations B2B &agrave; l&rsquo;&eacute;gard des autres plateformes : &eacute;viction du service par des modifications unilat&eacute;rales des conditions d&rsquo;utilisation, captation de la valeur par imposition de conditions l&eacute;onines pour l&rsquo;acc&egrave;s &agrave; la plateforme, arr&ecirc;t brutal et sans pr&eacute;avis d&rsquo;une application lorsque la plateforme veut internaliser le service , modifications de l&rsquo;algorithme pour p&eacute;naliser la visibilit&eacute; du concurrent, ne sont que quelques exemples des types de pratiques d&eacute;loyales qui peuvent avoir lieu au cours de relations B2B entre plateformes en ligne.&nbsp; Aussi, tous ces comportements d&eacute;loyaux sont-ils une d&eacute;sincitation flagrante &agrave; l&rsquo;entr&eacute;e sur le march&eacute; de nouveaux acteurs qui pourraient &ecirc;tre plus favorables aux consommateurs.<br />\r\nEt quand bien m&ecirc;mes ce type d&rsquo;acteurs est d&eacute;j&agrave; pr&eacute;sent sur le march&eacute;, rien dans la pr&eacute;sente loi, n&rsquo;interdit aux plateformes dominantes de les p&eacute;naliser en leur faisant d&eacute;lib&eacute;r&eacute;ment perdre de la visibilit&eacute;, trompant ainsi les consommateurs sur la qualit&eacute; des r&eacute;sultats qu&rsquo;ils obtiennent.<br />\r\nCela est d&rsquo;autant plus alarmant que gr&acirc;ce &agrave; cette loi, les plateformes dominantes jouiraient d&rsquo;une pr&eacute;somption de loyaut&eacute; injustifi&eacute;e de la part des consommateurs, qui verraient en d&eacute;finitive leur condition d&eacute;grad&eacute;e et leur avis biais&eacute;.<br />\r\nPour toutes ces raisons, on peut raisonnablement dire que le fait de soumettre les plateformes en lignes aux imp&eacute;ratifs de loyaut&eacute; &eacute;voqu&eacute;s &agrave; l&rsquo;alin&eacute;a 2 du pr&eacute;sent article est insuffisant, puisque m&ecirc;me s&rsquo;il oblige les plateformes &agrave; informer le consommateur au sujet des relations entretenues avec ses partenaires, il ne leur interdit pas pour autant de p&eacute;naliser d&rsquo;autres acteur en ayant recours &agrave; des pratiques d&eacute;loyales.<br />\r\n<br />\r\n<strong>Interdire les accords d&rsquo;exclusivit&eacute; entre une plateforme en ligne et les fournisseurs de solutions logicielles.</strong><br />\r\n<br />\r\nIl convient aussi de consid&eacute;rer les limitations &agrave; apporter aux relations B2B entre les plateformes et des entreprises tierces et qui sont susceptible de nuire &agrave; plusieurs principes constitutionnels tels que celui de la libert&eacute; de choix des utilisateurs ou de la pr&eacute;servation du pluralisme. Les accords d&rsquo;exclusivit&eacute; que l&rsquo;on entend interdire sont ceux qui obligeraient des op&eacute;rateurs offrant des solutions logicielles ou des appareils de communication &eacute;lectronique de type smartphone, tablette ou ordinateur personnel, &agrave; int&eacute;grer de fa&ccedil;on exclusive la fonctionnalit&eacute; de la plateforme en ligne.<br />\r\nCette proposition fait &eacute;cho aux multiples accusations d&rsquo;abus position dominante dont la plateforme en ligne Google est la cible.&nbsp; Pr&eacute;cis&eacute;ment, la firme californienne est accus&eacute;e de favoriser son service de moteur de recherche sur les terminaux pour smartphone Android. Elle a m&ecirc;me &eacute;t&eacute; condamn&eacute;e le 14 Septembre 2015 par le service f&eacute;d&eacute;ral anti monopole Russe pour avoir viol&eacute; les r&egrave;gles de concurrence.<br />\r\n<br />\r\nD&egrave;s lors il est indispensable d&rsquo;imposer une r&eacute;gulation ex ante qui puisse &ecirc;tre susceptible de dissuader les plateformes de distordre la concurrence avec ce type de pratiques.</p>\r\n\r\n<p>Car &ecirc;tre la seule porte d&rsquo;entr&eacute;e - ou quasiment &ndash; permettant l&rsquo;acc&egrave;s &agrave; une cible, conf&egrave;re un pouvoir immense de commercialisation de la publicit&eacute; et des donn&eacute;es. Cette logique d&rsquo;exclusivit&eacute; revient donc &agrave; consolider une position dominante pr&eacute;alablement acquise, au d&eacute;triment du pluralisme et de la libert&eacute; d&rsquo;entreprendre, et doit donc &ecirc;tre prohib&eacute;e.<br />\r\n<br />\r\n<br />\r\n<br />\r\n<br />\r\n&nbsp;</p>",
        "type": {
          "title": "Explication de l'article"
        }
      }
    ],
    "ranking": 427,
    "is_trashed": false,
    "title": "Article 13 bis - Principe de loyauté des plateformes dans le cadre de leurs relations B to B",
    "votes_nok": 0,
    "votes_ok": 6,
    "votes_mitige": 2,
    "_links": {
      "show": "https://www.republique-numerique.fr/consultations/projet-de-loi-numerique/consultation/consultation/opinions/section-3-loyaute-des-plateformes/article-13-bis-principe-de-loyaute-des-plateformes-dans-le-cadre-de-leurs-relations-b-to-b",
      "edit": "https://www.republique-numerique.fr/consultations/projet-de-loi-numerique/consultation/consultation/opinions/section-3-loyaute-des-plateformes/article-13-bis-principe-de-loyaute-des-plateformes-dans-le-cadre-de-leurs-relations-b-to-b/edit",
      "report": "https://www.republique-numerique.fr/consultations/projet-de-loi-numerique/consultation/consultation/opinions/section-3-loyaute-des-plateformes/article-13-bis-principe-de-loyaute-des-plateformes-dans-le-cadre-de-leurs-relations-b-to-b/report",
      "type": "https://www.republique-numerique.fr/consultations/projet-de-loi-numerique/consultation/consultation/opinions/section-3-loyaute-des-plateformes"
    },
    "user_vote": null,
    "has_user_reported": false
  },
  "rankingThreshold": null,
  "opinionTerm": 1
}