{
  "opinion": {
    "isContribuable": false,
    "votes_total": 2,
    "arguments_yes_count": 0,
    "arguments_no_count": 1,
    "id": 748,
    "created_at": "2015-10-18T15:48:42+0200",
    "updated_at": "2015-10-18T15:48:42+0200",
    "body": "<p>Plan de transition num&eacute;rique pour les TPE et PME</p>\r\n\r\n<p>Il parait &eacute;vident que la g&eacute;n&eacute;ralisation du recours aux outils num&eacute;riques par l&#39;ensemble des acteurs &eacute;conomiques va apporter de nombreux b&eacute;n&eacute;fices en termes de travail collaboratif, d&rsquo;&eacute;changes d&rsquo;informations entre tous les acteurs, d&rsquo;optimisation de certains processus.</p>\r\n\r\n<p>N&eacute;anmoins, cela n&eacute;cessite un accompagnement sp&eacute;cifique pour certains secteurs notamment concernant les TPE. En particulier pour les concepteurs (Bureaux d&rsquo;&eacute;tudes&hellip;), l&rsquo;investissement est lourd en co&ucirc;t d&rsquo;&eacute;quipement, de formation, de modification des processus internes et inter-acteurs.</p>\r\n\r\n<p>Il est pourtant essentiel que ces acteurs &eacute;conomiques s&rsquo;adaptent rapidement &agrave; la num&eacute;risation d&rsquo;un nombre croissant de secteurs &eacute;conomiques. Ici tr&egrave;s souvent ce sont pour les PME et plus encore pour les TPE que cela est le plus difficile pour des motifs &eacute;vidents de moyens ou de tr&eacute;sorerie. En effet, m&ecirc;me si le chef d&rsquo;entreprise est convaincu il est souvent contraint par la charge que cela repr&eacute;sente, car il est indispensable d&rsquo;investir dans des outils et de pr&eacute;voir des formations pour s&rsquo;adapter &agrave; la num&eacute;risation. Tous les secteurs d&rsquo;activit&eacute;s sont concern&eacute;s. Il nous semble indispensable de pr&eacute;voir pour ces entreprises des aides ou des dispositifs fiscaux leur permettant de r&eacute;aliser ces investissements. La diffusion de l&rsquo;innovation dans les fili&egrave;res est un levier de croissance et de comp&eacute;titivit&eacute;&nbsp; majeur.</p>\r\n\r\n<p>Le r&ocirc;le des pouvoirs publics est d&rsquo;accompagner les professionnels dans ces &eacute;volutions en annon&ccedil;ant un calendrier pr&eacute;cis de mise en place des mesures favorisant le num&eacute;rique et en donnant les moyens aux organisations professionnelles afin qu&rsquo;elles puissent sensibiliser et informer leurs ressortissants (formation, accompagnement financier TPE&hellip;)</p>\r\n\r\n<p>Cet aspect pourrait faire r&eacute;f&eacute;rence au Plan de Transition Num&eacute;rique (PTN) en favorisant la mise en place d&rsquo;un processus d&rsquo;homologation des Consultants Priv&eacute;s du Num&eacute;rique susceptibles d&rsquo;intervenir dans le cadre du PTN. A terme, cette homologation pourrait &eacute;voluer vers une qualification professionnelle de type OPQCN qui serait cr&eacute;&eacute;e en partenariat avec l&rsquo;ISQ. De la m&ecirc;me fa&ccedil;on, il serait pr&eacute;vu la mise en place d&rsquo;un r&eacute;f&eacute;rencement national &agrave; travers un meta-annuaire des Consultants Priv&eacute;s du Num&eacute;rique. Ceci devrait &eacute;galement comprendre la d&eacute;finition des r&egrave;gles d&rsquo;engagement dans le cadre d&rsquo;une mission relevant du PTN.</p>",
    "versions_count": 0,
    "sources_count": 0,
    "arguments_count": 1,
    "author": {
      "username": "CINOV-IT - Président",
      "displayName": "CINOV-IT - Président",
      "uniqueId": "cinovitpresident",
      "isAdmin": false,
      "media": null,
      "vip": false,
      "_links": {
        "profile": "https://www.republique-numerique.fr/profile/cinovitpresident",
        "settings": "https://www.republique-numerique.fr/profile/edit-profile"
      }
    },
    "type": {
      "id": 111,
      "title": "Section 3",
      "subtitle": "Maintien de la connexion internet",
      "voteWidgetType": 2,
      "votesHelpText": "Pensez-vous que cette proposition permet d'atteindre les objectifs présentés dans l’explication de l’article ?",
      "commentSystem": 2,
      "color": "blue",
      "versionable": true,
      "sourceable": true,
      "votesThreshold": null,
      "votesThresholdHelpText": null
    },
    "sources": [],
    "arguments": [
      {
        "isContribuable": false,
        "id": 6103,
        "body": "Il ne faut pas créer un organisme spécifique qui voudra maintenir son action tout en coutant cher. En revanche des MOOCs semblent bien adaptés et accessibles à tous quel que soit la taille de l'entreprise.",
        "created_at": "2015-10-18T21:45:06+0200",
        "updated_at": "2015-10-18T21:45:06+0200",
        "is_enabled": true,
        "votes_count": 1,
        "type": 0,
        "is_trashed": false,
        "author": {
          "username": "Jeanne Varasco",
          "displayName": "Jeanne Varasco",
          "uniqueId": "jeannevarasco",
          "isAdmin": false,
          "media": {
            "url": "/media/cache/default_avatar/default/0001/01/139_default_avatar.jpg"
          },
          "vip": false,
          "_links": {
            "profile": "https://www.republique-numerique.fr/profile/jeannevarasco",
            "settings": "https://www.republique-numerique.fr/profile/edit-profile"
          }
        },
        "_links": {
          "show": "https://www.republique-numerique.fr/consultations/projet-de-loi-numerique/consultation/consultation/opinions/section-3-maintien-de-la-connexion-internet/ajout-d-une-section-4-accessibilite-des-tpe-pme-au-numerique#arg-6103",
          "edit": "https://www.republique-numerique.fr/consultations/projet-de-loi-numerique/consultation/consultation/opinions/section-3-maintien-de-la-connexion-internet/ajout-d-une-section-4-accessibilite-des-tpe-pme-au-numerique/arguments/6103/edit",
          "report": "https://www.republique-numerique.fr/consultations/projet-de-loi-numerique/consultation/consultation/opinions/section-3-maintien-de-la-connexion-internet/ajout-d-une-section-4-accessibilite-des-tpe-pme-au-numerique/arguments/6103/report"
        },
        "has_user_voted": false,
        "has_user_reported": false
      }
    ],
    "modals": [],
    "votes": [
      {
        "user": {
          "username": "Alvergnat Cécile",
          "displayName": "Alvergnat Cécile",
          "uniqueId": "alvergnatcecile",
          "isAdmin": false,
          "media": null,
          "vip": false,
          "_links": {
            "profile": "https://www.republique-numerique.fr/profile/alvergnatcecile",
            "settings": "https://www.republique-numerique.fr/profile/edit-profile"
          }
        }
      },
      {
        "user": {
          "username": "Jeanne Varasco",
          "displayName": "Jeanne Varasco",
          "uniqueId": "jeannevarasco",
          "isAdmin": false,
          "media": {
            "url": "/media/cache/default_avatar/default/0001/01/139_default_avatar.jpg"
          },
          "vip": false,
          "_links": {
            "profile": "https://www.republique-numerique.fr/profile/jeannevarasco",
            "settings": "https://www.republique-numerique.fr/profile/edit-profile"
          }
        }
      }
    ],
    "appendices": [
      {
        "body": null,
        "type": {
          "title": "Explication de l'article"
        }
      }
    ],
    "ranking": 577,
    "is_trashed": false,
    "title": "Ajout d'une section 4 : Accessibilité des TPE/PME au numérique",
    "votes_nok": 1,
    "votes_ok": 1,
    "votes_mitige": 0,
    "_links": {
      "show": "https://www.republique-numerique.fr/consultations/projet-de-loi-numerique/consultation/consultation/opinions/section-3-maintien-de-la-connexion-internet/ajout-d-une-section-4-accessibilite-des-tpe-pme-au-numerique",
      "edit": "https://www.republique-numerique.fr/consultations/projet-de-loi-numerique/consultation/consultation/opinions/section-3-maintien-de-la-connexion-internet/ajout-d-une-section-4-accessibilite-des-tpe-pme-au-numerique/edit",
      "report": "https://www.republique-numerique.fr/consultations/projet-de-loi-numerique/consultation/consultation/opinions/section-3-maintien-de-la-connexion-internet/ajout-d-une-section-4-accessibilite-des-tpe-pme-au-numerique/report",
      "type": "https://www.republique-numerique.fr/consultations/projet-de-loi-numerique/consultation/consultation/opinions/section-3-maintien-de-la-connexion-internet"
    },
    "user_vote": null,
    "has_user_reported": false
  },
  "rankingThreshold": null,
  "opinionTerm": 1
}