{
  "opinion": {
    "isContribuable": false,
    "votes_total": 1,
    "arguments_yes_count": 0,
    "arguments_no_count": 0,
    "id": 754,
    "created_at": "2015-10-18T17:17:24+0200",
    "updated_at": "2015-10-18T17:17:24+0200",
    "body": "<p>L&rsquo;article 3 de la loi n&deg; 78-17 du 6 janvier 1978 relative &agrave; l&#39;informatique, aux fichiers et aux libert&eacute;s est ainsi modifi&eacute;. Apr&egrave;s les mots &ldquo;le service ou l&rsquo;organisme qui&rdquo; sont ajout&eacute;s les mots &ldquo;, <strong>seul ou conjointement avec d&#39;autres,</strong>&rdquo;.</p>",
    "versions_count": 0,
    "sources_count": 0,
    "arguments_count": 0,
    "author": {
      "username": "ADIJ Atelier données personnelles",
      "displayName": "ADIJ Atelier données personnelles",
      "uniqueId": "adijatelierdonneespersonnelles",
      "isAdmin": false,
      "media": {
        "url": "/media/cache/default_avatar/default/0001/02/1013_default_avatar.jpg"
      },
      "vip": false,
      "_links": {
        "profile": "https://www.republique-numerique.fr/profile/adijatelierdonneespersonnelles",
        "settings": "https://www.republique-numerique.fr/profile/edit-profile"
      }
    },
    "type": {
      "id": 99,
      "title": "Section 1",
      "subtitle": "Protection des données à caractère personnel",
      "voteWidgetType": 2,
      "votesHelpText": "Pensez-vous que cette proposition permet d'atteindre les objectifs présentés dans l’explication de l’article ?",
      "commentSystem": 2,
      "color": "blue",
      "versionable": true,
      "sourceable": true,
      "votesThreshold": null,
      "votesThresholdHelpText": null
    },
    "sources": [],
    "arguments": [],
    "modals": [],
    "votes": [
      {
        "user": {
          "username": "Maltese Nadine",
          "displayName": "Maltese Nadine",
          "uniqueId": "maltesenadine",
          "isAdmin": false,
          "media": {
            "url": "/media/cache/default_avatar/default/0001/01/113_default_avatar.png"
          },
          "vip": false,
          "_links": {
            "profile": "https://www.republique-numerique.fr/profile/maltesenadine",
            "settings": "https://www.republique-numerique.fr/profile/edit-profile"
          }
        }
      }
    ],
    "appendices": [
      {
        "body": "<p>La notion de responsabilit&eacute; conjointe d&rsquo;un traitement est pr&eacute;vue aujourd&rsquo;hui dans la directive europ&eacute;enne de 1995, mais n&rsquo;a pas &eacute;t&eacute; transpos&eacute;e dans la loi Informatique et Libert&eacute;s. Cette notion peut &ecirc;tre pertinente, tout particuli&egrave;rement dans le secteur du num&eacute;rique, &nbsp;afin de permettre une meilleure appr&eacute;hension de la r&eacute;partition des responsabilit&eacute;s entre certains acteurs (par exemple, dans le cadre du cloud computing ou dans le contexte plus g&eacute;n&eacute;ral des plateformes). Dans ce type de contexte, la notion de sous-traitant, soumis aux instructions du client, n&rsquo;est pas n&eacute;cessairement adapt&eacute;e &agrave; la r&eacute;alit&eacute; op&eacute;rationnelle ou &agrave; la complexit&eacute; de la cha&icirc;ne d&rsquo;acteurs. L&rsquo;utilisation de cette notion doit cependant tenir compte du risque de dilution des responsabilit&eacute;s.</p>",
        "type": {
          "title": "Explication de l'article"
        }
      }
    ],
    "ranking": 577,
    "is_trashed": false,
    "title": "Consacrer la notion de “co-responsabilité\" d’un traitement",
    "votes_nok": 0,
    "votes_ok": 1,
    "votes_mitige": 0,
    "_links": {
      "show": "https://www.republique-numerique.fr/consultations/projet-de-loi-numerique/consultation/consultation/opinions/section-1-protection-des-donnees-a-caractere-personnel/consacrer-la-notion-de-co-responsabilite-d-un-traitement",
      "edit": "https://www.republique-numerique.fr/consultations/projet-de-loi-numerique/consultation/consultation/opinions/section-1-protection-des-donnees-a-caractere-personnel/consacrer-la-notion-de-co-responsabilite-d-un-traitement/edit",
      "report": "https://www.republique-numerique.fr/consultations/projet-de-loi-numerique/consultation/consultation/opinions/section-1-protection-des-donnees-a-caractere-personnel/consacrer-la-notion-de-co-responsabilite-d-un-traitement/report",
      "type": "https://www.republique-numerique.fr/consultations/projet-de-loi-numerique/consultation/consultation/opinions/section-1-protection-des-donnees-a-caractere-personnel"
    },
    "user_vote": null,
    "has_user_reported": false
  },
  "rankingThreshold": null,
  "opinionTerm": 1
}