{
  "opinion": {
    "isContribuable": false,
    "votes_total": 5,
    "arguments_yes_count": 0,
    "arguments_no_count": 1,
    "id": 214,
    "created_at": "2015-09-28T01:23:58+0200",
    "updated_at": "2015-09-28T01:34:13+0200",
    "body": "<p><u>But&nbsp;</u>: cr&eacute;er un bar&egrave;me non contraignant l&eacute;galement, permettant aux organismes susceptibles d&#39;h&eacute;berger des donn&eacute;es num&eacute;riques &agrave; caract&egrave;re priv&eacute; de faire &eacute;valuer leurs pratiques. L&rsquo;&eacute;valuation sera faite un tiers agr&eacute;&eacute; par la CNIL.</p>\r\n\r\n<p>1 &ndash; La bar&egrave;me permettra d&#39;&eacute;valuer trois points pr&eacute;cis, sur des crit&egrave;res &agrave; d&eacute;finir (voir 2).</p>\r\n\r\n<ul>\r\n\t<li>\r\n\t<p>Le taux d&#39;exploitation des donn&eacute;es priv&eacute;es &agrave; des fins commerciales ou de recherche</p>\r\n\r\n\t<p>(vente, statistiques, ...)</p>\r\n\t</li>\r\n\t<li>\r\n\t<p>La gestion et le contr&ocirc;le des donn&eacute;es priv&eacute;es</p>\r\n\r\n\t<p>(s&eacute;curisation des donn&eacute;es, ma&icirc;trise des acc&egrave;s pour la sous-traitance, ...)</p>\r\n\t</li>\r\n\t<li>\r\n\t<p>La compr&eacute;hension que l&#39;utilisateur per&ccedil;oit de l&#39;exploitation faite de ses donn&eacute;es</p>\r\n\r\n\t<p>(r&egrave;gles, conditions d&#39;utilisations, ...)</p>\r\n\r\n\t<p>L&#39;approche consiste, en fin d&#39;examen de l&#39;organisme &agrave; distribuer une &laquo;&nbsp;note&nbsp;&raquo;.</p>\r\n\t</li>\r\n</ul>\r\n\r\n<p>2 &ndash; Les crit&egrave;res du bar&egrave;me seront d&eacute;finis par les acteurs &eacute;conomiques du num&eacute;rique (premiers concern&eacute;s par la mesure), des repr&eacute;sentants d&#39;utilisateurs et l&#39;&eacute;tat &agrave; travers la CNIL. Le r&ocirc;le de la CNIL consistera essentiellement &agrave; appuyer techniquement et juridiquement les n&eacute;gociations ainsi qu&#39;&agrave; veiller &agrave; leur bon d&eacute;roulement.</p>\r\n\r\n<p>3 &ndash; Le bar&egrave;me sera revu p&eacute;riodiquement (&agrave; d&eacute;finir lors des n&eacute;gociations) afin de tenir compte des &eacute;volutions technologiques et de la soci&eacute;t&eacute;.</p>\r\n\r\n<p>4 &ndash; Les organismes qui souhaiteront se faire &eacute;valuer le seront via des organismes tiers ind&eacute;pendants. Ceux-ci seront obligatoirement agr&eacute;&eacute;s par la CNIL et seront les seuls autoris&eacute;s &agrave; r&eacute;aliser un tel examen. Comme le bar&egrave;me, l&#39;agr&eacute;ment devra &ecirc;tre renouvel&eacute; p&eacute;riodiquement (&agrave; d&eacute;finir).</p>\r\n\r\n<p>&nbsp;</p>\r\n\r\n<p>&nbsp;</p>\r\n\r\n<p>&nbsp;</p>",
    "versions_count": 0,
    "sources_count": 0,
    "arguments_count": 1,
    "author": {
      "username": "jonathan",
      "displayName": "jonathan",
      "uniqueId": "jonathan1",
      "isAdmin": false,
      "media": null,
      "vip": false,
      "_links": {
        "profile": "https://www.republique-numerique.fr/profile/jonathan1",
        "settings": "https://www.republique-numerique.fr/profile/edit-profile"
      }
    },
    "type": {
      "id": 99,
      "title": "Section 1",
      "subtitle": "Protection des données à caractère personnel",
      "voteWidgetType": 2,
      "votesHelpText": "Pensez-vous que cette proposition permet d'atteindre les objectifs présentés dans l’explication de l’article ?",
      "commentSystem": 2,
      "color": "blue",
      "versionable": true,
      "sourceable": true,
      "votesThreshold": null,
      "votesThresholdHelpText": null
    },
    "sources": [],
    "arguments": [
      {
        "isContribuable": false,
        "id": 2099,
        "body": "Le système de déclaration à la CNIL actuellement en place me semble suffisant",
        "created_at": "2015-10-03T15:20:35+0200",
        "updated_at": "2015-10-03T15:20:35+0200",
        "is_enabled": true,
        "votes_count": 1,
        "type": 0,
        "is_trashed": false,
        "author": {
          "username": "Jeanne Varasco",
          "displayName": "Jeanne Varasco",
          "uniqueId": "jeannevarasco",
          "isAdmin": false,
          "media": {
            "url": "/media/cache/default_avatar/default/0001/01/139_default_avatar.jpg"
          },
          "vip": false,
          "_links": {
            "profile": "https://www.republique-numerique.fr/profile/jeannevarasco",
            "settings": "https://www.republique-numerique.fr/profile/edit-profile"
          }
        },
        "_links": {
          "show": "https://www.republique-numerique.fr/consultations/projet-de-loi-numerique/consultation/consultation/opinions/section-1-protection-des-donnees-a-caractere-personnel/creation-d-un-bareme-permettant-l-evaluation-de-l-utilisation-des-donnees-privees-par-des-organismes-susceptibles-d-en-collecter#arg-2099",
          "edit": "https://www.republique-numerique.fr/consultations/projet-de-loi-numerique/consultation/consultation/opinions/section-1-protection-des-donnees-a-caractere-personnel/creation-d-un-bareme-permettant-l-evaluation-de-l-utilisation-des-donnees-privees-par-des-organismes-susceptibles-d-en-collecter/arguments/2099/edit",
          "report": "https://www.republique-numerique.fr/consultations/projet-de-loi-numerique/consultation/consultation/opinions/section-1-protection-des-donnees-a-caractere-personnel/creation-d-un-bareme-permettant-l-evaluation-de-l-utilisation-des-donnees-privees-par-des-organismes-susceptibles-d-en-collecter/arguments/2099/report"
        },
        "has_user_voted": false,
        "has_user_reported": false
      }
    ],
    "modals": [],
    "votes": [
      {
        "user": {
          "username": "Olivier SERY",
          "displayName": "Olivier SERY",
          "uniqueId": "oliviersery",
          "isAdmin": false,
          "media": null,
          "vip": false,
          "_links": {
            "profile": "https://www.republique-numerique.fr/profile/oliviersery",
            "settings": "https://www.republique-numerique.fr/profile/edit-profile"
          }
        }
      },
      {
        "user": {
          "username": "Jeanne Varasco",
          "displayName": "Jeanne Varasco",
          "uniqueId": "jeannevarasco",
          "isAdmin": false,
          "media": {
            "url": "/media/cache/default_avatar/default/0001/01/139_default_avatar.jpg"
          },
          "vip": false,
          "_links": {
            "profile": "https://www.republique-numerique.fr/profile/jeannevarasco",
            "settings": "https://www.republique-numerique.fr/profile/edit-profile"
          }
        }
      },
      {
        "user": {
          "username": "Vincent Reverdy",
          "displayName": "Vincent Reverdy",
          "uniqueId": "vincentreverdy",
          "isAdmin": false,
          "media": {
            "url": "/media/cache/default_avatar/default/0001/01/268_default_avatar.jpg"
          },
          "vip": false,
          "_links": {
            "profile": "https://www.republique-numerique.fr/profile/vincentreverdy",
            "settings": "https://www.republique-numerique.fr/profile/edit-profile"
          }
        }
      },
      {
        "user": {
          "username": "Emilien",
          "displayName": "Emilien",
          "uniqueId": "emilien",
          "isAdmin": false,
          "media": null,
          "vip": false,
          "_links": {
            "profile": "https://www.republique-numerique.fr/profile/emilien",
            "settings": "https://www.republique-numerique.fr/profile/edit-profile"
          }
        }
      },
      {
        "user": {
          "username": "Christophe Pi.",
          "displayName": "Christophe Pi.",
          "uniqueId": "christophepi",
          "isAdmin": false,
          "media": null,
          "vip": false,
          "_links": {
            "profile": "https://www.republique-numerique.fr/profile/christophepi",
            "settings": "https://www.republique-numerique.fr/profile/edit-profile"
          }
        }
      }
    ],
    "appendices": [
      {
        "body": "<p>Le but de la loi est de donner les moyens pour un organisme soucieux du respect de la vie priv&eacute;e de l&#39;utilisateur de se distinguer.</p>\r\n\r\n<p>Il est pour cel&agrave; n&eacute;cessaire de cr&eacute;er des bar&egrave;mes &agrave; respecter et des capacit&eacute;s d&#39;&eacute;valuation de ceux-ci.</p>\r\n\r\n<p>Le bar&egrave;me sera n&eacute;goci&eacute; par les acteurs du num&eacute;rique, des repr&eacute;sentants d&#39;utilisateurs et la CNIL. Une n&eacute;gociation bien men&eacute;e permettra d&rsquo;aboutir &agrave; un bar&egrave;me difficilement contestable.</p>\r\n\r\n<p>La d&eacute;marche pour l&#39;organisme de se faire &eacute;valu&eacute;e est bas&eacute;e sur le volontariat et n&#39;est pas l&eacute;galement contraignante. Pour les organismes &laquo;&nbsp;bien not&eacute;s&nbsp;&raquo;, cela fournira un argument commercial et donc un avantage concurrentiel.</p>\r\n\r\n<p>L&#39;&eacute;valuation sera faite par des organismes agr&eacute;&eacute;s par la&nbsp; CNIL. Son r&ocirc;le sera de d&eacute;livrer les agr&eacute;ments aux organismes susceptibles de r&eacute;aliser les missions d&#39;&eacute;valuation. Cela repr&eacute;sentera moins de charge de travail pour la CNIL et potentiellement de la cr&eacute;ation d&#39;emploi lors de la cr&eacute;ation des organismes d&#39;&eacute;valuation.</p>\r\n\r\n<p>Enfin, gr&acirc;ce &agrave; la note, l&#39;utilisateur aura des &eacute;l&eacute;ments clair et fiable qui lui permettront de d&eacute;cider s&#39;il fait oui ou non confiance &agrave; un organisme vis-&agrave;-vis de ses donn&eacute;es priv&eacute;es. La mise en concurrence des organismes vis-&agrave;-vis du crit&egrave;re du respect de la vie priv&eacute; sera facilit&eacute;e.</p>",
        "type": {
          "title": "Explication de l'article"
        }
      }
    ],
    "ranking": 542,
    "is_trashed": false,
    "title": "Création d'un barème permettant l'évaluation de l'utilisation des données privées par des organismes susceptibles d'en collecter.",
    "votes_nok": 0,
    "votes_ok": 2,
    "votes_mitige": 3,
    "_links": {
      "show": "https://www.republique-numerique.fr/consultations/projet-de-loi-numerique/consultation/consultation/opinions/section-1-protection-des-donnees-a-caractere-personnel/creation-d-un-bareme-permettant-l-evaluation-de-l-utilisation-des-donnees-privees-par-des-organismes-susceptibles-d-en-collecter",
      "edit": "https://www.republique-numerique.fr/consultations/projet-de-loi-numerique/consultation/consultation/opinions/section-1-protection-des-donnees-a-caractere-personnel/creation-d-un-bareme-permettant-l-evaluation-de-l-utilisation-des-donnees-privees-par-des-organismes-susceptibles-d-en-collecter/edit",
      "report": "https://www.republique-numerique.fr/consultations/projet-de-loi-numerique/consultation/consultation/opinions/section-1-protection-des-donnees-a-caractere-personnel/creation-d-un-bareme-permettant-l-evaluation-de-l-utilisation-des-donnees-privees-par-des-organismes-susceptibles-d-en-collecter/report",
      "type": "https://www.republique-numerique.fr/consultations/projet-de-loi-numerique/consultation/consultation/opinions/section-1-protection-des-donnees-a-caractere-personnel"
    },
    "user_vote": null,
    "has_user_reported": false
  },
  "rankingThreshold": null,
  "opinionTerm": 1
}