{
  "opinion": {
    "isContribuable": false,
    "votes_total": 27,
    "arguments_yes_count": 2,
    "arguments_no_count": 2,
    "id": 657,
    "created_at": "2015-10-16T01:02:04+0200",
    "updated_at": "2015-10-16T01:02:04+0200",
    "body": "<p>Maintien du service public assur&eacute; par les cabines t&eacute;l&eacute;phoniques.</p>",
    "versions_count": 0,
    "sources_count": 0,
    "arguments_count": 4,
    "author": {
      "username": "PRIEUR",
      "displayName": "PRIEUR",
      "uniqueId": "prieur",
      "isAdmin": false,
      "media": null,
      "vip": false,
      "_links": {
        "profile": "https://www.republique-numerique.fr/profile/prieur",
        "settings": "https://www.republique-numerique.fr/profile/edit-profile"
      }
    },
    "type": {
      "id": 111,
      "title": "Section 3",
      "subtitle": "Maintien de la connexion internet",
      "voteWidgetType": 2,
      "votesHelpText": "Pensez-vous que cette proposition permet d'atteindre les objectifs présentés dans l’explication de l’article ?",
      "commentSystem": 2,
      "color": "blue",
      "versionable": true,
      "sourceable": true,
      "votesThreshold": null,
      "votesThresholdHelpText": null
    },
    "sources": [],
    "arguments": [
      {
        "isContribuable": false,
        "id": 5727,
        "body": "important pour ceux qui n'ont pas de portables, les SDF, si un jour le réseau GSM ne fonctionne plus. Important dans les zones où le réseau GSM passe mal. Il faut à tout prix garder ce réseau téléphonique actif.",
        "created_at": "2015-10-18T11:09:23+0200",
        "updated_at": "2015-10-18T11:09:23+0200",
        "is_enabled": true,
        "votes_count": 1,
        "type": 1,
        "is_trashed": false,
        "author": {
          "username": "Dominique Sassi Stringfellow",
          "displayName": "Dominique Sassi Stringfellow",
          "uniqueId": "dominiquesassistringfellow",
          "isAdmin": false,
          "media": null,
          "vip": false,
          "_links": {
            "profile": "https://www.republique-numerique.fr/profile/dominiquesassistringfellow",
            "settings": "https://www.republique-numerique.fr/profile/edit-profile"
          }
        },
        "_links": {
          "show": "https://www.republique-numerique.fr/consultations/projet-de-loi-numerique/consultation/consultation/opinions/section-3-maintien-de-la-connexion-internet/maintien-des-cabines-de-t2l2phone-publiques#arg-5727",
          "edit": "https://www.republique-numerique.fr/consultations/projet-de-loi-numerique/consultation/consultation/opinions/section-3-maintien-de-la-connexion-internet/maintien-des-cabines-de-t2l2phone-publiques/arguments/5727/edit",
          "report": "https://www.republique-numerique.fr/consultations/projet-de-loi-numerique/consultation/consultation/opinions/section-3-maintien-de-la-connexion-internet/maintien-des-cabines-de-t2l2phone-publiques/arguments/5727/report"
        },
        "has_user_voted": false,
        "has_user_reported": false
      },
      {
        "isContribuable": false,
        "id": 5665,
        "body": "Dans le cadre du developpement des bornes numeriques , les cabines telephoniques pourraient etre reabiliter : leur servir d'abris, offrir des prises pour charger son telephone, ou si oublié, cassé, pas les moyens, trop jeune, permettre de telephoner, contacter les secours gratuitement etc..",
        "created_at": "2015-10-18T02:24:16+0200",
        "updated_at": "2015-10-18T02:24:16+0200",
        "is_enabled": true,
        "votes_count": 1,
        "type": 1,
        "is_trashed": false,
        "author": {
          "username": "Maltese Nadine",
          "displayName": "Maltese Nadine",
          "uniqueId": "maltesenadine",
          "isAdmin": false,
          "media": {
            "url": "/media/cache/default_avatar/default/0001/01/113_default_avatar.png"
          },
          "vip": false,
          "_links": {
            "profile": "https://www.republique-numerique.fr/profile/maltesenadine",
            "settings": "https://www.republique-numerique.fr/profile/edit-profile"
          }
        },
        "_links": {
          "show": "https://www.republique-numerique.fr/consultations/projet-de-loi-numerique/consultation/consultation/opinions/section-3-maintien-de-la-connexion-internet/maintien-des-cabines-de-t2l2phone-publiques#arg-5665",
          "edit": "https://www.republique-numerique.fr/consultations/projet-de-loi-numerique/consultation/consultation/opinions/section-3-maintien-de-la-connexion-internet/maintien-des-cabines-de-t2l2phone-publiques/arguments/5665/edit",
          "report": "https://www.republique-numerique.fr/consultations/projet-de-loi-numerique/consultation/consultation/opinions/section-3-maintien-de-la-connexion-internet/maintien-des-cabines-de-t2l2phone-publiques/arguments/5665/report"
        },
        "has_user_voted": false,
        "has_user_reported": false
      },
      {
        "isContribuable": false,
        "id": 5653,
        "body": "Maintenir des cabines publiques pour les secours un peu partout alors qu'il suffit de demander à un habitant ou un passant, je ne vois pas l'intérêt.\n\nPour les accès à internet des accès publiques dans les mairies et/ou les bibliothèques me paraissent préférables.\n",
        "created_at": "2015-10-18T01:04:17+0200",
        "updated_at": "2015-10-18T01:04:17+0200",
        "is_enabled": true,
        "votes_count": 0,
        "type": 0,
        "is_trashed": false,
        "author": {
          "username": "syll",
          "displayName": "syll",
          "uniqueId": "syll",
          "isAdmin": false,
          "media": null,
          "vip": false,
          "_links": {
            "profile": "https://www.republique-numerique.fr/profile/syll",
            "settings": "https://www.republique-numerique.fr/profile/edit-profile"
          }
        },
        "_links": {
          "show": "https://www.republique-numerique.fr/consultations/projet-de-loi-numerique/consultation/consultation/opinions/section-3-maintien-de-la-connexion-internet/maintien-des-cabines-de-t2l2phone-publiques#arg-5653",
          "edit": "https://www.republique-numerique.fr/consultations/projet-de-loi-numerique/consultation/consultation/opinions/section-3-maintien-de-la-connexion-internet/maintien-des-cabines-de-t2l2phone-publiques/arguments/5653/edit",
          "report": "https://www.republique-numerique.fr/consultations/projet-de-loi-numerique/consultation/consultation/opinions/section-3-maintien-de-la-connexion-internet/maintien-des-cabines-de-t2l2phone-publiques/arguments/5653/report"
        },
        "has_user_voted": false,
        "has_user_reported": false
      },
      {
        "isContribuable": false,
        "id": 5140,
        "body": "Que vient faire cette proposition dans une loi sur le numérique ?",
        "created_at": "2015-10-17T10:12:13+0200",
        "updated_at": "2015-10-17T10:12:13+0200",
        "is_enabled": true,
        "votes_count": 2,
        "type": 0,
        "is_trashed": false,
        "author": {
          "username": "Pascal Rigaud",
          "displayName": "Pascal Rigaud",
          "uniqueId": "pascalrigaud",
          "isAdmin": false,
          "media": null,
          "vip": false,
          "_links": {
            "profile": "https://www.republique-numerique.fr/profile/pascalrigaud",
            "settings": "https://www.republique-numerique.fr/profile/edit-profile"
          }
        },
        "_links": {
          "show": "https://www.republique-numerique.fr/consultations/projet-de-loi-numerique/consultation/consultation/opinions/section-3-maintien-de-la-connexion-internet/maintien-des-cabines-de-t2l2phone-publiques#arg-5140",
          "edit": "https://www.republique-numerique.fr/consultations/projet-de-loi-numerique/consultation/consultation/opinions/section-3-maintien-de-la-connexion-internet/maintien-des-cabines-de-t2l2phone-publiques/arguments/5140/edit",
          "report": "https://www.republique-numerique.fr/consultations/projet-de-loi-numerique/consultation/consultation/opinions/section-3-maintien-de-la-connexion-internet/maintien-des-cabines-de-t2l2phone-publiques/arguments/5140/report"
        },
        "has_user_voted": false,
        "has_user_reported": false
      }
    ],
    "modals": [],
    "votes": [
      {
        "user": {
          "username": "PRIEUR",
          "displayName": "PRIEUR",
          "uniqueId": "prieur",
          "isAdmin": false,
          "media": null,
          "vip": false,
          "_links": {
            "profile": "https://www.republique-numerique.fr/profile/prieur",
            "settings": "https://www.republique-numerique.fr/profile/edit-profile"
          }
        }
      },
      {
        "user": {
          "username": "Vincent Reverdy",
          "displayName": "Vincent Reverdy",
          "uniqueId": "vincentreverdy",
          "isAdmin": false,
          "media": {
            "url": "/media/cache/default_avatar/default/0001/01/268_default_avatar.jpg"
          },
          "vip": false,
          "_links": {
            "profile": "https://www.republique-numerique.fr/profile/vincentreverdy",
            "settings": "https://www.republique-numerique.fr/profile/edit-profile"
          }
        }
      },
      {
        "user": {
          "username": "Picard",
          "displayName": "Picard",
          "uniqueId": "picard3",
          "isAdmin": false,
          "media": null,
          "vip": false,
          "_links": {
            "profile": "https://www.republique-numerique.fr/profile/picard3",
            "settings": "https://www.republique-numerique.fr/profile/edit-profile"
          }
        }
      },
      {
        "user": {
          "username": "stehlin",
          "displayName": "stehlin",
          "uniqueId": "stehlin1",
          "isAdmin": false,
          "media": {
            "url": "/media/cache/default_avatar/default/0001/01/894_default_avatar.jpg"
          },
          "vip": false,
          "_links": {
            "profile": "https://www.republique-numerique.fr/profile/stehlin1",
            "settings": "https://www.republique-numerique.fr/profile/edit-profile"
          }
        }
      },
      {
        "user": {
          "username": "porte",
          "displayName": "porte",
          "uniqueId": "porte3",
          "isAdmin": false,
          "media": null,
          "vip": false,
          "_links": {
            "profile": "https://www.republique-numerique.fr/profile/porte3",
            "settings": "https://www.republique-numerique.fr/profile/edit-profile"
          }
        }
      }
    ],
    "appendices": [
      {
        "body": "<p>Pour les personnes ne souhaitant ou ne pouvant pas acc&eacute;der &agrave; l&#39;Internet, ou en l&#39;absence de t&eacute;l&eacute;phonie mobile disponible, puissent contacter les num&eacute;ros d&#39;urgence (pompiers, gendarmerie, SAMU).</p>",
        "type": {
          "title": "Explication de l'article"
        }
      }
    ],
    "ranking": 200,
    "is_trashed": false,
    "title": "MAINTIEN DES CABINES DE T2L2PHONE PUBLIQUES",
    "votes_nok": 3,
    "votes_ok": 24,
    "votes_mitige": 0,
    "_links": {
      "show": "https://www.republique-numerique.fr/consultations/projet-de-loi-numerique/consultation/consultation/opinions/section-3-maintien-de-la-connexion-internet/maintien-des-cabines-de-t2l2phone-publiques",
      "edit": "https://www.republique-numerique.fr/consultations/projet-de-loi-numerique/consultation/consultation/opinions/section-3-maintien-de-la-connexion-internet/maintien-des-cabines-de-t2l2phone-publiques/edit",
      "report": "https://www.republique-numerique.fr/consultations/projet-de-loi-numerique/consultation/consultation/opinions/section-3-maintien-de-la-connexion-internet/maintien-des-cabines-de-t2l2phone-publiques/report",
      "type": "https://www.republique-numerique.fr/consultations/projet-de-loi-numerique/consultation/consultation/opinions/section-3-maintien-de-la-connexion-internet"
    },
    "user_vote": null,
    "has_user_reported": false
  },
  "rankingThreshold": null,
  "opinionTerm": 1
}