{
  "opinion": {
    "isContribuable": false,
    "votes_total": 16,
    "arguments_yes_count": 0,
    "arguments_no_count": 1,
    "id": 310,
    "created_at": "2015-09-29T18:44:52+0200",
    "updated_at": "2015-09-29T18:44:52+0200",
    "body": "<p>Article 1: tous les sites &quot;commer&ccedil;ants&quot; Francais devront avoir le logo &quot;Site Francais&quot; afin de les distinguer des sites &eacute;trang&eacute;. Ainsi l&#39;usag&eacute; sera que le site respecte la loi Fran&ccedil;aise.</p>\r\n\r\n<p style=\"margin-left:0px; margin-right:0px\">Par &quot;commer&ccedil;ant&quot; on entends site offrant un service (exemple de messagerie), une vente (achat d&#39;article), ...</p>\r\n\r\n<p style=\"margin-left:0px; margin-right:0px\">Article 2: tout site commer&ccedil;ant devra &ecirc;tre enregistr&eacute; aupr&egrave;s d&#39;un site public Fran&ccedil;ais , qui rendra publique la liste des sites &quot;Fran&ccedil;ais&quot; afin qu&#39;un usag&eacute; puisse v&eacute;rifier que le site qu&#39;il fr&eacute;quente est un site Fran&ccedil;ais qui respecte bien la loi Fran&ccedil;aise.</p>\r\n\r\n<p>&nbsp;</p>",
    "versions_count": 0,
    "sources_count": 0,
    "arguments_count": 1,
    "author": {
      "username": "lacombe",
      "displayName": "lacombe",
      "uniqueId": "lacombe",
      "isAdmin": false,
      "media": {
        "url": "/media/cache/default_avatar/default/0001/01/310_default_avatar.png"
      },
      "vip": false,
      "_links": {
        "profile": "https://www.republique-numerique.fr/profile/lacombe",
        "settings": "https://www.republique-numerique.fr/profile/edit-profile"
      }
    },
    "type": {
      "id": 97,
      "title": "Section 4",
      "subtitle": "Information des consommateurs",
      "voteWidgetType": 2,
      "votesHelpText": "Pensez-vous que cette proposition permet d'atteindre les objectifs présentés dans l’explication de l’article ?",
      "commentSystem": 2,
      "color": "blue",
      "versionable": true,
      "sourceable": true,
      "votesThreshold": null,
      "votesThresholdHelpText": null
    },
    "sources": [],
    "arguments": [
      {
        "isContribuable": false,
        "id": 1642,
        "body": "Une meilleure solution serait de proposer des sites sous le régime Weight Watchers, bien plus efficace.",
        "created_at": "2015-09-30T17:43:21+0200",
        "updated_at": "2015-09-30T17:43:21+0200",
        "is_enabled": true,
        "votes_count": 0,
        "type": 0,
        "is_trashed": false,
        "author": {
          "username": "Michel Denisot",
          "displayName": "Michel Denisot",
          "uniqueId": "micheldenisot",
          "isAdmin": false,
          "media": {
            "url": "/media/cache/default_avatar/default/0001/01/337_default_avatar.jpg"
          },
          "vip": false,
          "_links": {
            "profile": "https://www.republique-numerique.fr/profile/micheldenisot",
            "settings": "https://www.republique-numerique.fr/profile/edit-profile"
          }
        },
        "_links": {
          "show": "https://www.republique-numerique.fr/consultations/projet-de-loi-numerique/consultation/consultation/opinions/section-4-information-des-consommateurs/site-sous-le-regime-francais#arg-1642",
          "edit": "https://www.republique-numerique.fr/consultations/projet-de-loi-numerique/consultation/consultation/opinions/section-4-information-des-consommateurs/site-sous-le-regime-francais/arguments/1642/edit",
          "report": "https://www.republique-numerique.fr/consultations/projet-de-loi-numerique/consultation/consultation/opinions/section-4-information-des-consommateurs/site-sous-le-regime-francais/arguments/1642/report"
        },
        "has_user_voted": false,
        "has_user_reported": false
      }
    ],
    "modals": [],
    "votes": [
      {
        "user": {
          "username": "Pierre",
          "displayName": "Pierre",
          "uniqueId": "pierre1",
          "isAdmin": false,
          "media": {
            "url": "/media/cache/default_avatar/default/0001/01/199_default_avatar.png"
          },
          "vip": false,
          "_links": {
            "profile": "https://www.republique-numerique.fr/profile/pierre1",
            "settings": "https://www.republique-numerique.fr/profile/edit-profile"
          }
        }
      },
      {
        "user": {
          "username": "Michel Denisot",
          "displayName": "Michel Denisot",
          "uniqueId": "micheldenisot",
          "isAdmin": false,
          "media": {
            "url": "/media/cache/default_avatar/default/0001/01/337_default_avatar.jpg"
          },
          "vip": false,
          "_links": {
            "profile": "https://www.republique-numerique.fr/profile/micheldenisot",
            "settings": "https://www.republique-numerique.fr/profile/edit-profile"
          }
        }
      },
      {
        "user": {
          "username": "Olivier Seror-Droin",
          "displayName": "Olivier Seror-Droin",
          "uniqueId": "olivierserordroin",
          "isAdmin": false,
          "media": null,
          "vip": false,
          "_links": {
            "profile": "https://www.republique-numerique.fr/profile/olivierserordroin",
            "settings": "https://www.republique-numerique.fr/profile/edit-profile"
          }
        }
      },
      {
        "user": {
          "username": "Bonin",
          "displayName": "Bonin",
          "uniqueId": "bonin",
          "isAdmin": false,
          "media": null,
          "vip": false,
          "_links": {
            "profile": "https://www.republique-numerique.fr/profile/bonin",
            "settings": "https://www.republique-numerique.fr/profile/edit-profile"
          }
        }
      },
      {
        "user": {
          "username": "CapitaineNemo",
          "displayName": "CapitaineNemo",
          "uniqueId": "capitainenemo",
          "isAdmin": false,
          "media": null,
          "vip": false,
          "_links": {
            "profile": "https://www.republique-numerique.fr/profile/capitainenemo",
            "settings": "https://www.republique-numerique.fr/profile/edit-profile"
          }
        }
      }
    ],
    "appendices": [
      {
        "body": "<p style=\"margin-left:0px; margin-right:0px\">Dans tous les articles que j&#39;ai vus, on parle de loi fran&ccedil;aise. Or lorsque vous &ecirc;tes sur un site web dont la langue est le Fran&ccedil;ais il vous impossible de savoir s&rsquo;il est Fran&ccedil;ais ou s&rsquo;il respecte la loi Fran&ccedil;aise.<br />\r\nEt combien de personnes ont fait des achats au travers de PayPal et consorts pensant payer en France, alors que le paiement &eacute;tait factur&eacute; au Luxembourg ?</p>\r\n\r\n<p>L&#39;extension du nom de domaine .fr n&#39;est pas suffisant pour r&eacute;pondre &agrave; cette probl&eacute;matique. D&#39;o&ugrave; l&#39;id&eacute;e du logo et du site web publique promulguant une liste des sites fran&ccedil;ais.</p>\r\n\r\n<p>Par la suite la r&eacute;alisation de greffons/plug-ins pour navigateur interner pouvant indiqu&eacute; que l&#39;utilisateur est sure un site &quot;Fran&ccedil;ais&quot; est assez simple a faire.</p>",
        "type": {
          "title": "Explication de l'article"
        }
      }
    ],
    "ranking": 506,
    "is_trashed": false,
    "title": "Site sous le régime Francais",
    "votes_nok": 6,
    "votes_ok": 3,
    "votes_mitige": 7,
    "_links": {
      "show": "https://www.republique-numerique.fr/consultations/projet-de-loi-numerique/consultation/consultation/opinions/section-4-information-des-consommateurs/site-sous-le-regime-francais",
      "edit": "https://www.republique-numerique.fr/consultations/projet-de-loi-numerique/consultation/consultation/opinions/section-4-information-des-consommateurs/site-sous-le-regime-francais/edit",
      "report": "https://www.republique-numerique.fr/consultations/projet-de-loi-numerique/consultation/consultation/opinions/section-4-information-des-consommateurs/site-sous-le-regime-francais/report",
      "type": "https://www.republique-numerique.fr/consultations/projet-de-loi-numerique/consultation/consultation/opinions/section-4-information-des-consommateurs"
    },
    "user_vote": null,
    "has_user_reported": false
  },
  "rankingThreshold": null,
  "opinionTerm": 1
}