{
  "opinion": {
    "isContribuable": false,
    "votes_total": 625,
    "arguments_yes_count": 15,
    "arguments_no_count": 20,
    "id": 80,
    "created_at": "2015-09-26T02:28:01+0200",
    "updated_at": "2015-09-26T07:24:37+0200",
    "body": "<p>L&rsquo;article 40 de la loi n&deg; 78-17 du 6 janvier 1978 relative &agrave; l&rsquo;informatique, aux fichiers et aux libert&eacute;s est ainsi modifi&eacute;&nbsp;:</p>\r\n\r\n<p>1&deg; Au d&eacute;but du premier alin&eacute;a, est ajout&eacute;e la mention&nbsp;: &laquo;&nbsp;I. - &raquo;&nbsp;;</p>\r\n\r\n<p>2&deg; Il est ins&eacute;r&eacute; apr&egrave;s le quatri&egrave;me alin&eacute;a sept alin&eacute;as ainsi r&eacute;dig&eacute;s&nbsp;:</p>\r\n\r\n<p>&laquo;&nbsp;II. &ndash; Toute personne peut d&eacute;finir des directives relatives &agrave; la conservation et &agrave; la communication de ses donn&eacute;es &agrave; caract&egrave;re personnel apr&egrave;s son d&eacute;c&egrave;s. Ces directives sont g&eacute;n&eacute;rales ou particuli&egrave;res.</p>\r\n\r\n<p>&laquo;&nbsp;Les directives particuli&egrave;res concernent les traitements de donn&eacute;es &agrave; caract&egrave;re personnel qu&rsquo;elles d&eacute;signent. Elles sont enregistr&eacute;es aupr&egrave;s des responsables de traitement concern&eacute;s.</p>\r\n\r\n<p>&laquo;&nbsp;Les directives d&eacute;finissent la mani&egrave;re dont la personne entend que soient exerc&eacute;s apr&egrave;s son d&eacute;c&egrave;s les droits qu&rsquo;elle d&eacute;tient en application de la pr&eacute;sente loi. Ces directives sont sans pr&eacute;judice des dispositions applicables aux donn&eacute;es &agrave; caract&egrave;re personnel relevant du r&eacute;gime sur les archives publiques.</p>\r\n\r\n<p>&laquo;&nbsp;Lorsque les directives pr&eacute;voient la communication de donn&eacute;es qui comportent &eacute;galement des donn&eacute;es &agrave; caract&egrave;re personnel relatives &agrave; des tiers, cette communication doit &ecirc;tre effectu&eacute;e dans le respect de la pr&eacute;sente loi.</p>\r\n\r\n<p>&laquo;&nbsp;La personne peut modifier ou r&eacute;voquer ses directives &agrave; tout moment. Elles sont r&eacute;dig&eacute;es selon un mod&egrave;le dont le contenu est fix&eacute; par d&eacute;cret en Conseil d&rsquo;Etat.</p>\r\n\r\n<p>&laquo;&nbsp;III. - Les directives peuvent d&eacute;signer une personne charg&eacute;e de leur ex&eacute;cution. Celle-ci a alors qualit&eacute;, lorsque la personne est d&eacute;c&eacute;d&eacute;e, pour prendre connaissance des directives et demander leur mise en &oelig;uvre aux responsables de traitement concern&eacute;s. A d&eacute;faut de d&eacute;signation, les h&eacute;ritiers de la personne d&eacute;c&eacute;d&eacute;e ont cette qualit&eacute;.</p>\r\n\r\n<p>&laquo;&nbsp;IV. - Sauf lorsque la personne concern&eacute;e a exprim&eacute; une volont&eacute; contraire dans les directives mentionn&eacute;es au II, ses h&eacute;ritiers peuvent exercer apr&egrave;s son d&eacute;c&egrave;s les droits mentionn&eacute;s &agrave; la pr&eacute;sente section. Toutefois, l&rsquo;effacement des donn&eacute;es dans les conditions pr&eacute;vues par l&rsquo;article 40 ne peut intervenir lorsqu&rsquo;un des h&eacute;ritiers s&rsquo;y oppose.&nbsp;&raquo;</p>\r\n\r\n<p>&laquo;&nbsp;V. - Le prestataire de stockage de signaux &eacute;crits, images, sons ou messages de toute nature sur Internet informe l&rsquo;utilisateur de ses droits &agrave; la protection de sa vie priv&eacute;e, du secret de ses correspondances et de ses donn&eacute;es &agrave; caract&egrave;re personnel.</p>\r\n\r\n<p>&laquo;&nbsp;Il informe l&rsquo;utilisateur du sort de ces donn&eacute;es &agrave; son d&eacute;c&egrave;s et lui permet de choisir de transmettre ou non ses donn&eacute;es &agrave; un tiers qu&rsquo;il d&eacute;signe pr&eacute;alablement &agrave; la conclusion du contrat de prestation&nbsp;&raquo;.</p>\r\n\r\n<p>II.&nbsp;-&nbsp;A la fin de l&rsquo;article 36 de la m&ecirc;me loi, il est ins&eacute;r&eacute; un alin&eacute;a ainsi r&eacute;dig&eacute;&nbsp;:</p>\r\n\r\n<p>&laquo;&nbsp;- soit en vertu de directives de la personne concern&eacute;e, dans les conditions d&eacute;finies au II de l&rsquo;article 40&nbsp;;&nbsp;&raquo;</p>",
    "versions_count": 16,
    "sources_count": 0,
    "arguments_count": 35,
    "author": {
      "username": "Gouvernement",
      "displayName": "Gouvernement",
      "uniqueId": "gouvernement",
      "isAdmin": false,
      "media": {
        "url": "/media/cache/default_avatar/default/0001/01/72_default_avatar.jpg"
      },
      "vip": true,
      "_links": {
        "profile": "https://www.republique-numerique.fr/profile/gouvernement",
        "settings": "https://www.republique-numerique.fr/profile/edit-profile"
      }
    },
    "type": {
      "id": 99,
      "title": "Section 1",
      "subtitle": "Protection des données à caractère personnel",
      "voteWidgetType": 2,
      "votesHelpText": "Pensez-vous que cette proposition permet d'atteindre les objectifs présentés dans l’explication de l’article ?",
      "commentSystem": 2,
      "color": "blue",
      "versionable": true,
      "sourceable": true,
      "votesThreshold": null,
      "votesThresholdHelpText": null
    },
    "sources": [],
    "arguments": [
      {
        "isContribuable": false,
        "id": 6167,
        "body": "Le texte semble indiquer que les données étant personnelles ne peuvent faire l'objet d'un transfert et doivent donc être traitées différemment des autres biens du défunt.\nSi ce postulat est vrai pour les seules données d'état civil et d'adresse, cela est loin d'être le cas pour l'ensemble des données susceptibles d'êtres stockées par un internautes dont certaines, peuvent avoir une véritable valeur vénale (oeuvres littéraires, photos, dessins, modèles, logiciels etc...) et relever par conséquent du droit successoral de droit commun.\n\nIl faut arrêter d'empiler les régimes dérogatoires, de créer des organismes agrées par la CNIL et des modèles de directives, le citoyen doit RESTER LIBRE\n.\nLa loi doit seulement opérer une distinction stricte entre les données purement personnelles (état civil, adresse, mots de passe etc...) dont l'effacement est obligatoire pour le prestataire internet dès qu'il a connaissance du décès.\nIl faut à cet égard, créer en la matière un organisme similaire à AGIRA qui, obligatoirement interrogé par tout notaire chargé du règlement d'une succession, répercuterait l'information du décès à tous les hébergeurs de contenu. Ceux-ci  procéderaient alors à l'effacement des données personnelles et informeraient le notaire de l'existence dans leurs bases de données non personnelles dont la disposition relèverait alors du droit commun et d'un éventuel testament.\nCe dernier pourra notamment contenir des instructions quant à l'effacement, la dévolution ou la disposition des donées.\nC'est alors à l'exécuteur testamentaire, au(x) légataire(s) et aux héritiers qu'il appartiendra, avec l'assistance du notaire, d'assurer la bonne exécution des dernières volontés du défunt.\nA défaut d'instructions testamentaires, ce sont les héritiers, CONTINUATEURS DE LA PERSONNE DU DEFUNT AUX TERMES DES DISPOSITIONS DU CODE CIVIL qui auront toute latitude pour prendre les décisions qui s'imposeront.\n\n\n",
        "created_at": "2015-10-18T22:53:21+0200",
        "updated_at": "2015-10-18T22:53:21+0200",
        "is_enabled": true,
        "votes_count": 1,
        "type": 0,
        "is_trashed": false,
        "author": {
          "username": "Christophe LEVECQ",
          "displayName": "Christophe LEVECQ",
          "uniqueId": "christophelevecq",
          "isAdmin": false,
          "media": null,
          "vip": false,
          "_links": {
            "profile": "https://www.republique-numerique.fr/profile/christophelevecq",
            "settings": "https://www.republique-numerique.fr/profile/edit-profile"
          }
        },
        "_links": {
          "show": "https://www.republique-numerique.fr/consultations/projet-de-loi-numerique/consultation/consultation/opinions/section-1-protection-des-donnees-a-caractere-personnel/article-20-personnes-decedees#arg-6167",
          "edit": "https://www.republique-numerique.fr/consultations/projet-de-loi-numerique/consultation/consultation/opinions/section-1-protection-des-donnees-a-caractere-personnel/article-20-personnes-decedees/arguments/6167/edit",
          "report": "https://www.republique-numerique.fr/consultations/projet-de-loi-numerique/consultation/consultation/opinions/section-1-protection-des-donnees-a-caractere-personnel/article-20-personnes-decedees/arguments/6167/report"
        },
        "has_user_voted": false,
        "has_user_reported": false
      },
      {
        "isContribuable": false,
        "id": 6052,
        "body": "D'accord sur le contenu de l'article mais le titre est particulièrement déplaisant. \"Survie numérique\" aurait été aussi approprié… mais il s'agit plutôt du \"Devenir des données personnelles après le décès de la personne\".",
        "created_at": "2015-10-18T20:02:38+0200",
        "updated_at": "2015-10-18T20:02:38+0200",
        "is_enabled": true,
        "votes_count": 0,
        "type": 1,
        "is_trashed": false,
        "author": {
          "username": "Lefebvre-Naré Frédéric",
          "displayName": "Lefebvre-Naré Frédéric",
          "uniqueId": "lefebvrenarefrederic",
          "isAdmin": false,
          "media": {
            "url": "/media/cache/default_avatar/default/0001/02/1044_default_avatar.jpg"
          },
          "vip": false,
          "_links": {
            "profile": "https://www.republique-numerique.fr/profile/lefebvrenarefrederic",
            "settings": "https://www.republique-numerique.fr/profile/edit-profile"
          }
        },
        "_links": {
          "show": "https://www.republique-numerique.fr/consultations/projet-de-loi-numerique/consultation/consultation/opinions/section-1-protection-des-donnees-a-caractere-personnel/article-20-personnes-decedees#arg-6052",
          "edit": "https://www.republique-numerique.fr/consultations/projet-de-loi-numerique/consultation/consultation/opinions/section-1-protection-des-donnees-a-caractere-personnel/article-20-personnes-decedees/arguments/6052/edit",
          "report": "https://www.republique-numerique.fr/consultations/projet-de-loi-numerique/consultation/consultation/opinions/section-1-protection-des-donnees-a-caractere-personnel/article-20-personnes-decedees/arguments/6052/report"
        },
        "has_user_voted": false,
        "has_user_reported": false
      },
      {
        "isContribuable": false,
        "id": 5502,
        "body": "L'article traite d'un sujet de préoccupation réel, mais complexe. Il doit être articulé avec le droit des successions et ne peut juste être un régime autonome.La notion de “prestataire de stockage de signaux” est floue. La proposition d’article pourrait renvoyer à l’article 6-I-2 de la loi pour la confiance dans l’économie numérique, qui fournit une définition des hébergeurs ainsi que d’autres acteurs d’Internet. Les définitions contenues par la LCEN ont l’avantage d’être connues et leur interprétation est relativement stabilisée dans la doctrine et la jurisprudence.La durée de validité des directives anticipées devrait être prévue.",
        "created_at": "2015-10-17T19:36:37+0200",
        "updated_at": "2015-10-18T14:10:37+0200",
        "is_enabled": true,
        "votes_count": 0,
        "type": 1,
        "is_trashed": false,
        "author": {
          "username": "ADIJ Atelier données personnelles",
          "displayName": "ADIJ Atelier données personnelles",
          "uniqueId": "adijatelierdonneespersonnelles",
          "isAdmin": false,
          "media": {
            "url": "/media/cache/default_avatar/default/0001/02/1013_default_avatar.jpg"
          },
          "vip": false,
          "_links": {
            "profile": "https://www.republique-numerique.fr/profile/adijatelierdonneespersonnelles",
            "settings": "https://www.republique-numerique.fr/profile/edit-profile"
          }
        },
        "_links": {
          "show": "https://www.republique-numerique.fr/consultations/projet-de-loi-numerique/consultation/consultation/opinions/section-1-protection-des-donnees-a-caractere-personnel/article-20-personnes-decedees#arg-5502",
          "edit": "https://www.republique-numerique.fr/consultations/projet-de-loi-numerique/consultation/consultation/opinions/section-1-protection-des-donnees-a-caractere-personnel/article-20-personnes-decedees/arguments/5502/edit",
          "report": "https://www.republique-numerique.fr/consultations/projet-de-loi-numerique/consultation/consultation/opinions/section-1-protection-des-donnees-a-caractere-personnel/article-20-personnes-decedees/arguments/5502/report"
        },
        "has_user_voted": false,
        "has_user_reported": false
      },
      {
        "isContribuable": false,
        "id": 5735,
        "body": "Entièrement d'accord. Il est cependant nécessaire que la personne ait exprimé ce choix auparavant. Si c'est le cas, je ne vois pas en quoi un avocat ou un notaire aurait à intervenir.... Il me semble que pour ce sujet en particulier, le numérique peut apporter des services gratuits (!!!) afin de permettre à la personne d'exprimer sa volonté et de s'assurer qu'elle soit respectée. Il faut certes encadrer cela mais il me semble que pour les digital natives, devoir passer par un avocat ou un notaire, pour récupérer ou effacer les données personnelles d'un proche va relever de l'anachronisme voire du surréalisme. Je vais cependant lire attentivement les arguments qui défendent ce point de vue car il ne me semble pas (à première vue) être pleinement orienté dans l'intérêt premier des citoyens.",
        "created_at": "2015-10-18T11:26:14+0200",
        "updated_at": "2015-10-18T11:38:03+0200",
        "is_enabled": true,
        "votes_count": 0,
        "type": 1,
        "is_trashed": false,
        "author": {
          "username": "Sylvain Gladieux",
          "displayName": "Sylvain Gladieux",
          "uniqueId": "sylvaingladieux",
          "isAdmin": false,
          "media": {
            "url": "/media/cache/default_avatar/default/0001/01/974_default_avatar.jpg"
          },
          "vip": false,
          "_links": {
            "profile": "https://www.republique-numerique.fr/profile/sylvaingladieux",
            "settings": "https://www.republique-numerique.fr/profile/edit-profile"
          }
        },
        "_links": {
          "show": "https://www.republique-numerique.fr/consultations/projet-de-loi-numerique/consultation/consultation/opinions/section-1-protection-des-donnees-a-caractere-personnel/article-20-personnes-decedees#arg-5735",
          "edit": "https://www.republique-numerique.fr/consultations/projet-de-loi-numerique/consultation/consultation/opinions/section-1-protection-des-donnees-a-caractere-personnel/article-20-personnes-decedees/arguments/5735/edit",
          "report": "https://www.republique-numerique.fr/consultations/projet-de-loi-numerique/consultation/consultation/opinions/section-1-protection-des-donnees-a-caractere-personnel/article-20-personnes-decedees/arguments/5735/report"
        },
        "has_user_voted": false,
        "has_user_reported": false
      },
      {
        "isContribuable": false,
        "id": 5081,
        "body": "L’UJA souhaite que les directives d’une personne sur sa « mort numérique » puissent être confiées à l’avocat, lequel serait labellisé par la Cnil, comme cela existe déjà pour d’autres domaines (audit, formations Informatique & libertés). L’UJA s’oppose ainsi à la mise en place de tiers de confiance agréés qui priverait les avocats d’un domaine d’activité pour lesquels, en raison de leur proximité avec le justiciable et leur qualité d’auxiliaire de justice ils sont parfaitement légitimes à intervenir, sous réserve de la labellisation précitée.",
        "created_at": "2015-10-16T23:01:32+0200",
        "updated_at": "2015-10-16T23:01:32+0200",
        "is_enabled": true,
        "votes_count": 0,
        "type": 0,
        "is_trashed": false,
        "author": {
          "username": "Union des Jeunes avocats de Paris",
          "displayName": "Union des Jeunes avocats de Paris",
          "uniqueId": "uniondesjeunesavocatsdeparis",
          "isAdmin": false,
          "media": {
            "url": "/media/cache/default_avatar/default/0001/01/924_default_avatar.jpg"
          },
          "vip": false,
          "_links": {
            "profile": "https://www.republique-numerique.fr/profile/uniondesjeunesavocatsdeparis",
            "settings": "https://www.republique-numerique.fr/profile/edit-profile"
          }
        },
        "_links": {
          "show": "https://www.republique-numerique.fr/consultations/projet-de-loi-numerique/consultation/consultation/opinions/section-1-protection-des-donnees-a-caractere-personnel/article-20-personnes-decedees#arg-5081",
          "edit": "https://www.republique-numerique.fr/consultations/projet-de-loi-numerique/consultation/consultation/opinions/section-1-protection-des-donnees-a-caractere-personnel/article-20-personnes-decedees/arguments/5081/edit",
          "report": "https://www.republique-numerique.fr/consultations/projet-de-loi-numerique/consultation/consultation/opinions/section-1-protection-des-donnees-a-caractere-personnel/article-20-personnes-decedees/arguments/5081/report"
        },
        "has_user_voted": false,
        "has_user_reported": false
      },
      {
        "isContribuable": false,
        "id": 4916,
        "body": "Le projet de texte devrait préciser comment les dispositions anticipant la proposition de règlement européen relatif à la protection des personnes physiques à l'égard du traitement des données à caractère personnel et à la libre circulation de ces données (règlement général sur la protection des données) s’articulent avec ce dernier et si la date d’application de ce projet de loi est prévue après le règlement européen.\nSi une réflexion approfondie doit encore être menée sur les conséquences de cet article et notamment sa cohérence avec les dispositions en vigueur en matière de succession, l’alourdissement considérable les conditions générales et l’atteinte au principe de transparence peuvent d’ores et déjà être relevés. ",
        "created_at": "2015-10-16T18:06:53+0200",
        "updated_at": "2015-10-16T18:06:53+0200",
        "is_enabled": true,
        "votes_count": 2,
        "type": 0,
        "is_trashed": false,
        "author": {
          "username": "Instances numériques du MEDEF",
          "displayName": "Instances numériques du MEDEF",
          "uniqueId": "instancesnumeriquesdumedef",
          "isAdmin": false,
          "media": null,
          "vip": false,
          "_links": {
            "profile": "https://www.republique-numerique.fr/profile/instancesnumeriquesdumedef",
            "settings": "https://www.republique-numerique.fr/profile/edit-profile"
          }
        },
        "_links": {
          "show": "https://www.republique-numerique.fr/consultations/projet-de-loi-numerique/consultation/consultation/opinions/section-1-protection-des-donnees-a-caractere-personnel/article-20-personnes-decedees#arg-4916",
          "edit": "https://www.republique-numerique.fr/consultations/projet-de-loi-numerique/consultation/consultation/opinions/section-1-protection-des-donnees-a-caractere-personnel/article-20-personnes-decedees/arguments/4916/edit",
          "report": "https://www.republique-numerique.fr/consultations/projet-de-loi-numerique/consultation/consultation/opinions/section-1-protection-des-donnees-a-caractere-personnel/article-20-personnes-decedees/arguments/4916/report"
        },
        "has_user_voted": false,
        "has_user_reported": false
      },
      {
        "isContribuable": false,
        "id": 4881,
        "body": "Les héritiers ne devraient pas pouvoir s'opposer à la suppression des données lorsqu'elle a été explicitement choisie par le défunt.",
        "created_at": "2015-10-16T17:29:51+0200",
        "updated_at": "2015-10-16T17:29:51+0200",
        "is_enabled": true,
        "votes_count": 3,
        "type": 0,
        "is_trashed": false,
        "author": {
          "username": "Pierre Lavayssière",
          "displayName": "Pierre Lavayssière",
          "uniqueId": "pierrelavayssiere",
          "isAdmin": false,
          "media": null,
          "vip": false,
          "_links": {
            "profile": "https://www.republique-numerique.fr/profile/pierrelavayssiere",
            "settings": "https://www.republique-numerique.fr/profile/edit-profile"
          }
        },
        "_links": {
          "show": "https://www.republique-numerique.fr/consultations/projet-de-loi-numerique/consultation/consultation/opinions/section-1-protection-des-donnees-a-caractere-personnel/article-20-personnes-decedees#arg-4881",
          "edit": "https://www.republique-numerique.fr/consultations/projet-de-loi-numerique/consultation/consultation/opinions/section-1-protection-des-donnees-a-caractere-personnel/article-20-personnes-decedees/arguments/4881/edit",
          "report": "https://www.republique-numerique.fr/consultations/projet-de-loi-numerique/consultation/consultation/opinions/section-1-protection-des-donnees-a-caractere-personnel/article-20-personnes-decedees/arguments/4881/report"
        },
        "has_user_voted": false,
        "has_user_reported": false
      },
      {
        "isContribuable": false,
        "id": 4877,
        "body": "Cela me parait très simple à mettre en œuvre.",
        "created_at": "2015-10-16T17:27:48+0200",
        "updated_at": "2015-10-16T17:27:48+0200",
        "is_enabled": true,
        "votes_count": 0,
        "type": 1,
        "is_trashed": false,
        "author": {
          "username": "Pierre Lavayssière",
          "displayName": "Pierre Lavayssière",
          "uniqueId": "pierrelavayssiere",
          "isAdmin": false,
          "media": null,
          "vip": false,
          "_links": {
            "profile": "https://www.republique-numerique.fr/profile/pierrelavayssiere",
            "settings": "https://www.republique-numerique.fr/profile/edit-profile"
          }
        },
        "_links": {
          "show": "https://www.republique-numerique.fr/consultations/projet-de-loi-numerique/consultation/consultation/opinions/section-1-protection-des-donnees-a-caractere-personnel/article-20-personnes-decedees#arg-4877",
          "edit": "https://www.republique-numerique.fr/consultations/projet-de-loi-numerique/consultation/consultation/opinions/section-1-protection-des-donnees-a-caractere-personnel/article-20-personnes-decedees/arguments/4877/edit",
          "report": "https://www.republique-numerique.fr/consultations/projet-de-loi-numerique/consultation/consultation/opinions/section-1-protection-des-donnees-a-caractere-personnel/article-20-personnes-decedees/arguments/4877/report"
        },
        "has_user_voted": false,
        "has_user_reported": false
      },
      {
        "isContribuable": false,
        "id": 4444,
        "body": "Il convient d’être vigilants sur le maintien de la spécificité  des traitements de données à caractère personnel (qu’il soit en ligne ou non) dans le cadre d’un service public. Ces données sont des archives publiques et de fait ne peuvent faire l’objet d’une décision individuelle d’effacement. ",
        "created_at": "2015-10-15T22:26:18+0200",
        "updated_at": "2015-10-15T22:26:18+0200",
        "is_enabled": true,
        "votes_count": 2,
        "type": 0,
        "is_trashed": false,
        "author": {
          "username": "Association des archivistes français",
          "displayName": "Association des archivistes français",
          "uniqueId": "associationdesarchivistesfrancais",
          "isAdmin": false,
          "media": {
            "url": "/media/cache/default_avatar/default/0001/01/797_default_avatar.jpg"
          },
          "vip": false,
          "_links": {
            "profile": "https://www.republique-numerique.fr/profile/associationdesarchivistesfrancais",
            "settings": "https://www.republique-numerique.fr/profile/edit-profile"
          }
        },
        "_links": {
          "show": "https://www.republique-numerique.fr/consultations/projet-de-loi-numerique/consultation/consultation/opinions/section-1-protection-des-donnees-a-caractere-personnel/article-20-personnes-decedees#arg-4444",
          "edit": "https://www.republique-numerique.fr/consultations/projet-de-loi-numerique/consultation/consultation/opinions/section-1-protection-des-donnees-a-caractere-personnel/article-20-personnes-decedees/arguments/4444/edit",
          "report": "https://www.republique-numerique.fr/consultations/projet-de-loi-numerique/consultation/consultation/opinions/section-1-protection-des-donnees-a-caractere-personnel/article-20-personnes-decedees/arguments/4444/report"
        },
        "has_user_voted": false,
        "has_user_reported": false
      },
      {
        "isContribuable": false,
        "id": 4408,
        "body": "Cet article est pour moi globalement intéressant même si cela parrait compliqué à mettre en place. Cela permet de prévenir  les héritiers mais néanmoins, comment le site saura t'il mis au courant du décès d'un des membres ? ",
        "created_at": "2015-10-15T20:16:40+0200",
        "updated_at": "2015-10-15T20:16:40+0200",
        "is_enabled": true,
        "votes_count": 0,
        "type": 1,
        "is_trashed": false,
        "author": {
          "username": "LEGRIP",
          "displayName": "LEGRIP",
          "uniqueId": "legrip",
          "isAdmin": false,
          "media": null,
          "vip": false,
          "_links": {
            "profile": "https://www.republique-numerique.fr/profile/legrip",
            "settings": "https://www.republique-numerique.fr/profile/edit-profile"
          }
        },
        "_links": {
          "show": "https://www.republique-numerique.fr/consultations/projet-de-loi-numerique/consultation/consultation/opinions/section-1-protection-des-donnees-a-caractere-personnel/article-20-personnes-decedees#arg-4408",
          "edit": "https://www.republique-numerique.fr/consultations/projet-de-loi-numerique/consultation/consultation/opinions/section-1-protection-des-donnees-a-caractere-personnel/article-20-personnes-decedees/arguments/4408/edit",
          "report": "https://www.republique-numerique.fr/consultations/projet-de-loi-numerique/consultation/consultation/opinions/section-1-protection-des-donnees-a-caractere-personnel/article-20-personnes-decedees/arguments/4408/report"
        },
        "has_user_voted": false,
        "has_user_reported": false
      },
      {
        "isContribuable": false,
        "id": 4168,
        "body": "Les données permettent à chaque individu de s'identifier. Elles rentrent donc dans le patrimoine de son propriétaire. Au même titre que les biens, les données sont transférables.",
        "created_at": "2015-10-15T12:26:38+0200",
        "updated_at": "2015-10-15T12:26:38+0200",
        "is_enabled": true,
        "votes_count": 0,
        "type": 1,
        "is_trashed": false,
        "author": {
          "username": "HAJA",
          "displayName": "HAJA",
          "uniqueId": "haja",
          "isAdmin": false,
          "media": null,
          "vip": false,
          "_links": {
            "profile": "https://www.republique-numerique.fr/profile/haja",
            "settings": "https://www.republique-numerique.fr/profile/edit-profile"
          }
        },
        "_links": {
          "show": "https://www.republique-numerique.fr/consultations/projet-de-loi-numerique/consultation/consultation/opinions/section-1-protection-des-donnees-a-caractere-personnel/article-20-personnes-decedees#arg-4168",
          "edit": "https://www.republique-numerique.fr/consultations/projet-de-loi-numerique/consultation/consultation/opinions/section-1-protection-des-donnees-a-caractere-personnel/article-20-personnes-decedees/arguments/4168/edit",
          "report": "https://www.republique-numerique.fr/consultations/projet-de-loi-numerique/consultation/consultation/opinions/section-1-protection-des-donnees-a-caractere-personnel/article-20-personnes-decedees/arguments/4168/report"
        },
        "has_user_voted": false,
        "has_user_reported": false
      },
      {
        "isContribuable": false,
        "id": 4132,
        "body": "je suis d'avis mitigé. Je pense que la personne décédée est libre de décider sur le sort de ses données. je pense que la future personne morte doit prévenir un ou plusieurs membres de sa famille (ou des personnes de confiances) qui eux transmettrons à la CNIL ou autres responsables, le choix de la personne.",
        "created_at": "2015-10-15T11:03:17+0200",
        "updated_at": "2015-10-15T11:03:17+0200",
        "is_enabled": true,
        "votes_count": 1,
        "type": 1,
        "is_trashed": false,
        "author": {
          "username": "Romain Mercier",
          "displayName": "Romain Mercier",
          "uniqueId": "romainmercier",
          "isAdmin": false,
          "media": null,
          "vip": false,
          "_links": {
            "profile": "https://www.republique-numerique.fr/profile/romainmercier",
            "settings": "https://www.republique-numerique.fr/profile/edit-profile"
          }
        },
        "_links": {
          "show": "https://www.republique-numerique.fr/consultations/projet-de-loi-numerique/consultation/consultation/opinions/section-1-protection-des-donnees-a-caractere-personnel/article-20-personnes-decedees#arg-4132",
          "edit": "https://www.republique-numerique.fr/consultations/projet-de-loi-numerique/consultation/consultation/opinions/section-1-protection-des-donnees-a-caractere-personnel/article-20-personnes-decedees/arguments/4132/edit",
          "report": "https://www.republique-numerique.fr/consultations/projet-de-loi-numerique/consultation/consultation/opinions/section-1-protection-des-donnees-a-caractere-personnel/article-20-personnes-decedees/arguments/4132/report"
        },
        "has_user_voted": false,
        "has_user_reported": false
      },
      {
        "isContribuable": false,
        "id": 4131,
        "body": "Je suis d'avis mitigé. premièrement, je pense que cela est compliqué à mettre en place.Deuxièmement comment la CNIL ou un autre responsable de données sera prévenu ? Cela veut donc dire que le concerné doit prévenir de son choix sur le traitement de ses données avant sa mort ?",
        "created_at": "2015-10-15T10:58:05+0200",
        "updated_at": "2015-10-15T10:58:05+0200",
        "is_enabled": true,
        "votes_count": 1,
        "type": 0,
        "is_trashed": false,
        "author": {
          "username": "Romain Mercier",
          "displayName": "Romain Mercier",
          "uniqueId": "romainmercier",
          "isAdmin": false,
          "media": null,
          "vip": false,
          "_links": {
            "profile": "https://www.republique-numerique.fr/profile/romainmercier",
            "settings": "https://www.republique-numerique.fr/profile/edit-profile"
          }
        },
        "_links": {
          "show": "https://www.republique-numerique.fr/consultations/projet-de-loi-numerique/consultation/consultation/opinions/section-1-protection-des-donnees-a-caractere-personnel/article-20-personnes-decedees#arg-4131",
          "edit": "https://www.republique-numerique.fr/consultations/projet-de-loi-numerique/consultation/consultation/opinions/section-1-protection-des-donnees-a-caractere-personnel/article-20-personnes-decedees/arguments/4131/edit",
          "report": "https://www.republique-numerique.fr/consultations/projet-de-loi-numerique/consultation/consultation/opinions/section-1-protection-des-donnees-a-caractere-personnel/article-20-personnes-decedees/arguments/4131/report"
        },
        "has_user_voted": false,
        "has_user_reported": false
      },
      {
        "isContribuable": false,
        "id": 3483,
        "body": "La famille n'est pas \"propriétaire\" de ses membres, chaque membre est libre d'informer ou non, de donner accès ou non. La mort n'est pas une raison valable pour mettre son nez dans la vie d'un autre, lien familial ou pas. Les ados décédés ont aussi droit à leur intimité. Ce qu'on a choisi de garder privé et perso de notre vivant, doit le rester !\nLes personnes ayant des données sur internet qui nécessitent un suivi ou une gestion, anticiperont leur décès en donnant accès, mots de passe, référence de comptes... avec leurs instructions (de destruction si besoin). \nSi le décès peut être prouvé sans ambiguité, et c'est discutable, mieux vaut détruire les données qu'en autoriser l'accès.\n",
        "created_at": "2015-10-13T10:10:02+0200",
        "updated_at": "2015-10-13T10:10:02+0200",
        "is_enabled": true,
        "votes_count": 0,
        "type": 0,
        "is_trashed": false,
        "author": {
          "username": "alice bachelier",
          "displayName": "alice bachelier",
          "uniqueId": "alicebachelier",
          "isAdmin": false,
          "media": null,
          "vip": false,
          "_links": {
            "profile": "https://www.republique-numerique.fr/profile/alicebachelier",
            "settings": "https://www.republique-numerique.fr/profile/edit-profile"
          }
        },
        "_links": {
          "show": "https://www.republique-numerique.fr/consultations/projet-de-loi-numerique/consultation/consultation/opinions/section-1-protection-des-donnees-a-caractere-personnel/article-20-personnes-decedees#arg-3483",
          "edit": "https://www.republique-numerique.fr/consultations/projet-de-loi-numerique/consultation/consultation/opinions/section-1-protection-des-donnees-a-caractere-personnel/article-20-personnes-decedees/arguments/3483/edit",
          "report": "https://www.republique-numerique.fr/consultations/projet-de-loi-numerique/consultation/consultation/opinions/section-1-protection-des-donnees-a-caractere-personnel/article-20-personnes-decedees/arguments/3483/report"
        },
        "has_user_voted": false,
        "has_user_reported": false
      },
      {
        "isContribuable": false,
        "id": 3447,
        "body": "Mise en oeuvre très compliqué. Comment le service en ligne sera averti de la mort d'un de ses utilisateurs ?",
        "created_at": "2015-10-13T06:32:17+0200",
        "updated_at": "2015-10-13T06:32:17+0200",
        "is_enabled": true,
        "votes_count": 2,
        "type": 0,
        "is_trashed": false,
        "author": {
          "username": "Paul",
          "displayName": "Paul",
          "uniqueId": "paul2",
          "isAdmin": false,
          "media": null,
          "vip": false,
          "_links": {
            "profile": "https://www.republique-numerique.fr/profile/paul2",
            "settings": "https://www.republique-numerique.fr/profile/edit-profile"
          }
        },
        "_links": {
          "show": "https://www.republique-numerique.fr/consultations/projet-de-loi-numerique/consultation/consultation/opinions/section-1-protection-des-donnees-a-caractere-personnel/article-20-personnes-decedees#arg-3447",
          "edit": "https://www.republique-numerique.fr/consultations/projet-de-loi-numerique/consultation/consultation/opinions/section-1-protection-des-donnees-a-caractere-personnel/article-20-personnes-decedees/arguments/3447/edit",
          "report": "https://www.republique-numerique.fr/consultations/projet-de-loi-numerique/consultation/consultation/opinions/section-1-protection-des-donnees-a-caractere-personnel/article-20-personnes-decedees/arguments/3447/report"
        },
        "has_user_voted": false,
        "has_user_reported": false
      },
      {
        "isContribuable": false,
        "id": 3238,
        "body": "Je suis pour car cela pourrait transmettre des données nécessaires à la famille de la personne décédée (données bancaires etc) mais seulement si la personne est d'accord avant sa mort et choisit à quels types de données on pourrait avoir accès.\nCela permettrait aussi de transmettre un patrimoine familial  ",
        "created_at": "2015-10-11T22:34:48+0200",
        "updated_at": "2015-10-11T22:34:48+0200",
        "is_enabled": true,
        "votes_count": 1,
        "type": 1,
        "is_trashed": false,
        "author": {
          "username": "fatimezzahrae tehitahe",
          "displayName": "fatimezzahrae tehitahe",
          "uniqueId": "fatimezzahraetehitahe",
          "isAdmin": false,
          "media": null,
          "vip": false,
          "_links": {
            "profile": "https://www.republique-numerique.fr/profile/fatimezzahraetehitahe",
            "settings": "https://www.republique-numerique.fr/profile/edit-profile"
          }
        },
        "_links": {
          "show": "https://www.republique-numerique.fr/consultations/projet-de-loi-numerique/consultation/consultation/opinions/section-1-protection-des-donnees-a-caractere-personnel/article-20-personnes-decedees#arg-3238",
          "edit": "https://www.republique-numerique.fr/consultations/projet-de-loi-numerique/consultation/consultation/opinions/section-1-protection-des-donnees-a-caractere-personnel/article-20-personnes-decedees/arguments/3238/edit",
          "report": "https://www.republique-numerique.fr/consultations/projet-de-loi-numerique/consultation/consultation/opinions/section-1-protection-des-donnees-a-caractere-personnel/article-20-personnes-decedees/arguments/3238/report"
        },
        "has_user_voted": false,
        "has_user_reported": false
      },
      {
        "isContribuable": false,
        "id": 3160,
        "body": "Mitigé, mais globalement pour. \n\nMitigé par ce que la mort numérique est différente par bien des aspects de la mort physique. Deux exemples :\n\n1) les éléments numériques ont pour caractéristiques de pouvoir appartenir à de nombreuses personnes à la fois. Par exemple, toutes les interactions sur Facebook avec une personne qui serait décédée doivent-elles disparaître des murs facebook des gens qui sont encore en vie ? Replacé dans un contexte physique, ce serait presque comme si on effaçait le souvenir de la personne décédée dans l'esprit des gens encore en vie...\n\n2) quid de la mort souhaitée d'une identité numérique ? Une personne physique peut très bien faire \"vivre\" plusieurs personnalités numériques (relisez Dominique Cardon), et souhaiter à un moment donné la mort numérique de cette identité numérique, sans pour autant souhaiter la mort de ses autres identités, et encore moins celle de son incarnation physique. De même, en prévoyance de sa mort physique, elle peut souhaiter que certaines de ses identités numériques meurent, et d'autres survivent.",
        "created_at": "2015-10-11T16:47:33+0200",
        "updated_at": "2015-10-11T16:47:33+0200",
        "is_enabled": true,
        "votes_count": 0,
        "type": 1,
        "is_trashed": false,
        "author": {
          "username": "Aymeric Poulain Maubant",
          "displayName": "Aymeric Poulain Maubant",
          "uniqueId": "aymericpoulainmaubant",
          "isAdmin": false,
          "media": {
            "url": "/media/cache/default_avatar/default/0001/01/515_default_avatar.jpg"
          },
          "vip": false,
          "_links": {
            "profile": "https://www.republique-numerique.fr/profile/aymericpoulainmaubant",
            "settings": "https://www.republique-numerique.fr/profile/edit-profile"
          }
        },
        "_links": {
          "show": "https://www.republique-numerique.fr/consultations/projet-de-loi-numerique/consultation/consultation/opinions/section-1-protection-des-donnees-a-caractere-personnel/article-20-personnes-decedees#arg-3160",
          "edit": "https://www.republique-numerique.fr/consultations/projet-de-loi-numerique/consultation/consultation/opinions/section-1-protection-des-donnees-a-caractere-personnel/article-20-personnes-decedees/arguments/3160/edit",
          "report": "https://www.republique-numerique.fr/consultations/projet-de-loi-numerique/consultation/consultation/opinions/section-1-protection-des-donnees-a-caractere-personnel/article-20-personnes-decedees/arguments/3160/report"
        },
        "has_user_voted": false,
        "has_user_reported": false
      },
      {
        "isContribuable": false,
        "id": 3095,
        "body": "Tout comme les directives de santé, une directive informatique sur les données personnelles est une très bonne idée en soi...  malheureusement, elle va se heurter a tout un ensemble de complications qui en rendront l'application caduque:\n- tout d'abord dans la définition de ce qui constitue 'les données personnelles' : un simple émail sans contenu prive est-il une donnée personnelle, un émail avec une pièce jointe officielle qui doit être conservée? Un émail destiné a une administration?  etc.. etc...   Il y a une myriade de possibilités qui vont rendre la partition entre Privé/non Privé très difficile;\n- Il peut y avoir conflit entre la directive et le testament;  lequel prime?  Si je suis auteur/écrivain/chercheur/scientifique/etc... et que j'ai un roman/un algorithme/une découverte/etc... a moitié fini sur mon site ou ma boite émail, mes héritiers voudront sans doute recevoir et commercialiser cette valeur de mes avoir auquel ils ont droit, même si j'ai demandé la destruction de mes données personnelles a ma mort...   cela pourrait être une perte pour l’humanité! ",
        "created_at": "2015-10-11T04:45:13+0200",
        "updated_at": "2015-10-11T04:45:13+0200",
        "is_enabled": true,
        "votes_count": 0,
        "type": 1,
        "is_trashed": false,
        "author": {
          "username": "Marcel Poualion",
          "displayName": "Marcel Poualion",
          "uniqueId": "marcelpoualion",
          "isAdmin": false,
          "media": null,
          "vip": false,
          "_links": {
            "profile": "https://www.republique-numerique.fr/profile/marcelpoualion",
            "settings": "https://www.republique-numerique.fr/profile/edit-profile"
          }
        },
        "_links": {
          "show": "https://www.republique-numerique.fr/consultations/projet-de-loi-numerique/consultation/consultation/opinions/section-1-protection-des-donnees-a-caractere-personnel/article-20-personnes-decedees#arg-3095",
          "edit": "https://www.republique-numerique.fr/consultations/projet-de-loi-numerique/consultation/consultation/opinions/section-1-protection-des-donnees-a-caractere-personnel/article-20-personnes-decedees/arguments/3095/edit",
          "report": "https://www.republique-numerique.fr/consultations/projet-de-loi-numerique/consultation/consultation/opinions/section-1-protection-des-donnees-a-caractere-personnel/article-20-personnes-decedees/arguments/3095/report"
        },
        "has_user_voted": false,
        "has_user_reported": false
      },
      {
        "isContribuable": false,
        "id": 2833,
        "body": "il faut aussi rajouter que les que les conte non utiliser durant 10 ans soie fermer automatiquement en partant du principe que la personne est allor decede",
        "created_at": "2015-10-09T19:38:39+0200",
        "updated_at": "2015-10-09T19:38:39+0200",
        "is_enabled": true,
        "votes_count": 0,
        "type": 1,
        "is_trashed": false,
        "author": {
          "username": "Yves Jean Gillot",
          "displayName": "Yves Jean Gillot",
          "uniqueId": "yvesjeangillot",
          "isAdmin": false,
          "media": null,
          "vip": false,
          "_links": {
            "profile": "https://www.republique-numerique.fr/profile/yvesjeangillot",
            "settings": "https://www.republique-numerique.fr/profile/edit-profile"
          }
        },
        "_links": {
          "show": "https://www.republique-numerique.fr/consultations/projet-de-loi-numerique/consultation/consultation/opinions/section-1-protection-des-donnees-a-caractere-personnel/article-20-personnes-decedees#arg-2833",
          "edit": "https://www.republique-numerique.fr/consultations/projet-de-loi-numerique/consultation/consultation/opinions/section-1-protection-des-donnees-a-caractere-personnel/article-20-personnes-decedees/arguments/2833/edit",
          "report": "https://www.republique-numerique.fr/consultations/projet-de-loi-numerique/consultation/consultation/opinions/section-1-protection-des-donnees-a-caractere-personnel/article-20-personnes-decedees/arguments/2833/report"
        },
        "has_user_voted": false,
        "has_user_reported": false
      },
      {
        "isContribuable": false,
        "id": 2735,
        "body": "Trop compliqué... ça fait doublon avec le E-testament... on est perdus... soyez plus synthétique enfin...",
        "created_at": "2015-10-08T23:27:55+0200",
        "updated_at": "2015-10-08T23:27:55+0200",
        "is_enabled": true,
        "votes_count": 0,
        "type": 0,
        "is_trashed": false,
        "author": {
          "username": "Nicolas Joly",
          "displayName": "Nicolas Joly",
          "uniqueId": "nicolasjoly",
          "isAdmin": false,
          "media": null,
          "vip": false,
          "_links": {
            "profile": "https://www.republique-numerique.fr/profile/nicolasjoly",
            "settings": "https://www.republique-numerique.fr/profile/edit-profile"
          }
        },
        "_links": {
          "show": "https://www.republique-numerique.fr/consultations/projet-de-loi-numerique/consultation/consultation/opinions/section-1-protection-des-donnees-a-caractere-personnel/article-20-personnes-decedees#arg-2735",
          "edit": "https://www.republique-numerique.fr/consultations/projet-de-loi-numerique/consultation/consultation/opinions/section-1-protection-des-donnees-a-caractere-personnel/article-20-personnes-decedees/arguments/2735/edit",
          "report": "https://www.republique-numerique.fr/consultations/projet-de-loi-numerique/consultation/consultation/opinions/section-1-protection-des-donnees-a-caractere-personnel/article-20-personnes-decedees/arguments/2735/report"
        },
        "has_user_voted": false,
        "has_user_reported": false
      },
      {
        "isContribuable": false,
        "id": 2535,
        "body": "Il semble difficile d'imposer par une loi française ou même européenne des procédures à des services qui sont souvent américains voire californiens mais aussi russes ou autres. \nIl faudrait en plus trouver une méthode de transmission qui soit sûre et qui ne puisse pas être déclenchée avant la réalité du décès. Il me semble que le meilleur interlocuteur en France pour ce sujet est le notaire.\n\nEnfin, l'opposition par un héritier pour la suppression des données me semble peu adaptée au monde numérique. \nQue fait-on pour les personnes qui ont une \"deuxième vie\" sur le web? On laisse des héritiers découvrir ce qu'elles ont toujours voulu cacher de leur vivant ?\n",
        "created_at": "2015-10-07T18:57:49+0200",
        "updated_at": "2015-10-07T18:57:49+0200",
        "is_enabled": true,
        "votes_count": 1,
        "type": 0,
        "is_trashed": false,
        "author": {
          "username": "Benjamin Rosoor (Transmitio)",
          "displayName": "Benjamin Rosoor (Transmitio)",
          "uniqueId": "benjaminrosoortransmitio",
          "isAdmin": false,
          "media": null,
          "vip": false,
          "_links": {
            "profile": "https://www.republique-numerique.fr/profile/benjaminrosoortransmitio",
            "settings": "https://www.republique-numerique.fr/profile/edit-profile"
          }
        },
        "_links": {
          "show": "https://www.republique-numerique.fr/consultations/projet-de-loi-numerique/consultation/consultation/opinions/section-1-protection-des-donnees-a-caractere-personnel/article-20-personnes-decedees#arg-2535",
          "edit": "https://www.republique-numerique.fr/consultations/projet-de-loi-numerique/consultation/consultation/opinions/section-1-protection-des-donnees-a-caractere-personnel/article-20-personnes-decedees/arguments/2535/edit",
          "report": "https://www.republique-numerique.fr/consultations/projet-de-loi-numerique/consultation/consultation/opinions/section-1-protection-des-donnees-a-caractere-personnel/article-20-personnes-decedees/arguments/2535/report"
        },
        "has_user_voted": false,
        "has_user_reported": false
      },
      {
        "isContribuable": false,
        "id": 2309,
        "body": "A la limite de l'absurde. Faut gerer ses donnees quand on est vivant regulierement, quand on est mort, ben c'est trop tard.",
        "created_at": "2015-10-05T20:24:17+0200",
        "updated_at": "2015-10-05T20:24:17+0200",
        "is_enabled": true,
        "votes_count": 0,
        "type": 0,
        "is_trashed": false,
        "author": {
          "username": "Jean-Yves Tillier",
          "displayName": "Jean-Yves Tillier",
          "uniqueId": "jeanyvestillier",
          "isAdmin": false,
          "media": null,
          "vip": false,
          "_links": {
            "profile": "https://www.republique-numerique.fr/profile/jeanyvestillier",
            "settings": "https://www.republique-numerique.fr/profile/edit-profile"
          }
        },
        "_links": {
          "show": "https://www.republique-numerique.fr/consultations/projet-de-loi-numerique/consultation/consultation/opinions/section-1-protection-des-donnees-a-caractere-personnel/article-20-personnes-decedees#arg-2309",
          "edit": "https://www.republique-numerique.fr/consultations/projet-de-loi-numerique/consultation/consultation/opinions/section-1-protection-des-donnees-a-caractere-personnel/article-20-personnes-decedees/arguments/2309/edit",
          "report": "https://www.republique-numerique.fr/consultations/projet-de-loi-numerique/consultation/consultation/opinions/section-1-protection-des-donnees-a-caractere-personnel/article-20-personnes-decedees/arguments/2309/report"
        },
        "has_user_voted": false,
        "has_user_reported": false
      },
      {
        "isContribuable": false,
        "id": 2196,
        "body": "Qu'en est il dans les autres pays UE?",
        "created_at": "2015-10-04T20:16:13+0200",
        "updated_at": "2015-10-04T20:16:13+0200",
        "is_enabled": true,
        "votes_count": 0,
        "type": 1,
        "is_trashed": false,
        "author": {
          "username": "Venet",
          "displayName": "Venet",
          "uniqueId": "venet",
          "isAdmin": false,
          "media": null,
          "vip": false,
          "_links": {
            "profile": "https://www.republique-numerique.fr/profile/venet",
            "settings": "https://www.republique-numerique.fr/profile/edit-profile"
          }
        },
        "_links": {
          "show": "https://www.republique-numerique.fr/consultations/projet-de-loi-numerique/consultation/consultation/opinions/section-1-protection-des-donnees-a-caractere-personnel/article-20-personnes-decedees#arg-2196",
          "edit": "https://www.republique-numerique.fr/consultations/projet-de-loi-numerique/consultation/consultation/opinions/section-1-protection-des-donnees-a-caractere-personnel/article-20-personnes-decedees/arguments/2196/edit",
          "report": "https://www.republique-numerique.fr/consultations/projet-de-loi-numerique/consultation/consultation/opinions/section-1-protection-des-donnees-a-caractere-personnel/article-20-personnes-decedees/arguments/2196/report"
        },
        "has_user_voted": false,
        "has_user_reported": false
      },
      {
        "isContribuable": false,
        "id": 2043,
        "body": "Cet article devrait etre eleve au niveau europeen ou mondial. Que ce passe-t-il pour un Francais expatrie? Par exemple des donnees publiees sur Facebook par un Francais resident a l'etranger... our des photos publiees sur snapfish.. etc... Est-ce que la CNIL s'applique dans ces cas la? Est-ce le role de la CNIL de gerer tout ca? Peut-etre un debut de reponse a ce problem delicat mis cet article ne changera pas grand chose..",
        "created_at": "2015-10-02T18:50:45+0200",
        "updated_at": "2015-10-02T18:50:45+0200",
        "is_enabled": true,
        "votes_count": 3,
        "type": 1,
        "is_trashed": false,
        "author": {
          "username": "Blandine Marcelin",
          "displayName": "Blandine Marcelin",
          "uniqueId": "blandinemarcelin",
          "isAdmin": false,
          "media": null,
          "vip": false,
          "_links": {
            "profile": "https://www.republique-numerique.fr/profile/blandinemarcelin",
            "settings": "https://www.republique-numerique.fr/profile/edit-profile"
          }
        },
        "_links": {
          "show": "https://www.republique-numerique.fr/consultations/projet-de-loi-numerique/consultation/consultation/opinions/section-1-protection-des-donnees-a-caractere-personnel/article-20-personnes-decedees#arg-2043",
          "edit": "https://www.republique-numerique.fr/consultations/projet-de-loi-numerique/consultation/consultation/opinions/section-1-protection-des-donnees-a-caractere-personnel/article-20-personnes-decedees/arguments/2043/edit",
          "report": "https://www.republique-numerique.fr/consultations/projet-de-loi-numerique/consultation/consultation/opinions/section-1-protection-des-donnees-a-caractere-personnel/article-20-personnes-decedees/arguments/2043/report"
        },
        "has_user_voted": false,
        "has_user_reported": false
      },
      {
        "isContribuable": false,
        "id": 1645,
        "body": "Cette loi devrait être appliquée de part le monde, ce qui la rend caduque avant même d'être promulguée.",
        "created_at": "2015-09-30T17:56:14+0200",
        "updated_at": "2015-09-30T17:56:14+0200",
        "is_enabled": true,
        "votes_count": 0,
        "type": 0,
        "is_trashed": false,
        "author": {
          "username": "Lionel Frédéric Lebeau",
          "displayName": "Lionel Frédéric Lebeau",
          "uniqueId": "lionelfredericlebeau",
          "isAdmin": false,
          "media": null,
          "vip": false,
          "_links": {
            "profile": "https://www.republique-numerique.fr/profile/lionelfredericlebeau",
            "settings": "https://www.republique-numerique.fr/profile/edit-profile"
          }
        },
        "_links": {
          "show": "https://www.republique-numerique.fr/consultations/projet-de-loi-numerique/consultation/consultation/opinions/section-1-protection-des-donnees-a-caractere-personnel/article-20-personnes-decedees#arg-1645",
          "edit": "https://www.republique-numerique.fr/consultations/projet-de-loi-numerique/consultation/consultation/opinions/section-1-protection-des-donnees-a-caractere-personnel/article-20-personnes-decedees/arguments/1645/edit",
          "report": "https://www.republique-numerique.fr/consultations/projet-de-loi-numerique/consultation/consultation/opinions/section-1-protection-des-donnees-a-caractere-personnel/article-20-personnes-decedees/arguments/1645/report"
        },
        "has_user_voted": false,
        "has_user_reported": false
      },
      {
        "isContribuable": false,
        "id": 1629,
        "body": "Les droits reconnus par la loi \"Informatique et libertés\" sont personnels : ils s'éteignent au décès de leur titulaire et ne sont pas transmissibles à cause de mort. Cette disposition bouleverse complètement le droit civil et sera surtout une source de conflits sans fin entre les héritiers.\r\nMieux vaudrait décider qu'à partir du moment où un responsable de traitement est informé de la mort d'une personne dont il traite les données, il procède à leur suppression dans les meilleurs délais, sauf disposition légale spécifique lui imposant une conservation pendant un délai particulier - auquel cas il les supprimera à l'expiration de ce délai.",
        "created_at": "2015-09-30T17:16:04+0200",
        "updated_at": "2015-09-30T17:19:56+0200",
        "is_enabled": true,
        "votes_count": 1,
        "type": 0,
        "is_trashed": false,
        "author": {
          "username": "Joseph Joe Dredd",
          "displayName": "Joseph Joe Dredd",
          "uniqueId": "josephjoedredd",
          "isAdmin": false,
          "media": null,
          "vip": false,
          "_links": {
            "profile": "https://www.republique-numerique.fr/profile/josephjoedredd",
            "settings": "https://www.republique-numerique.fr/profile/edit-profile"
          }
        },
        "_links": {
          "show": "https://www.republique-numerique.fr/consultations/projet-de-loi-numerique/consultation/consultation/opinions/section-1-protection-des-donnees-a-caractere-personnel/article-20-personnes-decedees#arg-1629",
          "edit": "https://www.republique-numerique.fr/consultations/projet-de-loi-numerique/consultation/consultation/opinions/section-1-protection-des-donnees-a-caractere-personnel/article-20-personnes-decedees/arguments/1629/edit",
          "report": "https://www.republique-numerique.fr/consultations/projet-de-loi-numerique/consultation/consultation/opinions/section-1-protection-des-donnees-a-caractere-personnel/article-20-personnes-decedees/arguments/1629/report"
        },
        "has_user_voted": false,
        "has_user_reported": false
      },
      {
        "isContribuable": false,
        "id": 1178,
        "body": "l'idée est louable mais irréaliste, le problème est que le prestataire ne sera jamais informé de la mort de son client, je vous invite à regarder le nombre de morts qui sont vivants sur les réseaux sociaux. Il faut simplement que l'utilisateur pense à laisser des droits d'accès afin que ses ayant-droits puissent faire les opérations souhaitées par lui.  ",
        "created_at": "2015-09-29T11:08:44+0200",
        "updated_at": "2015-09-29T11:08:44+0200",
        "is_enabled": true,
        "votes_count": 0,
        "type": 0,
        "is_trashed": false,
        "author": {
          "username": "du boullay",
          "displayName": "du boullay",
          "uniqueId": "duboullay",
          "isAdmin": false,
          "media": null,
          "vip": false,
          "_links": {
            "profile": "https://www.republique-numerique.fr/profile/duboullay",
            "settings": "https://www.republique-numerique.fr/profile/edit-profile"
          }
        },
        "_links": {
          "show": "https://www.republique-numerique.fr/consultations/projet-de-loi-numerique/consultation/consultation/opinions/section-1-protection-des-donnees-a-caractere-personnel/article-20-personnes-decedees#arg-1178",
          "edit": "https://www.republique-numerique.fr/consultations/projet-de-loi-numerique/consultation/consultation/opinions/section-1-protection-des-donnees-a-caractere-personnel/article-20-personnes-decedees/arguments/1178/edit",
          "report": "https://www.republique-numerique.fr/consultations/projet-de-loi-numerique/consultation/consultation/opinions/section-1-protection-des-donnees-a-caractere-personnel/article-20-personnes-decedees/arguments/1178/report"
        },
        "has_user_voted": false,
        "has_user_reported": false
      },
      {
        "isContribuable": false,
        "id": 1012,
        "body": "Le problème est de savoir comment signaler à de tel site que l'utilisateur en question est décédé, c'est bien beau de savoir quoi faire de ses données après la mort mais encore faut il pouvoir annoncer au fournisseur que la personne est bien morte, le prouver. Et encore faut-il que les héritiers sachent dans quels sites l'utilisateur a t il déposé certaines de ses données...",
        "created_at": "2015-09-28T20:19:19+0200",
        "updated_at": "2015-09-28T20:19:19+0200",
        "is_enabled": true,
        "votes_count": 1,
        "type": 0,
        "is_trashed": false,
        "author": {
          "username": "Cyril Broutin",
          "displayName": "Cyril Broutin",
          "uniqueId": "cyrilbroutin",
          "isAdmin": false,
          "media": null,
          "vip": false,
          "_links": {
            "profile": "https://www.republique-numerique.fr/profile/cyrilbroutin",
            "settings": "https://www.republique-numerique.fr/profile/edit-profile"
          }
        },
        "_links": {
          "show": "https://www.republique-numerique.fr/consultations/projet-de-loi-numerique/consultation/consultation/opinions/section-1-protection-des-donnees-a-caractere-personnel/article-20-personnes-decedees#arg-1012",
          "edit": "https://www.republique-numerique.fr/consultations/projet-de-loi-numerique/consultation/consultation/opinions/section-1-protection-des-donnees-a-caractere-personnel/article-20-personnes-decedees/arguments/1012/edit",
          "report": "https://www.republique-numerique.fr/consultations/projet-de-loi-numerique/consultation/consultation/opinions/section-1-protection-des-donnees-a-caractere-personnel/article-20-personnes-decedees/arguments/1012/report"
        },
        "has_user_voted": false,
        "has_user_reported": false
      },
      {
        "isContribuable": false,
        "id": 951,
        "body": "Cela me semble compliqué à mettre en oeuvre, mais le cœur y est ! Imposer aux géants du web la gestion de la mort numérique d'une part, et définir la procédure et le \"tiers de confiance\" d'autre part.",
        "created_at": "2015-09-28T16:38:05+0200",
        "updated_at": "2015-09-28T16:38:05+0200",
        "is_enabled": true,
        "votes_count": 2,
        "type": 1,
        "is_trashed": false,
        "author": {
          "username": "Geoffrey THIESSET",
          "displayName": "Geoffrey THIESSET",
          "uniqueId": "geoffreythiesset",
          "isAdmin": false,
          "media": {
            "url": "/media/cache/default_avatar/default/0001/01/242_default_avatar.jpg"
          },
          "vip": false,
          "_links": {
            "profile": "https://www.republique-numerique.fr/profile/geoffreythiesset",
            "settings": "https://www.republique-numerique.fr/profile/edit-profile"
          }
        },
        "_links": {
          "show": "https://www.republique-numerique.fr/consultations/projet-de-loi-numerique/consultation/consultation/opinions/section-1-protection-des-donnees-a-caractere-personnel/article-20-personnes-decedees#arg-951",
          "edit": "https://www.republique-numerique.fr/consultations/projet-de-loi-numerique/consultation/consultation/opinions/section-1-protection-des-donnees-a-caractere-personnel/article-20-personnes-decedees/arguments/951/edit",
          "report": "https://www.republique-numerique.fr/consultations/projet-de-loi-numerique/consultation/consultation/opinions/section-1-protection-des-donnees-a-caractere-personnel/article-20-personnes-decedees/arguments/951/report"
        },
        "has_user_voted": false,
        "has_user_reported": false
      },
      {
        "isContribuable": false,
        "id": 899,
        "body": "Un organe administratif ne doit pas être dépositaire et \"gardien\" de données et volontés privées. \nLa loi peut encadrer de façon générale la transmission aux héritiers directs si le propriétaire n'a pas indiqué ses volontés (quid si pas d'héritiers?).\n\nPour ce qui est des dispositions spéciales de transmission que le propriétaire voudrait décider, cela appartient à la sphère privée:\npar TESTAMENT sous forme d'ACTE AUTHENTIQUE ÉLECTRONIQUE. \nSimplifier son accès, gratuité du service ou coût très modéré.\nUtiliser le Fichier Central des Dispositions de Dernières Volontés (FCDDV)\nAvantage: opposable et respect de la sphère privée.\n",
        "created_at": "2015-09-28T14:53:44+0200",
        "updated_at": "2015-09-28T14:53:44+0200",
        "is_enabled": true,
        "votes_count": 4,
        "type": 0,
        "is_trashed": false,
        "author": {
          "username": "Marie-Claire PÉROUX",
          "displayName": "Marie-Claire PÉROUX",
          "uniqueId": "marieclaireperoux",
          "isAdmin": false,
          "media": null,
          "vip": false,
          "_links": {
            "profile": "https://www.republique-numerique.fr/profile/marieclaireperoux",
            "settings": "https://www.republique-numerique.fr/profile/edit-profile"
          }
        },
        "_links": {
          "show": "https://www.republique-numerique.fr/consultations/projet-de-loi-numerique/consultation/consultation/opinions/section-1-protection-des-donnees-a-caractere-personnel/article-20-personnes-decedees#arg-899",
          "edit": "https://www.republique-numerique.fr/consultations/projet-de-loi-numerique/consultation/consultation/opinions/section-1-protection-des-donnees-a-caractere-personnel/article-20-personnes-decedees/arguments/899/edit",
          "report": "https://www.republique-numerique.fr/consultations/projet-de-loi-numerique/consultation/consultation/opinions/section-1-protection-des-donnees-a-caractere-personnel/article-20-personnes-decedees/arguments/899/report"
        },
        "has_user_voted": false,
        "has_user_reported": false
      },
      {
        "isContribuable": false,
        "id": 780,
        "body": "La communication supposerait une propriété des données à caractère personnel par la personne décédée. En ce sens, le terme \"ses données\" au sein de la lettre de la loi me semble inapproprié puisque nous n'en sommes pas propriétaires. \nDe même, d'un point de vue technique, il est difficile d'en penser la communication comme si ces données pouvaient être matérialisées en un tout uniforme. Si aujourd'hui le projet souhaite légiférer sans s'attarder plus longuement sur ces questions doctrinales, il est à craindre la pratique : le droit doit pousser autant le juridique que le développement d'outils adéquats. Les chercheurs souhaitant développer les entrepôts de métadonnées cherchent à endiguer le phénomène techniquement mais pas juridiquement.\nLa solution semblerait, conformément à la réforme du droit des biens en cours, résider dans la notion de patrimoine numérique de la personne physique et à pousser les recherches techniques pouvant organiser cette matière. Si nous repensions uniquement le patrimoine en terme de droit et non plus de biens, les  droits sur ces données (organisés selon deux niveaux à la façon des réflexions d'Elinor Ostrom) pourraient être \"communiqués\" et faire l'objet de \"directives\".\nEnfin, qui aurait le pouvoir (autorité publique ou privée) de vérifier que les directives sont appliquées conformément au demande de la personne ayant cédé les droits relatifs à ces données et quelles sanctions y seraient attachées ? \nQuestion rhétorique : La mort numérique doit-elle exister en ces termes et être concordante au décès physique d'une personne ? La véritable question est de savoir si la naissance numérique existe de façon concordante avec la vie humaine. A titre d'exemple, des parents parlant de leur futur enfant n'ont-ils pas commencé à renseigner des données à caractère personnel et à donner naissance numériquement à cette personne ? ",
        "created_at": "2015-09-28T10:29:32+0200",
        "updated_at": "2015-09-28T10:29:32+0200",
        "is_enabled": true,
        "votes_count": 3,
        "type": 0,
        "is_trashed": false,
        "author": {
          "username": "Jade Caboche",
          "displayName": "Jade Caboche",
          "uniqueId": "jadecaboche",
          "isAdmin": false,
          "media": {
            "url": "/media/cache/default_avatar/default/0001/01/196_default_avatar.jpg"
          },
          "vip": false,
          "_links": {
            "profile": "https://www.republique-numerique.fr/profile/jadecaboche",
            "settings": "https://www.republique-numerique.fr/profile/edit-profile"
          }
        },
        "_links": {
          "show": "https://www.republique-numerique.fr/consultations/projet-de-loi-numerique/consultation/consultation/opinions/section-1-protection-des-donnees-a-caractere-personnel/article-20-personnes-decedees#arg-780",
          "edit": "https://www.republique-numerique.fr/consultations/projet-de-loi-numerique/consultation/consultation/opinions/section-1-protection-des-donnees-a-caractere-personnel/article-20-personnes-decedees/arguments/780/edit",
          "report": "https://www.republique-numerique.fr/consultations/projet-de-loi-numerique/consultation/consultation/opinions/section-1-protection-des-donnees-a-caractere-personnel/article-20-personnes-decedees/arguments/780/report"
        },
        "has_user_voted": false,
        "has_user_reported": false
      },
      {
        "isContribuable": false,
        "id": 79,
        "body": "Les propriétaires de réseaux sociaux tous confondu devraient proposer a leurs utilisateurs de désigner un ou plusieurs utilisateurs dit de confiance, comme pour les volontés obsèques une simple lettre manuscrite ou numérique dématérialisé  devrait permettre de faire foi, a défaut d'héritier dans le cas d'une personne sans famille ayant contracté une prévoyance obsèques ou pas - le service des pompes funèbres pourrait se charger de faire respecter les volontés numériques du défunt (transmettre à un tiers, figer ou effacer les données) \n\nPour ce qui concerne le droit à l'oubli les ayant droits du défunt pourraient avoir le droit de pouvoir s'adresser aux moteurs de recherche pour faire effacer les données toujours sur le même principe de la lettre manuscrite ou numérique dématérialisé.",
        "created_at": "2015-09-26T14:27:02+0200",
        "updated_at": "2015-09-26T14:27:02+0200",
        "is_enabled": true,
        "votes_count": 1,
        "type": 0,
        "is_trashed": false,
        "author": {
          "username": "BEDINI Sébastien",
          "displayName": "BEDINI Sébastien",
          "uniqueId": "bedinisebastien",
          "isAdmin": false,
          "media": null,
          "vip": false,
          "_links": {
            "profile": "https://www.republique-numerique.fr/profile/bedinisebastien",
            "settings": "https://www.republique-numerique.fr/profile/edit-profile"
          }
        },
        "_links": {
          "show": "https://www.republique-numerique.fr/consultations/projet-de-loi-numerique/consultation/consultation/opinions/section-1-protection-des-donnees-a-caractere-personnel/article-20-personnes-decedees#arg-79",
          "edit": "https://www.republique-numerique.fr/consultations/projet-de-loi-numerique/consultation/consultation/opinions/section-1-protection-des-donnees-a-caractere-personnel/article-20-personnes-decedees/arguments/79/edit",
          "report": "https://www.republique-numerique.fr/consultations/projet-de-loi-numerique/consultation/consultation/opinions/section-1-protection-des-donnees-a-caractere-personnel/article-20-personnes-decedees/arguments/79/report"
        },
        "has_user_voted": false,
        "has_user_reported": false
      },
      {
        "isContribuable": false,
        "id": 34,
        "body": "Je ne veux surtout pas que la CNIL devient un confident universel aux 66 millions des français! Non. je donnerai mes mots de passe aux héritiers, un par mes sites.",
        "created_at": "2015-09-26T13:00:34+0200",
        "updated_at": "2015-09-26T13:00:34+0200",
        "is_enabled": true,
        "votes_count": 0,
        "type": 0,
        "is_trashed": false,
        "author": {
          "username": "Elisabeth Porteneuve",
          "displayName": "Elisabeth Porteneuve",
          "uniqueId": "elisabethporteneuve",
          "isAdmin": false,
          "media": null,
          "vip": false,
          "_links": {
            "profile": "https://www.republique-numerique.fr/profile/elisabethporteneuve",
            "settings": "https://www.republique-numerique.fr/profile/edit-profile"
          }
        },
        "_links": {
          "show": "https://www.republique-numerique.fr/consultations/projet-de-loi-numerique/consultation/consultation/opinions/section-1-protection-des-donnees-a-caractere-personnel/article-20-personnes-decedees#arg-34",
          "edit": "https://www.republique-numerique.fr/consultations/projet-de-loi-numerique/consultation/consultation/opinions/section-1-protection-des-donnees-a-caractere-personnel/article-20-personnes-decedees/arguments/34/edit",
          "report": "https://www.republique-numerique.fr/consultations/projet-de-loi-numerique/consultation/consultation/opinions/section-1-protection-des-donnees-a-caractere-personnel/article-20-personnes-decedees/arguments/34/report"
        },
        "has_user_voted": false,
        "has_user_reported": false
      },
      {
        "isContribuable": false,
        "id": 19,
        "body": "1) II.- Les termes \"tiers de confiance certifié par la CNIL\" sont-ils en conflit avec une autre définition ?\n\nDe plus, le terme \"labellisé\" à la place de \"certifié\" serait davantage approprié.\n\n2) III. - Cela soulève également la question de savoir quel intérêt à agir serait invoqué lors de l'action en retrait des données personnelles au décès d'une personne : l'intérêt de la personne décédée ou bien l'intérêt des héritiers ?\n\n\n",
        "created_at": "2015-09-26T12:26:16+0200",
        "updated_at": "2015-09-26T12:26:16+0200",
        "is_enabled": true,
        "votes_count": 7,
        "type": 1,
        "is_trashed": false,
        "author": {
          "username": "FANGET Alyson",
          "displayName": "FANGET Alyson",
          "uniqueId": "fangetalyson",
          "isAdmin": false,
          "media": null,
          "vip": false,
          "_links": {
            "profile": "https://www.republique-numerique.fr/profile/fangetalyson",
            "settings": "https://www.republique-numerique.fr/profile/edit-profile"
          }
        },
        "_links": {
          "show": "https://www.republique-numerique.fr/consultations/projet-de-loi-numerique/consultation/consultation/opinions/section-1-protection-des-donnees-a-caractere-personnel/article-20-personnes-decedees#arg-19",
          "edit": "https://www.republique-numerique.fr/consultations/projet-de-loi-numerique/consultation/consultation/opinions/section-1-protection-des-donnees-a-caractere-personnel/article-20-personnes-decedees/arguments/19/edit",
          "report": "https://www.republique-numerique.fr/consultations/projet-de-loi-numerique/consultation/consultation/opinions/section-1-protection-des-donnees-a-caractere-personnel/article-20-personnes-decedees/arguments/19/report"
        },
        "has_user_voted": false,
        "has_user_reported": false
      },
      {
        "isContribuable": false,
        "id": 11,
        "body": "Je pense que les données à caractère personnel, si le défunt n'a pas laissé de directives (surtout s'il est mineur), devraient pouvoir être transmises par voie de succession aux héritiers.",
        "created_at": "2015-09-26T11:57:51+0200",
        "updated_at": "2015-09-26T12:23:50+0200",
        "is_enabled": true,
        "votes_count": 2,
        "type": 0,
        "is_trashed": false,
        "author": {
          "username": "Tristan Mendès France",
          "displayName": "Tristan Mendès France",
          "uniqueId": "tristanmendesfrance",
          "isAdmin": false,
          "media": {
            "url": "/media/cache/default_avatar/default/0001/01/82_default_avatar.jpg"
          },
          "vip": false,
          "_links": {
            "profile": "https://www.republique-numerique.fr/profile/tristanmendesfrance",
            "settings": "https://www.republique-numerique.fr/profile/edit-profile"
          }
        },
        "_links": {
          "show": "https://www.republique-numerique.fr/consultations/projet-de-loi-numerique/consultation/consultation/opinions/section-1-protection-des-donnees-a-caractere-personnel/article-20-personnes-decedees#arg-11",
          "edit": "https://www.republique-numerique.fr/consultations/projet-de-loi-numerique/consultation/consultation/opinions/section-1-protection-des-donnees-a-caractere-personnel/article-20-personnes-decedees/arguments/11/edit",
          "report": "https://www.republique-numerique.fr/consultations/projet-de-loi-numerique/consultation/consultation/opinions/section-1-protection-des-donnees-a-caractere-personnel/article-20-personnes-decedees/arguments/11/report"
        },
        "has_user_voted": false,
        "has_user_reported": false
      }
    ],
    "modals": [
      {
        "key": "article 40",
        "before": "<p>Toute personne physique justifiant de son identité peut exiger du responsable d'un traitement que soient, selon les cas, rectifiées, complétées, mises à jour, verrouillées ou effacées les données à caractère personnel la concernant, qui sont inexactes, incomplètes, équivoques, périmées, ou dont la collecte, l'utilisation, la communication ou la conservation est interdite.</p><p>Lorsque l'intéressé en fait la demande, le responsable du traitement doit justifier, sans frais pour le demandeur, qu'il a procédé aux opérations exigées en vertu de l'alinéa précédent.</p><p>En cas de contestation, la charge de la preuve incombe au responsable auprès duquel est exercé le droit d'accès sauf lorsqu'il est établi que les données contestées ont été communiquées par l'intéressé ou avec son accord.</p><p>Lorsqu'il obtient une modification de l'enregistrement, l'intéressé est en droit d'obtenir le remboursement des frais correspondant au coût de la copie mentionnée au I de l'article 39.</p><p>Si une donnée a été transmise à un tiers, le responsable du traitement doit accomplir les diligences utiles afin de lui notifier les opérations qu'il a effectuées conformément au premier alinéa.</p><p>Les héritiers d'une personne décédée justifiant de leur identité peuvent, si des éléments portés à leur connaissance leur laissent présumer que les données à caractère personnel la concernant faisant l'objet d'un traitement n'ont pas été actualisées, exiger du responsable de ce traitement qu'il prenne en considération le décès et procède aux mises à jour qui doivent en être la conséquence.</p><p>Lorsque les héritiers en font la demande, le responsable du traitement doit justifier, sans frais pour le demandeur, qu'il a procédé aux opérations exigées en vertu de l'alinéa précédent.</p>",
        "after": "<p>I. Toute personne physique justifiant de son identité peut exiger du responsable d'un traitement que soient, selon les cas, rectifiées, complétées, mises à jour, verrouillées ou effacées les données à caractère personnel la concernant, qui sont inexactes, incomplètes, équivoques, périmées, ou dont la collecte, l'utilisation, la communication ou la conservation est interdite.</p><p>Lorsque l'intéressé en fait la demande, le responsable du traitement doit justifier, sans frais pour le demandeur, qu'il a procédé aux opérations exigées en vertu de l'alinéa précédent.</p><p>En cas de contestation, la charge de la preuve incombe au responsable auprès duquel est exercé le droit d'accès sauf lorsqu'il est établi que les données contestées ont été communiquées par l'intéressé ou avec son accord.</p><p>Lorsqu'il obtient une modification de l'enregistrement, l'intéressé est en droit d'obtenir le remboursement des frais correspondant au coût de la copie mentionnée au I de l'article 39.</p><p>II. – Toute personne peut définir des directives relatives à la conservation et à la communication de ses données à caractère personnel après son décès. Ces directives sont générales ou particulières.</p><p>Les directives générales concernent l’ensemble des données à caractère personnel de leur auteur et peuvent être confiées à un tiers de confiance numérique certifié par la CNIL.</p><p>Les directives particulières concernent les traitements de données à caractère personnel qu’elles désignent. Elles sont enregistrées auprès des responsables de traitement concernés.</p><p>Les directives définissent la manière dont la personne entend  que soient exercés après son décès les droits qu’elle détient en application de la présente loi. Ces directives sont sans préjudice des dispositions applicables aux données à caractère personnel relevant du régime sur les archives publiques.</p><p>Lorsque les directives prévoient la communication de données qui comportent également des données à caractère personnel relatives à des tiers, cette communication doit être effectuée dans le respect de la présente loi.</p><p>La personne peut modifier ou révoquer ses directives à tout moment. Elles sont rédigées selon un modèle dont le contenu est fixé par décret en Conseil d’Etat.</p><p>III. - Les directives peuvent désigner une personne chargée de leur exécution. Celle-ci a alors qualité, lorsque la personne est décédée, pour prendre connaissance des directives et demander leur mise en œuvre aux responsables de traitement concernés. A défaut de désignation, les héritiers de la personne décédée ont cette qualité.</p><p>IV. - Sauf lorsque la personne concernée a exprimé une volonté contraire dans les directives mentionnées au II, ses héritiers peuvent exercer après son décès les droits mentionnés à la présente section. Toutefois, l’effacement des données dans les conditions prévues par l’article 40 ne peut intervenir lorsqu’un des héritiers s’y oppose. »</p><p>« V. - Le prestataire de stockage de signaux écrits, images, sons ou messages de toute nature sur Internet informe l’utilisateur de ses droits à la protection de sa vie privée, du secret de ses correspondances et de ses données à caractère personnel.</p><p>« Il informe l’utilisateur du sort de ces données à son décès et lui permet de choisir de transmettre ou non ses données à un tiers qu’il désigne préalablement à la conclusion du contrat de prestation ».</p><p>Si une donnée a été transmise à un tiers, le responsable du traitement doit accomplir les diligences utiles afin de lui notifier les opérations qu'il a effectuées conformément au premier alinéa.</p><p>Les héritiers d'une personne décédée justifiant de leur identité peuvent, si des éléments portés à leur connaissance leur laissent présumer que les données à caractère personnel la concernant faisant l'objet d'un traitement n'ont pas été actualisées, exiger du responsable de ce traitement qu'il prenne en considération le décès et procède aux mises à jour qui doivent en être la conséquence.</p><p>Lorsque les héritiers en font la demande, le responsable du traitement doit justifier, sans frais pour le demandeur, qu'il a procédé aux opérations exigées en vertu de l'alinéa précédent.</p>",
        "title": "Article 40 de la loi informatique et libertés (n° 78-17) du 17 janvier 1978"
      },
      {
        "key": "article 36",
        "before": "<p>Les données à caractère personnel ne peuvent être conservées au-delà de la durée prévue au 5° de l'article 6 qu'en vue d'être traitées à des fins historiques, statistiques ou scientifiques ; le choix des données ainsi conservées est opéré dans les conditions prévues à l'article L. 212-3 du code du patrimoine.</p><p>Les traitements dont la finalité se limite à assurer la conservation à long terme de documents d'archives dans le cadre du livre II du même code sont dispensés des formalités préalables à la mise en œuvre des traitements prévues au chapitre IV de la présente loi.</p><p>Il peut être procédé à un traitement ayant des finalités autres que celles mentionnées au premier alinéa :</p><p>-soit avec l'accord exprès de la personne concernée ;</p><p>-soit avec l'autorisation de la Commission nationale de l'informatique et des libertés ;</p><p>-soit dans les conditions prévues au 8° du II et au IV de l'article 8 s'agissant de données mentionnées au I de ce même article.</p>",
        "after": "<p>Les données à caractère personnel ne peuvent être conservées au-delà de la durée prévue au 5° de l'article 6 qu'en vue d'être traitées à des fins historiques, statistiques ou scientifiques ; le choix des données ainsi conservées est opéré dans les conditions prévues à l'article L. 212-3 du code du patrimoine.</p><p>Les traitements dont la finalité se limite à assurer la conservation à long terme de documents d'archives dans le cadre du livre II du même code sont dispensés des formalités préalables à la mise en œuvre des traitements prévues au chapitre IV de la présente loi.</p><p>Il peut être procédé à un traitement ayant des finalités autres que celles mentionnées au premier alinéa :</p><p>-soit avec l'accord exprès de la personne concernée ;</p><p>-soit avec l'autorisation de la Commission nationale de l'informatique et des libertés ;</p><p>-soit dans les conditions prévues au 8° du II et au IV de l'article 8 s'agissant de données mentionnées au I de ce même article.</p><p>- soit en vertu de directives de la personne concernée, dans les conditions définies au II de l’article 40 ;</p>",
        "title": "Article 36 de la loi informatique et liberté (n° 78-17) du 17 janvier 1978"
      }
    ],
    "votes": [
      {
        "user": {
          "username": "Jean-Louis BONHOMME",
          "displayName": "Jean-Louis BONHOMME",
          "uniqueId": "jeanlouisbonhomme",
          "isAdmin": false,
          "media": null,
          "vip": false,
          "_links": {
            "profile": "https://www.republique-numerique.fr/profile/jeanlouisbonhomme",
            "settings": "https://www.republique-numerique.fr/profile/edit-profile"
          }
        }
      },
      {
        "user": {
          "username": "Gautier Fauquembergue",
          "displayName": "Gautier Fauquembergue",
          "uniqueId": "gautierfauquembergue",
          "isAdmin": false,
          "media": null,
          "vip": false,
          "_links": {
            "profile": "https://www.republique-numerique.fr/profile/gautierfauquembergue",
            "settings": "https://www.republique-numerique.fr/profile/edit-profile"
          }
        }
      },
      {
        "user": {
          "username": "Tristan Mendès France",
          "displayName": "Tristan Mendès France",
          "uniqueId": "tristanmendesfrance",
          "isAdmin": false,
          "media": {
            "url": "/media/cache/default_avatar/default/0001/01/82_default_avatar.jpg"
          },
          "vip": false,
          "_links": {
            "profile": "https://www.republique-numerique.fr/profile/tristanmendesfrance",
            "settings": "https://www.republique-numerique.fr/profile/edit-profile"
          }
        }
      },
      {
        "user": {
          "username": "Ghebali",
          "displayName": "Ghebali",
          "uniqueId": "ghebali",
          "isAdmin": false,
          "media": null,
          "vip": false,
          "_links": {
            "profile": "https://www.republique-numerique.fr/profile/ghebali",
            "settings": "https://www.republique-numerique.fr/profile/edit-profile"
          }
        }
      },
      {
        "user": {
          "username": "Nourry",
          "displayName": "Nourry",
          "uniqueId": "nourry",
          "isAdmin": false,
          "media": null,
          "vip": false,
          "_links": {
            "profile": "https://www.republique-numerique.fr/profile/nourry",
            "settings": "https://www.republique-numerique.fr/profile/edit-profile"
          }
        }
      }
    ],
    "appendices": [
      {
        "body": "<p><strong>Objectif :</strong> Permettre de d&eacute;cider par avance du sort de ses donn&eacute;es en cas de d&eacute;c&egrave;s</p>\r\n\r\n<p><strong>Explication :</strong> Avec le d&eacute;veloppement de l&rsquo;Internet et des r&eacute;seaux sociaux, les donn&eacute;es mises en ligne par les internautes connaissent un fort d&eacute;veloppement. La gestion de ces donn&eacute;es apr&egrave;s la mort, soul&egrave;ve des difficult&eacute;s, les h&eacute;ritiers n&rsquo;en ayant pas n&eacute;cessairement connaissance et ne pouvant y avoir acc&egrave;s. S&rsquo;agissant de donn&eacute;es &agrave; caract&egrave;re personnel, celles-ci sont attach&eacute;es &agrave; la personne du d&eacute;funt et ne peuvent &ecirc;tre transmises par voie de succession aux h&eacute;ritiers.<br />\r\nLe projet de loi permettra &agrave; toute personne, de son vivant, d&rsquo;organiser les conditions de conservation et de communication de ses donn&eacute;es &agrave; caract&egrave;re personnel apr&egrave;s son d&eacute;c&egrave;s. La personne pourra transmettre des directives sur le sort de ses donn&eacute;es &agrave; caract&egrave;re personnel &agrave; la CNIL ou &agrave; un responsable de traitement et pourra d&eacute;signer une personne charg&eacute;e de leur ex&eacute;cution.<br />\r\nPar ailleurs, les fournisseurs de services sur Internet devront informer l&rsquo;utilisateur du sort de ces donn&eacute;es &agrave; son d&eacute;c&egrave;s et lui permettre de choisir de les transmettre ou non &agrave; un tiers qu&rsquo;il d&eacute;signe.<br />\r\n<em>L&rsquo;adoption finale de cet article sera faite en coordination avec le projet de r&egrave;glement europ&eacute;en sur la protection des donn&eacute;es personnelles en cours de n&eacute;gociation.</em></p>\r\n\r\n<p><strong>Exemple :</strong> Un utilisateur d&rsquo;un service de photos en ligne aura acc&egrave;s &agrave; des r&eacute;glages dans le service lui permettant d&rsquo;indiquer ce qu&rsquo;il devient de ses donn&eacute;es apr&egrave;s son d&eacute;c&egrave;s.</p>",
        "type": {
          "title": "Explication de l'article"
        }
      }
    ],
    "ranking": null,
    "is_trashed": false,
    "title": "Article 20 - Mort numérique",
    "votes_nok": 17,
    "votes_ok": 563,
    "votes_mitige": 45,
    "_links": {
      "show": "https://www.republique-numerique.fr/consultations/projet-de-loi-numerique/consultation/consultation/opinions/section-1-protection-des-donnees-a-caractere-personnel/article-20-personnes-decedees",
      "edit": "https://www.republique-numerique.fr/consultations/projet-de-loi-numerique/consultation/consultation/opinions/section-1-protection-des-donnees-a-caractere-personnel/article-20-personnes-decedees/edit",
      "report": "https://www.republique-numerique.fr/consultations/projet-de-loi-numerique/consultation/consultation/opinions/section-1-protection-des-donnees-a-caractere-personnel/article-20-personnes-decedees/report",
      "type": "https://www.republique-numerique.fr/consultations/projet-de-loi-numerique/consultation/consultation/opinions/section-1-protection-des-donnees-a-caractere-personnel"
    },
    "user_vote": null,
    "has_user_reported": false
  },
  "rankingThreshold": null,
  "opinionTerm": 1
}