{
  "opinion": {
    "isContribuable": false,
    "votes_total": 216,
    "arguments_yes_count": 9,
    "arguments_no_count": 6,
    "id": 196,
    "created_at": "2015-09-27T18:39:20+0200",
    "updated_at": "2015-09-27T18:39:20+0200",
    "body": "<p>Les services publics et collectivit&eacute;s publiques (mairie, minist&egrave;res, etc.) mettant en &oelig;uvre des services sur Internet (sites institutionnels, site de t&eacute;l&eacute;d&eacute;claration, extranet, intranet, etc.) doivent obligatoirement et uniquement mettre en &oelig;uvre des communications s&eacute;curis&eacute;es par de la cryptographie forte et les bonnes pratiques aqu&eacute;quates (HSTS, confidentialit&eacute; persistante) quelque soit les protocoles utilis&eacute;s et les publics vis&eacute;s.</p>\r\n\r\n<p>Les courriers &eacute;lectroniques &eacute;chang&eacute;s avec les institutions et services publics et les citoyens doivent pouvoir &ecirc;tre chiffr&eacute;s par la mise &agrave; disposition de clefs publiques (S/MIME ou PGP). Ce doi nottament &ecirc;tre le cas des membres des parlements et des mairies.</p>\r\n\r\n<p>Les courriers &eacute;lectroniques en provenance des services de l&#39;&Eacute;tat doivent &ecirc;tre sign&eacute;s &eacute;lectroniquement afin d&#39;en garantir l&#39;authenticit&eacute;.</p>\r\n\r\n<p>Les courriers &eacute;lectroniques en provenance des services de l&#39;&eacute;tat doivent &ecirc;tre sign&eacute;s &eacute;lectroniquement.</p>\r\n\r\n<p>De m&ecirc;me, les &eacute;changes de donn&eacute;es &eacute;lectroniques entre les diff&eacute;rents services et institutions publiques doivent obligatoirement et uniquement utiliser des canaux s&eacute;curis&eacute;s par de la cryptographie forte et de la confidentialit&eacute; persistante.</p>\r\n\r\n<p>Les OVI et les services &laquo; sensibles &raquo; (D&eacute;partement informatique, ambassades, minist&egrave;res, Pr&eacute;fectures, Police et Gendarmerie), doivent utiliser 2 couches de chiffrement (VPN + HTTPS ; HTTPS + PGP par exemple) lors de la consultation ou de l&#39;&eacute;change de donn&eacute;es informatiques.</p>\r\n\r\n<p>Le chiffrement doit obligatoirement &ecirc;tre effectu&eacute; de bout en bout.</p>\r\n\r\n<p>L&#39;ANSSI pourra aider au d&eacute;ploiement et &agrave; la mise en &oelig;uvre.</p>\r\n\r\n<p>Un audit de s&eacute;curit&eacute; devra &ecirc;tre r&eacute;alis&eacute; tous les 5 ans par l&#39;ANSSI pour les communes de plus de 10 000 habitants. Les OVI et les services &quot;sensibles&quot; devront r&eacute;aliser un audit tous les 3 ans.</p>\r\n\r\n<p>Des ammendes administratives devront &ecirc;tre pr&eacute;vue pour les fautes et les manquements graves.</p>",
    "versions_count": 5,
    "sources_count": 0,
    "arguments_count": 15,
    "author": {
      "username": "Al",
      "displayName": "Al",
      "uniqueId": "al",
      "isAdmin": false,
      "media": null,
      "vip": false,
      "_links": {
        "profile": "https://www.republique-numerique.fr/profile/al",
        "settings": "https://www.republique-numerique.fr/profile/edit-profile"
      }
    },
    "type": {
      "id": 87,
      "title": "Section 2",
      "subtitle": "Service public de la donnée",
      "voteWidgetType": 2,
      "votesHelpText": "Pensez-vous que cette proposition permet d'atteindre les objectifs présentés dans l’explication de l’article ?",
      "commentSystem": 2,
      "color": "blue",
      "versionable": true,
      "sourceable": true,
      "votesThreshold": null,
      "votesThresholdHelpText": null
    },
    "sources": [],
    "arguments": [
      {
        "isContribuable": false,
        "id": 5357,
        "body": "La sécurisation des données publiques passera d'abord par la sécurisation des ordinateurs qui les stoquent et y donnent accès.\n<br><br>\nPour mémoire : un VPN (Virtual Private Network, terme assez mal choisi en anglais = tunnel chiffré en français) n'empêche pas une attaque directe et frontale d'une vulnérabilité Windows® de passer. Elle sera simplement indéchiffrable :(.",
        "created_at": "2015-10-17T16:29:14+0200",
        "updated_at": "2015-10-17T16:29:14+0200",
        "is_enabled": true,
        "votes_count": 0,
        "type": 0,
        "is_trashed": false,
        "author": {
          "username": "daniel Azuelos",
          "displayName": "daniel Azuelos",
          "uniqueId": "danielazuelos",
          "isAdmin": false,
          "media": {
            "url": "/media/cache/default_avatar/default/0001/01/952_default_avatar.jpg"
          },
          "vip": false,
          "_links": {
            "profile": "https://www.republique-numerique.fr/profile/danielazuelos",
            "settings": "https://www.republique-numerique.fr/profile/edit-profile"
          }
        },
        "_links": {
          "show": "https://www.republique-numerique.fr/consultations/projet-de-loi-numerique/consultation/consultation/opinions/section-2-service-public-de-la-donnee-1/securite-confidentialite-et-integrite-des-donnees-publiques#arg-5357",
          "edit": "https://www.republique-numerique.fr/consultations/projet-de-loi-numerique/consultation/consultation/opinions/section-2-service-public-de-la-donnee-1/securite-confidentialite-et-integrite-des-donnees-publiques/arguments/5357/edit",
          "report": "https://www.republique-numerique.fr/consultations/projet-de-loi-numerique/consultation/consultation/opinions/section-2-service-public-de-la-donnee-1/securite-confidentialite-et-integrite-des-donnees-publiques/arguments/5357/report"
        },
        "has_user_voted": false,
        "has_user_reported": false
      },
      {
        "isContribuable": false,
        "id": 5350,
        "body": "Envisagez de passer au correcteur orthographique de Word® ou Google® ça ne devrait pas être pire.",
        "created_at": "2015-10-17T16:23:39+0200",
        "updated_at": "2015-10-17T16:26:52+0200",
        "is_enabled": true,
        "votes_count": 0,
        "type": 0,
        "is_trashed": false,
        "author": {
          "username": "daniel Azuelos",
          "displayName": "daniel Azuelos",
          "uniqueId": "danielazuelos",
          "isAdmin": false,
          "media": {
            "url": "/media/cache/default_avatar/default/0001/01/952_default_avatar.jpg"
          },
          "vip": false,
          "_links": {
            "profile": "https://www.republique-numerique.fr/profile/danielazuelos",
            "settings": "https://www.republique-numerique.fr/profile/edit-profile"
          }
        },
        "_links": {
          "show": "https://www.republique-numerique.fr/consultations/projet-de-loi-numerique/consultation/consultation/opinions/section-2-service-public-de-la-donnee-1/securite-confidentialite-et-integrite-des-donnees-publiques#arg-5350",
          "edit": "https://www.republique-numerique.fr/consultations/projet-de-loi-numerique/consultation/consultation/opinions/section-2-service-public-de-la-donnee-1/securite-confidentialite-et-integrite-des-donnees-publiques/arguments/5350/edit",
          "report": "https://www.republique-numerique.fr/consultations/projet-de-loi-numerique/consultation/consultation/opinions/section-2-service-public-de-la-donnee-1/securite-confidentialite-et-integrite-des-donnees-publiques/arguments/5350/report"
        },
        "has_user_voted": false,
        "has_user_reported": false
      },
      {
        "isContribuable": false,
        "id": 4176,
        "body": "Si l'on pouvait augmenter la sécurité sur le web, avoir une sorte de police du web. Ca serait le top !",
        "created_at": "2015-10-15T12:39:34+0200",
        "updated_at": "2015-10-15T12:39:34+0200",
        "is_enabled": true,
        "votes_count": 0,
        "type": 1,
        "is_trashed": false,
        "author": {
          "username": "jlsimmobilier",
          "displayName": "jlsimmobilier",
          "uniqueId": "jlsimmobilier",
          "isAdmin": false,
          "media": null,
          "vip": false,
          "_links": {
            "profile": "https://www.republique-numerique.fr/profile/jlsimmobilier",
            "settings": "https://www.republique-numerique.fr/profile/edit-profile"
          }
        },
        "_links": {
          "show": "https://www.republique-numerique.fr/consultations/projet-de-loi-numerique/consultation/consultation/opinions/section-2-service-public-de-la-donnee-1/securite-confidentialite-et-integrite-des-donnees-publiques#arg-4176",
          "edit": "https://www.republique-numerique.fr/consultations/projet-de-loi-numerique/consultation/consultation/opinions/section-2-service-public-de-la-donnee-1/securite-confidentialite-et-integrite-des-donnees-publiques/arguments/4176/edit",
          "report": "https://www.republique-numerique.fr/consultations/projet-de-loi-numerique/consultation/consultation/opinions/section-2-service-public-de-la-donnee-1/securite-confidentialite-et-integrite-des-donnees-publiques/arguments/4176/report"
        },
        "has_user_voted": false,
        "has_user_reported": false
      },
      {
        "isContribuable": false,
        "id": 3546,
        "body": "Comme je le mentionne dans mon argumentaire contre, la rédaction actuelle de l'article me pose problème, mais certains aspects mentionnés dans le texte, comme  la signature numérique des mails de l'administration, et les audits de sécurité réguliers, me semblent tout de même être des principes suffisemment généraux, solides et pérennes pour être inscrits dans une loi.",
        "created_at": "2015-10-13T12:15:18+0200",
        "updated_at": "2015-10-13T12:15:18+0200",
        "is_enabled": true,
        "votes_count": 1,
        "type": 1,
        "is_trashed": false,
        "author": {
          "username": "Alexandre Coninx",
          "displayName": "Alexandre Coninx",
          "uniqueId": "alexandreconinx",
          "isAdmin": false,
          "media": null,
          "vip": false,
          "_links": {
            "profile": "https://www.republique-numerique.fr/profile/alexandreconinx",
            "settings": "https://www.republique-numerique.fr/profile/edit-profile"
          }
        },
        "_links": {
          "show": "https://www.republique-numerique.fr/consultations/projet-de-loi-numerique/consultation/consultation/opinions/section-2-service-public-de-la-donnee-1/securite-confidentialite-et-integrite-des-donnees-publiques#arg-3546",
          "edit": "https://www.republique-numerique.fr/consultations/projet-de-loi-numerique/consultation/consultation/opinions/section-2-service-public-de-la-donnee-1/securite-confidentialite-et-integrite-des-donnees-publiques/arguments/3546/edit",
          "report": "https://www.republique-numerique.fr/consultations/projet-de-loi-numerique/consultation/consultation/opinions/section-2-service-public-de-la-donnee-1/securite-confidentialite-et-integrite-des-donnees-publiques/arguments/3546/report"
        },
        "has_user_voted": false,
        "has_user_reported": false
      },
      {
        "isContribuable": false,
        "id": 3545,
        "body": "Je suis d'accord avec les objectifs de la proposition... mais les usages technologiques changent plus vite que la loi et une telle rédaction risque de rendre le texte rapidement dépassé.\n\nEt si on passe outre ce problème et considère ce texte comme un instantané, alors même si les moyens mentionnés me semblent globalement appropriés à l'heure actuelle, l'article reste beaucoup trop concis, vague, limité et mal justifié pour constituer une véritable recommandation technique pouvant être appliquée de facon pratique. Par ailleurs, il serait regrettable que des personnes se croient protégées ou se dédouanent de leur responsabilités parce qu'ils ont respecté la lettre d'un texte incomplet et mal formulé dont l'application ne peut être qu'imprécise.\n\nLa sécurité informatique est un métier, et sa mise en place peut par ailleurs demander une logistique assez lourde dans des systèmes de traitement complexes. La loi devrait fixer des principes généraux et laisser à un groupe d'experts le soin de rédiger et de maintenir à jour un ensemble de directives techniques détaillées, dont les conditions de mise en place devront être détaillées et ajustées en fonction de leur impact et du coût de leur mise en place, et auxquels les manquements devra être puni par la loi.",
        "created_at": "2015-10-13T12:15:03+0200",
        "updated_at": "2015-10-13T12:15:03+0200",
        "is_enabled": true,
        "votes_count": 4,
        "type": 0,
        "is_trashed": false,
        "author": {
          "username": "Alexandre Coninx",
          "displayName": "Alexandre Coninx",
          "uniqueId": "alexandreconinx",
          "isAdmin": false,
          "media": null,
          "vip": false,
          "_links": {
            "profile": "https://www.republique-numerique.fr/profile/alexandreconinx",
            "settings": "https://www.republique-numerique.fr/profile/edit-profile"
          }
        },
        "_links": {
          "show": "https://www.republique-numerique.fr/consultations/projet-de-loi-numerique/consultation/consultation/opinions/section-2-service-public-de-la-donnee-1/securite-confidentialite-et-integrite-des-donnees-publiques#arg-3545",
          "edit": "https://www.republique-numerique.fr/consultations/projet-de-loi-numerique/consultation/consultation/opinions/section-2-service-public-de-la-donnee-1/securite-confidentialite-et-integrite-des-donnees-publiques/arguments/3545/edit",
          "report": "https://www.republique-numerique.fr/consultations/projet-de-loi-numerique/consultation/consultation/opinions/section-2-service-public-de-la-donnee-1/securite-confidentialite-et-integrite-des-donnees-publiques/arguments/3545/report"
        },
        "has_user_voted": false,
        "has_user_reported": false
      },
      {
        "isContribuable": false,
        "id": 3201,
        "body": "Et la mise en place de ses système permettrait de mettre en avant les outils auprès des citoyens qui pourraient ensuite les utliser entre eux.",
        "created_at": "2015-10-11T19:11:21+0200",
        "updated_at": "2015-10-11T19:11:21+0200",
        "is_enabled": true,
        "votes_count": 0,
        "type": 1,
        "is_trashed": false,
        "author": {
          "username": "Le Poisson Libre",
          "displayName": "Le Poisson Libre",
          "uniqueId": "lepoissonlibre",
          "isAdmin": false,
          "media": {
            "url": "/media/cache/default_avatar/default/0001/01/116_default_avatar.png"
          },
          "vip": false,
          "_links": {
            "profile": "https://www.republique-numerique.fr/profile/lepoissonlibre",
            "settings": "https://www.republique-numerique.fr/profile/edit-profile"
          }
        },
        "_links": {
          "show": "https://www.republique-numerique.fr/consultations/projet-de-loi-numerique/consultation/consultation/opinions/section-2-service-public-de-la-donnee-1/securite-confidentialite-et-integrite-des-donnees-publiques#arg-3201",
          "edit": "https://www.republique-numerique.fr/consultations/projet-de-loi-numerique/consultation/consultation/opinions/section-2-service-public-de-la-donnee-1/securite-confidentialite-et-integrite-des-donnees-publiques/arguments/3201/edit",
          "report": "https://www.republique-numerique.fr/consultations/projet-de-loi-numerique/consultation/consultation/opinions/section-2-service-public-de-la-donnee-1/securite-confidentialite-et-integrite-des-donnees-publiques/arguments/3201/report"
        },
        "has_user_voted": false,
        "has_user_reported": false
      },
      {
        "isContribuable": false,
        "id": 2979,
        "body": "Une loi doit rester suffisament générale pour ne pas avoir a énoncer ou dicter des dispositifs technologiques qui sont amenés à évoluer beaucoup plus vite que les lois.  ",
        "created_at": "2015-10-10T16:37:32+0200",
        "updated_at": "2015-10-10T16:37:32+0200",
        "is_enabled": true,
        "votes_count": 4,
        "type": 0,
        "is_trashed": false,
        "author": {
          "username": "Christophe Thierry",
          "displayName": "Christophe Thierry",
          "uniqueId": "christophethierry",
          "isAdmin": false,
          "media": null,
          "vip": false,
          "_links": {
            "profile": "https://www.republique-numerique.fr/profile/christophethierry",
            "settings": "https://www.republique-numerique.fr/profile/edit-profile"
          }
        },
        "_links": {
          "show": "https://www.republique-numerique.fr/consultations/projet-de-loi-numerique/consultation/consultation/opinions/section-2-service-public-de-la-donnee-1/securite-confidentialite-et-integrite-des-donnees-publiques#arg-2979",
          "edit": "https://www.republique-numerique.fr/consultations/projet-de-loi-numerique/consultation/consultation/opinions/section-2-service-public-de-la-donnee-1/securite-confidentialite-et-integrite-des-donnees-publiques/arguments/2979/edit",
          "report": "https://www.republique-numerique.fr/consultations/projet-de-loi-numerique/consultation/consultation/opinions/section-2-service-public-de-la-donnee-1/securite-confidentialite-et-integrite-des-donnees-publiques/arguments/2979/report"
        },
        "has_user_voted": false,
        "has_user_reported": false
      },
      {
        "isContribuable": false,
        "id": 2667,
        "body": "Et pour la confidentialité de nos mails pour éviter le spam?",
        "created_at": "2015-10-08T14:08:10+0200",
        "updated_at": "2015-10-08T14:08:10+0200",
        "is_enabled": true,
        "votes_count": 0,
        "type": 1,
        "is_trashed": false,
        "author": {
          "username": "Phay Syvoun",
          "displayName": "Phay Syvoun",
          "uniqueId": "phaysyvoun",
          "isAdmin": false,
          "media": null,
          "vip": false,
          "_links": {
            "profile": "https://www.republique-numerique.fr/profile/phaysyvoun",
            "settings": "https://www.republique-numerique.fr/profile/edit-profile"
          }
        },
        "_links": {
          "show": "https://www.republique-numerique.fr/consultations/projet-de-loi-numerique/consultation/consultation/opinions/section-2-service-public-de-la-donnee-1/securite-confidentialite-et-integrite-des-donnees-publiques#arg-2667",
          "edit": "https://www.republique-numerique.fr/consultations/projet-de-loi-numerique/consultation/consultation/opinions/section-2-service-public-de-la-donnee-1/securite-confidentialite-et-integrite-des-donnees-publiques/arguments/2667/edit",
          "report": "https://www.republique-numerique.fr/consultations/projet-de-loi-numerique/consultation/consultation/opinions/section-2-service-public-de-la-donnee-1/securite-confidentialite-et-integrite-des-donnees-publiques/arguments/2667/report"
        },
        "has_user_voted": false,
        "has_user_reported": false
      },
      {
        "isContribuable": false,
        "id": 2208,
        "body": "avec carte a puce est lecteur de carte hautement sécuriser",
        "created_at": "2015-10-04T21:19:39+0200",
        "updated_at": "2015-10-04T21:19:39+0200",
        "is_enabled": true,
        "votes_count": 0,
        "type": 1,
        "is_trashed": false,
        "author": {
          "username": "Yves Jean Gillot",
          "displayName": "Yves Jean Gillot",
          "uniqueId": "yvesjeangillot",
          "isAdmin": false,
          "media": null,
          "vip": false,
          "_links": {
            "profile": "https://www.republique-numerique.fr/profile/yvesjeangillot",
            "settings": "https://www.republique-numerique.fr/profile/edit-profile"
          }
        },
        "_links": {
          "show": "https://www.republique-numerique.fr/consultations/projet-de-loi-numerique/consultation/consultation/opinions/section-2-service-public-de-la-donnee-1/securite-confidentialite-et-integrite-des-donnees-publiques#arg-2208",
          "edit": "https://www.republique-numerique.fr/consultations/projet-de-loi-numerique/consultation/consultation/opinions/section-2-service-public-de-la-donnee-1/securite-confidentialite-et-integrite-des-donnees-publiques/arguments/2208/edit",
          "report": "https://www.republique-numerique.fr/consultations/projet-de-loi-numerique/consultation/consultation/opinions/section-2-service-public-de-la-donnee-1/securite-confidentialite-et-integrite-des-donnees-publiques/arguments/2208/report"
        },
        "has_user_voted": false,
        "has_user_reported": false
      },
      {
        "isContribuable": false,
        "id": 2159,
        "body": "Non mais vous parlez de protocoles informatiques ? C'est une loi, pourriez-vous essayer d'être un peu plus ambitieux pour les autres au moins. ",
        "created_at": "2015-10-04T01:07:24+0200",
        "updated_at": "2015-10-04T01:07:24+0200",
        "is_enabled": true,
        "votes_count": 2,
        "type": 0,
        "is_trashed": false,
        "author": {
          "username": "Mon Tel",
          "displayName": "Mon Tel",
          "uniqueId": "montel",
          "isAdmin": false,
          "media": null,
          "vip": false,
          "_links": {
            "profile": "https://www.republique-numerique.fr/profile/montel",
            "settings": "https://www.republique-numerique.fr/profile/edit-profile"
          }
        },
        "_links": {
          "show": "https://www.republique-numerique.fr/consultations/projet-de-loi-numerique/consultation/consultation/opinions/section-2-service-public-de-la-donnee-1/securite-confidentialite-et-integrite-des-donnees-publiques#arg-2159",
          "edit": "https://www.republique-numerique.fr/consultations/projet-de-loi-numerique/consultation/consultation/opinions/section-2-service-public-de-la-donnee-1/securite-confidentialite-et-integrite-des-donnees-publiques/arguments/2159/edit",
          "report": "https://www.republique-numerique.fr/consultations/projet-de-loi-numerique/consultation/consultation/opinions/section-2-service-public-de-la-donnee-1/securite-confidentialite-et-integrite-des-donnees-publiques/arguments/2159/report"
        },
        "has_user_voted": false,
        "has_user_reported": false
      },
      {
        "isContribuable": false,
        "id": 1484,
        "body": "Oui sécurisation selon les préconisations de l’ANSSI de bout en bout mais attention RGS V2.0 est déjà caduc. Il ne contient pas les dernières règlementations en matière de signature numérique conformes aux dernières specifications ANSSI conformes au règlement eidas d’intéropérabilité. RGS oui mais réactualisé conformité eIDAS.\nD’autre part il ne faut oublier de prescrire des API (Application Programming Interface) sécurisés et de créer un label de confiance en la matière. Car la sécurisation des API est tout aussi fondamentale que celle des échanges sur internet.",
        "created_at": "2015-09-30T10:53:28+0200",
        "updated_at": "2015-09-30T10:53:28+0200",
        "is_enabled": true,
        "votes_count": 1,
        "type": 1,
        "is_trashed": false,
        "author": {
          "username": "LAUNAY",
          "displayName": "LAUNAY",
          "uniqueId": "launay",
          "isAdmin": false,
          "media": {
            "url": "/media/cache/default_avatar/default/0001/01/348_default_avatar.jpg"
          },
          "vip": false,
          "_links": {
            "profile": "https://www.republique-numerique.fr/profile/launay",
            "settings": "https://www.republique-numerique.fr/profile/edit-profile"
          }
        },
        "_links": {
          "show": "https://www.republique-numerique.fr/consultations/projet-de-loi-numerique/consultation/consultation/opinions/section-2-service-public-de-la-donnee-1/securite-confidentialite-et-integrite-des-donnees-publiques#arg-1484",
          "edit": "https://www.republique-numerique.fr/consultations/projet-de-loi-numerique/consultation/consultation/opinions/section-2-service-public-de-la-donnee-1/securite-confidentialite-et-integrite-des-donnees-publiques/arguments/1484/edit",
          "report": "https://www.republique-numerique.fr/consultations/projet-de-loi-numerique/consultation/consultation/opinions/section-2-service-public-de-la-donnee-1/securite-confidentialite-et-integrite-des-donnees-publiques/arguments/1484/report"
        },
        "has_user_voted": false,
        "has_user_reported": false
      },
      {
        "isContribuable": false,
        "id": 1354,
        "body": "Par pitié relisez vous ça pique les yeux !!!",
        "created_at": "2015-09-29T19:08:27+0200",
        "updated_at": "2015-09-29T19:08:27+0200",
        "is_enabled": true,
        "votes_count": 3,
        "type": 0,
        "is_trashed": false,
        "author": {
          "username": "François Briat",
          "displayName": "François Briat",
          "uniqueId": "francoisbriat",
          "isAdmin": false,
          "media": {
            "url": "/media/cache/default_avatar/default/0001/01/243_default_avatar.jpg"
          },
          "vip": false,
          "_links": {
            "profile": "https://www.republique-numerique.fr/profile/francoisbriat",
            "settings": "https://www.republique-numerique.fr/profile/edit-profile"
          }
        },
        "_links": {
          "show": "https://www.republique-numerique.fr/consultations/projet-de-loi-numerique/consultation/consultation/opinions/section-2-service-public-de-la-donnee-1/securite-confidentialite-et-integrite-des-donnees-publiques#arg-1354",
          "edit": "https://www.republique-numerique.fr/consultations/projet-de-loi-numerique/consultation/consultation/opinions/section-2-service-public-de-la-donnee-1/securite-confidentialite-et-integrite-des-donnees-publiques/arguments/1354/edit",
          "report": "https://www.republique-numerique.fr/consultations/projet-de-loi-numerique/consultation/consultation/opinions/section-2-service-public-de-la-donnee-1/securite-confidentialite-et-integrite-des-donnees-publiques/arguments/1354/report"
        },
        "has_user_voted": false,
        "has_user_reported": false
      },
      {
        "isContribuable": false,
        "id": 1179,
        "body": "D'accord mais doit être en lien avec la proposition https://www.republique-numerique.fr/consultations/projet-de-loi-numerique/consultation/consultation/opinions/section-3-donnees-d-interet-general/utilisation-de-gnu-linux-dans-l-administration\n\nSinon on va se retrouver avec faire du GPG avec des administratifs qui utilise Windows XP ou des certificats TLS, AES 4016, installés sur des Windows Server 2003 et ça n'a plus aucun intérêt.",
        "created_at": "2015-09-29T11:11:23+0200",
        "updated_at": "2015-09-29T11:11:23+0200",
        "is_enabled": true,
        "votes_count": 5,
        "type": 1,
        "is_trashed": false,
        "author": {
          "username": "Djan GICQUEL",
          "displayName": "Djan GICQUEL",
          "uniqueId": "djangicquel",
          "isAdmin": false,
          "media": {
            "url": "/media/cache/default_avatar/default/0001/01/122_default_avatar.jpg"
          },
          "vip": false,
          "_links": {
            "profile": "https://www.republique-numerique.fr/profile/djangicquel",
            "settings": "https://www.republique-numerique.fr/profile/edit-profile"
          }
        },
        "_links": {
          "show": "https://www.republique-numerique.fr/consultations/projet-de-loi-numerique/consultation/consultation/opinions/section-2-service-public-de-la-donnee-1/securite-confidentialite-et-integrite-des-donnees-publiques#arg-1179",
          "edit": "https://www.republique-numerique.fr/consultations/projet-de-loi-numerique/consultation/consultation/opinions/section-2-service-public-de-la-donnee-1/securite-confidentialite-et-integrite-des-donnees-publiques/arguments/1179/edit",
          "report": "https://www.republique-numerique.fr/consultations/projet-de-loi-numerique/consultation/consultation/opinions/section-2-service-public-de-la-donnee-1/securite-confidentialite-et-integrite-des-donnees-publiques/arguments/1179/report"
        },
        "has_user_voted": false,
        "has_user_reported": false
      },
      {
        "isContribuable": false,
        "id": 704,
        "body": "L'article de loi devrait indiqué qu'il faut que les usages mentionnés par les services soient sécurisés. Un décret ensuite pourrait expliquer les moyens techniques à mettre en oeuvre. Et effectivement l'ANSSI paraît être pertinent sur les moyens de sécurité à mettre en oeuvre, à condition qu'il y ait une adéquation entre usages et sécurité. \n\nUn point supplémentaire serait d'obliger les administrations à informer les usagers lorsqu’il y a eu une atteinte aux données des citoyens.",
        "created_at": "2015-09-27T22:25:58+0200",
        "updated_at": "2015-09-27T22:25:58+0200",
        "is_enabled": true,
        "votes_count": 2,
        "type": 1,
        "is_trashed": false,
        "author": {
          "username": "Téodor Chabin",
          "displayName": "Téodor Chabin",
          "uniqueId": "teodorchabin",
          "isAdmin": false,
          "media": null,
          "vip": false,
          "_links": {
            "profile": "https://www.republique-numerique.fr/profile/teodorchabin",
            "settings": "https://www.republique-numerique.fr/profile/edit-profile"
          }
        },
        "_links": {
          "show": "https://www.republique-numerique.fr/consultations/projet-de-loi-numerique/consultation/consultation/opinions/section-2-service-public-de-la-donnee-1/securite-confidentialite-et-integrite-des-donnees-publiques#arg-704",
          "edit": "https://www.republique-numerique.fr/consultations/projet-de-loi-numerique/consultation/consultation/opinions/section-2-service-public-de-la-donnee-1/securite-confidentialite-et-integrite-des-donnees-publiques/arguments/704/edit",
          "report": "https://www.republique-numerique.fr/consultations/projet-de-loi-numerique/consultation/consultation/opinions/section-2-service-public-de-la-donnee-1/securite-confidentialite-et-integrite-des-donnees-publiques/arguments/704/report"
        },
        "has_user_voted": false,
        "has_user_reported": false
      },
      {
        "isContribuable": false,
        "id": 689,
        "body": "Réponse à Stéphane Bortzmeyer : le RGS n'est pas un texte contraignant, il date de 2010 et est orienté vers les chefs de projet.\nLorsque l'on constate le niveau de sécurité de certain services publics (télédéclaration notamment ; cf. https://imirhil.fr/tls/#Administration), l'inscription dans la loi de la notion de communication sécurisée (chiffrement de haut niveau) semble nécessaire.\n\nJe reconnais que certains OVI, comme la Sécu, sont sur un réseau qui ne dispose que de 2 points de contact avec internet au niveau national (en passant, c'est parfait pour un MITM), mais l'administration française et les citoyens utilisent massivement des outils et des routes \"ouvertes\" (emails, sites internet, etc). Ces canaux d'informations doivent être sécurisés correctement.",
        "created_at": "2015-09-27T21:45:42+0200",
        "updated_at": "2015-09-27T21:45:42+0200",
        "is_enabled": true,
        "votes_count": 2,
        "type": 1,
        "is_trashed": false,
        "author": {
          "username": "Al",
          "displayName": "Al",
          "uniqueId": "al",
          "isAdmin": false,
          "media": null,
          "vip": false,
          "_links": {
            "profile": "https://www.republique-numerique.fr/profile/al",
            "settings": "https://www.republique-numerique.fr/profile/edit-profile"
          }
        },
        "_links": {
          "show": "https://www.republique-numerique.fr/consultations/projet-de-loi-numerique/consultation/consultation/opinions/section-2-service-public-de-la-donnee-1/securite-confidentialite-et-integrite-des-donnees-publiques#arg-689",
          "edit": "https://www.republique-numerique.fr/consultations/projet-de-loi-numerique/consultation/consultation/opinions/section-2-service-public-de-la-donnee-1/securite-confidentialite-et-integrite-des-donnees-publiques/arguments/689/edit",
          "report": "https://www.republique-numerique.fr/consultations/projet-de-loi-numerique/consultation/consultation/opinions/section-2-service-public-de-la-donnee-1/securite-confidentialite-et-integrite-des-donnees-publiques/arguments/689/report"
        },
        "has_user_voted": false,
        "has_user_reported": false
      }
    ],
    "modals": [],
    "votes": [
      {
        "user": {
          "username": "Yves Jean Gillot",
          "displayName": "Yves Jean Gillot",
          "uniqueId": "yvesjeangillot",
          "isAdmin": false,
          "media": null,
          "vip": false,
          "_links": {
            "profile": "https://www.republique-numerique.fr/profile/yvesjeangillot",
            "settings": "https://www.republique-numerique.fr/profile/edit-profile"
          }
        }
      },
      {
        "user": {
          "username": "Quentin Burny",
          "displayName": "Quentin Burny",
          "uniqueId": "quentinburny",
          "isAdmin": false,
          "media": null,
          "vip": false,
          "_links": {
            "profile": "https://www.republique-numerique.fr/profile/quentinburny",
            "settings": "https://www.republique-numerique.fr/profile/edit-profile"
          }
        }
      },
      {
        "user": {
          "username": "Massart",
          "displayName": "Massart",
          "uniqueId": "massart",
          "isAdmin": false,
          "media": null,
          "vip": false,
          "_links": {
            "profile": "https://www.republique-numerique.fr/profile/massart",
            "settings": "https://www.republique-numerique.fr/profile/edit-profile"
          }
        }
      },
      {
        "user": {
          "username": "Antoine Houssais",
          "displayName": "Antoine Houssais",
          "uniqueId": "antoinehoussais",
          "isAdmin": false,
          "media": null,
          "vip": false,
          "_links": {
            "profile": "https://www.republique-numerique.fr/profile/antoinehoussais",
            "settings": "https://www.republique-numerique.fr/profile/edit-profile"
          }
        }
      },
      {
        "user": {
          "username": "Téodor Chabin",
          "displayName": "Téodor Chabin",
          "uniqueId": "teodorchabin",
          "isAdmin": false,
          "media": null,
          "vip": false,
          "_links": {
            "profile": "https://www.republique-numerique.fr/profile/teodorchabin",
            "settings": "https://www.republique-numerique.fr/profile/edit-profile"
          }
        }
      }
    ],
    "appendices": [
      {
        "body": "<p>Les communications sur Internet peuvent &ndash; de par la nature et l&#39;architecture du r&eacute;seau &ndash; &ecirc;tre modifi&eacute;es, d&eacute;tourn&eacute;es, alt&eacute;r&eacute;es. La seule technique actuellement fiable pour &eacute;viter ce type de probl&egrave;me est l&#39;utilisation du chiffrement de haut niveau et de PFS.</p>\r\n\r\n<p>L&#39;&Eacute;tat traitant des informations personnelles et/ou sensibles il est important de garantir la confidentialit&eacute; et l&#39;int&eacute;grit&eacute; des donn&eacute;es &eacute;chang&eacute;es entre les services de l&#39;&Eacute;tat et les citoyens.</p>",
        "type": {
          "title": "Explication de l'article"
        }
      }
    ],
    "ranking": 56,
    "is_trashed": false,
    "title": "Sécurité, confidentialité et intégrité des données publiques",
    "votes_nok": 7,
    "votes_ok": 184,
    "votes_mitige": 25,
    "_links": {
      "show": "https://www.republique-numerique.fr/consultations/projet-de-loi-numerique/consultation/consultation/opinions/section-2-service-public-de-la-donnee-1/securite-confidentialite-et-integrite-des-donnees-publiques",
      "edit": "https://www.republique-numerique.fr/consultations/projet-de-loi-numerique/consultation/consultation/opinions/section-2-service-public-de-la-donnee-1/securite-confidentialite-et-integrite-des-donnees-publiques/edit",
      "report": "https://www.republique-numerique.fr/consultations/projet-de-loi-numerique/consultation/consultation/opinions/section-2-service-public-de-la-donnee-1/securite-confidentialite-et-integrite-des-donnees-publiques/report",
      "type": "https://www.republique-numerique.fr/consultations/projet-de-loi-numerique/consultation/consultation/opinions/section-2-service-public-de-la-donnee-1"
    },
    "user_vote": null,
    "has_user_reported": false
  },
  "rankingThreshold": null,
  "opinionTerm": 1
}