{
  "opinion": {
    "isContribuable": false,
    "votes_total": 1,
    "arguments_yes_count": 0,
    "arguments_no_count": 0,
    "id": 745,
    "created_at": "2015-10-18T15:42:15+0200",
    "updated_at": "2015-10-18T15:42:15+0200",
    "body": "<p>Une sensibilisation et une information centralis&eacute;e sont n&eacute;cessaires pour permettre la r&eacute;ussite de tous&nbsp; les efforts investis pour un meilleur acc&egrave;s au num&eacute;rique pour les citoyens et les entreprises fran&ccedil;aises.</p>\r\n\r\n<p>C&rsquo;est la raison pour laquelle nous proposons la cr&eacute;ation d&rsquo;un portail d&rsquo;information &agrave; double entr&eacute;e (particuliers/entreprises) qui permettrait d&rsquo;une part de faire conna&icirc;tre tous les dispositifs existants en mati&egrave;re d&rsquo;acc&egrave;s au num&eacute;rique (projets en cours, dispositifs d&rsquo;aides, les conseils pour s&eacute;lectionner les prestataires ad&eacute;quats, les pi&egrave;ges &agrave; &eacute;viter&hellip; ) et permettrait d&rsquo;autre part d&rsquo;acc&eacute;der &agrave; un annuaire des professionnels qualifi&eacute;s (exemple de crit&egrave;res de tri&nbsp;: projet envisag&eacute;, qualification reconnue, lieu de recherche).</p>",
    "versions_count": 0,
    "sources_count": 0,
    "arguments_count": 0,
    "author": {
      "username": "CINOV-IT - Président",
      "displayName": "CINOV-IT - Président",
      "uniqueId": "cinovitpresident",
      "isAdmin": false,
      "media": null,
      "vip": false,
      "_links": {
        "profile": "https://www.republique-numerique.fr/profile/cinovitpresident",
        "settings": "https://www.republique-numerique.fr/profile/edit-profile"
      }
    },
    "type": {
      "id": 106,
      "title": "Section 1",
      "subtitle": "Recommandé électronique",
      "voteWidgetType": 2,
      "votesHelpText": "Pensez-vous que cette proposition permet d'atteindre les objectifs présentés dans l’explication de l’article ?",
      "commentSystem": 2,
      "color": "blue",
      "versionable": true,
      "sourceable": true,
      "votesThreshold": null,
      "votesThresholdHelpText": null
    },
    "sources": [],
    "arguments": [],
    "modals": [],
    "votes": [
      {
        "user": {
          "username": "Jeanne Varasco",
          "displayName": "Jeanne Varasco",
          "uniqueId": "jeannevarasco",
          "isAdmin": false,
          "media": {
            "url": "/media/cache/default_avatar/default/0001/01/139_default_avatar.jpg"
          },
          "vip": false,
          "_links": {
            "profile": "https://www.republique-numerique.fr/profile/jeannevarasco",
            "settings": "https://www.republique-numerique.fr/profile/edit-profile"
          }
        }
      }
    ],
    "appendices": [
      {
        "body": null,
        "type": {
          "title": "Explication de l'article"
        }
      }
    ],
    "ranking": 577,
    "is_trashed": false,
    "title": "Ajout d'une section 3 : Portail d’information et de sensibilisation",
    "votes_nok": 0,
    "votes_ok": 1,
    "votes_mitige": 0,
    "_links": {
      "show": "https://www.republique-numerique.fr/consultations/projet-de-loi-numerique/consultation/consultation/opinions/section-1-recommande-electronique/ajout-d-une-section-3-portail-d-information-et-de-sensibilisation",
      "edit": "https://www.republique-numerique.fr/consultations/projet-de-loi-numerique/consultation/consultation/opinions/section-1-recommande-electronique/ajout-d-une-section-3-portail-d-information-et-de-sensibilisation/edit",
      "report": "https://www.republique-numerique.fr/consultations/projet-de-loi-numerique/consultation/consultation/opinions/section-1-recommande-electronique/ajout-d-une-section-3-portail-d-information-et-de-sensibilisation/report",
      "type": "https://www.republique-numerique.fr/consultations/projet-de-loi-numerique/consultation/consultation/opinions/section-1-recommande-electronique"
    },
    "user_vote": null,
    "has_user_reported": false
  },
  "rankingThreshold": null,
  "opinionTerm": 1
}