{
  "opinion": {
    "isContribuable": false,
    "votes_total": 22,
    "arguments_yes_count": 0,
    "arguments_no_count": 0,
    "id": 501,
    "created_at": "2015-10-09T17:52:49+0200",
    "updated_at": "2015-10-09T17:52:49+0200",
    "body": "<p>Dans l&#39;article 22, il faut supprimer l&#39;alin&eacute;a interdisant l&#39;analyse des mail par des robots.&nbsp;Il &nbsp;a des motivations compr&eacute;hensibles, mais risque d&#39;avoir plus d&#39;inconv&eacute;nients que d&#39;avantages &nbsp;pour les internautes fran&ccedil;ais :</p>\r\n\r\n<ul>\r\n\t<li>L&#39;analyse de nos mails par des robots peut aider &agrave; d&eacute;tecter des terroristes, &nbsp;des p&eacute;dophiles et tr&egrave;s souvent &nbsp;&agrave; &eacute;viter les spam.</li>\r\n\t<li>Par ailleurs, quitte &agrave; recevoir de la pub, je pr&eacute;f&egrave;re qu&#39;elle soit cibl&eacute;e sur ce qui peut m&#39;int&eacute;resser.</li>\r\n\t<li>Si la France cherche &agrave; brider la pub sur Internet, alors il faudra que les internautes fran&ccedil;ais acceptent de payer pour des services qui sont actuellement en acc&egrave;s gratuits (Google, You Tube, Bing, Yahoo, ...)</li>\r\n</ul>",
    "versions_count": 0,
    "sources_count": 0,
    "arguments_count": 0,
    "author": {
      "username": "Knuth jacques",
      "displayName": "Knuth jacques",
      "uniqueId": "knuthjacques",
      "isAdmin": false,
      "media": null,
      "vip": false,
      "_links": {
        "profile": "https://www.republique-numerique.fr/profile/knuthjacques",
        "settings": "https://www.republique-numerique.fr/profile/edit-profile"
      }
    },
    "type": {
      "id": 100,
      "title": "Section 2",
      "subtitle": "Confidentialité des correspondances privées",
      "voteWidgetType": 2,
      "votesHelpText": "Pensez-vous que cette proposition permet d'atteindre les objectifs présentés dans l’explication de l’article ?",
      "commentSystem": 2,
      "color": "blue",
      "versionable": true,
      "sourceable": true,
      "votesThreshold": null,
      "votesThresholdHelpText": null
    },
    "sources": [],
    "arguments": [],
    "modals": [],
    "votes": [
      {
        "user": {
          "username": "Knuth jacques",
          "displayName": "Knuth jacques",
          "uniqueId": "knuthjacques",
          "isAdmin": false,
          "media": null,
          "vip": false,
          "_links": {
            "profile": "https://www.republique-numerique.fr/profile/knuthjacques",
            "settings": "https://www.republique-numerique.fr/profile/edit-profile"
          }
        }
      },
      {
        "user": {
          "username": "Jeanne Varasco",
          "displayName": "Jeanne Varasco",
          "uniqueId": "jeannevarasco",
          "isAdmin": false,
          "media": {
            "url": "/media/cache/default_avatar/default/0001/01/139_default_avatar.jpg"
          },
          "vip": false,
          "_links": {
            "profile": "https://www.republique-numerique.fr/profile/jeannevarasco",
            "settings": "https://www.republique-numerique.fr/profile/edit-profile"
          }
        }
      },
      {
        "user": {
          "username": "Gérard Faye",
          "displayName": "Gérard Faye",
          "uniqueId": "gerardfaye",
          "isAdmin": false,
          "media": null,
          "vip": false,
          "_links": {
            "profile": "https://www.republique-numerique.fr/profile/gerardfaye",
            "settings": "https://www.republique-numerique.fr/profile/edit-profile"
          }
        }
      },
      {
        "user": {
          "username": "Jean-Yves Christian François Raulic",
          "displayName": "Jean-Yves Christian François Raulic",
          "uniqueId": "jeanyveschristianfrancoisraulic",
          "isAdmin": false,
          "media": null,
          "vip": false,
          "_links": {
            "profile": "https://www.republique-numerique.fr/profile/jeanyveschristianfrancoisraulic",
            "settings": "https://www.republique-numerique.fr/profile/edit-profile"
          }
        }
      },
      {
        "user": {
          "username": "François Billioud",
          "displayName": "François Billioud",
          "uniqueId": "francoisbillioud",
          "isAdmin": false,
          "media": null,
          "vip": false,
          "_links": {
            "profile": "https://www.republique-numerique.fr/profile/francoisbillioud",
            "settings": "https://www.republique-numerique.fr/profile/edit-profile"
          }
        }
      }
    ],
    "appendices": [
      {
        "body": null,
        "type": {
          "title": "Explication de l'article"
        }
      }
    ],
    "ranking": 506,
    "is_trashed": false,
    "title": "supprimer l'alinéa interdisant l'analyse des mail par des robots.",
    "votes_nok": 18,
    "votes_ok": 3,
    "votes_mitige": 1,
    "_links": {
      "show": "https://www.republique-numerique.fr/consultations/projet-de-loi-numerique/consultation/consultation/opinions/section-2-confidentialite-des-correspondances-privees/supprimer-l-alinea-interdisant-l-analyse-des-mail-par-des-robots",
      "edit": "https://www.republique-numerique.fr/consultations/projet-de-loi-numerique/consultation/consultation/opinions/section-2-confidentialite-des-correspondances-privees/supprimer-l-alinea-interdisant-l-analyse-des-mail-par-des-robots/edit",
      "report": "https://www.republique-numerique.fr/consultations/projet-de-loi-numerique/consultation/consultation/opinions/section-2-confidentialite-des-correspondances-privees/supprimer-l-alinea-interdisant-l-analyse-des-mail-par-des-robots/report",
      "type": "https://www.republique-numerique.fr/consultations/projet-de-loi-numerique/consultation/consultation/opinions/section-2-confidentialite-des-correspondances-privees"
    },
    "user_vote": null,
    "has_user_reported": false
  },
  "rankingThreshold": null,
  "opinionTerm": 1
}