{
  "opinion": {
    "isContribuable": false,
    "votes_total": 495,
    "arguments_yes_count": 10,
    "arguments_no_count": 13,
    "id": 77,
    "created_at": "2015-09-26T02:28:00+0200",
    "updated_at": "2015-09-26T07:22:46+0200",
    "body": "<p>L&rsquo;article 11 de la m&ecirc;me loi est ainsi modifi&eacute;&nbsp;:</p>\r\n\r\n<p>1&deg; Il est ajout&eacute; un 1&deg; bis ainsi r&eacute;dig&eacute;&nbsp;:</p>\r\n\r\n<p>&laquo;&nbsp;1&deg; bis Elle soutient, dans le cadre de ses missions, le d&eacute;veloppement des technologies respectueuses de la vie priv&eacute;e;</p>\r\n\r\n<p>2&deg; Au d) du 2&deg;, apr&egrave;s les mots&nbsp;: &laquo;&nbsp;et conseille&nbsp;&raquo;, sont remplac&eacute;s par les mots &laquo;&nbsp;, conseille et accompagne&nbsp;&raquo;&nbsp;;</p>\r\n\r\n<p>3&deg; Le 4&deg; est ainsi modifi&eacute;&nbsp;:</p>\r\n\r\n<p>a) Au troisi&egrave;me alin&eacute;a les mots &laquo;&nbsp;relatif &agrave; la protection des personnes &agrave; l&#39;&eacute;gard des traitements automatis&eacute;s&nbsp;&raquo; sont remplac&eacute;s par les mots &laquo;&nbsp;comportant des dispositions relatives &agrave; la protection des donn&eacute;es &agrave; caract&egrave;re personnel ou au traitement de telles donn&eacute;es.&nbsp;&raquo;</p>\r\n\r\n<p>b) Apr&egrave;s le troisi&egrave;me alin&eacute;a, il est ajout&eacute; l&rsquo;alin&eacute;a suivant&nbsp;:</p>\r\n\r\n<p>&laquo;&nbsp;Le pr&eacute;sident d&#39;une assembl&eacute;e parlementaire peut soumettre &agrave; l&#39;avis de la commission une proposition de loi comportant des dispositions relatives &agrave; la protection des donn&eacute;es &agrave; caract&egrave;re personnel ou au traitement de telles donn&eacute;es, d&eacute;pos&eacute;e par l&#39;un des membres de cette assembl&eacute;e, sauf si ce dernier s&#39;y oppose.&nbsp;&raquo;&nbsp;&nbsp;;</p>\r\n\r\n<p>c) Il est ajout&eacute; un e) ainsi r&eacute;dig&eacute;&nbsp;:</p>\r\n\r\n<p>&laquo;&nbsp;e) Elle conduit une r&eacute;flexion sur les probl&egrave;mes &eacute;thiques et les questions de soci&eacute;t&eacute; soulev&eacute;s par l&rsquo;&eacute;volution des technologies num&eacute;riques. Un d&eacute;cret pr&eacute;cise les conditions de mise en &oelig;uvre de cette mission, notamment quant aux modalit&eacute;s d&rsquo;implication de personnalit&eacute;s qualifi&eacute;es et d&rsquo;organisation du d&eacute;bat public.&nbsp;&raquo;</p>",
    "versions_count": 30,
    "sources_count": 2,
    "arguments_count": 23,
    "author": {
      "username": "Gouvernement",
      "displayName": "Gouvernement",
      "uniqueId": "gouvernement",
      "isAdmin": false,
      "media": {
        "url": "/media/cache/default_avatar/default/0001/01/72_default_avatar.jpg"
      },
      "vip": true,
      "_links": {
        "profile": "https://www.republique-numerique.fr/profile/gouvernement",
        "settings": "https://www.republique-numerique.fr/profile/edit-profile"
      }
    },
    "type": {
      "id": 99,
      "title": "Section 1",
      "subtitle": "Protection des données à caractère personnel",
      "voteWidgetType": 2,
      "votesHelpText": "Pensez-vous que cette proposition permet d'atteindre les objectifs présentés dans l’explication de l’article ?",
      "commentSystem": 2,
      "color": "blue",
      "versionable": true,
      "sourceable": true,
      "votesThreshold": null,
      "votesThresholdHelpText": null
    },
    "sources": [
      {
        "isContribuable": false,
        "id": 68,
        "title": "Qu'est ce que la CNIL ?",
        "link": "http://www.cnil.fr/linstitution/qui-sommes-nous/",
        "body": "\"(...) La Commission nationale de l’informatique et des libertés est chargée de veiller à ce que l’informatique soit au service du citoyen et qu’elle ne porte atteinte ni à l’identité humaine, ni aux droits de l’homme, ni à la vie privée, ni aux libertés individuelles ou publiques.\r\nElle exerce ses missions conformément à  la loi informatique et libertés qui la qualifie d'autorité administrative indépendante (...)\"",
        "created_at": "2015-09-29T12:01:40+0200",
        "updated_at": "2015-09-29T12:02:03+0200",
        "author": {
          "username": "Pierre",
          "displayName": "Pierre",
          "uniqueId": "pierre1",
          "isAdmin": false,
          "media": {
            "url": "/media/cache/default_avatar/default/0001/01/199_default_avatar.png"
          },
          "vip": false,
          "_links": {
            "profile": "https://www.republique-numerique.fr/profile/pierre1",
            "settings": "https://www.republique-numerique.fr/profile/edit-profile"
          }
        },
        "category": "Site internet",
        "votes_count": 0,
        "_links": {
          "edit": "https://www.republique-numerique.fr/consultations/projet-de-loi-numerique/consultation/consultation/opinions/section-1-protection-des-donnees-a-caractere-personnel/article-17-missions-de-la-cnil/sources/qu-est-ce-que-la-cnil/edit",
          "report": "https://www.republique-numerique.fr/consultations/projet-de-loi-numerique/consultation/consultation/opinions/section-1-protection-des-donnees-a-caractere-personnel/article-17-missions-de-la-cnil/sources/qu-est-ce-que-la-cnil/report"
        },
        "has_user_voted": false,
        "has_user_reported": false
      },
      {
        "isContribuable": false,
        "id": 52,
        "title": "La CNIL :  sa vie, son oeuvre",
        "link": "http://www.cnil.fr/documentation/deliberations/normes-simplifiees/",
        "body": "Depuis sa création la CNIL définit la liberté comme : liberté garantie des administrations et entreprises de procéder à toutes les collectes de données qu'elles souhaitent en toute impunité. Merci qui ? Merci la CNIL.\r\nhttp://www.cnil.fr/documentation/deliberations/normes-simplifiees/",
        "created_at": "2015-09-28T19:31:49+0200",
        "updated_at": "2015-09-28T19:35:15+0200",
        "author": {
          "username": "yadlajoie",
          "displayName": "yadlajoie",
          "uniqueId": "yadlajoie",
          "isAdmin": false,
          "media": {
            "url": "/media/cache/default_avatar/default/0001/01/128_default_avatar.png"
          },
          "vip": false,
          "_links": {
            "profile": "https://www.republique-numerique.fr/profile/yadlajoie",
            "settings": "https://www.republique-numerique.fr/profile/edit-profile"
          }
        },
        "category": "Lois et règlements",
        "votes_count": 0,
        "_links": {
          "edit": "https://www.republique-numerique.fr/consultations/projet-de-loi-numerique/consultation/consultation/opinions/section-1-protection-des-donnees-a-caractere-personnel/article-17-missions-de-la-cnil/sources/la-cnil-sa-vie-son-oeuvre/edit",
          "report": "https://www.republique-numerique.fr/consultations/projet-de-loi-numerique/consultation/consultation/opinions/section-1-protection-des-donnees-a-caractere-personnel/article-17-missions-de-la-cnil/sources/la-cnil-sa-vie-son-oeuvre/report"
        },
        "has_user_voted": false,
        "has_user_reported": false
      }
    ],
    "arguments": [
      {
        "isContribuable": false,
        "id": 6107,
        "body": "Oui à la saisine pour avis du président d'une assemblée parlementaire, ce qui est cohérent avec l'ensemble de ses missions.\nPlus réservée sur la mission d'éthique conséquente aux évolutions technologiques, qui peuvent être partagées par plusieurs instances, avec des conflits de légitimité.",
        "created_at": "2015-10-18T21:47:30+0200",
        "updated_at": "2015-10-18T21:47:30+0200",
        "is_enabled": true,
        "votes_count": 0,
        "type": 1,
        "is_trashed": false,
        "author": {
          "username": "Nicole Gauthier",
          "displayName": "Nicole Gauthier",
          "uniqueId": "nicolegauthier",
          "isAdmin": false,
          "media": null,
          "vip": false,
          "_links": {
            "profile": "https://www.republique-numerique.fr/profile/nicolegauthier",
            "settings": "https://www.republique-numerique.fr/profile/edit-profile"
          }
        },
        "_links": {
          "show": "https://www.republique-numerique.fr/consultations/projet-de-loi-numerique/consultation/consultation/opinions/section-1-protection-des-donnees-a-caractere-personnel/article-17-missions-de-la-cnil#arg-6107",
          "edit": "https://www.republique-numerique.fr/consultations/projet-de-loi-numerique/consultation/consultation/opinions/section-1-protection-des-donnees-a-caractere-personnel/article-17-missions-de-la-cnil/arguments/6107/edit",
          "report": "https://www.republique-numerique.fr/consultations/projet-de-loi-numerique/consultation/consultation/opinions/section-1-protection-des-donnees-a-caractere-personnel/article-17-missions-de-la-cnil/arguments/6107/report"
        },
        "has_user_voted": false,
        "has_user_reported": false
      },
      {
        "isContribuable": false,
        "id": 6047,
        "body": "Je ne vois pas l'intérêt du point 2 (ajout de \"et accompagne\"), qui me semble, à première vue, redondant avec \"conseille\".",
        "created_at": "2015-10-18T19:56:52+0200",
        "updated_at": "2015-10-18T19:56:52+0200",
        "is_enabled": true,
        "votes_count": 0,
        "type": 0,
        "is_trashed": false,
        "author": {
          "username": "Lefebvre-Naré Frédéric",
          "displayName": "Lefebvre-Naré Frédéric",
          "uniqueId": "lefebvrenarefrederic",
          "isAdmin": false,
          "media": {
            "url": "/media/cache/default_avatar/default/0001/02/1044_default_avatar.jpg"
          },
          "vip": false,
          "_links": {
            "profile": "https://www.republique-numerique.fr/profile/lefebvrenarefrederic",
            "settings": "https://www.republique-numerique.fr/profile/edit-profile"
          }
        },
        "_links": {
          "show": "https://www.republique-numerique.fr/consultations/projet-de-loi-numerique/consultation/consultation/opinions/section-1-protection-des-donnees-a-caractere-personnel/article-17-missions-de-la-cnil#arg-6047",
          "edit": "https://www.republique-numerique.fr/consultations/projet-de-loi-numerique/consultation/consultation/opinions/section-1-protection-des-donnees-a-caractere-personnel/article-17-missions-de-la-cnil/arguments/6047/edit",
          "report": "https://www.republique-numerique.fr/consultations/projet-de-loi-numerique/consultation/consultation/opinions/section-1-protection-des-donnees-a-caractere-personnel/article-17-missions-de-la-cnil/arguments/6047/report"
        },
        "has_user_voted": false,
        "has_user_reported": false
      },
      {
        "isContribuable": false,
        "id": 5759,
        "body": "Étant Correspondant Relais Informatique et Libertés dans une grande entreprise d'assurance, je suis très déçu du fonctionnement de la CNIL.Et opposé, par conséquent, à tout élargissement de son rôle. Pour illustrer mon propos, nos représentants ont dû négocier durant des mois avec des personnes sans aucune connaissance de notre activité. Et, bien souvent, les exigences de la CNIL n'allaient pas dans le sens de la protection du citoyen, bien au contraire ! La CNIL a également 10 ans de retard sur les moyens technologiques... Bref, commençons par rénover son fonctionnement avant d'élargir ses pouvoirs.",
        "created_at": "2015-10-18T11:54:59+0200",
        "updated_at": "2015-10-18T11:54:59+0200",
        "is_enabled": true,
        "votes_count": 0,
        "type": 0,
        "is_trashed": false,
        "author": {
          "username": "Alain Kaim",
          "displayName": "Alain Kaim",
          "uniqueId": "alainkaim",
          "isAdmin": false,
          "media": null,
          "vip": false,
          "_links": {
            "profile": "https://www.republique-numerique.fr/profile/alainkaim",
            "settings": "https://www.republique-numerique.fr/profile/edit-profile"
          }
        },
        "_links": {
          "show": "https://www.republique-numerique.fr/consultations/projet-de-loi-numerique/consultation/consultation/opinions/section-1-protection-des-donnees-a-caractere-personnel/article-17-missions-de-la-cnil#arg-5759",
          "edit": "https://www.republique-numerique.fr/consultations/projet-de-loi-numerique/consultation/consultation/opinions/section-1-protection-des-donnees-a-caractere-personnel/article-17-missions-de-la-cnil/arguments/5759/edit",
          "report": "https://www.republique-numerique.fr/consultations/projet-de-loi-numerique/consultation/consultation/opinions/section-1-protection-des-donnees-a-caractere-personnel/article-17-missions-de-la-cnil/arguments/5759/report"
        },
        "has_user_voted": false,
        "has_user_reported": false
      },
      {
        "isContribuable": false,
        "id": 5232,
        "body": "Les avis de la CNIL devraient être rendus publics.",
        "created_at": "2015-10-17T14:28:41+0200",
        "updated_at": "2015-10-17T14:28:41+0200",
        "is_enabled": true,
        "votes_count": 2,
        "type": 1,
        "is_trashed": false,
        "author": {
          "username": "FFTélécoms",
          "displayName": "FFTélécoms",
          "uniqueId": "fftelecoms",
          "isAdmin": false,
          "media": null,
          "vip": false,
          "_links": {
            "profile": "https://www.republique-numerique.fr/profile/fftelecoms",
            "settings": "https://www.republique-numerique.fr/profile/edit-profile"
          }
        },
        "_links": {
          "show": "https://www.republique-numerique.fr/consultations/projet-de-loi-numerique/consultation/consultation/opinions/section-1-protection-des-donnees-a-caractere-personnel/article-17-missions-de-la-cnil#arg-5232",
          "edit": "https://www.republique-numerique.fr/consultations/projet-de-loi-numerique/consultation/consultation/opinions/section-1-protection-des-donnees-a-caractere-personnel/article-17-missions-de-la-cnil/arguments/5232/edit",
          "report": "https://www.republique-numerique.fr/consultations/projet-de-loi-numerique/consultation/consultation/opinions/section-1-protection-des-donnees-a-caractere-personnel/article-17-missions-de-la-cnil/arguments/5232/report"
        },
        "has_user_voted": false,
        "has_user_reported": false
      },
      {
        "isContribuable": false,
        "id": 4199,
        "body": "La CNIL ne doit statuer que sur l'application des lois pas les faire elle même.",
        "created_at": "2015-10-15T13:36:24+0200",
        "updated_at": "2015-10-15T13:36:24+0200",
        "is_enabled": true,
        "votes_count": 0,
        "type": 0,
        "is_trashed": false,
        "author": {
          "username": "Laurent Gerdy",
          "displayName": "Laurent Gerdy",
          "uniqueId": "laurentgerdy",
          "isAdmin": false,
          "media": null,
          "vip": false,
          "_links": {
            "profile": "https://www.republique-numerique.fr/profile/laurentgerdy",
            "settings": "https://www.republique-numerique.fr/profile/edit-profile"
          }
        },
        "_links": {
          "show": "https://www.republique-numerique.fr/consultations/projet-de-loi-numerique/consultation/consultation/opinions/section-1-protection-des-donnees-a-caractere-personnel/article-17-missions-de-la-cnil#arg-4199",
          "edit": "https://www.republique-numerique.fr/consultations/projet-de-loi-numerique/consultation/consultation/opinions/section-1-protection-des-donnees-a-caractere-personnel/article-17-missions-de-la-cnil/arguments/4199/edit",
          "report": "https://www.republique-numerique.fr/consultations/projet-de-loi-numerique/consultation/consultation/opinions/section-1-protection-des-donnees-a-caractere-personnel/article-17-missions-de-la-cnil/arguments/4199/report"
        },
        "has_user_voted": false,
        "has_user_reported": false
      },
      {
        "isContribuable": false,
        "id": 4057,
        "body": "la cnil n est pas un vrai contre pouvoir. seul le public avec un pouvoir de class action peut faire contre pouvoir.",
        "created_at": "2015-10-14T21:45:27+0200",
        "updated_at": "2015-10-14T21:45:27+0200",
        "is_enabled": true,
        "votes_count": 0,
        "type": 0,
        "is_trashed": false,
        "author": {
          "username": "frederic dupont",
          "displayName": "frederic dupont",
          "uniqueId": "fredericdupont",
          "isAdmin": false,
          "media": null,
          "vip": false,
          "_links": {
            "profile": "https://www.republique-numerique.fr/profile/fredericdupont",
            "settings": "https://www.republique-numerique.fr/profile/edit-profile"
          }
        },
        "_links": {
          "show": "https://www.republique-numerique.fr/consultations/projet-de-loi-numerique/consultation/consultation/opinions/section-1-protection-des-donnees-a-caractere-personnel/article-17-missions-de-la-cnil#arg-4057",
          "edit": "https://www.republique-numerique.fr/consultations/projet-de-loi-numerique/consultation/consultation/opinions/section-1-protection-des-donnees-a-caractere-personnel/article-17-missions-de-la-cnil/arguments/4057/edit",
          "report": "https://www.republique-numerique.fr/consultations/projet-de-loi-numerique/consultation/consultation/opinions/section-1-protection-des-donnees-a-caractere-personnel/article-17-missions-de-la-cnil/arguments/4057/report"
        },
        "has_user_voted": false,
        "has_user_reported": false
      },
      {
        "isContribuable": false,
        "id": 3992,
        "body": "La FIEEC partage les missions nouvelles conférées à la CNIL en particulier en matière de conseil des autorités publiques et des opérateurs économiques.",
        "created_at": "2015-10-14T17:55:55+0200",
        "updated_at": "2015-10-14T17:55:55+0200",
        "is_enabled": true,
        "votes_count": 2,
        "type": 1,
        "is_trashed": false,
        "author": {
          "username": "FIEEC",
          "displayName": "FIEEC",
          "uniqueId": "fieec",
          "isAdmin": false,
          "media": {
            "url": "/media/cache/default_avatar/default/0001/01/628_default_avatar.jpg"
          },
          "vip": false,
          "_links": {
            "profile": "https://www.republique-numerique.fr/profile/fieec",
            "settings": "https://www.republique-numerique.fr/profile/edit-profile"
          }
        },
        "_links": {
          "show": "https://www.republique-numerique.fr/consultations/projet-de-loi-numerique/consultation/consultation/opinions/section-1-protection-des-donnees-a-caractere-personnel/article-17-missions-de-la-cnil#arg-3992",
          "edit": "https://www.republique-numerique.fr/consultations/projet-de-loi-numerique/consultation/consultation/opinions/section-1-protection-des-donnees-a-caractere-personnel/article-17-missions-de-la-cnil/arguments/3992/edit",
          "report": "https://www.republique-numerique.fr/consultations/projet-de-loi-numerique/consultation/consultation/opinions/section-1-protection-des-donnees-a-caractere-personnel/article-17-missions-de-la-cnil/arguments/3992/report"
        },
        "has_user_voted": false,
        "has_user_reported": false
      },
      {
        "isContribuable": false,
        "id": 3737,
        "body": "transformer la cnil en comité d'éthique entérine son total manque de pouvoir de sanction \n",
        "created_at": "2015-10-13T22:58:14+0200",
        "updated_at": "2015-10-13T22:58:14+0200",
        "is_enabled": true,
        "votes_count": 1,
        "type": 0,
        "is_trashed": false,
        "author": {
          "username": "Frederic Lefevre",
          "displayName": "Frederic Lefevre",
          "uniqueId": "fredericlefevre",
          "isAdmin": false,
          "media": null,
          "vip": false,
          "_links": {
            "profile": "https://www.republique-numerique.fr/profile/fredericlefevre",
            "settings": "https://www.republique-numerique.fr/profile/edit-profile"
          }
        },
        "_links": {
          "show": "https://www.republique-numerique.fr/consultations/projet-de-loi-numerique/consultation/consultation/opinions/section-1-protection-des-donnees-a-caractere-personnel/article-17-missions-de-la-cnil#arg-3737",
          "edit": "https://www.republique-numerique.fr/consultations/projet-de-loi-numerique/consultation/consultation/opinions/section-1-protection-des-donnees-a-caractere-personnel/article-17-missions-de-la-cnil/arguments/3737/edit",
          "report": "https://www.republique-numerique.fr/consultations/projet-de-loi-numerique/consultation/consultation/opinions/section-1-protection-des-donnees-a-caractere-personnel/article-17-missions-de-la-cnil/arguments/3737/report"
        },
        "has_user_voted": false,
        "has_user_reported": false
      },
      {
        "isContribuable": false,
        "id": 3381,
        "body": "Oui. C'est aussi le rôle de l'ANSI. Pourquoi ne pas fusionner les deux ?",
        "created_at": "2015-10-12T20:53:34+0200",
        "updated_at": "2015-10-12T20:53:34+0200",
        "is_enabled": true,
        "votes_count": 1,
        "type": 1,
        "is_trashed": false,
        "author": {
          "username": "Arnaud Legrand",
          "displayName": "Arnaud Legrand",
          "uniqueId": "arnaudlegrand",
          "isAdmin": false,
          "media": null,
          "vip": false,
          "_links": {
            "profile": "https://www.republique-numerique.fr/profile/arnaudlegrand",
            "settings": "https://www.republique-numerique.fr/profile/edit-profile"
          }
        },
        "_links": {
          "show": "https://www.republique-numerique.fr/consultations/projet-de-loi-numerique/consultation/consultation/opinions/section-1-protection-des-donnees-a-caractere-personnel/article-17-missions-de-la-cnil#arg-3381",
          "edit": "https://www.republique-numerique.fr/consultations/projet-de-loi-numerique/consultation/consultation/opinions/section-1-protection-des-donnees-a-caractere-personnel/article-17-missions-de-la-cnil/arguments/3381/edit",
          "report": "https://www.republique-numerique.fr/consultations/projet-de-loi-numerique/consultation/consultation/opinions/section-1-protection-des-donnees-a-caractere-personnel/article-17-missions-de-la-cnil/arguments/3381/report"
        },
        "has_user_voted": false,
        "has_user_reported": false
      },
      {
        "isContribuable": false,
        "id": 3354,
        "body": "Outre la composition de la CNIL, insuffisamment ouverte à la société civile, on constate que ses décisions souffrent en partie d'avoir été prises au cas par cas, sans considération générale du contexte économique, social & éthique. Cela se voit notamment sur la biométrie, dont elle a prétendu nous mettre en garde ds ses rapports annuels, ms que paradoxalement elle a favorisé en laissant se diffuser insidieusement une culture & une véritable éducation aux dispositifs de contrôle biométrique (cf cantines scolaires et célèbre Livre blanc du GIXEL).",
        "created_at": "2015-10-12T19:09:50+0200",
        "updated_at": "2015-10-12T19:09:50+0200",
        "is_enabled": true,
        "votes_count": 1,
        "type": 1,
        "is_trashed": false,
        "author": {
          "username": "samson_d",
          "displayName": "samson_d",
          "uniqueId": "samsond",
          "isAdmin": false,
          "media": null,
          "vip": false,
          "_links": {
            "profile": "https://www.republique-numerique.fr/profile/samsond",
            "settings": "https://www.republique-numerique.fr/profile/edit-profile"
          }
        },
        "_links": {
          "show": "https://www.republique-numerique.fr/consultations/projet-de-loi-numerique/consultation/consultation/opinions/section-1-protection-des-donnees-a-caractere-personnel/article-17-missions-de-la-cnil#arg-3354",
          "edit": "https://www.republique-numerique.fr/consultations/projet-de-loi-numerique/consultation/consultation/opinions/section-1-protection-des-donnees-a-caractere-personnel/article-17-missions-de-la-cnil/arguments/3354/edit",
          "report": "https://www.republique-numerique.fr/consultations/projet-de-loi-numerique/consultation/consultation/opinions/section-1-protection-des-donnees-a-caractere-personnel/article-17-missions-de-la-cnil/arguments/3354/report"
        },
        "has_user_voted": false,
        "has_user_reported": false
      },
      {
        "isContribuable": false,
        "id": 2743,
        "body": "Cet article est bien timide... Cela fait des années que la plupart des experts dénoncent l'impuissance de la Cnil et son manque de moyens. Ce n'est pas d'un élargissement de ses missions dont l'institution a besoin mais d'une refondation pour avoir un rôle capital de défenseur des libertés numériques et individuelles, et pas simplement donner des avis qui ne seront dans tous les cas pas suivis par le gouvernement. Une Cnil puissante et digne de ce nom aurait eu le pouvoir de peser dans le débat voire de faire barrage à certaines dispositions de la Loi de programmation militaire et la loi sur le Renseignement, toutes deux votées pendant ce quinquennat.",
        "created_at": "2015-10-09T00:29:08+0200",
        "updated_at": "2015-10-09T00:29:32+0200",
        "is_enabled": true,
        "votes_count": 11,
        "type": 0,
        "is_trashed": false,
        "author": {
          "username": "Julien",
          "displayName": "Julien",
          "uniqueId": "julien3",
          "isAdmin": false,
          "media": null,
          "vip": false,
          "_links": {
            "profile": "https://www.republique-numerique.fr/profile/julien3",
            "settings": "https://www.republique-numerique.fr/profile/edit-profile"
          }
        },
        "_links": {
          "show": "https://www.republique-numerique.fr/consultations/projet-de-loi-numerique/consultation/consultation/opinions/section-1-protection-des-donnees-a-caractere-personnel/article-17-missions-de-la-cnil#arg-2743",
          "edit": "https://www.republique-numerique.fr/consultations/projet-de-loi-numerique/consultation/consultation/opinions/section-1-protection-des-donnees-a-caractere-personnel/article-17-missions-de-la-cnil/arguments/2743/edit",
          "report": "https://www.republique-numerique.fr/consultations/projet-de-loi-numerique/consultation/consultation/opinions/section-1-protection-des-donnees-a-caractere-personnel/article-17-missions-de-la-cnil/arguments/2743/report"
        },
        "has_user_voted": false,
        "has_user_reported": false
      },
      {
        "isContribuable": false,
        "id": 2732,
        "body": "Pas d'accord pour offrir plus de pouvoir à la CNIL, tant qu'on aura pas défini les modalités de désignation citoyenne des acteurs de la CNIL... pour le moment, je ne vois rien de démocratique dans tout ça...",
        "created_at": "2015-10-08T23:19:53+0200",
        "updated_at": "2015-10-08T23:19:53+0200",
        "is_enabled": true,
        "votes_count": 4,
        "type": 0,
        "is_trashed": false,
        "author": {
          "username": "Nicolas Joly",
          "displayName": "Nicolas Joly",
          "uniqueId": "nicolasjoly",
          "isAdmin": false,
          "media": null,
          "vip": false,
          "_links": {
            "profile": "https://www.republique-numerique.fr/profile/nicolasjoly",
            "settings": "https://www.republique-numerique.fr/profile/edit-profile"
          }
        },
        "_links": {
          "show": "https://www.republique-numerique.fr/consultations/projet-de-loi-numerique/consultation/consultation/opinions/section-1-protection-des-donnees-a-caractere-personnel/article-17-missions-de-la-cnil#arg-2732",
          "edit": "https://www.republique-numerique.fr/consultations/projet-de-loi-numerique/consultation/consultation/opinions/section-1-protection-des-donnees-a-caractere-personnel/article-17-missions-de-la-cnil/arguments/2732/edit",
          "report": "https://www.republique-numerique.fr/consultations/projet-de-loi-numerique/consultation/consultation/opinions/section-1-protection-des-donnees-a-caractere-personnel/article-17-missions-de-la-cnil/arguments/2732/report"
        },
        "has_user_voted": false,
        "has_user_reported": false
      },
      {
        "isContribuable": false,
        "id": 2438,
        "body": "Il faut donner plus de moyens à a CNIL qui est aujourdh'ui bcp trop spectatrice et pas assez actrice sur le terrain (trop éloignée des réalités rencontrées sur le terrain)",
        "created_at": "2015-10-06T22:06:16+0200",
        "updated_at": "2015-10-06T22:06:16+0200",
        "is_enabled": true,
        "votes_count": 3,
        "type": 1,
        "is_trashed": false,
        "author": {
          "username": "Damien Frésier",
          "displayName": "Damien Frésier",
          "uniqueId": "damienfresier",
          "isAdmin": false,
          "media": null,
          "vip": false,
          "_links": {
            "profile": "https://www.republique-numerique.fr/profile/damienfresier",
            "settings": "https://www.republique-numerique.fr/profile/edit-profile"
          }
        },
        "_links": {
          "show": "https://www.republique-numerique.fr/consultations/projet-de-loi-numerique/consultation/consultation/opinions/section-1-protection-des-donnees-a-caractere-personnel/article-17-missions-de-la-cnil#arg-2438",
          "edit": "https://www.republique-numerique.fr/consultations/projet-de-loi-numerique/consultation/consultation/opinions/section-1-protection-des-donnees-a-caractere-personnel/article-17-missions-de-la-cnil/arguments/2438/edit",
          "report": "https://www.republique-numerique.fr/consultations/projet-de-loi-numerique/consultation/consultation/opinions/section-1-protection-des-donnees-a-caractere-personnel/article-17-missions-de-la-cnil/arguments/2438/report"
        },
        "has_user_voted": false,
        "has_user_reported": false
      },
      {
        "isContribuable": false,
        "id": 2194,
        "body": "Ses moyens budgétaires sont la vraie clé : elle les a vu régulièrement écornés ces dernières années. Sinon c'est de l'enfumage...",
        "created_at": "2015-10-04T20:08:41+0200",
        "updated_at": "2015-10-04T20:08:41+0200",
        "is_enabled": true,
        "votes_count": 3,
        "type": 1,
        "is_trashed": false,
        "author": {
          "username": "Venet",
          "displayName": "Venet",
          "uniqueId": "venet",
          "isAdmin": false,
          "media": null,
          "vip": false,
          "_links": {
            "profile": "https://www.republique-numerique.fr/profile/venet",
            "settings": "https://www.republique-numerique.fr/profile/edit-profile"
          }
        },
        "_links": {
          "show": "https://www.republique-numerique.fr/consultations/projet-de-loi-numerique/consultation/consultation/opinions/section-1-protection-des-donnees-a-caractere-personnel/article-17-missions-de-la-cnil#arg-2194",
          "edit": "https://www.republique-numerique.fr/consultations/projet-de-loi-numerique/consultation/consultation/opinions/section-1-protection-des-donnees-a-caractere-personnel/article-17-missions-de-la-cnil/arguments/2194/edit",
          "report": "https://www.republique-numerique.fr/consultations/projet-de-loi-numerique/consultation/consultation/opinions/section-1-protection-des-donnees-a-caractere-personnel/article-17-missions-de-la-cnil/arguments/2194/report"
        },
        "has_user_voted": false,
        "has_user_reported": false
      },
      {
        "isContribuable": false,
        "id": 1928,
        "body": "La CNIL a maintes fois prouvé son inefficacité et son incompréhension d'Internet. Lauréate du prix Big Brother à travers son président, elle sert surtout de cache sexe au gouvernement et il est probable que son existence soit plus néfaste que bénéfique.\nPlutôt que de vouloir faire du rafistolage, je préconise de dissoudre la CNIL et de faire un organisme de protection de la vie privée digne de ce nom.",
        "created_at": "2015-10-01T18:53:54+0200",
        "updated_at": "2015-10-01T18:53:54+0200",
        "is_enabled": true,
        "votes_count": 4,
        "type": 0,
        "is_trashed": false,
        "author": {
          "username": "Olivier Ricou",
          "displayName": "Olivier Ricou",
          "uniqueId": "olivierricou",
          "isAdmin": false,
          "media": {
            "url": "/media/cache/default_avatar/default/0001/01/362_default_avatar.png"
          },
          "vip": false,
          "_links": {
            "profile": "https://www.republique-numerique.fr/profile/olivierricou",
            "settings": "https://www.republique-numerique.fr/profile/edit-profile"
          }
        },
        "_links": {
          "show": "https://www.republique-numerique.fr/consultations/projet-de-loi-numerique/consultation/consultation/opinions/section-1-protection-des-donnees-a-caractere-personnel/article-17-missions-de-la-cnil#arg-1928",
          "edit": "https://www.republique-numerique.fr/consultations/projet-de-loi-numerique/consultation/consultation/opinions/section-1-protection-des-donnees-a-caractere-personnel/article-17-missions-de-la-cnil/arguments/1928/edit",
          "report": "https://www.republique-numerique.fr/consultations/projet-de-loi-numerique/consultation/consultation/opinions/section-1-protection-des-donnees-a-caractere-personnel/article-17-missions-de-la-cnil/arguments/1928/report"
        },
        "has_user_voted": false,
        "has_user_reported": false
      },
      {
        "isContribuable": false,
        "id": 1485,
        "body": "La CNIL manque de moyens pour faire respecter la loi. Et la loi sur le renseignement ne va pas du tout dans le bon sens…",
        "created_at": "2015-09-30T10:53:43+0200",
        "updated_at": "2015-09-30T10:53:43+0200",
        "is_enabled": true,
        "votes_count": 2,
        "type": 0,
        "is_trashed": false,
        "author": {
          "username": "hipparkhos",
          "displayName": "hipparkhos",
          "uniqueId": "hipparkhos",
          "isAdmin": false,
          "media": null,
          "vip": false,
          "_links": {
            "profile": "https://www.republique-numerique.fr/profile/hipparkhos",
            "settings": "https://www.republique-numerique.fr/profile/edit-profile"
          }
        },
        "_links": {
          "show": "https://www.republique-numerique.fr/consultations/projet-de-loi-numerique/consultation/consultation/opinions/section-1-protection-des-donnees-a-caractere-personnel/article-17-missions-de-la-cnil#arg-1485",
          "edit": "https://www.republique-numerique.fr/consultations/projet-de-loi-numerique/consultation/consultation/opinions/section-1-protection-des-donnees-a-caractere-personnel/article-17-missions-de-la-cnil/arguments/1485/edit",
          "report": "https://www.republique-numerique.fr/consultations/projet-de-loi-numerique/consultation/consultation/opinions/section-1-protection-des-donnees-a-caractere-personnel/article-17-missions-de-la-cnil/arguments/1485/report"
        },
        "has_user_voted": false,
        "has_user_reported": false
      },
      {
        "isContribuable": false,
        "id": 1139,
        "body": "J'ai voté \"contre\" car je suis favorable à une évolution des droits de la CNIL mais je pense que le texte ne va pas assez loin, elle doit pouvoir bloquer et punir tout manquement. A l'inverse, les réflexions éthiques me paraissent trop loin de ses attrinutions",
        "created_at": "2015-09-29T09:24:07+0200",
        "updated_at": "2015-09-29T09:24:07+0200",
        "is_enabled": true,
        "votes_count": 4,
        "type": 0,
        "is_trashed": false,
        "author": {
          "username": "Olivier Gobert",
          "displayName": "Olivier Gobert",
          "uniqueId": "oliviergobert",
          "isAdmin": false,
          "media": null,
          "vip": false,
          "_links": {
            "profile": "https://www.republique-numerique.fr/profile/oliviergobert",
            "settings": "https://www.republique-numerique.fr/profile/edit-profile"
          }
        },
        "_links": {
          "show": "https://www.republique-numerique.fr/consultations/projet-de-loi-numerique/consultation/consultation/opinions/section-1-protection-des-donnees-a-caractere-personnel/article-17-missions-de-la-cnil#arg-1139",
          "edit": "https://www.republique-numerique.fr/consultations/projet-de-loi-numerique/consultation/consultation/opinions/section-1-protection-des-donnees-a-caractere-personnel/article-17-missions-de-la-cnil/arguments/1139/edit",
          "report": "https://www.republique-numerique.fr/consultations/projet-de-loi-numerique/consultation/consultation/opinions/section-1-protection-des-donnees-a-caractere-personnel/article-17-missions-de-la-cnil/arguments/1139/report"
        },
        "has_user_voted": false,
        "has_user_reported": false
      },
      {
        "isContribuable": false,
        "id": 900,
        "body": "Le contrôle éthique et compliance doit rester avant tout dans le pouvoir législatif, pas administratif",
        "created_at": "2015-09-28T14:56:15+0200",
        "updated_at": "2015-09-28T14:56:15+0200",
        "is_enabled": true,
        "votes_count": 1,
        "type": 0,
        "is_trashed": false,
        "author": {
          "username": "Marie-Claire PÉROUX",
          "displayName": "Marie-Claire PÉROUX",
          "uniqueId": "marieclaireperoux",
          "isAdmin": false,
          "media": null,
          "vip": false,
          "_links": {
            "profile": "https://www.republique-numerique.fr/profile/marieclaireperoux",
            "settings": "https://www.republique-numerique.fr/profile/edit-profile"
          }
        },
        "_links": {
          "show": "https://www.republique-numerique.fr/consultations/projet-de-loi-numerique/consultation/consultation/opinions/section-1-protection-des-donnees-a-caractere-personnel/article-17-missions-de-la-cnil#arg-900",
          "edit": "https://www.republique-numerique.fr/consultations/projet-de-loi-numerique/consultation/consultation/opinions/section-1-protection-des-donnees-a-caractere-personnel/article-17-missions-de-la-cnil/arguments/900/edit",
          "report": "https://www.republique-numerique.fr/consultations/projet-de-loi-numerique/consultation/consultation/opinions/section-1-protection-des-donnees-a-caractere-personnel/article-17-missions-de-la-cnil/arguments/900/report"
        },
        "has_user_voted": false,
        "has_user_reported": false
      },
      {
        "isContribuable": false,
        "id": 787,
        "body": "Adapter le rôle de la CNIL à l’économie du XXIè siècle suppose un renforcement de ses missions, mais également de ses moyens et de ses effectifs. \nUne entité spécifique au sein de la CNIL pourrait se charger exclusivement de conduire des réflexions de problématiques éthiques et sociétales. Ce qui est notamment le cas actuellement, dans les rapports,  recommandations et fiches pratiques remis par la CNIL.",
        "created_at": "2015-09-28T10:49:41+0200",
        "updated_at": "2015-09-28T10:49:41+0200",
        "is_enabled": true,
        "votes_count": 7,
        "type": 1,
        "is_trashed": false,
        "author": {
          "username": "Dania Saleh",
          "displayName": "Dania Saleh",
          "uniqueId": "daniasaleh",
          "isAdmin": false,
          "media": null,
          "vip": false,
          "_links": {
            "profile": "https://www.republique-numerique.fr/profile/daniasaleh",
            "settings": "https://www.republique-numerique.fr/profile/edit-profile"
          }
        },
        "_links": {
          "show": "https://www.republique-numerique.fr/consultations/projet-de-loi-numerique/consultation/consultation/opinions/section-1-protection-des-donnees-a-caractere-personnel/article-17-missions-de-la-cnil#arg-787",
          "edit": "https://www.republique-numerique.fr/consultations/projet-de-loi-numerique/consultation/consultation/opinions/section-1-protection-des-donnees-a-caractere-personnel/article-17-missions-de-la-cnil/arguments/787/edit",
          "report": "https://www.republique-numerique.fr/consultations/projet-de-loi-numerique/consultation/consultation/opinions/section-1-protection-des-donnees-a-caractere-personnel/article-17-missions-de-la-cnil/arguments/787/report"
        },
        "has_user_voted": false,
        "has_user_reported": false
      },
      {
        "isContribuable": false,
        "id": 734,
        "body": "Le passé législatif récent a montré que la CNIL est inefficace pour s'opposer à des projets de traitements par les autorités publiques, ou des projets de lois \"à risques\".  Si on souhaite réellement un garde-fou pour la protection des données à caractère personnel, il faudrait que la CNIL dispose dans certains cas d'un droit de veto (après tout, l'avis de la cnil est contraignant pour les sociétés privées, alors porquoi pas pour l'autorité publique ?).  ",
        "created_at": "2015-09-28T00:49:58+0200",
        "updated_at": "2015-09-28T00:49:58+0200",
        "is_enabled": true,
        "votes_count": 14,
        "type": 0,
        "is_trashed": false,
        "author": {
          "username": "Christophe Thierry",
          "displayName": "Christophe Thierry",
          "uniqueId": "christophethierry",
          "isAdmin": false,
          "media": null,
          "vip": false,
          "_links": {
            "profile": "https://www.republique-numerique.fr/profile/christophethierry",
            "settings": "https://www.republique-numerique.fr/profile/edit-profile"
          }
        },
        "_links": {
          "show": "https://www.republique-numerique.fr/consultations/projet-de-loi-numerique/consultation/consultation/opinions/section-1-protection-des-donnees-a-caractere-personnel/article-17-missions-de-la-cnil#arg-734",
          "edit": "https://www.republique-numerique.fr/consultations/projet-de-loi-numerique/consultation/consultation/opinions/section-1-protection-des-donnees-a-caractere-personnel/article-17-missions-de-la-cnil/arguments/734/edit",
          "report": "https://www.republique-numerique.fr/consultations/projet-de-loi-numerique/consultation/consultation/opinions/section-1-protection-des-donnees-a-caractere-personnel/article-17-missions-de-la-cnil/arguments/734/report"
        },
        "has_user_voted": false,
        "has_user_reported": false
      },
      {
        "isContribuable": false,
        "id": 732,
        "body": "La CNIL n'a pas vocation a conduire des réflexions éthiques et technocratiques sur les questions de société.  Ceci devrait rester du ressort des politiques et des commissions parlementaires.  ",
        "created_at": "2015-09-28T00:46:12+0200",
        "updated_at": "2015-09-28T00:46:12+0200",
        "is_enabled": true,
        "votes_count": 5,
        "type": 0,
        "is_trashed": false,
        "author": {
          "username": "Christophe Thierry",
          "displayName": "Christophe Thierry",
          "uniqueId": "christophethierry",
          "isAdmin": false,
          "media": null,
          "vip": false,
          "_links": {
            "profile": "https://www.republique-numerique.fr/profile/christophethierry",
            "settings": "https://www.republique-numerique.fr/profile/edit-profile"
          }
        },
        "_links": {
          "show": "https://www.republique-numerique.fr/consultations/projet-de-loi-numerique/consultation/consultation/opinions/section-1-protection-des-donnees-a-caractere-personnel/article-17-missions-de-la-cnil#arg-732",
          "edit": "https://www.republique-numerique.fr/consultations/projet-de-loi-numerique/consultation/consultation/opinions/section-1-protection-des-donnees-a-caractere-personnel/article-17-missions-de-la-cnil/arguments/732/edit",
          "report": "https://www.republique-numerique.fr/consultations/projet-de-loi-numerique/consultation/consultation/opinions/section-1-protection-des-donnees-a-caractere-personnel/article-17-missions-de-la-cnil/arguments/732/report"
        },
        "has_user_voted": false,
        "has_user_reported": false
      },
      {
        "isContribuable": false,
        "id": 616,
        "body": "Le conseil et l'accompagnement des entreprises afin de développer le Privacy by design est essentiel. \nil conviendrait néanmoins de préciser la façon dont cela est censé se traduire. \nC'est au coeur même de l'innovation que se joue la finalité de cet article. Les arbres/chemins de décisions proposés sur le site de la CNIL (au demeurant  très utiles) ne sont cependant pas suffisants. La CNIL doit grossir en même temps que ces responsabilités et que ce soit des experts du Privacy by design de la CNIL ou de prestataires labellisés CNIL, une mission de sensibilisation doit être introduite. Par exemple, aller à la rencontre des acteurs du numérique et de l'innovation en commençant par les business angels, investisseurs et incubateurs de startup.",
        "created_at": "2015-09-27T18:08:55+0200",
        "updated_at": "2015-09-27T18:08:55+0200",
        "is_enabled": true,
        "votes_count": 5,
        "type": 1,
        "is_trashed": false,
        "author": {
          "username": "Diane Rambaldini",
          "displayName": "Diane Rambaldini",
          "uniqueId": "dianerambaldini",
          "isAdmin": false,
          "media": null,
          "vip": false,
          "_links": {
            "profile": "https://www.republique-numerique.fr/profile/dianerambaldini",
            "settings": "https://www.republique-numerique.fr/profile/edit-profile"
          }
        },
        "_links": {
          "show": "https://www.republique-numerique.fr/consultations/projet-de-loi-numerique/consultation/consultation/opinions/section-1-protection-des-donnees-a-caractere-personnel/article-17-missions-de-la-cnil#arg-616",
          "edit": "https://www.republique-numerique.fr/consultations/projet-de-loi-numerique/consultation/consultation/opinions/section-1-protection-des-donnees-a-caractere-personnel/article-17-missions-de-la-cnil/arguments/616/edit",
          "report": "https://www.republique-numerique.fr/consultations/projet-de-loi-numerique/consultation/consultation/opinions/section-1-protection-des-donnees-a-caractere-personnel/article-17-missions-de-la-cnil/arguments/616/report"
        },
        "has_user_voted": false,
        "has_user_reported": false
      },
      {
        "isContribuable": false,
        "id": 318,
        "body": "La réflexion ethique est essentielle. Cela devrait être le rôle essentiel de la CNIL",
        "created_at": "2015-09-27T00:11:52+0200",
        "updated_at": "2015-09-27T00:11:52+0200",
        "is_enabled": true,
        "votes_count": 4,
        "type": 1,
        "is_trashed": false,
        "author": {
          "username": "Frédéric Richer",
          "displayName": "Frédéric Richer",
          "uniqueId": "fredericricher",
          "isAdmin": false,
          "media": {
            "url": "/media/cache/default_avatar/default/0001/01/140_default_avatar.jpg"
          },
          "vip": false,
          "_links": {
            "profile": "https://www.republique-numerique.fr/profile/fredericricher",
            "settings": "https://www.republique-numerique.fr/profile/edit-profile"
          }
        },
        "_links": {
          "show": "https://www.republique-numerique.fr/consultations/projet-de-loi-numerique/consultation/consultation/opinions/section-1-protection-des-donnees-a-caractere-personnel/article-17-missions-de-la-cnil#arg-318",
          "edit": "https://www.republique-numerique.fr/consultations/projet-de-loi-numerique/consultation/consultation/opinions/section-1-protection-des-donnees-a-caractere-personnel/article-17-missions-de-la-cnil/arguments/318/edit",
          "report": "https://www.republique-numerique.fr/consultations/projet-de-loi-numerique/consultation/consultation/opinions/section-1-protection-des-donnees-a-caractere-personnel/article-17-missions-de-la-cnil/arguments/318/report"
        },
        "has_user_voted": false,
        "has_user_reported": false
      }
    ],
    "modals": [
      {
        "key": "article 11",
        "before": "<p>La Commission nationale de l'informatique et des libertés est une autorité administrative indépendante. Elle exerce les missions suivantes :</p><p>1° Elle informe toutes les personnes concernées et tous les responsables de traitements de leurs droits et obligations ;</p><p>2° Elle veille à ce que les traitements de données à caractère personnel soient mis en oeuvre conformément aux dispositions de la présente loi.</p><p>...</p><p>d) Elle répond aux demandes d'avis des pouvoirs publics et, le cas échéant, des juridictions, et conseille les personnes et organismes qui mettent en oeuvre ou envisagent de mettre en oeuvre des traitements automatisés de données à caractère personnel ;</p><p>...</p><p>a) Elle est consultée sur tout projet de loi ou de décret relatif à la protection des personnes à l'égard des traitements automatisés.</p><p>A la demande du président de l'une des commissions permanentes prévue à l'article 43 de la Constitution, l'avis de la commission sur tout projet de loi est rendu public ;</p><p>...</p>",
        "after": "<p>La Commission nationale de l'informatique et des libertés est une autorité administrative indépendante. Elle exerce les missions suivantes :</p><p>1° Elle informe toutes les personnes concernées et tous les responsables de traitements de leurs droits et obligations ;</p><p>1° bis : Elle soutient dans le cadre de ces missions, le développement des technologies respectueuses de la vie privée ;</p><p>2° Elle veille à ce que les traitements de données à caractère personnel soient mis en oeuvre conformément aux dispositions de la présente loi.</p><p>...</p><p>d) Elle répond aux demandes d'avis des pouvoirs publics et, le cas échéant, des juridictions, conseille et accompagne les personnes et organismes qui mettent en œuvre ou envisagent de mettre en œuvre des traitements automatisés de données à caractère personnel ;</p><p>...</p><p>a) Elle est consultée sur tout projet de loi ou de décret comportant des dispositions relatives à la protection des données à caractère personnel ou au traitement de telles données.</p><p>A la demande du président de l'une des commissions permanentes prévue à l'article 43 de la Constitution, l'avis de la commission sur tout projet de loi est rendu public ;</p><p>Le président d’une assemblée parlementaire peut soumettre à l’avis de la commission une proposition de loi comportant des dispositions relatives à la protection des données à caractère personnel ou au traitement de telles données, déposée par l’un des membres de cette assemblée, sauf si ce dernier s’y oppose. »</p><p>...</p><p>e) Elle conduit une réflexion sur les problèmes éthiques et les questions de société soulevées par l’évolution des technologies numériques. Un décret précise les conditions de mise en œuvre de cette mission, notamment quant aux modalités d’implication de personnalités qualifiée et d’organisation du débat public.</p>",
        "title": "Article 11 de la loi informatique et libertés n° 78-17 du 17 janvier 1978"
      }
    ],
    "votes": [
      {
        "user": {
          "username": "Gautier Fauquembergue",
          "displayName": "Gautier Fauquembergue",
          "uniqueId": "gautierfauquembergue",
          "isAdmin": false,
          "media": null,
          "vip": false,
          "_links": {
            "profile": "https://www.republique-numerique.fr/profile/gautierfauquembergue",
            "settings": "https://www.republique-numerique.fr/profile/edit-profile"
          }
        }
      },
      {
        "user": {
          "username": "Tom Delmas",
          "displayName": "Tom Delmas",
          "uniqueId": "tomdelmas",
          "isAdmin": false,
          "media": null,
          "vip": false,
          "_links": {
            "profile": "https://www.republique-numerique.fr/profile/tomdelmas",
            "settings": "https://www.republique-numerique.fr/profile/edit-profile"
          }
        }
      },
      {
        "user": {
          "username": "Max Dauchet",
          "displayName": "Max Dauchet",
          "uniqueId": "maxdauchet",
          "isAdmin": false,
          "media": null,
          "vip": false,
          "_links": {
            "profile": "https://www.republique-numerique.fr/profile/maxdauchet",
            "settings": "https://www.republique-numerique.fr/profile/edit-profile"
          }
        }
      },
      {
        "user": {
          "username": "Cellular1988",
          "displayName": "Cellular1988",
          "uniqueId": "cellular1988",
          "isAdmin": false,
          "media": null,
          "vip": false,
          "_links": {
            "profile": "https://www.republique-numerique.fr/profile/cellular1988",
            "settings": "https://www.republique-numerique.fr/profile/edit-profile"
          }
        }
      },
      {
        "user": {
          "username": "Nourry",
          "displayName": "Nourry",
          "uniqueId": "nourry",
          "isAdmin": false,
          "media": null,
          "vip": false,
          "_links": {
            "profile": "https://www.republique-numerique.fr/profile/nourry",
            "settings": "https://www.republique-numerique.fr/profile/edit-profile"
          }
        }
      }
    ],
    "appendices": [
      {
        "body": "<p><strong>Objectif :</strong> Adapter le r&ocirc;le de la CNIL &agrave; l&rsquo;&eacute;conomie du XXI&egrave; si&egrave;cle</p>\r\n\r\n<p><strong>Explication :</strong> La CNIL (Commission nationale pour l&rsquo;informatique et les libert&eacute;s), autorit&eacute; de contr&ocirc;le de la protection des donn&eacute;es personnelles, doit faire &eacute;voluer son r&ocirc;le pour accompagner les entreprises et les &eacute;volutions technologiques. en d&eacute;veloppant son intervention en amont (Privacy by Design). Il semble &eacute;galement important de renforcer son r&ocirc;le aupr&egrave;s des pouvoirs publics en cr&eacute;ant une possibilit&eacute; pour les pr&eacute;sidents des assembl&eacute;es parlementaires de la saisir pour avis en cas de proposition de loi int&eacute;ressant les donn&eacute;es personnelles. Enfin, elle sera charg&eacute;e de conduire une r&eacute;flexion sur les probl&egrave;mes &eacute;thiques et les questions de soci&eacute;t&eacute; soulev&eacute;es par l&rsquo;&eacute;volution des technologies.</p>\r\n\r\n<p><strong>Exemple :</strong> une institution sera charg&eacute;e d&rsquo;organiser les d&eacute;bats &eacute;thiques sur l&rsquo;intelligence artificielle ou la modification du corps humain par la technologie.</p>",
        "type": {
          "title": "Explication de l'article"
        }
      }
    ],
    "ranking": null,
    "is_trashed": false,
    "title": "Article 17 - Evolution des missions de la CNIL",
    "votes_nok": 24,
    "votes_ok": 428,
    "votes_mitige": 43,
    "_links": {
      "show": "https://www.republique-numerique.fr/consultations/projet-de-loi-numerique/consultation/consultation/opinions/section-1-protection-des-donnees-a-caractere-personnel/article-17-missions-de-la-cnil",
      "edit": "https://www.republique-numerique.fr/consultations/projet-de-loi-numerique/consultation/consultation/opinions/section-1-protection-des-donnees-a-caractere-personnel/article-17-missions-de-la-cnil/edit",
      "report": "https://www.republique-numerique.fr/consultations/projet-de-loi-numerique/consultation/consultation/opinions/section-1-protection-des-donnees-a-caractere-personnel/article-17-missions-de-la-cnil/report",
      "type": "https://www.republique-numerique.fr/consultations/projet-de-loi-numerique/consultation/consultation/opinions/section-1-protection-des-donnees-a-caractere-personnel"
    },
    "user_vote": null,
    "has_user_reported": false
  },
  "rankingThreshold": null,
  "opinionTerm": 1
}