{
  "opinion": {
    "isContribuable": false,
    "votes_total": 27,
    "arguments_yes_count": 3,
    "arguments_no_count": 1,
    "id": 336,
    "created_at": "2015-09-30T09:28:13+0200",
    "updated_at": "2015-09-30T09:28:13+0200",
    "body": "<p>Il faut inscrire dans la loi que les mots de passes sont une donn&eacute;e sensible, et qu&#39;ils doivent &ecirc;tre prot&eacute;g&eacute;s via un algoritme adapt&eacute; (ex: bcrypt).</p>\r\n\r\n<p>Cette obligation devrait, &agrave; minima, s&#39;appliquer pour les institutions sous la tutelle de l&#39;&eacute;tat.</p>\r\n\r\n<p>Pour les entreprises priv&eacute;es, il est difficile de trop r&eacute;glementer internet. Mais nous pouvons cependant prevoir une amende en cas de fuite de donn&eacute;e contenant des mots de passes non prot&eacute;g&eacute;s &minus; ce qui poussera les sites internet &agrave; se mettre en conformit&eacute;.</p>",
    "versions_count": 0,
    "sources_count": 0,
    "arguments_count": 4,
    "author": {
      "username": "Nicolas Baldeck",
      "displayName": "Nicolas Baldeck",
      "uniqueId": "nicolasbaldeck",
      "isAdmin": false,
      "media": null,
      "vip": false,
      "_links": {
        "profile": "https://www.republique-numerique.fr/profile/nicolasbaldeck",
        "settings": "https://www.republique-numerique.fr/profile/edit-profile"
      }
    },
    "type": {
      "id": 99,
      "title": "Section 1",
      "subtitle": "Protection des données à caractère personnel",
      "voteWidgetType": 2,
      "votesHelpText": "Pensez-vous que cette proposition permet d'atteindre les objectifs présentés dans l’explication de l’article ?",
      "commentSystem": 2,
      "color": "blue",
      "versionable": true,
      "sourceable": true,
      "votesThreshold": null,
      "votesThresholdHelpText": null
    },
    "sources": [],
    "arguments": [
      {
        "isContribuable": false,
        "id": 5837,
        "body": "Bien que la formulation soit trop détaillée, la sécurité des éléments de connexion doit être renforcée ; le risque va bien au-delà de la divulgation des seules données gérées par le prestataire, c'est toute l'identité numérique du client qui est en jeu.",
        "created_at": "2015-10-18T14:41:32+0200",
        "updated_at": "2015-10-18T14:41:32+0200",
        "is_enabled": true,
        "votes_count": 1,
        "type": 1,
        "is_trashed": false,
        "author": {
          "username": "Bertrand EMERIT",
          "displayName": "Bertrand EMERIT",
          "uniqueId": "bertrandemerit",
          "isAdmin": false,
          "media": null,
          "vip": false,
          "_links": {
            "profile": "https://www.republique-numerique.fr/profile/bertrandemerit",
            "settings": "https://www.republique-numerique.fr/profile/edit-profile"
          }
        },
        "_links": {
          "show": "https://www.republique-numerique.fr/consultations/projet-de-loi-numerique/consultation/consultation/opinions/section-1-protection-des-donnees-a-caractere-personnel/obligation-de-stocker-les-mots-de-passe-de-maniere-securisee#arg-5837",
          "edit": "https://www.republique-numerique.fr/consultations/projet-de-loi-numerique/consultation/consultation/opinions/section-1-protection-des-donnees-a-caractere-personnel/obligation-de-stocker-les-mots-de-passe-de-maniere-securisee/arguments/5837/edit",
          "report": "https://www.republique-numerique.fr/consultations/projet-de-loi-numerique/consultation/consultation/opinions/section-1-protection-des-donnees-a-caractere-personnel/obligation-de-stocker-les-mots-de-passe-de-maniere-securisee/arguments/5837/report"
        },
        "has_user_voted": false,
        "has_user_reported": false
      },
      {
        "isContribuable": false,
        "id": 5836,
        "body": "Bien que la formulation soit trop détaillée, la sécurité des éléments de connexion doit être renforcée ; le risque va bien au-delà de la divulgation des seules données gérées par le prestataire, c'est toute l'identité numérique du client qui est en jeu.",
        "created_at": "2015-10-18T14:41:25+0200",
        "updated_at": "2015-10-18T14:41:25+0200",
        "is_enabled": true,
        "votes_count": 1,
        "type": 1,
        "is_trashed": false,
        "author": {
          "username": "Bertrand EMERIT",
          "displayName": "Bertrand EMERIT",
          "uniqueId": "bertrandemerit",
          "isAdmin": false,
          "media": null,
          "vip": false,
          "_links": {
            "profile": "https://www.republique-numerique.fr/profile/bertrandemerit",
            "settings": "https://www.republique-numerique.fr/profile/edit-profile"
          }
        },
        "_links": {
          "show": "https://www.republique-numerique.fr/consultations/projet-de-loi-numerique/consultation/consultation/opinions/section-1-protection-des-donnees-a-caractere-personnel/obligation-de-stocker-les-mots-de-passe-de-maniere-securisee#arg-5836",
          "edit": "https://www.republique-numerique.fr/consultations/projet-de-loi-numerique/consultation/consultation/opinions/section-1-protection-des-donnees-a-caractere-personnel/obligation-de-stocker-les-mots-de-passe-de-maniere-securisee/arguments/5836/edit",
          "report": "https://www.republique-numerique.fr/consultations/projet-de-loi-numerique/consultation/consultation/opinions/section-1-protection-des-donnees-a-caractere-personnel/obligation-de-stocker-les-mots-de-passe-de-maniere-securisee/arguments/5836/report"
        },
        "has_user_voted": false,
        "has_user_reported": false
      },
      {
        "isContribuable": false,
        "id": 2869,
        "body": "Je suis mitigé, je ne pense pas qu'il faille aller à ce niveau de détail dans la loi. On doit pouvoir se contenter d'un devoir pour toute organisation de veiller à la confidentialité des données qui lui sont confiées et à pouvoir considérer comme une « négligence » le fait de ne pas avoir crypter les mots de passes.\n\nSinon, à ce compte-là, il faut aussi faire une loi pour interdire les sites offrant des failles d'injection SQL, XSS, DOS et ainsi de suite : c'est trop compliqué de légiférer sur tous ces détails d'implémentations (certes évidents...).",
        "created_at": "2015-10-09T22:55:29+0200",
        "updated_at": "2015-10-09T22:55:29+0200",
        "is_enabled": true,
        "votes_count": 0,
        "type": 0,
        "is_trashed": false,
        "author": {
          "username": "Bernard Martinez",
          "displayName": "Bernard Martinez",
          "uniqueId": "bernardmartinez",
          "isAdmin": false,
          "media": null,
          "vip": false,
          "_links": {
            "profile": "https://www.republique-numerique.fr/profile/bernardmartinez",
            "settings": "https://www.republique-numerique.fr/profile/edit-profile"
          }
        },
        "_links": {
          "show": "https://www.republique-numerique.fr/consultations/projet-de-loi-numerique/consultation/consultation/opinions/section-1-protection-des-donnees-a-caractere-personnel/obligation-de-stocker-les-mots-de-passe-de-maniere-securisee#arg-2869",
          "edit": "https://www.republique-numerique.fr/consultations/projet-de-loi-numerique/consultation/consultation/opinions/section-1-protection-des-donnees-a-caractere-personnel/obligation-de-stocker-les-mots-de-passe-de-maniere-securisee/arguments/2869/edit",
          "report": "https://www.republique-numerique.fr/consultations/projet-de-loi-numerique/consultation/consultation/opinions/section-1-protection-des-donnees-a-caractere-personnel/obligation-de-stocker-les-mots-de-passe-de-maniere-securisee/arguments/2869/report"
        },
        "has_user_voted": false,
        "has_user_reported": false
      },
      {
        "isContribuable": false,
        "id": 2296,
        "body": "Pour, cependant je pense qu'il faut également imposer le \"salt\" en plus du hash, c'est actuellement géré avec l'algorithme recommandé, mais ceci devrait peut-être être plus spécifiquement imposé.\n\nAujourd'hui il est extrêmement facile de fournir une tel sécurité avec les fonctions php \"password_hash\" et d'effectuer la vérification avec \"password_verify\" depuis PHP 5.5.0 .\nDu coup je ne vois pas pourquoi certains s'entête à ne pas appliquer ceci.\n\n(après néanmoins, je dirais qu'un md5 salé doit être suffisamment efficace encore à l'heure actuelle, si le tout est implémenté correctement (ce qui est se prendre la tête, comparé à la solution cité précédemment)... La plus grande faille du MD5 étant que non salé, il peut être soumis à comparatif dans de gigantesques databases de hash existantes sur le net).",
        "created_at": "2015-10-05T19:27:17+0200",
        "updated_at": "2015-10-05T19:27:17+0200",
        "is_enabled": true,
        "votes_count": 1,
        "type": 1,
        "is_trashed": false,
        "author": {
          "username": "Olivier Seror-Droin",
          "displayName": "Olivier Seror-Droin",
          "uniqueId": "olivierserordroin",
          "isAdmin": false,
          "media": null,
          "vip": false,
          "_links": {
            "profile": "https://www.republique-numerique.fr/profile/olivierserordroin",
            "settings": "https://www.republique-numerique.fr/profile/edit-profile"
          }
        },
        "_links": {
          "show": "https://www.republique-numerique.fr/consultations/projet-de-loi-numerique/consultation/consultation/opinions/section-1-protection-des-donnees-a-caractere-personnel/obligation-de-stocker-les-mots-de-passe-de-maniere-securisee#arg-2296",
          "edit": "https://www.republique-numerique.fr/consultations/projet-de-loi-numerique/consultation/consultation/opinions/section-1-protection-des-donnees-a-caractere-personnel/obligation-de-stocker-les-mots-de-passe-de-maniere-securisee/arguments/2296/edit",
          "report": "https://www.republique-numerique.fr/consultations/projet-de-loi-numerique/consultation/consultation/opinions/section-1-protection-des-donnees-a-caractere-personnel/obligation-de-stocker-les-mots-de-passe-de-maniere-securisee/arguments/2296/report"
        },
        "has_user_voted": false,
        "has_user_reported": false
      }
    ],
    "modals": [],
    "votes": [
      {
        "user": {
          "username": "Laurent Ducerf",
          "displayName": "Laurent Ducerf",
          "uniqueId": "laurentducerf",
          "isAdmin": false,
          "media": null,
          "vip": false,
          "_links": {
            "profile": "https://www.republique-numerique.fr/profile/laurentducerf",
            "settings": "https://www.republique-numerique.fr/profile/edit-profile"
          }
        }
      },
      {
        "user": {
          "username": "Batiste vonderweidt",
          "displayName": "Batiste vonderweidt",
          "uniqueId": "batistevonderweidt",
          "isAdmin": false,
          "media": null,
          "vip": false,
          "_links": {
            "profile": "https://www.republique-numerique.fr/profile/batistevonderweidt",
            "settings": "https://www.republique-numerique.fr/profile/edit-profile"
          }
        }
      },
      {
        "user": {
          "username": "Lionel Frédéric Lebeau",
          "displayName": "Lionel Frédéric Lebeau",
          "uniqueId": "lionelfredericlebeau",
          "isAdmin": false,
          "media": null,
          "vip": false,
          "_links": {
            "profile": "https://www.republique-numerique.fr/profile/lionelfredericlebeau",
            "settings": "https://www.republique-numerique.fr/profile/edit-profile"
          }
        }
      },
      {
        "user": {
          "username": "Philippe Marvinu",
          "displayName": "Philippe Marvinu",
          "uniqueId": "philippemarvinu",
          "isAdmin": false,
          "media": null,
          "vip": false,
          "_links": {
            "profile": "https://www.republique-numerique.fr/profile/philippemarvinu",
            "settings": "https://www.republique-numerique.fr/profile/edit-profile"
          }
        }
      },
      {
        "user": {
          "username": "François Briat",
          "displayName": "François Briat",
          "uniqueId": "francoisbriat",
          "isAdmin": false,
          "media": {
            "url": "/media/cache/default_avatar/default/0001/01/243_default_avatar.jpg"
          },
          "vip": false,
          "_links": {
            "profile": "https://www.republique-numerique.fr/profile/francoisbriat",
            "settings": "https://www.republique-numerique.fr/profile/edit-profile"
          }
        }
      }
    ],
    "appendices": [
      {
        "body": "<p>Beaucoup d&#39;utilisateurs utilisent le m&ecirc;me mot de passe sur tous les sites internets. M&ecirc;me si cet usage n&#39;est pas recommand&eacute;, il faut en tenir compte.</p>\r\n\r\n<p>Aujourd&#39;hui, de nombreux sites internets &minus; tels que celui de P&ocirc;le Emploi &minus; stockent ces mot de passe en clair &minus; c&#39;est &agrave; dire sans aucun chiffrement &minus; ou alors avec des algorithmes de hashage faibles tels que MD5. Cette situation est probl&eacute;matique, car si le site en question se fait pirater, le malfaiteur peut r&eacute;cup&eacute;rer le mot de passe de tous les utilisateurs et l&#39;utiliser sur tous les autres sites.</p>\r\n\r\n<p>Le probl&egrave;me est d&#39;autant plus grave que les sites qui stockent les mots de passe en clair sont par d&eacute;finition ceux qui connaissent le moins bien les bonnes pratiques de la s&eacute;curit&eacute; informatique &minus; et qui sont donc les plus vuln&eacute;rables au piratage.</p>\r\n\r\n<p>Il faut donc inscrire dans la loi que les mots de passes sont une donn&eacute;e sensible, et qu&#39;ils doivent &ecirc;tre prot&eacute;g&eacute;s via un algoritme adapt&eacute; (ex: bcrypt).</p>\r\n\r\n<p>Cette obligation devrait, &agrave; minima, s&#39;appliquer pour les institutions sous la tutelle de l&#39;&eacute;tat.</p>\r\n\r\n<p>Pour les entreprises priv&eacute;es, il est difficile de trop r&eacute;glementer internet. Mais nous pouvons cependant prevoir une amende en cas de fuite de donn&eacute;e contenant des mots de passes non prot&eacute;g&eacute;s &minus; ce qui poussera les sites internet &agrave; se mettre en conformit&eacute;.</p>",
        "type": {
          "title": "Explication de l'article"
        }
      }
    ],
    "ranking": 189,
    "is_trashed": false,
    "title": "Obligation de stocker les mots de passe de manière sécurisée",
    "votes_nok": 1,
    "votes_ok": 26,
    "votes_mitige": 0,
    "_links": {
      "show": "https://www.republique-numerique.fr/consultations/projet-de-loi-numerique/consultation/consultation/opinions/section-1-protection-des-donnees-a-caractere-personnel/obligation-de-stocker-les-mots-de-passe-de-maniere-securisee",
      "edit": "https://www.republique-numerique.fr/consultations/projet-de-loi-numerique/consultation/consultation/opinions/section-1-protection-des-donnees-a-caractere-personnel/obligation-de-stocker-les-mots-de-passe-de-maniere-securisee/edit",
      "report": "https://www.republique-numerique.fr/consultations/projet-de-loi-numerique/consultation/consultation/opinions/section-1-protection-des-donnees-a-caractere-personnel/obligation-de-stocker-les-mots-de-passe-de-maniere-securisee/report",
      "type": "https://www.republique-numerique.fr/consultations/projet-de-loi-numerique/consultation/consultation/opinions/section-1-protection-des-donnees-a-caractere-personnel"
    },
    "user_vote": null,
    "has_user_reported": false
  },
  "rankingThreshold": null,
  "opinionTerm": 1
}