{
  "opinion": {
    "isContribuable": false,
    "votes_total": 11,
    "arguments_yes_count": 1,
    "arguments_no_count": 4,
    "id": 589,
    "created_at": "2015-10-13T20:35:23+0200",
    "updated_at": "2015-10-13T20:35:23+0200",
    "body": "<p>Inscrire dans le marbre le fait qu&#39;une &eacute;lection, ou consultation du peuple, doit se faire de la mani&egrave;re traditionnelle, avec des bulletins de papier, un d&eacute;pouillement sous surveillance etc.</p>\r\n\r\n<p>&nbsp;</p>\r\n\r\n<p>&nbsp;</p>",
    "versions_count": 0,
    "sources_count": 0,
    "arguments_count": 5,
    "author": {
      "username": "Thomas Laloë",
      "displayName": "Thomas Laloë",
      "uniqueId": "thomaslaloe",
      "isAdmin": false,
      "media": null,
      "vip": false,
      "_links": {
        "profile": "https://www.republique-numerique.fr/profile/thomaslaloe",
        "settings": "https://www.republique-numerique.fr/profile/edit-profile"
      }
    },
    "type": {
      "id": 94,
      "title": "Section 1",
      "subtitle": "Neutralité de l’internet",
      "voteWidgetType": 2,
      "votesHelpText": "Pensez-vous que cette proposition permet d'atteindre les objectifs présentés dans l’explication de l’article ?",
      "commentSystem": 2,
      "color": "blue",
      "versionable": true,
      "sourceable": true,
      "votesThreshold": null,
      "votesThresholdHelpText": null
    },
    "sources": [],
    "arguments": [
      {
        "isContribuable": false,
        "id": 5820,
        "body": "Pour la transparence impossible, j'affirme cette assertion fausse, dans la mesure où il s'agit uniquement des systèmes de votes actuellement sur le marché.<br>\nJe peux personnellement proposer un système de vote dans lequel chaque citoyen pourra contrôler après le vote la valeur retenue de son vote (disons la personne pour laquelle il a voté), sans que les autres citoyens ne puissent le déduire.<br>\nJe compte en développer prochainement un prototype, dès que j'ai le temps.",
        "created_at": "2015-10-18T14:14:54+0200",
        "updated_at": "2015-10-18T14:14:54+0200",
        "is_enabled": true,
        "votes_count": 0,
        "type": 0,
        "is_trashed": false,
        "author": {
          "username": "Gami",
          "displayName": "Gami",
          "uniqueId": "gami",
          "isAdmin": false,
          "media": null,
          "vip": false,
          "_links": {
            "profile": "https://www.republique-numerique.fr/profile/gami",
            "settings": "https://www.republique-numerique.fr/profile/edit-profile"
          }
        },
        "_links": {
          "show": "https://www.republique-numerique.fr/consultations/projet-de-loi-numerique/consultation/consultation/opinions/section-1-neutralite-de-l-internet/protection-du-vote#arg-5820",
          "edit": "https://www.republique-numerique.fr/consultations/projet-de-loi-numerique/consultation/consultation/opinions/section-1-neutralite-de-l-internet/protection-du-vote/arguments/5820/edit",
          "report": "https://www.republique-numerique.fr/consultations/projet-de-loi-numerique/consultation/consultation/opinions/section-1-neutralite-de-l-internet/protection-du-vote/arguments/5820/report"
        },
        "has_user_voted": false,
        "has_user_reported": false
      },
      {
        "isContribuable": false,
        "id": 5635,
        "body": "Le bourrage des urnes est connue, comme personne a oublié la Cocoe  et l'affaire de la presidence UMP (2012) , auj le referendum PS et ses couacs. Le vote traditionnel n'est pas plus sur que le numerique qui lui peut s'ameliorer encore. ",
        "created_at": "2015-10-18T00:27:38+0200",
        "updated_at": "2015-10-18T00:27:38+0200",
        "is_enabled": true,
        "votes_count": 0,
        "type": 0,
        "is_trashed": false,
        "author": {
          "username": "Maltese Nadine",
          "displayName": "Maltese Nadine",
          "uniqueId": "maltesenadine",
          "isAdmin": false,
          "media": {
            "url": "/media/cache/default_avatar/default/0001/01/113_default_avatar.png"
          },
          "vip": false,
          "_links": {
            "profile": "https://www.republique-numerique.fr/profile/maltesenadine",
            "settings": "https://www.republique-numerique.fr/profile/edit-profile"
          }
        },
        "_links": {
          "show": "https://www.republique-numerique.fr/consultations/projet-de-loi-numerique/consultation/consultation/opinions/section-1-neutralite-de-l-internet/protection-du-vote#arg-5635",
          "edit": "https://www.republique-numerique.fr/consultations/projet-de-loi-numerique/consultation/consultation/opinions/section-1-neutralite-de-l-internet/protection-du-vote/arguments/5635/edit",
          "report": "https://www.republique-numerique.fr/consultations/projet-de-loi-numerique/consultation/consultation/opinions/section-1-neutralite-de-l-internet/protection-du-vote/arguments/5635/report"
        },
        "has_user_voted": false,
        "has_user_reported": false
      },
      {
        "isContribuable": false,
        "id": 4805,
        "body": "Le numérique est aisément falsifiable avec de bons spécialistes. Le vote classique avec dépouillement sous la surveillance de personnes de diverses tendances, est se prémunir de tout trucage donc du totalitarisme.",
        "created_at": "2015-10-16T15:51:15+0200",
        "updated_at": "2015-10-16T15:51:15+0200",
        "is_enabled": true,
        "votes_count": 0,
        "type": 1,
        "is_trashed": false,
        "author": {
          "username": "Thierry R.",
          "displayName": "Thierry R.",
          "uniqueId": "thierryr",
          "isAdmin": false,
          "media": null,
          "vip": false,
          "_links": {
            "profile": "https://www.republique-numerique.fr/profile/thierryr",
            "settings": "https://www.republique-numerique.fr/profile/edit-profile"
          }
        },
        "_links": {
          "show": "https://www.republique-numerique.fr/consultations/projet-de-loi-numerique/consultation/consultation/opinions/section-1-neutralite-de-l-internet/protection-du-vote#arg-4805",
          "edit": "https://www.republique-numerique.fr/consultations/projet-de-loi-numerique/consultation/consultation/opinions/section-1-neutralite-de-l-internet/protection-du-vote/arguments/4805/edit",
          "report": "https://www.republique-numerique.fr/consultations/projet-de-loi-numerique/consultation/consultation/opinions/section-1-neutralite-de-l-internet/protection-du-vote/arguments/4805/report"
        },
        "has_user_voted": false,
        "has_user_reported": false
      },
      {
        "isContribuable": false,
        "id": 4623,
        "body": "On ne sait pas les évolutions dont pourrait bénéficier la sécurité informatique dans les prochaines années. Vouloir bloquer définitivement et dès aujourd'hui le vote numérique serait prématuré. Actuellement, les élections se font bel et bien de façon traditionnelle pour une très grande majorité des citoyens ; pour les autres, aucun cas de fraude n'a été rapporté à ce jour en France. S'il est trop tôt pour pouvoir dire que tous les français peuvent voter numériquement en toute sécurité, l'interdire est aujourd'hui inutile.",
        "created_at": "2015-10-16T11:44:20+0200",
        "updated_at": "2015-10-16T11:44:20+0200",
        "is_enabled": true,
        "votes_count": 2,
        "type": 0,
        "is_trashed": false,
        "author": {
          "username": "Sébastien Geldreich",
          "displayName": "Sébastien Geldreich",
          "uniqueId": "sebastiengeldreich",
          "isAdmin": false,
          "media": null,
          "vip": false,
          "_links": {
            "profile": "https://www.republique-numerique.fr/profile/sebastiengeldreich",
            "settings": "https://www.republique-numerique.fr/profile/edit-profile"
          }
        },
        "_links": {
          "show": "https://www.republique-numerique.fr/consultations/projet-de-loi-numerique/consultation/consultation/opinions/section-1-neutralite-de-l-internet/protection-du-vote#arg-4623",
          "edit": "https://www.republique-numerique.fr/consultations/projet-de-loi-numerique/consultation/consultation/opinions/section-1-neutralite-de-l-internet/protection-du-vote/arguments/4623/edit",
          "report": "https://www.republique-numerique.fr/consultations/projet-de-loi-numerique/consultation/consultation/opinions/section-1-neutralite-de-l-internet/protection-du-vote/arguments/4623/report"
        },
        "has_user_voted": false,
        "has_user_reported": false
      },
      {
        "isContribuable": false,
        "id": 3937,
        "body": "La sécurité peut être perfectible, en effet. Sur le principe, le vote numérique permettrait de faire voter des français qui n'ont injustement pas le droit de vote: je pense aux saisonniers, aux SDF, aux travailleurs mobiles, aux gens du voyage. Brefs ceux qui n'ont pas une adresse fixe.\nEn plus, c'est plus facile pour les expatriés.",
        "created_at": "2015-10-14T16:21:22+0200",
        "updated_at": "2015-10-14T16:21:22+0200",
        "is_enabled": true,
        "votes_count": 3,
        "type": 0,
        "is_trashed": false,
        "author": {
          "username": "Jeanne Varasco",
          "displayName": "Jeanne Varasco",
          "uniqueId": "jeannevarasco",
          "isAdmin": false,
          "media": {
            "url": "/media/cache/default_avatar/default/0001/01/139_default_avatar.jpg"
          },
          "vip": false,
          "_links": {
            "profile": "https://www.republique-numerique.fr/profile/jeannevarasco",
            "settings": "https://www.republique-numerique.fr/profile/edit-profile"
          }
        },
        "_links": {
          "show": "https://www.republique-numerique.fr/consultations/projet-de-loi-numerique/consultation/consultation/opinions/section-1-neutralite-de-l-internet/protection-du-vote#arg-3937",
          "edit": "https://www.republique-numerique.fr/consultations/projet-de-loi-numerique/consultation/consultation/opinions/section-1-neutralite-de-l-internet/protection-du-vote/arguments/3937/edit",
          "report": "https://www.republique-numerique.fr/consultations/projet-de-loi-numerique/consultation/consultation/opinions/section-1-neutralite-de-l-internet/protection-du-vote/arguments/3937/report"
        },
        "has_user_voted": false,
        "has_user_reported": false
      }
    ],
    "modals": [],
    "votes": [
      {
        "user": {
          "username": "Thomas Laloë",
          "displayName": "Thomas Laloë",
          "uniqueId": "thomaslaloe",
          "isAdmin": false,
          "media": null,
          "vip": false,
          "_links": {
            "profile": "https://www.republique-numerique.fr/profile/thomaslaloe",
            "settings": "https://www.republique-numerique.fr/profile/edit-profile"
          }
        }
      },
      {
        "user": {
          "username": "Jeanne Varasco",
          "displayName": "Jeanne Varasco",
          "uniqueId": "jeannevarasco",
          "isAdmin": false,
          "media": {
            "url": "/media/cache/default_avatar/default/0001/01/139_default_avatar.jpg"
          },
          "vip": false,
          "_links": {
            "profile": "https://www.republique-numerique.fr/profile/jeannevarasco",
            "settings": "https://www.republique-numerique.fr/profile/edit-profile"
          }
        }
      },
      {
        "user": {
          "username": "CapitaineNemo",
          "displayName": "CapitaineNemo",
          "uniqueId": "capitainenemo",
          "isAdmin": false,
          "media": null,
          "vip": false,
          "_links": {
            "profile": "https://www.republique-numerique.fr/profile/capitainenemo",
            "settings": "https://www.republique-numerique.fr/profile/edit-profile"
          }
        }
      },
      {
        "user": {
          "username": "TERIER Joël",
          "displayName": "TERIER Joël",
          "uniqueId": "terierjoel",
          "isAdmin": false,
          "media": null,
          "vip": false,
          "_links": {
            "profile": "https://www.republique-numerique.fr/profile/terierjoel",
            "settings": "https://www.republique-numerique.fr/profile/edit-profile"
          }
        }
      },
      {
        "user": {
          "username": "Thomas Nagy",
          "displayName": "Thomas Nagy",
          "uniqueId": "thomasnagy",
          "isAdmin": false,
          "media": null,
          "vip": false,
          "_links": {
            "profile": "https://www.republique-numerique.fr/profile/thomasnagy",
            "settings": "https://www.republique-numerique.fr/profile/edit-profile"
          }
        }
      }
    ],
    "appendices": [
      {
        "body": "<p>le vote &quot;num&eacute;rique&quot; ouvre la voie &agrave; de trop grands danger! Transparence impossible, risque 0 de piratage invenvisageable, etc</p>",
        "type": {
          "title": "Explication de l'article"
        }
      }
    ],
    "ranking": 427,
    "is_trashed": false,
    "title": "Protection du vote",
    "votes_nok": 3,
    "votes_ok": 6,
    "votes_mitige": 2,
    "_links": {
      "show": "https://www.republique-numerique.fr/consultations/projet-de-loi-numerique/consultation/consultation/opinions/section-1-neutralite-de-l-internet/protection-du-vote",
      "edit": "https://www.republique-numerique.fr/consultations/projet-de-loi-numerique/consultation/consultation/opinions/section-1-neutralite-de-l-internet/protection-du-vote/edit",
      "report": "https://www.republique-numerique.fr/consultations/projet-de-loi-numerique/consultation/consultation/opinions/section-1-neutralite-de-l-internet/protection-du-vote/report",
      "type": "https://www.republique-numerique.fr/consultations/projet-de-loi-numerique/consultation/consultation/opinions/section-1-neutralite-de-l-internet"
    },
    "user_vote": null,
    "has_user_reported": false
  },
  "rankingThreshold": null,
  "opinionTerm": 1
}