{
  "opinion": {
    "isContribuable": false,
    "votes_total": 8,
    "arguments_yes_count": 1,
    "arguments_no_count": 0,
    "id": 448,
    "created_at": "2015-10-06T18:02:58+0200",
    "updated_at": "2015-10-06T18:02:58+0200",
    "body": "<p>Afin de permettre l&#39;exploitation des donn&eacute;es massives (&quot;Big Data&quot;) dans le respect des donn&eacute;es personnelles, les organismes publics ou para-publics mettent en oeuvre une politique de tra&ccedil;abilit&eacute; respectant l&#39;anonymat des utilisateurs.</p>",
    "versions_count": 0,
    "sources_count": 0,
    "arguments_count": 1,
    "author": {
      "username": "Seentud",
      "displayName": "Seentud",
      "uniqueId": "seentud",
      "isAdmin": false,
      "media": null,
      "vip": false,
      "_links": {
        "profile": "https://www.republique-numerique.fr/profile/seentud",
        "settings": "https://www.republique-numerique.fr/profile/edit-profile"
      }
    },
    "type": {
      "id": 91,
      "title": "Section 2",
      "subtitle": "Travaux de recherche et de statistique",
      "voteWidgetType": 2,
      "votesHelpText": "Pensez-vous que cette proposition permet d'atteindre les objectifs présentés dans l’explication de l’article ?",
      "commentSystem": 2,
      "color": "blue",
      "versionable": true,
      "sourceable": true,
      "votesThreshold": null,
      "votesThresholdHelpText": null
    },
    "sources": [],
    "arguments": [
      {
        "isContribuable": false,
        "id": 2860,
        "body": "C'est ainsi qu'on aurait dû clore le débat sur Navigo... C'est du bon sens.",
        "created_at": "2015-10-09T22:27:42+0200",
        "updated_at": "2015-10-09T22:27:42+0200",
        "is_enabled": true,
        "votes_count": 0,
        "type": 1,
        "is_trashed": false,
        "author": {
          "username": "Bernard Martinez",
          "displayName": "Bernard Martinez",
          "uniqueId": "bernardmartinez",
          "isAdmin": false,
          "media": null,
          "vip": false,
          "_links": {
            "profile": "https://www.republique-numerique.fr/profile/bernardmartinez",
            "settings": "https://www.republique-numerique.fr/profile/edit-profile"
          }
        },
        "_links": {
          "show": "https://www.republique-numerique.fr/consultations/projet-de-loi-numerique/consultation/consultation/opinions/section-2-travaux-de-recherche-et-de-statistique/donnees-massives-tracabilite-respectant-l-anonymat#arg-2860",
          "edit": "https://www.republique-numerique.fr/consultations/projet-de-loi-numerique/consultation/consultation/opinions/section-2-travaux-de-recherche-et-de-statistique/donnees-massives-tracabilite-respectant-l-anonymat/arguments/2860/edit",
          "report": "https://www.republique-numerique.fr/consultations/projet-de-loi-numerique/consultation/consultation/opinions/section-2-travaux-de-recherche-et-de-statistique/donnees-massives-tracabilite-respectant-l-anonymat/arguments/2860/report"
        },
        "has_user_voted": false,
        "has_user_reported": false
      }
    ],
    "modals": [],
    "votes": [
      {
        "user": {
          "username": "Jeanne Varasco",
          "displayName": "Jeanne Varasco",
          "uniqueId": "jeannevarasco",
          "isAdmin": false,
          "media": {
            "url": "/media/cache/default_avatar/default/0001/01/139_default_avatar.jpg"
          },
          "vip": false,
          "_links": {
            "profile": "https://www.republique-numerique.fr/profile/jeannevarasco",
            "settings": "https://www.republique-numerique.fr/profile/edit-profile"
          }
        }
      },
      {
        "user": {
          "username": "Bernard Martinez",
          "displayName": "Bernard Martinez",
          "uniqueId": "bernardmartinez",
          "isAdmin": false,
          "media": null,
          "vip": false,
          "_links": {
            "profile": "https://www.republique-numerique.fr/profile/bernardmartinez",
            "settings": "https://www.republique-numerique.fr/profile/edit-profile"
          }
        }
      },
      {
        "user": {
          "username": "Maltese Nadine",
          "displayName": "Maltese Nadine",
          "uniqueId": "maltesenadine",
          "isAdmin": false,
          "media": {
            "url": "/media/cache/default_avatar/default/0001/01/113_default_avatar.png"
          },
          "vip": false,
          "_links": {
            "profile": "https://www.republique-numerique.fr/profile/maltesenadine",
            "settings": "https://www.republique-numerique.fr/profile/edit-profile"
          }
        }
      },
      {
        "user": {
          "username": "HJM74",
          "displayName": "HJM74",
          "uniqueId": "hjm74",
          "isAdmin": false,
          "media": null,
          "vip": false,
          "_links": {
            "profile": "https://www.republique-numerique.fr/profile/hjm74",
            "settings": "https://www.republique-numerique.fr/profile/edit-profile"
          }
        }
      },
      {
        "user": {
          "username": "Emilien",
          "displayName": "Emilien",
          "uniqueId": "emilien",
          "isAdmin": false,
          "media": null,
          "vip": false,
          "_links": {
            "profile": "https://www.republique-numerique.fr/profile/emilien",
            "settings": "https://www.republique-numerique.fr/profile/edit-profile"
          }
        }
      }
    ],
    "appendices": [
      {
        "body": "<p>Comment concilier la possibilit&eacute; de suivre des trajectoires de personnes dans le temps et dans l&#39;espace, tout en pr&eacute;servant leur anonymat (exemple: optimiser les flux de circulation dans les villes sans savoir nomm&eacute;ment qui sont les conducteurs) ?</p>\r\n\r\n<p>La r&eacute;ponse existe depuis longtemps dans les bases de donn&eacute;es de Sant&eacute; Publique: les malades hospitalis&eacute;s sont rep&eacute;r&eacute;s par l&#39;empreinte hash&eacute;e d&#39;un invariant (N&deg; NIR + date de naissance + sexe). Si la m&eacute;thode de hashing est connue et constante, l&#39;empreinte l&#39;est aussi, et <u><em>on peut ainsi suivre les patients sur des ann&eacute;es en respectant leur anonymat</em></u>. Et le co&ucirc;t en ressources est quasi-nul.</p>\r\n\r\n<p>La m&eacute;thode est parfaitement g&eacute;n&eacute;ralisable: il suffit de trouver un invariant pour la trajectoire qu&#39;on veut suivre (N&deg; de ch&acirc;ssis pour une voiture, par exemple).</p>\r\n\r\n<p>N&#39;h&eacute;sitez pas &agrave; me contacter si vous le souhaitez.</p>",
        "type": {
          "title": "Explication de l'article"
        }
      }
    ],
    "ranking": 397,
    "is_trashed": false,
    "title": "Données massives / Traçabilité respectant l'anonymat",
    "votes_nok": 1,
    "votes_ok": 7,
    "votes_mitige": 0,
    "_links": {
      "show": "https://www.republique-numerique.fr/consultations/projet-de-loi-numerique/consultation/consultation/opinions/section-2-travaux-de-recherche-et-de-statistique/donnees-massives-tracabilite-respectant-l-anonymat",
      "edit": "https://www.republique-numerique.fr/consultations/projet-de-loi-numerique/consultation/consultation/opinions/section-2-travaux-de-recherche-et-de-statistique/donnees-massives-tracabilite-respectant-l-anonymat/edit",
      "report": "https://www.republique-numerique.fr/consultations/projet-de-loi-numerique/consultation/consultation/opinions/section-2-travaux-de-recherche-et-de-statistique/donnees-massives-tracabilite-respectant-l-anonymat/report",
      "type": "https://www.republique-numerique.fr/consultations/projet-de-loi-numerique/consultation/consultation/opinions/section-2-travaux-de-recherche-et-de-statistique"
    },
    "user_vote": null,
    "has_user_reported": false
  },
  "rankingThreshold": null,
  "opinionTerm": 1
}