{
  "opinion": {
    "isContribuable": false,
    "votes_total": 8,
    "arguments_yes_count": 0,
    "arguments_no_count": 0,
    "id": 564,
    "created_at": "2015-10-12T17:09:13+0200",
    "updated_at": "2015-10-12T17:09:13+0200",
    "body": "<p>VI. L&rsquo;article L. 121-83 du code de la consommation est ainsi modifié :</p>\r\n\r\n<p>1&deg; le b) est complété par les mots : &laquo; y compris les débits minimums, moyens, maximums montants et descendants fournis lorsqu&rsquo;il s&rsquo;agit de services d&rsquo;accès à internet fixe et une estimation des débits maximums montants et descendants fournis dans le cas de services d&rsquo;accès à internet mobile ; &raquo;</p>\r\n\r\n<p>2&deg;le d) est ainsi rédigé : &laquo; Les compensations et formules de remboursement applicables lorsque le niveau de qualité de services ou les débits prévus dans le contrat, ou annoncés dans les publicités ou les documents commerciaux relatifs à l&rsquo;offre souscrite ne sont généralement pas atteint, de façon continue ou récurrente ; &raquo;</p>\r\n\r\n<p>3&deg; le g) est complété par les mots : &laquo;, de protection de la vie privée et des données à caractère personnel, ainsi que l&rsquo;impact des limitations de volume, de débits ou d&rsquo;autres paramètres sur la qualité de l&rsquo;accès à internet, en particulier l&rsquo;utilisation de contenus, d&rsquo;applications et de services, y compris ceux bénéficiant d&rsquo;une qualité optimisée. &raquo;&nbsp;</p>",
    "versions_count": 0,
    "sources_count": 0,
    "arguments_count": 0,
    "author": {
      "username": "AVICCA",
      "displayName": "AVICCA",
      "uniqueId": "avicca",
      "isAdmin": false,
      "media": {
        "url": "/media/cache/default_avatar/default/0001/01/661_default_avatar.png"
      },
      "vip": false,
      "_links": {
        "profile": "https://www.republique-numerique.fr/profile/avicca",
        "settings": "https://www.republique-numerique.fr/profile/edit-profile"
      }
    },
    "type": {
      "id": 104,
      "title": "Section 2",
      "subtitle": "Couverture numérique",
      "voteWidgetType": 2,
      "votesHelpText": "Pensez-vous que cette proposition permet d'atteindre les objectifs présentés dans l’explication de l’article ?",
      "commentSystem": 2,
      "color": "blue",
      "versionable": true,
      "sourceable": true,
      "votesThreshold": null,
      "votesThresholdHelpText": null
    },
    "sources": [],
    "arguments": [],
    "modals": [],
    "votes": [
      {
        "user": {
          "username": "Jeanne Varasco",
          "displayName": "Jeanne Varasco",
          "uniqueId": "jeannevarasco",
          "isAdmin": false,
          "media": {
            "url": "/media/cache/default_avatar/default/0001/01/139_default_avatar.jpg"
          },
          "vip": false,
          "_links": {
            "profile": "https://www.republique-numerique.fr/profile/jeannevarasco",
            "settings": "https://www.republique-numerique.fr/profile/edit-profile"
          }
        }
      },
      {
        "user": {
          "username": "Vincent Reverdy",
          "displayName": "Vincent Reverdy",
          "uniqueId": "vincentreverdy",
          "isAdmin": false,
          "media": {
            "url": "/media/cache/default_avatar/default/0001/01/268_default_avatar.jpg"
          },
          "vip": false,
          "_links": {
            "profile": "https://www.republique-numerique.fr/profile/vincentreverdy",
            "settings": "https://www.republique-numerique.fr/profile/edit-profile"
          }
        }
      },
      {
        "user": {
          "username": "Marc-Antoine Bouzigues",
          "displayName": "Marc-Antoine Bouzigues",
          "uniqueId": "marcantoinebouzigues",
          "isAdmin": false,
          "media": null,
          "vip": false,
          "_links": {
            "profile": "https://www.republique-numerique.fr/profile/marcantoinebouzigues",
            "settings": "https://www.republique-numerique.fr/profile/edit-profile"
          }
        }
      },
      {
        "user": {
          "username": "Michel12",
          "displayName": "Michel12",
          "uniqueId": "michel12",
          "isAdmin": false,
          "media": null,
          "vip": false,
          "_links": {
            "profile": "https://www.republique-numerique.fr/profile/michel12",
            "settings": "https://www.republique-numerique.fr/profile/edit-profile"
          }
        }
      },
      {
        "user": {
          "username": "Etienne Desmet",
          "displayName": "Etienne Desmet",
          "uniqueId": "etiennedesmet",
          "isAdmin": false,
          "media": null,
          "vip": false,
          "_links": {
            "profile": "https://www.republique-numerique.fr/profile/etiennedesmet",
            "settings": "https://www.republique-numerique.fr/profile/edit-profile"
          }
        }
      }
    ],
    "appendices": [
      {
        "body": "<p>Le consommateur a droit &agrave; une information claire et honn&ecirc;te, et il est important que les op&eacute;rateurs qui investissent dans les r&eacute;seaux performants puissent &ecirc;tre r&eacute;compens&eacute;s de leurs efforts.</p>",
        "type": {
          "title": "Explication de l'article"
        }
      }
    ],
    "ranking": 364,
    "is_trashed": false,
    "title": "Informer le consommateur sur les débits",
    "votes_nok": 0,
    "votes_ok": 8,
    "votes_mitige": 0,
    "_links": {
      "show": "https://www.republique-numerique.fr/consultations/projet-de-loi-numerique/consultation/consultation/opinions/section-2-couverture-numerique/informer-le-consommateur-sur-les-debits",
      "edit": "https://www.republique-numerique.fr/consultations/projet-de-loi-numerique/consultation/consultation/opinions/section-2-couverture-numerique/informer-le-consommateur-sur-les-debits/edit",
      "report": "https://www.republique-numerique.fr/consultations/projet-de-loi-numerique/consultation/consultation/opinions/section-2-couverture-numerique/informer-le-consommateur-sur-les-debits/report",
      "type": "https://www.republique-numerique.fr/consultations/projet-de-loi-numerique/consultation/consultation/opinions/section-2-couverture-numerique"
    },
    "user_vote": null,
    "has_user_reported": false
  },
  "rankingThreshold": null,
  "opinionTerm": 1
}