{
  "opinion": {
    "isContribuable": false,
    "votes_total": 65,
    "arguments_yes_count": 3,
    "arguments_no_count": 0,
    "id": 261,
    "created_at": "2015-09-28T18:50:17+0200",
    "updated_at": "2015-09-28T18:50:17+0200",
    "body": "<p>L&#39;ensemble des Normes et DTU seront disponibles en libre acc&egrave;s &agrave; l&#39;image de l&eacute;gifrance.</p>",
    "versions_count": 1,
    "sources_count": 0,
    "arguments_count": 3,
    "author": {
      "username": "NADPERR",
      "displayName": "NADPERR",
      "uniqueId": "nadperr",
      "isAdmin": false,
      "media": {
        "url": "/media/cache/default_avatar/default/0001/01/154_default_avatar.jpg"
      },
      "vip": false,
      "_links": {
        "profile": "https://www.republique-numerique.fr/profile/nadperr",
        "settings": "https://www.republique-numerique.fr/profile/edit-profile"
      }
    },
    "type": {
      "id": 87,
      "title": "Section 2",
      "subtitle": "Service public de la donnée",
      "voteWidgetType": 2,
      "votesHelpText": "Pensez-vous que cette proposition permet d'atteindre les objectifs présentés dans l’explication de l’article ?",
      "commentSystem": 2,
      "color": "blue",
      "versionable": true,
      "sourceable": true,
      "votesThreshold": null,
      "votesThresholdHelpText": null
    },
    "sources": [],
    "arguments": [
      {
        "isContribuable": false,
        "id": 2819,
        "body": "En France seules les normes d'application obligatoire, ayant donc force de loi, sont gratuites. On peut y accéder (pas si facilement) sur le site de l'AFNOR. Mais la plupart des normes restent payantes, alors que leur connaissance et leur utilisation par les entreprises et les citoyens serait d'utilité publique, même si elle reste facultative.",
        "created_at": "2015-10-09T18:44:14+0200",
        "updated_at": "2015-10-09T18:44:14+0200",
        "is_enabled": true,
        "votes_count": 0,
        "type": 1,
        "is_trashed": false,
        "author": {
          "username": "Martine OTTER",
          "displayName": "Martine OTTER",
          "uniqueId": "martineotter",
          "isAdmin": false,
          "media": null,
          "vip": false,
          "_links": {
            "profile": "https://www.republique-numerique.fr/profile/martineotter",
            "settings": "https://www.republique-numerique.fr/profile/edit-profile"
          }
        },
        "_links": {
          "show": "https://www.republique-numerique.fr/consultations/projet-de-loi-numerique/consultation/consultation/opinions/section-2-service-public-de-la-donnee-1/mise-en-ligne-gratuitement-les-normes-et-dtu#arg-2819",
          "edit": "https://www.republique-numerique.fr/consultations/projet-de-loi-numerique/consultation/consultation/opinions/section-2-service-public-de-la-donnee-1/mise-en-ligne-gratuitement-les-normes-et-dtu/arguments/2819/edit",
          "report": "https://www.republique-numerique.fr/consultations/projet-de-loi-numerique/consultation/consultation/opinions/section-2-service-public-de-la-donnee-1/mise-en-ligne-gratuitement-les-normes-et-dtu/arguments/2819/report"
        },
        "has_user_voted": false,
        "has_user_reported": false
      },
      {
        "isContribuable": false,
        "id": 2053,
        "body": "Il y a des sujets qu'il va falloir porter au niveau international. Celui là en fait partie.",
        "created_at": "2015-10-02T21:23:19+0200",
        "updated_at": "2015-10-02T21:23:19+0200",
        "is_enabled": true,
        "votes_count": 0,
        "type": 1,
        "is_trashed": false,
        "author": {
          "username": "Jonathan Crequer",
          "displayName": "Jonathan Crequer",
          "uniqueId": "jonathancrequer",
          "isAdmin": false,
          "media": null,
          "vip": false,
          "_links": {
            "profile": "https://www.republique-numerique.fr/profile/jonathancrequer",
            "settings": "https://www.republique-numerique.fr/profile/edit-profile"
          }
        },
        "_links": {
          "show": "https://www.republique-numerique.fr/consultations/projet-de-loi-numerique/consultation/consultation/opinions/section-2-service-public-de-la-donnee-1/mise-en-ligne-gratuitement-les-normes-et-dtu#arg-2053",
          "edit": "https://www.republique-numerique.fr/consultations/projet-de-loi-numerique/consultation/consultation/opinions/section-2-service-public-de-la-donnee-1/mise-en-ligne-gratuitement-les-normes-et-dtu/arguments/2053/edit",
          "report": "https://www.republique-numerique.fr/consultations/projet-de-loi-numerique/consultation/consultation/opinions/section-2-service-public-de-la-donnee-1/mise-en-ligne-gratuitement-les-normes-et-dtu/arguments/2053/report"
        },
        "has_user_voted": false,
        "has_user_reported": false
      },
      {
        "isContribuable": false,
        "id": 1092,
        "body": "Les normes DTU, les normes ISO sont payantes et sont issues de société privée pas toujours basées en France. Votre proposition paait sensée, mais est-elle réalisable ? Réaliste ?",
        "created_at": "2015-09-29T00:09:07+0200",
        "updated_at": "2015-09-29T00:09:07+0200",
        "is_enabled": true,
        "votes_count": 0,
        "type": 1,
        "is_trashed": false,
        "author": {
          "username": "Jeanne Varasco",
          "displayName": "Jeanne Varasco",
          "uniqueId": "jeannevarasco",
          "isAdmin": false,
          "media": {
            "url": "/media/cache/default_avatar/default/0001/01/139_default_avatar.jpg"
          },
          "vip": false,
          "_links": {
            "profile": "https://www.republique-numerique.fr/profile/jeannevarasco",
            "settings": "https://www.republique-numerique.fr/profile/edit-profile"
          }
        },
        "_links": {
          "show": "https://www.republique-numerique.fr/consultations/projet-de-loi-numerique/consultation/consultation/opinions/section-2-service-public-de-la-donnee-1/mise-en-ligne-gratuitement-les-normes-et-dtu#arg-1092",
          "edit": "https://www.republique-numerique.fr/consultations/projet-de-loi-numerique/consultation/consultation/opinions/section-2-service-public-de-la-donnee-1/mise-en-ligne-gratuitement-les-normes-et-dtu/arguments/1092/edit",
          "report": "https://www.republique-numerique.fr/consultations/projet-de-loi-numerique/consultation/consultation/opinions/section-2-service-public-de-la-donnee-1/mise-en-ligne-gratuitement-les-normes-et-dtu/arguments/1092/report"
        },
        "has_user_voted": false,
        "has_user_reported": false
      }
    ],
    "modals": [],
    "votes": [
      {
        "user": {
          "username": "Olivier SERY",
          "displayName": "Olivier SERY",
          "uniqueId": "oliviersery",
          "isAdmin": false,
          "media": null,
          "vip": false,
          "_links": {
            "profile": "https://www.republique-numerique.fr/profile/oliviersery",
            "settings": "https://www.republique-numerique.fr/profile/edit-profile"
          }
        }
      },
      {
        "user": {
          "username": "Jeanne Varasco",
          "displayName": "Jeanne Varasco",
          "uniqueId": "jeannevarasco",
          "isAdmin": false,
          "media": {
            "url": "/media/cache/default_avatar/default/0001/01/139_default_avatar.jpg"
          },
          "vip": false,
          "_links": {
            "profile": "https://www.republique-numerique.fr/profile/jeannevarasco",
            "settings": "https://www.republique-numerique.fr/profile/edit-profile"
          }
        }
      },
      {
        "user": {
          "username": "Julien M",
          "displayName": "Julien M",
          "uniqueId": "julienm",
          "isAdmin": false,
          "media": null,
          "vip": false,
          "_links": {
            "profile": "https://www.republique-numerique.fr/profile/julienm",
            "settings": "https://www.republique-numerique.fr/profile/edit-profile"
          }
        }
      },
      {
        "user": {
          "username": "Guillaume Litaudon",
          "displayName": "Guillaume Litaudon",
          "uniqueId": "guillaumelitaudon",
          "isAdmin": false,
          "media": null,
          "vip": false,
          "_links": {
            "profile": "https://www.republique-numerique.fr/profile/guillaumelitaudon",
            "settings": "https://www.republique-numerique.fr/profile/edit-profile"
          }
        }
      },
      {
        "user": {
          "username": "Francois Wahart",
          "displayName": "Francois Wahart",
          "uniqueId": "francoiswahart",
          "isAdmin": false,
          "media": null,
          "vip": false,
          "_links": {
            "profile": "https://www.republique-numerique.fr/profile/francoiswahart",
            "settings": "https://www.republique-numerique.fr/profile/edit-profile"
          }
        }
      }
    ],
    "appendices": [
      {
        "body": "<p>Comme nul n&#39;est cens&eacute; ignorer la loi, nul n&#39;est cens&eacute; ignorer les normes et DTU faisant office de loi dans leurs domaines, notamment le monde du BTP. Il est aberrant que ces donn&eacute;es en perp&eacute;tuelle &eacute;volution soient payantes.</p>",
        "type": {
          "title": "Explication de l'article"
        }
      }
    ],
    "ranking": 130,
    "is_trashed": false,
    "title": "Mise en ligne gratuitement les normes et DTU",
    "votes_nok": 0,
    "votes_ok": 64,
    "votes_mitige": 1,
    "_links": {
      "show": "https://www.republique-numerique.fr/consultations/projet-de-loi-numerique/consultation/consultation/opinions/section-2-service-public-de-la-donnee-1/mise-en-ligne-gratuitement-les-normes-et-dtu",
      "edit": "https://www.republique-numerique.fr/consultations/projet-de-loi-numerique/consultation/consultation/opinions/section-2-service-public-de-la-donnee-1/mise-en-ligne-gratuitement-les-normes-et-dtu/edit",
      "report": "https://www.republique-numerique.fr/consultations/projet-de-loi-numerique/consultation/consultation/opinions/section-2-service-public-de-la-donnee-1/mise-en-ligne-gratuitement-les-normes-et-dtu/report",
      "type": "https://www.republique-numerique.fr/consultations/projet-de-loi-numerique/consultation/consultation/opinions/section-2-service-public-de-la-donnee-1"
    },
    "user_vote": null,
    "has_user_reported": false
  },
  "rankingThreshold": null,
  "opinionTerm": 1
}