{
  "opinion": {
    "isContribuable": false,
    "votes_total": 10,
    "arguments_yes_count": 1,
    "arguments_no_count": 0,
    "id": 597,
    "created_at": "2015-10-14T10:25:53+0200",
    "updated_at": "2015-10-14T10:25:53+0200",
    "body": "<div>VI. L&rsquo;article L. 121-83 du code de la consommation est ainsi compl&eacute;t&eacute; :</div>\r\n\r\n<div>&nbsp;</div>\r\n\r\n<div>n) Les architectures de r&eacute;seaux et technologies employ&eacute;es.</div>",
    "versions_count": 0,
    "sources_count": 0,
    "arguments_count": 1,
    "author": {
      "username": "AVICCA",
      "displayName": "AVICCA",
      "uniqueId": "avicca",
      "isAdmin": false,
      "media": {
        "url": "/media/cache/default_avatar/default/0001/01/661_default_avatar.png"
      },
      "vip": false,
      "_links": {
        "profile": "https://www.republique-numerique.fr/profile/avicca",
        "settings": "https://www.republique-numerique.fr/profile/edit-profile"
      }
    },
    "type": {
      "id": 104,
      "title": "Section 2",
      "subtitle": "Couverture numérique",
      "voteWidgetType": 2,
      "votesHelpText": "Pensez-vous que cette proposition permet d'atteindre les objectifs présentés dans l’explication de l’article ?",
      "commentSystem": 2,
      "color": "blue",
      "versionable": true,
      "sourceable": true,
      "votesThreshold": null,
      "votesThresholdHelpText": null
    },
    "sources": [],
    "arguments": [
      {
        "isContribuable": false,
        "id": 4230,
        "body": "J'ajouterais que l'on devrait avoir le choix, si on ne veut pas utiliser telle ou telle technologie (par exemple une antenne wifi sise à notre insu dans notre PC ou une fonction de box inutile)",
        "created_at": "2015-10-15T14:49:51+0200",
        "updated_at": "2015-10-15T14:49:51+0200",
        "is_enabled": true,
        "votes_count": 2,
        "type": 1,
        "is_trashed": false,
        "author": {
          "username": "Jeanne Varasco",
          "displayName": "Jeanne Varasco",
          "uniqueId": "jeannevarasco",
          "isAdmin": false,
          "media": {
            "url": "/media/cache/default_avatar/default/0001/01/139_default_avatar.jpg"
          },
          "vip": false,
          "_links": {
            "profile": "https://www.republique-numerique.fr/profile/jeannevarasco",
            "settings": "https://www.republique-numerique.fr/profile/edit-profile"
          }
        },
        "_links": {
          "show": "https://www.republique-numerique.fr/consultations/projet-de-loi-numerique/consultation/consultation/opinions/section-2-couverture-numerique/informer-le-consommateur-sur-les-technologies#arg-4230",
          "edit": "https://www.republique-numerique.fr/consultations/projet-de-loi-numerique/consultation/consultation/opinions/section-2-couverture-numerique/informer-le-consommateur-sur-les-technologies/arguments/4230/edit",
          "report": "https://www.republique-numerique.fr/consultations/projet-de-loi-numerique/consultation/consultation/opinions/section-2-couverture-numerique/informer-le-consommateur-sur-les-technologies/arguments/4230/report"
        },
        "has_user_voted": false,
        "has_user_reported": false
      }
    ],
    "modals": [],
    "votes": [
      {
        "user": {
          "username": "Marc-Antoine Bouzigues",
          "displayName": "Marc-Antoine Bouzigues",
          "uniqueId": "marcantoinebouzigues",
          "isAdmin": false,
          "media": null,
          "vip": false,
          "_links": {
            "profile": "https://www.republique-numerique.fr/profile/marcantoinebouzigues",
            "settings": "https://www.republique-numerique.fr/profile/edit-profile"
          }
        }
      },
      {
        "user": {
          "username": "Michel12",
          "displayName": "Michel12",
          "uniqueId": "michel12",
          "isAdmin": false,
          "media": null,
          "vip": false,
          "_links": {
            "profile": "https://www.republique-numerique.fr/profile/michel12",
            "settings": "https://www.republique-numerique.fr/profile/edit-profile"
          }
        }
      },
      {
        "user": {
          "username": "Etienne Desmet",
          "displayName": "Etienne Desmet",
          "uniqueId": "etiennedesmet",
          "isAdmin": false,
          "media": null,
          "vip": false,
          "_links": {
            "profile": "https://www.republique-numerique.fr/profile/etiennedesmet",
            "settings": "https://www.republique-numerique.fr/profile/edit-profile"
          }
        }
      },
      {
        "user": {
          "username": "Jeanne Varasco",
          "displayName": "Jeanne Varasco",
          "uniqueId": "jeannevarasco",
          "isAdmin": false,
          "media": {
            "url": "/media/cache/default_avatar/default/0001/01/139_default_avatar.jpg"
          },
          "vip": false,
          "_links": {
            "profile": "https://www.republique-numerique.fr/profile/jeannevarasco",
            "settings": "https://www.republique-numerique.fr/profile/edit-profile"
          }
        }
      },
      {
        "user": {
          "username": "Vincent Reverdy",
          "displayName": "Vincent Reverdy",
          "uniqueId": "vincentreverdy",
          "isAdmin": false,
          "media": {
            "url": "/media/cache/default_avatar/default/0001/01/268_default_avatar.jpg"
          },
          "vip": false,
          "_links": {
            "profile": "https://www.republique-numerique.fr/profile/vincentreverdy",
            "settings": "https://www.republique-numerique.fr/profile/edit-profile"
          }
        }
      }
    ],
    "appendices": [
      {
        "body": "<div>Tout contrat souscrit par un consommateur avec un fournisseur de services de communications &eacute;lectroniques au sens du 6&deg; de&nbsp;<a href=\"http://www.legifrance.gouv.fr/affichCodeArticle.do;jsessionid=C6444DB29EA16B040984757DB817786E.tpdila13v_2?cidTexte=LEGITEXT000006070987&amp;idArticle=LEGIARTI000006465394&amp;dateTexte=&amp;categorieLien=cid\" style=\"color: rgb(51, 102, 153); display: inline; font-family: arial, FreeSans, sans-serif; line-height: 19px;\">l&#39;article L. 32 du code des postes et des communications&nbsp;</a>&eacute;lectroniques doit comporter au moins les informations suivantes sous une forme claire, d&eacute;taill&eacute;e et ais&eacute;ment accessible &nbsp;:</div>\r\n\r\n<div>(...)</div>\r\n\r\n<div>n) Les architectures de r&eacute;seaux et technologies employ&eacute;es.</div>\r\n\r\n<p>Les op&eacute;rateurs appuient d&eacute;j&agrave; largement leur communication sur des &eacute;l&eacute;ments techniques (&laquo;&nbsp;4G&nbsp;&raquo;, &laquo;&nbsp;VDSL2&nbsp;&raquo;, &laquo;&nbsp;fibre optique&nbsp;&raquo;, &laquo;&nbsp;satellite&nbsp;&raquo; &hellip;). Les diff&eacute;rentes technologies ont des potentiels diff&eacute;rents, dont il est l&eacute;gitime que le souscripteur d&rsquo;un abonnement puisse avoir une&nbsp;connaissance claire et d&eacute;nu&eacute;e d&#39;ambiguit&eacute;.</p>\r\n\r\n<p>En compl&eacute;ment de l&#39;information sur les d&eacute;bits (voir autre article propos&eacute;).&nbsp;</p>\r\n\r\n<p>&nbsp;</p>\r\n\r\n<div>&nbsp;</div>",
        "type": {
          "title": "Explication de l'article"
        }
      }
    ],
    "ranking": 328,
    "is_trashed": false,
    "title": "Informer le consommateur sur les technologies",
    "votes_nok": 0,
    "votes_ok": 10,
    "votes_mitige": 0,
    "_links": {
      "show": "https://www.republique-numerique.fr/consultations/projet-de-loi-numerique/consultation/consultation/opinions/section-2-couverture-numerique/informer-le-consommateur-sur-les-technologies",
      "edit": "https://www.republique-numerique.fr/consultations/projet-de-loi-numerique/consultation/consultation/opinions/section-2-couverture-numerique/informer-le-consommateur-sur-les-technologies/edit",
      "report": "https://www.republique-numerique.fr/consultations/projet-de-loi-numerique/consultation/consultation/opinions/section-2-couverture-numerique/informer-le-consommateur-sur-les-technologies/report",
      "type": "https://www.republique-numerique.fr/consultations/projet-de-loi-numerique/consultation/consultation/opinions/section-2-couverture-numerique"
    },
    "user_vote": null,
    "has_user_reported": false
  },
  "rankingThreshold": null,
  "opinionTerm": 1
}