{
  "opinion": {
    "isContribuable": false,
    "votes_total": 0,
    "arguments_yes_count": 0,
    "arguments_no_count": 0,
    "id": 774,
    "created_at": "2015-10-18T22:12:07+0200",
    "updated_at": "2015-10-18T22:12:07+0200",
    "body": "<p>1/&nbsp;&nbsp;&nbsp;&nbsp;&nbsp;&nbsp;&nbsp; Les sous-r&eacute;partiteurs peuvent d&eacute;grouper la totalit&eacute; des lignes de ses membres&nbsp;; ils b&eacute;n&eacute;ficient du prix de gros.</p>\r\n\r\n<p>2/&nbsp;&nbsp;&nbsp;&nbsp;&nbsp;&nbsp;&nbsp; Les fournisseurs d&rsquo;acc&egrave;s ont l&rsquo;obligation de d&eacute;livrer au moins un abonnement d&rsquo;internet sec&nbsp;; dont la neutralit&eacute; sera garantie par la loi (pas de pub).</p>\r\n\r\n<p>3/&nbsp;&nbsp;&nbsp;&nbsp;&nbsp;&nbsp;&nbsp; Les fournisseurs d&rsquo;acc&egrave;s ne peuvent commercialiser des acc&egrave;s asym&eacute;triques &agrave; plus de 20%&nbsp; garantis.</p>",
    "versions_count": 0,
    "sources_count": 0,
    "arguments_count": 0,
    "author": {
      "username": "GARRIGUES Bernard",
      "displayName": "GARRIGUES Bernard",
      "uniqueId": "garriguesbernard",
      "isAdmin": false,
      "media": null,
      "vip": false,
      "_links": {
        "profile": "https://www.republique-numerique.fr/profile/garriguesbernard",
        "settings": "https://www.republique-numerique.fr/profile/edit-profile"
      }
    },
    "type": {
      "id": 90,
      "title": "Section 1",
      "subtitle": "Les Communs",
      "voteWidgetType": 2,
      "votesHelpText": "Pensez-vous que cette proposition permet d'atteindre les objectifs présentés dans l’explication de l’article ?",
      "commentSystem": 2,
      "color": "blue",
      "versionable": true,
      "sourceable": true,
      "votesThreshold": null,
      "votesThresholdHelpText": null
    },
    "sources": [],
    "arguments": [],
    "modals": [],
    "votes": [],
    "appendices": [
      {
        "body": "<p><strong><em>Statistiquement, les d&eacute;bits descendants repr&eacute;sentent 97% des flux&nbsp;; les d&eacute;bits montants 3%&nbsp;: ce sont pourtant eux qui paient la facture.</em></strong></p>\r\n\r\n<p><strong><em>M&ecirc;me les fournisseurs d&#39;acc&egrave;s FO commercialisent des abonnements &agrave; 100 m&eacute;gas bits par seconde &agrave; d&eacute;bit descendant 95 m&eacute;ga et montant &agrave; 4,2 m&eacute;gas (Num&eacute;ricable)</em></strong></p>",
        "type": {
          "title": "Explication de l'article"
        }
      }
    ],
    "ranking": 633,
    "is_trashed": false,
    "title": "ÉQUILIBRAGE  DE LA BANDE PASSANTE",
    "votes_nok": 0,
    "votes_ok": 0,
    "votes_mitige": 0,
    "_links": {
      "show": "https://www.republique-numerique.fr/consultations/projet-de-loi-numerique/consultation/consultation/opinions/section-1-les-communs/equilibrage-de-la-bande-passante",
      "edit": "https://www.republique-numerique.fr/consultations/projet-de-loi-numerique/consultation/consultation/opinions/section-1-les-communs/equilibrage-de-la-bande-passante/edit",
      "report": "https://www.republique-numerique.fr/consultations/projet-de-loi-numerique/consultation/consultation/opinions/section-1-les-communs/equilibrage-de-la-bande-passante/report",
      "type": "https://www.republique-numerique.fr/consultations/projet-de-loi-numerique/consultation/consultation/opinions/section-1-les-communs"
    },
    "user_vote": null,
    "has_user_reported": false
  },
  "rankingThreshold": null,
  "opinionTerm": 1
}