{
  "opinion": {
    "isContribuable": false,
    "votes_total": 1754,
    "arguments_yes_count": 27,
    "arguments_no_count": 16,
    "id": 177,
    "created_at": "2015-09-27T10:34:37+0200",
    "updated_at": "2015-09-27T10:34:37+0200",
    "body": "<p>La concurrence est fauss&eacute;e sur la march&eacute; car la soci&eacute;t&eacute; Microsoft impose aux fabricants de PC l&#39;installation de licences OEM. En cas de refus du fabricant il verrait le prix de sa licence OEM Windows major&eacute;e et p&eacute;nalis&eacute; dans ses co&ucirc;ts de revient.</p>\r\n\r\n<p>L&#39;argument qu&#39;il est aujourd&#39;hui possible d&#39;acqu&eacute;rir un ordinateur sans licence chez un int&eacute;grateur ne r&eacute;pond que partiellement au besoin de libre concurrence entre syst&egrave;mes d&#39;exploitation et est quasi impossible sur un ordinateur portable (55% du march&eacute;).</p>\r\n\r\n<p>Il semble &eacute;vident que le consommateur doivent conna&icirc;tre avant l&#39;achat le prix du mat&eacute;riel et disctinctement le prix des licences propos&eacute;es. Il doit &ecirc;tre libre de n&#39;acqu&eacute;rir que le mat&eacute;riel s&#39;il le souhaite.</p>\r\n\r\n<p>Le consommateur souhaitant utiliser windows par exemple s&#39;acquiterait du prix du mat&eacute;riel et de la licence.</p>\r\n\r\n<p>Aujourd&#39;hui les juridictions de proximit&eacute; rendent nombres de jugements en faveur du consommateur dans ce cas de figure. Afin de soulager les tribunaux, l&#39;inscription dans la loi semble citoyenne et toute entrave serait frapp&eacute;e de la suspicion de lobbying de puissants groupes financiers comme cela s&#39;est d&eacute;j&agrave; produit dans diff&eacute;rents minist&egrave;res (Education, D&eacute;fense...).</p>",
    "versions_count": 10,
    "sources_count": 2,
    "arguments_count": 43,
    "author": {
      "username": "Obi Wan Kenobi",
      "displayName": "Obi Wan Kenobi",
      "uniqueId": "obiwankenobi",
      "isAdmin": false,
      "media": {
        "url": "/media/cache/default_avatar/default/0001/01/424_default_avatar.png"
      },
      "vip": false,
      "_links": {
        "profile": "https://www.republique-numerique.fr/profile/obiwankenobi",
        "settings": "https://www.republique-numerique.fr/profile/edit-profile"
      }
    },
    "type": {
      "id": 96,
      "title": "Section 3",
      "subtitle": "Loyauté des plateformes",
      "voteWidgetType": 2,
      "votesHelpText": "Pensez-vous que cette proposition permet d'atteindre les objectifs présentés dans l’explication de l’article ?",
      "commentSystem": 2,
      "color": "blue",
      "versionable": true,
      "sourceable": true,
      "votesThreshold": null,
      "votesThresholdHelpText": null
    },
    "sources": [
      {
        "isContribuable": false,
        "id": 200,
        "title": "Les Lobbyistes sous pression de Microsoft",
        "link": "https://cuifavocats.com/la-justice-se-prononce-enfin-sur-la-deloyaute-des-pratiques-commerciales-des-constructeurs/",
        "body": "Une pratique déloyale qui doit enfin cesser...",
        "created_at": "2015-10-02T08:42:05+0200",
        "updated_at": "2015-10-02T08:42:05+0200",
        "author": {
          "username": "Obi Wan Kenobi",
          "displayName": "Obi Wan Kenobi",
          "uniqueId": "obiwankenobi",
          "isAdmin": false,
          "media": {
            "url": "/media/cache/default_avatar/default/0001/01/424_default_avatar.png"
          },
          "vip": false,
          "_links": {
            "profile": "https://www.republique-numerique.fr/profile/obiwankenobi",
            "settings": "https://www.republique-numerique.fr/profile/edit-profile"
          }
        },
        "category": "Site internet",
        "votes_count": 3,
        "_links": {
          "edit": "https://www.republique-numerique.fr/consultations/projet-de-loi-numerique/consultation/consultation/opinions/section-3-loyaute-des-plateformes/interdiction-de-la-vente-liee-ordinateur-systeme-d-exploitation/sources/les-lobbyistes-sous-pression-de-microsoft/edit",
          "report": "https://www.republique-numerique.fr/consultations/projet-de-loi-numerique/consultation/consultation/opinions/section-3-loyaute-des-plateformes/interdiction-de-la-vente-liee-ordinateur-systeme-d-exploitation/sources/les-lobbyistes-sous-pression-de-microsoft/report"
        },
        "has_user_voted": false,
        "has_user_reported": false
      },
      {
        "isContribuable": false,
        "id": 199,
        "title": "Exemple de jugement",
        "link": "https://aful.org/communiques/tres-belle-victoire-groupe-aful-racketiciel",
        "body": "Une problématique récurrente.",
        "created_at": "2015-10-02T08:40:35+0200",
        "updated_at": "2015-10-02T08:40:35+0200",
        "author": {
          "username": "Obi Wan Kenobi",
          "displayName": "Obi Wan Kenobi",
          "uniqueId": "obiwankenobi",
          "isAdmin": false,
          "media": {
            "url": "/media/cache/default_avatar/default/0001/01/424_default_avatar.png"
          },
          "vip": false,
          "_links": {
            "profile": "https://www.republique-numerique.fr/profile/obiwankenobi",
            "settings": "https://www.republique-numerique.fr/profile/edit-profile"
          }
        },
        "category": "Site internet",
        "votes_count": 3,
        "_links": {
          "edit": "https://www.republique-numerique.fr/consultations/projet-de-loi-numerique/consultation/consultation/opinions/section-3-loyaute-des-plateformes/interdiction-de-la-vente-liee-ordinateur-systeme-d-exploitation/sources/exemple-de-jugement/edit",
          "report": "https://www.republique-numerique.fr/consultations/projet-de-loi-numerique/consultation/consultation/opinions/section-3-loyaute-des-plateformes/interdiction-de-la-vente-liee-ordinateur-systeme-d-exploitation/sources/exemple-de-jugement/report"
        },
        "has_user_voted": false,
        "has_user_reported": false
      }
    ],
    "arguments": [
      {
        "isContribuable": false,
        "id": 5970,
        "body": "On vit dans une Europe de concurrence \"libre et non faussée\", n'est-ce pas ? Alors jouons le jeu, et faisons de deux produits distinct la licence du système d'exploitation et le matériel. On n'aurait pas idée de vendre une voiture liée à une assurance (et si on change de voiture, on doit racheter une assurance. Inversement, quand l'assurance expire, il faut racheter une voiture à cause de l'obsolescence). \nC'est pourtant ce qu'on fait avec l'informatique : on vend un ordinateur avec une licence.",
        "created_at": "2015-10-18T18:25:45+0200",
        "updated_at": "2015-10-18T18:25:45+0200",
        "is_enabled": true,
        "votes_count": 2,
        "type": 1,
        "is_trashed": false,
        "author": {
          "username": "Eric BIENFAIT",
          "displayName": "Eric BIENFAIT",
          "uniqueId": "ericbienfait",
          "isAdmin": false,
          "media": null,
          "vip": false,
          "_links": {
            "profile": "https://www.republique-numerique.fr/profile/ericbienfait",
            "settings": "https://www.republique-numerique.fr/profile/edit-profile"
          }
        },
        "_links": {
          "show": "https://www.republique-numerique.fr/consultations/projet-de-loi-numerique/consultation/consultation/opinions/section-3-loyaute-des-plateformes/interdiction-de-la-vente-liee-ordinateur-systeme-d-exploitation#arg-5970",
          "edit": "https://www.republique-numerique.fr/consultations/projet-de-loi-numerique/consultation/consultation/opinions/section-3-loyaute-des-plateformes/interdiction-de-la-vente-liee-ordinateur-systeme-d-exploitation/arguments/5970/edit",
          "report": "https://www.republique-numerique.fr/consultations/projet-de-loi-numerique/consultation/consultation/opinions/section-3-loyaute-des-plateformes/interdiction-de-la-vente-liee-ordinateur-systeme-d-exploitation/arguments/5970/report"
        },
        "has_user_voted": false,
        "has_user_reported": false
      },
      {
        "isContribuable": false,
        "id": 5606,
        "body": "Pour aller plus loin, il faudrait garantir la liberté de réinstallation lorsque l'utilisateur choisi d'acheter le système conseillé par le revendeur.  Trop souvent, les support originaux ne sont pas fournis si bien que la réinstallation du système est complexe.",
        "created_at": "2015-10-17T22:52:53+0200",
        "updated_at": "2015-10-17T22:52:53+0200",
        "is_enabled": true,
        "votes_count": 2,
        "type": 1,
        "is_trashed": false,
        "author": {
          "username": "Vincent Reverdy",
          "displayName": "Vincent Reverdy",
          "uniqueId": "vincentreverdy",
          "isAdmin": false,
          "media": {
            "url": "/media/cache/default_avatar/default/0001/01/268_default_avatar.jpg"
          },
          "vip": false,
          "_links": {
            "profile": "https://www.republique-numerique.fr/profile/vincentreverdy",
            "settings": "https://www.republique-numerique.fr/profile/edit-profile"
          }
        },
        "_links": {
          "show": "https://www.republique-numerique.fr/consultations/projet-de-loi-numerique/consultation/consultation/opinions/section-3-loyaute-des-plateformes/interdiction-de-la-vente-liee-ordinateur-systeme-d-exploitation#arg-5606",
          "edit": "https://www.republique-numerique.fr/consultations/projet-de-loi-numerique/consultation/consultation/opinions/section-3-loyaute-des-plateformes/interdiction-de-la-vente-liee-ordinateur-systeme-d-exploitation/arguments/5606/edit",
          "report": "https://www.republique-numerique.fr/consultations/projet-de-loi-numerique/consultation/consultation/opinions/section-3-loyaute-des-plateformes/interdiction-de-la-vente-liee-ordinateur-systeme-d-exploitation/arguments/5606/report"
        },
        "has_user_voted": false,
        "has_user_reported": false
      },
      {
        "isContribuable": false,
        "id": 5381,
        "body": "Hors sujet.",
        "created_at": "2015-10-17T16:52:59+0200",
        "updated_at": "2015-10-17T16:52:59+0200",
        "is_enabled": true,
        "votes_count": 0,
        "type": 0,
        "is_trashed": false,
        "author": {
          "username": "Tanéléo",
          "displayName": "Tanéléo",
          "uniqueId": "taneleo",
          "isAdmin": false,
          "media": null,
          "vip": false,
          "_links": {
            "profile": "https://www.republique-numerique.fr/profile/taneleo",
            "settings": "https://www.republique-numerique.fr/profile/edit-profile"
          }
        },
        "_links": {
          "show": "https://www.republique-numerique.fr/consultations/projet-de-loi-numerique/consultation/consultation/opinions/section-3-loyaute-des-plateformes/interdiction-de-la-vente-liee-ordinateur-systeme-d-exploitation#arg-5381",
          "edit": "https://www.republique-numerique.fr/consultations/projet-de-loi-numerique/consultation/consultation/opinions/section-3-loyaute-des-plateformes/interdiction-de-la-vente-liee-ordinateur-systeme-d-exploitation/arguments/5381/edit",
          "report": "https://www.republique-numerique.fr/consultations/projet-de-loi-numerique/consultation/consultation/opinions/section-3-loyaute-des-plateformes/interdiction-de-la-vente-liee-ordinateur-systeme-d-exploitation/arguments/5381/report"
        },
        "has_user_voted": false,
        "has_user_reported": false
      },
      {
        "isContribuable": false,
        "id": 5329,
        "body": "A quelques heures de la fin de la consultation ont peut constater que le clichés ont la vie dure, ont peut s'interroger sur l'objectivité de certaines interventions.\nAu hasard, Saintgermain, OK vous dites qu'il y a des contraintes, oui mais lesquelles?\nPlusieurs essaient de noyer le poisson en essayant d'y intégrer les autres périphériques comme les smartphones et le mac : j'ai déjà répondu sur le sujet.\nD'autres encore prétendent que c'est facile d'acheter un PC sans OS et que le remboursement est acquis : d'une, c'est quasi impossible d'avoir le choix identique de machines, il faut souvent la renvoyer en plus. De deux ce n'est pas un remboursement que je souhaite : c'est qu'avant l'achat je connaisse le prix du matériel et le prix de Windows pour le prendre ou pas selon mon besoin. Cela réglerait également le hold-up de Microsoft sur les pros qui ont des licences et qui les paient deux fois en pratique.\nLa mise en œuvre peut être extrêmement simple, d'ailleurs je reste disponible pour expliquer plus en détail les enjeux et fonctionnements de l'idée.",
        "created_at": "2015-10-17T16:01:08+0200",
        "updated_at": "2015-10-17T16:01:08+0200",
        "is_enabled": true,
        "votes_count": 3,
        "type": 1,
        "is_trashed": false,
        "author": {
          "username": "Obi Wan Kenobi",
          "displayName": "Obi Wan Kenobi",
          "uniqueId": "obiwankenobi",
          "isAdmin": false,
          "media": {
            "url": "/media/cache/default_avatar/default/0001/01/424_default_avatar.png"
          },
          "vip": false,
          "_links": {
            "profile": "https://www.republique-numerique.fr/profile/obiwankenobi",
            "settings": "https://www.republique-numerique.fr/profile/edit-profile"
          }
        },
        "_links": {
          "show": "https://www.republique-numerique.fr/consultations/projet-de-loi-numerique/consultation/consultation/opinions/section-3-loyaute-des-plateformes/interdiction-de-la-vente-liee-ordinateur-systeme-d-exploitation#arg-5329",
          "edit": "https://www.republique-numerique.fr/consultations/projet-de-loi-numerique/consultation/consultation/opinions/section-3-loyaute-des-plateformes/interdiction-de-la-vente-liee-ordinateur-systeme-d-exploitation/arguments/5329/edit",
          "report": "https://www.republique-numerique.fr/consultations/projet-de-loi-numerique/consultation/consultation/opinions/section-3-loyaute-des-plateformes/interdiction-de-la-vente-liee-ordinateur-systeme-d-exploitation/arguments/5329/report"
        },
        "has_user_voted": false,
        "has_user_reported": false
      },
      {
        "isContribuable": false,
        "id": 4847,
        "body": "un projet qui restera dans les starting block je pense, il y a trop de contraintes. ",
        "created_at": "2015-10-16T16:36:18+0200",
        "updated_at": "2015-10-16T16:36:18+0200",
        "is_enabled": true,
        "votes_count": 0,
        "type": 0,
        "is_trashed": false,
        "author": {
          "username": "saintgermain",
          "displayName": "saintgermain",
          "uniqueId": "saintgermain",
          "isAdmin": false,
          "media": null,
          "vip": false,
          "_links": {
            "profile": "https://www.republique-numerique.fr/profile/saintgermain",
            "settings": "https://www.republique-numerique.fr/profile/edit-profile"
          }
        },
        "_links": {
          "show": "https://www.republique-numerique.fr/consultations/projet-de-loi-numerique/consultation/consultation/opinions/section-3-loyaute-des-plateformes/interdiction-de-la-vente-liee-ordinateur-systeme-d-exploitation#arg-4847",
          "edit": "https://www.republique-numerique.fr/consultations/projet-de-loi-numerique/consultation/consultation/opinions/section-3-loyaute-des-plateformes/interdiction-de-la-vente-liee-ordinateur-systeme-d-exploitation/arguments/4847/edit",
          "report": "https://www.republique-numerique.fr/consultations/projet-de-loi-numerique/consultation/consultation/opinions/section-3-loyaute-des-plateformes/interdiction-de-la-vente-liee-ordinateur-systeme-d-exploitation/arguments/4847/report"
        },
        "has_user_voted": false,
        "has_user_reported": false
      },
      {
        "isContribuable": false,
        "id": 4459,
        "body": "Sur le même sujet, voir aussi : http://www.republique-numerique.fr/consultations/projet-de-loi-numerique/consultation/consultation/opinions/section-2-confidentialite-des-correspondances-privees/protection-des-correspondants",
        "created_at": "2015-10-15T22:48:29+0200",
        "updated_at": "2015-10-15T22:48:29+0200",
        "is_enabled": true,
        "votes_count": 1,
        "type": 1,
        "is_trashed": false,
        "author": {
          "username": "Cyprien Gay",
          "displayName": "Cyprien Gay",
          "uniqueId": "cypriengay",
          "isAdmin": false,
          "media": null,
          "vip": false,
          "_links": {
            "profile": "https://www.republique-numerique.fr/profile/cypriengay",
            "settings": "https://www.republique-numerique.fr/profile/edit-profile"
          }
        },
        "_links": {
          "show": "https://www.republique-numerique.fr/consultations/projet-de-loi-numerique/consultation/consultation/opinions/section-3-loyaute-des-plateformes/interdiction-de-la-vente-liee-ordinateur-systeme-d-exploitation#arg-4459",
          "edit": "https://www.republique-numerique.fr/consultations/projet-de-loi-numerique/consultation/consultation/opinions/section-3-loyaute-des-plateformes/interdiction-de-la-vente-liee-ordinateur-systeme-d-exploitation/arguments/4459/edit",
          "report": "https://www.republique-numerique.fr/consultations/projet-de-loi-numerique/consultation/consultation/opinions/section-3-loyaute-des-plateformes/interdiction-de-la-vente-liee-ordinateur-systeme-d-exploitation/arguments/4459/report"
        },
        "has_user_voted": false,
        "has_user_reported": false
      },
      {
        "isContribuable": false,
        "id": 3709,
        "body": "Cela permettrait d'améliorer la qualité comptable, en distinguant la partie de la dépense qui correspond au matériel et la partie qui correspond au logiciel. Lorsqu'une organisation achète des milliers d'ordinateurs, ce sont des montants importants.",
        "created_at": "2015-10-13T19:58:30+0200",
        "updated_at": "2015-10-13T19:58:30+0200",
        "is_enabled": true,
        "votes_count": 7,
        "type": 1,
        "is_trashed": false,
        "author": {
          "username": "Patas d'Illiers",
          "displayName": "Patas d'Illiers",
          "uniqueId": "patasdilliers",
          "isAdmin": false,
          "media": null,
          "vip": false,
          "_links": {
            "profile": "https://www.republique-numerique.fr/profile/patasdilliers",
            "settings": "https://www.republique-numerique.fr/profile/edit-profile"
          }
        },
        "_links": {
          "show": "https://www.republique-numerique.fr/consultations/projet-de-loi-numerique/consultation/consultation/opinions/section-3-loyaute-des-plateformes/interdiction-de-la-vente-liee-ordinateur-systeme-d-exploitation#arg-3709",
          "edit": "https://www.republique-numerique.fr/consultations/projet-de-loi-numerique/consultation/consultation/opinions/section-3-loyaute-des-plateformes/interdiction-de-la-vente-liee-ordinateur-systeme-d-exploitation/arguments/3709/edit",
          "report": "https://www.republique-numerique.fr/consultations/projet-de-loi-numerique/consultation/consultation/opinions/section-3-loyaute-des-plateformes/interdiction-de-la-vente-liee-ordinateur-systeme-d-exploitation/arguments/3709/report"
        },
        "has_user_voted": false,
        "has_user_reported": false
      },
      {
        "isContribuable": false,
        "id": 3572,
        "body": "On sait qu'un seul monopoleur pratique cette vente forcée contraire au droit de la consommation ; le choix des logiciels doit respecter l'indépendance et la loi ; il faut des logiciels libres (voir arguments pour cette proposition précédemment).",
        "created_at": "2015-10-13T13:53:14+0200",
        "updated_at": "2015-10-13T13:53:14+0200",
        "is_enabled": true,
        "votes_count": 4,
        "type": 1,
        "is_trashed": false,
        "author": {
          "username": "Daniel Retureau",
          "displayName": "Daniel Retureau",
          "uniqueId": "danielretureau",
          "isAdmin": false,
          "media": null,
          "vip": false,
          "_links": {
            "profile": "https://www.republique-numerique.fr/profile/danielretureau",
            "settings": "https://www.republique-numerique.fr/profile/edit-profile"
          }
        },
        "_links": {
          "show": "https://www.republique-numerique.fr/consultations/projet-de-loi-numerique/consultation/consultation/opinions/section-3-loyaute-des-plateformes/interdiction-de-la-vente-liee-ordinateur-systeme-d-exploitation#arg-3572",
          "edit": "https://www.republique-numerique.fr/consultations/projet-de-loi-numerique/consultation/consultation/opinions/section-3-loyaute-des-plateformes/interdiction-de-la-vente-liee-ordinateur-systeme-d-exploitation/arguments/3572/edit",
          "report": "https://www.republique-numerique.fr/consultations/projet-de-loi-numerique/consultation/consultation/opinions/section-3-loyaute-des-plateformes/interdiction-de-la-vente-liee-ordinateur-systeme-d-exploitation/arguments/3572/report"
        },
        "has_user_voted": false,
        "has_user_reported": false
      },
      {
        "isContribuable": false,
        "id": 3361,
        "body": "La loi interdit actuellement la vente liée. MAIS : elle autorise des fabricants à dire \"envoyez nous votre ordinateur portable par la poste, on vous le renverra avec un chèque pour le remboursement de la licence sous 30 jours\". Donc en pratique, elle n'est actuellement pas interdite correctement. L'interdiction serait plus forte si elle était accompagnée de sanctions sévères contre ceux qui pratiquent ces méthodes, et si les contournements employés par certains étaient interdits.",
        "created_at": "2015-10-12T20:19:04+0200",
        "updated_at": "2015-10-12T20:19:04+0200",
        "is_enabled": true,
        "votes_count": 10,
        "type": 1,
        "is_trashed": false,
        "author": {
          "username": "Pierre Ducroquet",
          "displayName": "Pierre Ducroquet",
          "uniqueId": "pierreducroquet",
          "isAdmin": false,
          "media": null,
          "vip": false,
          "_links": {
            "profile": "https://www.republique-numerique.fr/profile/pierreducroquet",
            "settings": "https://www.republique-numerique.fr/profile/edit-profile"
          }
        },
        "_links": {
          "show": "https://www.republique-numerique.fr/consultations/projet-de-loi-numerique/consultation/consultation/opinions/section-3-loyaute-des-plateformes/interdiction-de-la-vente-liee-ordinateur-systeme-d-exploitation#arg-3361",
          "edit": "https://www.republique-numerique.fr/consultations/projet-de-loi-numerique/consultation/consultation/opinions/section-3-loyaute-des-plateformes/interdiction-de-la-vente-liee-ordinateur-systeme-d-exploitation/arguments/3361/edit",
          "report": "https://www.republique-numerique.fr/consultations/projet-de-loi-numerique/consultation/consultation/opinions/section-3-loyaute-des-plateformes/interdiction-de-la-vente-liee-ordinateur-systeme-d-exploitation/arguments/3361/report"
        },
        "has_user_voted": false,
        "has_user_reported": false
      },
      {
        "isContribuable": false,
        "id": 3295,
        "body": "La vente liée est déjà interdite en France et en UE.\nAppliquons déjà la loi avant de créer un nouvel article.",
        "created_at": "2015-10-12T14:27:54+0200",
        "updated_at": "2015-10-12T14:27:54+0200",
        "is_enabled": true,
        "votes_count": 2,
        "type": 1,
        "is_trashed": false,
        "author": {
          "username": "Patrice ARNAL",
          "displayName": "Patrice ARNAL",
          "uniqueId": "patricearnal",
          "isAdmin": false,
          "media": null,
          "vip": false,
          "_links": {
            "profile": "https://www.republique-numerique.fr/profile/patricearnal",
            "settings": "https://www.republique-numerique.fr/profile/edit-profile"
          }
        },
        "_links": {
          "show": "https://www.republique-numerique.fr/consultations/projet-de-loi-numerique/consultation/consultation/opinions/section-3-loyaute-des-plateformes/interdiction-de-la-vente-liee-ordinateur-systeme-d-exploitation#arg-3295",
          "edit": "https://www.republique-numerique.fr/consultations/projet-de-loi-numerique/consultation/consultation/opinions/section-3-loyaute-des-plateformes/interdiction-de-la-vente-liee-ordinateur-systeme-d-exploitation/arguments/3295/edit",
          "report": "https://www.republique-numerique.fr/consultations/projet-de-loi-numerique/consultation/consultation/opinions/section-3-loyaute-des-plateformes/interdiction-de-la-vente-liee-ordinateur-systeme-d-exploitation/arguments/3295/report"
        },
        "has_user_voted": false,
        "has_user_reported": false
      },
      {
        "isContribuable": false,
        "id": 3253,
        "body": "A tous ceux qui expriment le fait que la vente liée est déjà interdite, je vous renvoie aux sources jointes dans l'article : c'est toujours étonnant de devoir passer par la case tribunal pour obtenir gain de cause. Le but de ce texte est de formaliser clairement l'interdiction pour ne pas obliger le consommateur à se pourvoir en justice.\nPour les téléphones et les tablettes c'est tout vu : Android est gratuit donc le remboursement serait de zéro euros.\nLa démarche vise essentiellement les matériels dont il est possible d'acquérir des versions \"boîte\" dans le commerce.",
        "created_at": "2015-10-12T09:01:27+0200",
        "updated_at": "2015-10-12T09:01:27+0200",
        "is_enabled": true,
        "votes_count": 13,
        "type": 1,
        "is_trashed": false,
        "author": {
          "username": "Obi Wan Kenobi",
          "displayName": "Obi Wan Kenobi",
          "uniqueId": "obiwankenobi",
          "isAdmin": false,
          "media": {
            "url": "/media/cache/default_avatar/default/0001/01/424_default_avatar.png"
          },
          "vip": false,
          "_links": {
            "profile": "https://www.republique-numerique.fr/profile/obiwankenobi",
            "settings": "https://www.republique-numerique.fr/profile/edit-profile"
          }
        },
        "_links": {
          "show": "https://www.republique-numerique.fr/consultations/projet-de-loi-numerique/consultation/consultation/opinions/section-3-loyaute-des-plateformes/interdiction-de-la-vente-liee-ordinateur-systeme-d-exploitation#arg-3253",
          "edit": "https://www.republique-numerique.fr/consultations/projet-de-loi-numerique/consultation/consultation/opinions/section-3-loyaute-des-plateformes/interdiction-de-la-vente-liee-ordinateur-systeme-d-exploitation/arguments/3253/edit",
          "report": "https://www.republique-numerique.fr/consultations/projet-de-loi-numerique/consultation/consultation/opinions/section-3-loyaute-des-plateformes/interdiction-de-la-vente-liee-ordinateur-systeme-d-exploitation/arguments/3253/report"
        },
        "has_user_voted": false,
        "has_user_reported": false
      },
      {
        "isContribuable": false,
        "id": 3035,
        "body": "La vente liée est déjà interdite.Cet article n'apporte donc strictement rien. Ca ne changerait rien pour le consommateur, rien pour les tribunaux.\nPar ailleurs, il est un peu ridicule de limiter ça aux ordinateurs. Quid des tablettes et telephones portables par exemple?",
        "created_at": "2015-10-10T19:29:53+0200",
        "updated_at": "2015-10-10T19:29:53+0200",
        "is_enabled": true,
        "votes_count": 5,
        "type": 0,
        "is_trashed": false,
        "author": {
          "username": "Laurent Di Cesare",
          "displayName": "Laurent Di Cesare",
          "uniqueId": "laurentdicesare",
          "isAdmin": false,
          "media": null,
          "vip": false,
          "_links": {
            "profile": "https://www.republique-numerique.fr/profile/laurentdicesare",
            "settings": "https://www.republique-numerique.fr/profile/edit-profile"
          }
        },
        "_links": {
          "show": "https://www.republique-numerique.fr/consultations/projet-de-loi-numerique/consultation/consultation/opinions/section-3-loyaute-des-plateformes/interdiction-de-la-vente-liee-ordinateur-systeme-d-exploitation#arg-3035",
          "edit": "https://www.republique-numerique.fr/consultations/projet-de-loi-numerique/consultation/consultation/opinions/section-3-loyaute-des-plateformes/interdiction-de-la-vente-liee-ordinateur-systeme-d-exploitation/arguments/3035/edit",
          "report": "https://www.republique-numerique.fr/consultations/projet-de-loi-numerique/consultation/consultation/opinions/section-3-loyaute-des-plateformes/interdiction-de-la-vente-liee-ordinateur-systeme-d-exploitation/arguments/3035/report"
        },
        "has_user_voted": false,
        "has_user_reported": false
      },
      {
        "isContribuable": false,
        "id": 2898,
        "body": "Fait vécu : mon ordi est mort récemment. J'ai voulu faire le choix vert en achetant un ordinateur recyclé. Malheureusement, le magasin vendait tous ses ordinateurs recyclés avec Windows 7 et aucune possibilité de se faire rembourser la licence non voulue.\n\nClash entre deux impératifs éthiques...\n\nAu sacrifice de mes convictions écologiques, j'ai choisi d'acheter du neuf pour ne pas payer une licence inutile et encourager la production de systèmes d'exploitation privateurs.\n\nLa vente forcée des systèmes d’exploitation est clairement mauvaise pour celui qui achète, celui qui vend et même pour l'environnement !",
        "created_at": "2015-10-10T06:32:39+0200",
        "updated_at": "2015-10-10T06:32:39+0200",
        "is_enabled": true,
        "votes_count": 5,
        "type": 1,
        "is_trashed": false,
        "author": {
          "username": "Mathieu Gauthier-Pilote",
          "displayName": "Mathieu Gauthier-Pilote",
          "uniqueId": "mathieugauthierpilote",
          "isAdmin": false,
          "media": {
            "url": "/media/cache/default_avatar/default/0001/01/747_default_avatar.jpg"
          },
          "vip": false,
          "_links": {
            "profile": "https://www.republique-numerique.fr/profile/mathieugauthierpilote",
            "settings": "https://www.republique-numerique.fr/profile/edit-profile"
          }
        },
        "_links": {
          "show": "https://www.republique-numerique.fr/consultations/projet-de-loi-numerique/consultation/consultation/opinions/section-3-loyaute-des-plateformes/interdiction-de-la-vente-liee-ordinateur-systeme-d-exploitation#arg-2898",
          "edit": "https://www.republique-numerique.fr/consultations/projet-de-loi-numerique/consultation/consultation/opinions/section-3-loyaute-des-plateformes/interdiction-de-la-vente-liee-ordinateur-systeme-d-exploitation/arguments/2898/edit",
          "report": "https://www.republique-numerique.fr/consultations/projet-de-loi-numerique/consultation/consultation/opinions/section-3-loyaute-des-plateformes/interdiction-de-la-vente-liee-ordinateur-systeme-d-exploitation/arguments/2898/report"
        },
        "has_user_voted": false,
        "has_user_reported": false
      },
      {
        "isContribuable": false,
        "id": 2810,
        "body": "pour répondre à nicolas joly, il faudrait un cas différent pour des entreprise réalisant elles-même le logiciel et le matériel comme apple. On ne peut dans ce cas là pas appeller cela de la vente liée.",
        "created_at": "2015-10-09T16:01:00+0200",
        "updated_at": "2015-10-09T16:01:00+0200",
        "is_enabled": true,
        "votes_count": 3,
        "type": 1,
        "is_trashed": false,
        "author": {
          "username": "naldir",
          "displayName": "naldir",
          "uniqueId": "naldir",
          "isAdmin": false,
          "media": null,
          "vip": false,
          "_links": {
            "profile": "https://www.republique-numerique.fr/profile/naldir",
            "settings": "https://www.republique-numerique.fr/profile/edit-profile"
          }
        },
        "_links": {
          "show": "https://www.republique-numerique.fr/consultations/projet-de-loi-numerique/consultation/consultation/opinions/section-3-loyaute-des-plateformes/interdiction-de-la-vente-liee-ordinateur-systeme-d-exploitation#arg-2810",
          "edit": "https://www.republique-numerique.fr/consultations/projet-de-loi-numerique/consultation/consultation/opinions/section-3-loyaute-des-plateformes/interdiction-de-la-vente-liee-ordinateur-systeme-d-exploitation/arguments/2810/edit",
          "report": "https://www.republique-numerique.fr/consultations/projet-de-loi-numerique/consultation/consultation/opinions/section-3-loyaute-des-plateformes/interdiction-de-la-vente-liee-ordinateur-systeme-d-exploitation/arguments/2810/report"
        },
        "has_user_voted": false,
        "has_user_reported": false
      },
      {
        "isContribuable": false,
        "id": 2726,
        "body": "mouais... C'est aussi Apple qui est dans le colimateur... Or, il y a une approche produit singulière dans le fait de proposer un OS répondant au fonctionnement d'un matériel particulier... Quid des smartphones, des tablettes ? Ne sont-ce pas des ordinateurs aussi finalement ? Quelle est la définition d'un ordinateur ?\nC'est vraiment trop rigide et pas très visionnaire de vouloir légiférer là dessus...",
        "created_at": "2015-10-08T23:03:38+0200",
        "updated_at": "2015-10-08T23:03:38+0200",
        "is_enabled": true,
        "votes_count": 3,
        "type": 0,
        "is_trashed": false,
        "author": {
          "username": "Nicolas Joly",
          "displayName": "Nicolas Joly",
          "uniqueId": "nicolasjoly",
          "isAdmin": false,
          "media": null,
          "vip": false,
          "_links": {
            "profile": "https://www.republique-numerique.fr/profile/nicolasjoly",
            "settings": "https://www.republique-numerique.fr/profile/edit-profile"
          }
        },
        "_links": {
          "show": "https://www.republique-numerique.fr/consultations/projet-de-loi-numerique/consultation/consultation/opinions/section-3-loyaute-des-plateformes/interdiction-de-la-vente-liee-ordinateur-systeme-d-exploitation#arg-2726",
          "edit": "https://www.republique-numerique.fr/consultations/projet-de-loi-numerique/consultation/consultation/opinions/section-3-loyaute-des-plateformes/interdiction-de-la-vente-liee-ordinateur-systeme-d-exploitation/arguments/2726/edit",
          "report": "https://www.republique-numerique.fr/consultations/projet-de-loi-numerique/consultation/consultation/opinions/section-3-loyaute-des-plateformes/interdiction-de-la-vente-liee-ordinateur-systeme-d-exploitation/arguments/2726/report"
        },
        "has_user_voted": false,
        "has_user_reported": false
      },
      {
        "isContribuable": false,
        "id": 2677,
        "body": "Choisir un ordinateur c'est compliqué : Budget, marque, modèle, processeur, ram, rom, écran... Et pourtant tout le monde y arrive. Pourquoi l'OS serait l'unique domaine où nous n'ayons pas de choix ? \n\nEt pourquoi ceux qui ne veulent pas de l'OS devraient ils le payer quand même ? Le remboursement n'est pas total,  complexe et souvent impossible sans passer par un tribunal. ",
        "created_at": "2015-10-08T15:39:01+0200",
        "updated_at": "2015-10-08T15:39:01+0200",
        "is_enabled": true,
        "votes_count": 10,
        "type": 1,
        "is_trashed": false,
        "author": {
          "username": "Eric Niort",
          "displayName": "Eric Niort",
          "uniqueId": "ericniort",
          "isAdmin": false,
          "media": null,
          "vip": false,
          "_links": {
            "profile": "https://www.republique-numerique.fr/profile/ericniort",
            "settings": "https://www.republique-numerique.fr/profile/edit-profile"
          }
        },
        "_links": {
          "show": "https://www.republique-numerique.fr/consultations/projet-de-loi-numerique/consultation/consultation/opinions/section-3-loyaute-des-plateformes/interdiction-de-la-vente-liee-ordinateur-systeme-d-exploitation#arg-2677",
          "edit": "https://www.republique-numerique.fr/consultations/projet-de-loi-numerique/consultation/consultation/opinions/section-3-loyaute-des-plateformes/interdiction-de-la-vente-liee-ordinateur-systeme-d-exploitation/arguments/2677/edit",
          "report": "https://www.republique-numerique.fr/consultations/projet-de-loi-numerique/consultation/consultation/opinions/section-3-loyaute-des-plateformes/interdiction-de-la-vente-liee-ordinateur-systeme-d-exploitation/arguments/2677/report"
        },
        "has_user_voted": false,
        "has_user_reported": false
      },
      {
        "isContribuable": false,
        "id": 2676,
        "body": "Microsoft l'annonce lui même que Windows 10 est considéré comme \"Windows as a service\". Juridiquement c'est un nouvel angle d'attaque pour séparer matériel/service.",
        "created_at": "2015-10-08T15:24:50+0200",
        "updated_at": "2015-10-08T15:24:50+0200",
        "is_enabled": true,
        "votes_count": 4,
        "type": 1,
        "is_trashed": false,
        "author": {
          "username": "Eric Niort",
          "displayName": "Eric Niort",
          "uniqueId": "ericniort",
          "isAdmin": false,
          "media": null,
          "vip": false,
          "_links": {
            "profile": "https://www.republique-numerique.fr/profile/ericniort",
            "settings": "https://www.republique-numerique.fr/profile/edit-profile"
          }
        },
        "_links": {
          "show": "https://www.republique-numerique.fr/consultations/projet-de-loi-numerique/consultation/consultation/opinions/section-3-loyaute-des-plateformes/interdiction-de-la-vente-liee-ordinateur-systeme-d-exploitation#arg-2676",
          "edit": "https://www.republique-numerique.fr/consultations/projet-de-loi-numerique/consultation/consultation/opinions/section-3-loyaute-des-plateformes/interdiction-de-la-vente-liee-ordinateur-systeme-d-exploitation/arguments/2676/edit",
          "report": "https://www.republique-numerique.fr/consultations/projet-de-loi-numerique/consultation/consultation/opinions/section-3-loyaute-des-plateformes/interdiction-de-la-vente-liee-ordinateur-systeme-d-exploitation/arguments/2676/report"
        },
        "has_user_voted": false,
        "has_user_reported": false
      },
      {
        "isContribuable": false,
        "id": 2547,
        "body": "@Claude Vous avez jeté un œil sur les sources?\nVous vous seriez rendu compte que c'est loin d'être aisé et je vous met au défi de trouver un ordinateur portable sans OS chez un grand constructeur identique au modèle fourni avec l'OS de Redmond.\nLes recours juridiques engorgent des tribunaux qui ont certainement mieux à faire. Une prise de position claire est inévitable.\nComme le rappelle très justement Cyprien la confidentialité des correspondances ne peut être assurée que si l'ensemble de la chaîne de communication est digne de confiance.\nWindows 10 démontre aujourd'hui à l'échelle mondiale le contraire.",
        "created_at": "2015-10-07T19:58:43+0200",
        "updated_at": "2015-10-07T19:58:43+0200",
        "is_enabled": true,
        "votes_count": 3,
        "type": 1,
        "is_trashed": false,
        "author": {
          "username": "Obi Wan Kenobi",
          "displayName": "Obi Wan Kenobi",
          "uniqueId": "obiwankenobi",
          "isAdmin": false,
          "media": {
            "url": "/media/cache/default_avatar/default/0001/01/424_default_avatar.png"
          },
          "vip": false,
          "_links": {
            "profile": "https://www.republique-numerique.fr/profile/obiwankenobi",
            "settings": "https://www.republique-numerique.fr/profile/edit-profile"
          }
        },
        "_links": {
          "show": "https://www.republique-numerique.fr/consultations/projet-de-loi-numerique/consultation/consultation/opinions/section-3-loyaute-des-plateformes/interdiction-de-la-vente-liee-ordinateur-systeme-d-exploitation#arg-2547",
          "edit": "https://www.republique-numerique.fr/consultations/projet-de-loi-numerique/consultation/consultation/opinions/section-3-loyaute-des-plateformes/interdiction-de-la-vente-liee-ordinateur-systeme-d-exploitation/arguments/2547/edit",
          "report": "https://www.republique-numerique.fr/consultations/projet-de-loi-numerique/consultation/consultation/opinions/section-3-loyaute-des-plateformes/interdiction-de-la-vente-liee-ordinateur-systeme-d-exploitation/arguments/2547/report"
        },
        "has_user_voted": false,
        "has_user_reported": false
      },
      {
        "isContribuable": false,
        "id": 2534,
        "body": "Proposition purement idéologique : il est déjà souvent possible de se faire remboursement le système d'exploitation si celui-ci n'est pas voulu, bien que le délai puisse parfois être long. De plus, il est devenu assez aisé de trouver des ordinateur dépourvus de système d'exploitation aujourd'hui si le consommateur le souhaite (et généralement, il s'agira de toute façon d'une personne avertie)",
        "created_at": "2015-10-07T18:56:13+0200",
        "updated_at": "2015-10-07T18:56:13+0200",
        "is_enabled": true,
        "votes_count": 4,
        "type": 0,
        "is_trashed": false,
        "author": {
          "username": "Claude BOUYER",
          "displayName": "Claude BOUYER",
          "uniqueId": "claudebouyer",
          "isAdmin": false,
          "media": null,
          "vip": false,
          "_links": {
            "profile": "https://www.republique-numerique.fr/profile/claudebouyer",
            "settings": "https://www.republique-numerique.fr/profile/edit-profile"
          }
        },
        "_links": {
          "show": "https://www.republique-numerique.fr/consultations/projet-de-loi-numerique/consultation/consultation/opinions/section-3-loyaute-des-plateformes/interdiction-de-la-vente-liee-ordinateur-systeme-d-exploitation#arg-2534",
          "edit": "https://www.republique-numerique.fr/consultations/projet-de-loi-numerique/consultation/consultation/opinions/section-3-loyaute-des-plateformes/interdiction-de-la-vente-liee-ordinateur-systeme-d-exploitation/arguments/2534/edit",
          "report": "https://www.republique-numerique.fr/consultations/projet-de-loi-numerique/consultation/consultation/opinions/section-3-loyaute-des-plateformes/interdiction-de-la-vente-liee-ordinateur-systeme-d-exploitation/arguments/2534/report"
        },
        "has_user_voted": false,
        "has_user_reported": false
      },
      {
        "isContribuable": false,
        "id": 2449,
        "body": "Meilleure (?) articulation avec le texte actuel (via la confidentialité des correspondances) dans cette proposition : http://www.republique-numerique.fr/consultations/projet-de-loi-numerique/consultation/consultation/opinions/section-2-confidentialite-des-correspondances-privees/protection-des-correspondants",
        "created_at": "2015-10-07T01:08:54+0200",
        "updated_at": "2015-10-07T01:17:20+0200",
        "is_enabled": true,
        "votes_count": 3,
        "type": 1,
        "is_trashed": false,
        "author": {
          "username": "Cyprien Gay",
          "displayName": "Cyprien Gay",
          "uniqueId": "cypriengay",
          "isAdmin": false,
          "media": null,
          "vip": false,
          "_links": {
            "profile": "https://www.republique-numerique.fr/profile/cypriengay",
            "settings": "https://www.republique-numerique.fr/profile/edit-profile"
          }
        },
        "_links": {
          "show": "https://www.republique-numerique.fr/consultations/projet-de-loi-numerique/consultation/consultation/opinions/section-3-loyaute-des-plateformes/interdiction-de-la-vente-liee-ordinateur-systeme-d-exploitation#arg-2449",
          "edit": "https://www.republique-numerique.fr/consultations/projet-de-loi-numerique/consultation/consultation/opinions/section-3-loyaute-des-plateformes/interdiction-de-la-vente-liee-ordinateur-systeme-d-exploitation/arguments/2449/edit",
          "report": "https://www.republique-numerique.fr/consultations/projet-de-loi-numerique/consultation/consultation/opinions/section-3-loyaute-des-plateformes/interdiction-de-la-vente-liee-ordinateur-systeme-d-exploitation/arguments/2449/report"
        },
        "has_user_voted": false,
        "has_user_reported": false
      },
      {
        "isContribuable": false,
        "id": 2150,
        "body": "Ce n'est pas déjà le cas ?",
        "created_at": "2015-10-03T20:49:52+0200",
        "updated_at": "2015-10-03T20:49:52+0200",
        "is_enabled": true,
        "votes_count": 0,
        "type": 1,
        "is_trashed": false,
        "author": {
          "username": "Antoine Poichotte",
          "displayName": "Antoine Poichotte",
          "uniqueId": "antoinepoichotte",
          "isAdmin": false,
          "media": null,
          "vip": false,
          "_links": {
            "profile": "https://www.republique-numerique.fr/profile/antoinepoichotte",
            "settings": "https://www.republique-numerique.fr/profile/edit-profile"
          }
        },
        "_links": {
          "show": "https://www.republique-numerique.fr/consultations/projet-de-loi-numerique/consultation/consultation/opinions/section-3-loyaute-des-plateformes/interdiction-de-la-vente-liee-ordinateur-systeme-d-exploitation#arg-2150",
          "edit": "https://www.republique-numerique.fr/consultations/projet-de-loi-numerique/consultation/consultation/opinions/section-3-loyaute-des-plateformes/interdiction-de-la-vente-liee-ordinateur-systeme-d-exploitation/arguments/2150/edit",
          "report": "https://www.republique-numerique.fr/consultations/projet-de-loi-numerique/consultation/consultation/opinions/section-3-loyaute-des-plateformes/interdiction-de-la-vente-liee-ordinateur-systeme-d-exploitation/arguments/2150/report"
        },
        "has_user_voted": false,
        "has_user_reported": false
      },
      {
        "isContribuable": false,
        "id": 1983,
        "body": "Application de la loi sur la consommation déjà existante qui interdit la vente lié d'un bien manufacturé (ordinateur) avec une prestation de service (licence logiciel, assurance etc).",
        "created_at": "2015-10-02T12:28:25+0200",
        "updated_at": "2015-10-02T12:28:25+0200",
        "is_enabled": true,
        "votes_count": 6,
        "type": 1,
        "is_trashed": false,
        "author": {
          "username": "ANTOINE François",
          "displayName": "ANTOINE François",
          "uniqueId": "antoinefrancois",
          "isAdmin": false,
          "media": null,
          "vip": false,
          "_links": {
            "profile": "https://www.republique-numerique.fr/profile/antoinefrancois",
            "settings": "https://www.republique-numerique.fr/profile/edit-profile"
          }
        },
        "_links": {
          "show": "https://www.republique-numerique.fr/consultations/projet-de-loi-numerique/consultation/consultation/opinions/section-3-loyaute-des-plateformes/interdiction-de-la-vente-liee-ordinateur-systeme-d-exploitation#arg-1983",
          "edit": "https://www.republique-numerique.fr/consultations/projet-de-loi-numerique/consultation/consultation/opinions/section-3-loyaute-des-plateformes/interdiction-de-la-vente-liee-ordinateur-systeme-d-exploitation/arguments/1983/edit",
          "report": "https://www.republique-numerique.fr/consultations/projet-de-loi-numerique/consultation/consultation/opinions/section-3-loyaute-des-plateformes/interdiction-de-la-vente-liee-ordinateur-systeme-d-exploitation/arguments/1983/report"
        },
        "has_user_voted": false,
        "has_user_reported": false
      },
      {
        "isContribuable": false,
        "id": 1845,
        "body": "laisser le choix aux utilisateurs car nous ne sommes pas tous egaux devant un systeme informatique et indtaller un OS peut s averer difficile. et surtout sur des materiels de type tablette et smartphone qui sont dans le perimetre des matériels permettant d acceder aux donnees numeriques.",
        "created_at": "2015-10-01T13:52:07+0200",
        "updated_at": "2015-10-01T13:52:07+0200",
        "is_enabled": true,
        "votes_count": 3,
        "type": 0,
        "is_trashed": false,
        "author": {
          "username": "Kollar guillaume",
          "displayName": "Kollar guillaume",
          "uniqueId": "kollarguillaume",
          "isAdmin": false,
          "media": null,
          "vip": false,
          "_links": {
            "profile": "https://www.republique-numerique.fr/profile/kollarguillaume",
            "settings": "https://www.republique-numerique.fr/profile/edit-profile"
          }
        },
        "_links": {
          "show": "https://www.republique-numerique.fr/consultations/projet-de-loi-numerique/consultation/consultation/opinions/section-3-loyaute-des-plateformes/interdiction-de-la-vente-liee-ordinateur-systeme-d-exploitation#arg-1845",
          "edit": "https://www.republique-numerique.fr/consultations/projet-de-loi-numerique/consultation/consultation/opinions/section-3-loyaute-des-plateformes/interdiction-de-la-vente-liee-ordinateur-systeme-d-exploitation/arguments/1845/edit",
          "report": "https://www.republique-numerique.fr/consultations/projet-de-loi-numerique/consultation/consultation/opinions/section-3-loyaute-des-plateformes/interdiction-de-la-vente-liee-ordinateur-systeme-d-exploitation/arguments/1845/report"
        },
        "has_user_voted": false,
        "has_user_reported": false
      },
      {
        "isContribuable": false,
        "id": 1790,
        "body": "Bonjour,\n\nLa mise en application peut être très simpliste : le choix d’acheter le système d’exploitation ou non (ou simplement le droit de l’utiliser pour Microsoft Windows) lorsque l'utilisateur allume son ordinateur la première fois.\nAinsi, le système choisit par l'assembleur peut rester pré-installé et donc facilement utilisable par l’acquéreur néophyte en informatique : l'excuse du risque de vendre un ordinateur inutilisable pour la majorité des acheteurs ne tiens alors plus.\n\nCordialement.",
        "created_at": "2015-10-01T11:22:52+0200",
        "updated_at": "2015-10-01T11:22:52+0200",
        "is_enabled": true,
        "votes_count": 8,
        "type": 1,
        "is_trashed": false,
        "author": {
          "username": "Axelos",
          "displayName": "Axelos",
          "uniqueId": "axelos",
          "isAdmin": false,
          "media": null,
          "vip": false,
          "_links": {
            "profile": "https://www.republique-numerique.fr/profile/axelos",
            "settings": "https://www.republique-numerique.fr/profile/edit-profile"
          }
        },
        "_links": {
          "show": "https://www.republique-numerique.fr/consultations/projet-de-loi-numerique/consultation/consultation/opinions/section-3-loyaute-des-plateformes/interdiction-de-la-vente-liee-ordinateur-systeme-d-exploitation#arg-1790",
          "edit": "https://www.republique-numerique.fr/consultations/projet-de-loi-numerique/consultation/consultation/opinions/section-3-loyaute-des-plateformes/interdiction-de-la-vente-liee-ordinateur-systeme-d-exploitation/arguments/1790/edit",
          "report": "https://www.republique-numerique.fr/consultations/projet-de-loi-numerique/consultation/consultation/opinions/section-3-loyaute-des-plateformes/interdiction-de-la-vente-liee-ordinateur-systeme-d-exploitation/arguments/1790/report"
        },
        "has_user_voted": false,
        "has_user_reported": false
      },
      {
        "isContribuable": false,
        "id": 1710,
        "body": "Je sais bien que cela touche en particulier les ventes de ᴘᴄ avec windows ou d’Apple avec ᴏꜱx. Mais la vente lié n’est elle pas interdite en générale (démarche potentiellement anti‑concurrentiel) ?\r\n\r\nJe suis pour ce genre de propositions, mais pas dans ce cas.\r\nL’écriture des lois comme leur application au tribunal soulève des questions de droit qui doivent êtres traités sérieusement.\r\n\r\nIl y a plusieurs questions notemment avec les nouveaux objets connectés : Les ᴘᴄ sont soumis à un standard industriel mondial ou la première application qui est chargé est l’ᴜᴇꜰɪ ou le ʙɪᴏꜱ qui laisse le choix du système d’exploitation.\r\nOr pour la plupart des objets (tablette compris) c’est presque directement l’ꜱᴇ qui est chargé.\r\n\r\nEt puis quid de la personne âgée qui prend son première ordinateur. Il n’y a pas forcément de connexion internet pour télécharger l’ꜱᴇ. Et une tablette sans ꜱᴇ est aussi utile qu’une brique !",
        "created_at": "2015-09-30T22:25:08+0200",
        "updated_at": "2015-09-30T22:27:01+0200",
        "is_enabled": true,
        "votes_count": 2,
        "type": 0,
        "is_trashed": false,
        "author": {
          "username": "Jules CH.",
          "displayName": "Jules CH.",
          "uniqueId": "julesch",
          "isAdmin": false,
          "media": null,
          "vip": false,
          "_links": {
            "profile": "https://www.republique-numerique.fr/profile/julesch",
            "settings": "https://www.republique-numerique.fr/profile/edit-profile"
          }
        },
        "_links": {
          "show": "https://www.republique-numerique.fr/consultations/projet-de-loi-numerique/consultation/consultation/opinions/section-3-loyaute-des-plateformes/interdiction-de-la-vente-liee-ordinateur-systeme-d-exploitation#arg-1710",
          "edit": "https://www.republique-numerique.fr/consultations/projet-de-loi-numerique/consultation/consultation/opinions/section-3-loyaute-des-plateformes/interdiction-de-la-vente-liee-ordinateur-systeme-d-exploitation/arguments/1710/edit",
          "report": "https://www.republique-numerique.fr/consultations/projet-de-loi-numerique/consultation/consultation/opinions/section-3-loyaute-des-plateformes/interdiction-de-la-vente-liee-ordinateur-systeme-d-exploitation/arguments/1710/report"
        },
        "has_user_voted": false,
        "has_user_reported": false
      },
      {
        "isContribuable": false,
        "id": 1711,
        "body": "Voilà à mon avis ce qu’il faudrait faire : faire comme la commission européenne à fait avec Internet Explorer. Forcer à proposer un chois de produits issus de plusieurs éditeurs de logiciels que ces derniers ait une vocation commerciale ou non (cas des communauté de développement).\n\n— Il faut donc définir juridiquement qu’est un système d’exploitation via le concept d’application afin qu’un fabriquant ne puisse prétexter que le système d’exploitation et le matériel ne fasse qu’un objet. (de cette manière les constructeurs d’automobiles ou de cafetière connecté ne sont pas soumis à ces règles puisque qu’il n’y a pas d’application à installer)\n\n— Il faut définir que c’est à la charge du fabriquant de supporter les coûts lié à l’adaptation de son matériel afin de le rendre compatible entre les divers systèmes d’exploitations qu’il doit proposer. (Ce dernier n’est donc pas obligé de laisser techniquement le libre choix à l’utilisateur d’un ꜱᴇ qui ne serait pas dans la liste proposé)\n\n— Il faut mettre un aspect fort sur ces règles afin qu’elles ne soit pas contournés. (il doit être possible d’acheter un iᴘad avec iᴏꜱ aussi bien avec android de préinstallé)",
        "created_at": "2015-09-30T22:25:13+0200",
        "updated_at": "2015-09-30T22:25:13+0200",
        "is_enabled": true,
        "votes_count": 1,
        "type": 0,
        "is_trashed": false,
        "author": {
          "username": "Jules CH.",
          "displayName": "Jules CH.",
          "uniqueId": "julesch",
          "isAdmin": false,
          "media": null,
          "vip": false,
          "_links": {
            "profile": "https://www.republique-numerique.fr/profile/julesch",
            "settings": "https://www.republique-numerique.fr/profile/edit-profile"
          }
        },
        "_links": {
          "show": "https://www.republique-numerique.fr/consultations/projet-de-loi-numerique/consultation/consultation/opinions/section-3-loyaute-des-plateformes/interdiction-de-la-vente-liee-ordinateur-systeme-d-exploitation#arg-1711",
          "edit": "https://www.republique-numerique.fr/consultations/projet-de-loi-numerique/consultation/consultation/opinions/section-3-loyaute-des-plateformes/interdiction-de-la-vente-liee-ordinateur-systeme-d-exploitation/arguments/1711/edit",
          "report": "https://www.republique-numerique.fr/consultations/projet-de-loi-numerique/consultation/consultation/opinions/section-3-loyaute-des-plateformes/interdiction-de-la-vente-liee-ordinateur-systeme-d-exploitation/arguments/1711/report"
        },
        "has_user_voted": false,
        "has_user_reported": false
      },
      {
        "isContribuable": false,
        "id": 1520,
        "body": "Peu de chose à voir avec une loi numérique.",
        "created_at": "2015-09-30T13:19:37+0200",
        "updated_at": "2015-09-30T13:19:37+0200",
        "is_enabled": true,
        "votes_count": 1,
        "type": 0,
        "is_trashed": false,
        "author": {
          "username": "Laurent Martin",
          "displayName": "Laurent Martin",
          "uniqueId": "laurentmartin",
          "isAdmin": false,
          "media": null,
          "vip": false,
          "_links": {
            "profile": "https://www.republique-numerique.fr/profile/laurentmartin",
            "settings": "https://www.republique-numerique.fr/profile/edit-profile"
          }
        },
        "_links": {
          "show": "https://www.republique-numerique.fr/consultations/projet-de-loi-numerique/consultation/consultation/opinions/section-3-loyaute-des-plateformes/interdiction-de-la-vente-liee-ordinateur-systeme-d-exploitation#arg-1520",
          "edit": "https://www.republique-numerique.fr/consultations/projet-de-loi-numerique/consultation/consultation/opinions/section-3-loyaute-des-plateformes/interdiction-de-la-vente-liee-ordinateur-systeme-d-exploitation/arguments/1520/edit",
          "report": "https://www.republique-numerique.fr/consultations/projet-de-loi-numerique/consultation/consultation/opinions/section-3-loyaute-des-plateformes/interdiction-de-la-vente-liee-ordinateur-systeme-d-exploitation/arguments/1520/report"
        },
        "has_user_voted": false,
        "has_user_reported": false
      },
      {
        "isContribuable": false,
        "id": 1378,
        "body": "Pouvoir utiliser un OS différent (notamment sur les smartphones) nécessite non seulement de pouvoir obtenir le système seul, mais aussi la mise à disposition/existence des pilotes compatibles pour le matériel... Si dans le cas des ordinateurs et de Linux la situation est acceptable, dans le cas des smartphones il reste encore beaucoup de chemin à faire...",
        "created_at": "2015-09-29T20:48:36+0200",
        "updated_at": "2015-09-29T20:48:36+0200",
        "is_enabled": true,
        "votes_count": 4,
        "type": 0,
        "is_trashed": false,
        "author": {
          "username": "Superchaton",
          "displayName": "Superchaton",
          "uniqueId": "superchaton",
          "isAdmin": false,
          "media": null,
          "vip": false,
          "_links": {
            "profile": "https://www.republique-numerique.fr/profile/superchaton",
            "settings": "https://www.republique-numerique.fr/profile/edit-profile"
          }
        },
        "_links": {
          "show": "https://www.republique-numerique.fr/consultations/projet-de-loi-numerique/consultation/consultation/opinions/section-3-loyaute-des-plateformes/interdiction-de-la-vente-liee-ordinateur-systeme-d-exploitation#arg-1378",
          "edit": "https://www.republique-numerique.fr/consultations/projet-de-loi-numerique/consultation/consultation/opinions/section-3-loyaute-des-plateformes/interdiction-de-la-vente-liee-ordinateur-systeme-d-exploitation/arguments/1378/edit",
          "report": "https://www.republique-numerique.fr/consultations/projet-de-loi-numerique/consultation/consultation/opinions/section-3-loyaute-des-plateformes/interdiction-de-la-vente-liee-ordinateur-systeme-d-exploitation/arguments/1378/report"
        },
        "has_user_voted": false,
        "has_user_reported": false
      },
      {
        "isContribuable": false,
        "id": 1370,
        "body": "Plusieurs arguments contre ne tiennent pas la route :\n\n- Augmentation du prix des PC : la vente liée est de la concurrence déloyale car le prix réel d'un windows est inconnu, on se base donc sur le prix public des boîtes puisque il y a dissimulation du prix réel, donc oui au pire le prix de l'ensemble augmentera au maxi de 100 euros et quand Microsoft aura envie de vendre des licences elles seront certainement annoncées à 10 euros (voir 0 pour win10, mais là c'est vous le produit...)\n\n- Difficulté pour les non-informaticiens : aujourd'hui quand vous achetez un PC avec Windows ont vous demande de l'activer dans les 30 jours après la validation du CLUF. Il suffit de vendre le même PC avec dans une boîte à part le code d'activation.\nCelui qui n'aura pas acheté le code et donc payé son PC moins cher sera capable de formater son disque et d'y mettre l'OS de son choix.\n\n- Problème des smartphones : c'est exactement le même principe sauf qu'Android est gratuit.\n\n- La jurisprudence démontre que dans la majorité des cas la justice tranche en faveur du consommateur et que dans les avis défavorables il y a souvent une incompréhension des juges qui ne disposent pas du bagage technique suffisant pour appréhender le problème.\n\n-Apple ne fait aucune difficulté pour rembourser son OS au client qui ne le souhaite pas.",
        "created_at": "2015-09-29T20:29:56+0200",
        "updated_at": "2015-09-29T20:29:56+0200",
        "is_enabled": true,
        "votes_count": 12,
        "type": 1,
        "is_trashed": false,
        "author": {
          "username": "Obi Wan Kenobi",
          "displayName": "Obi Wan Kenobi",
          "uniqueId": "obiwankenobi",
          "isAdmin": false,
          "media": {
            "url": "/media/cache/default_avatar/default/0001/01/424_default_avatar.png"
          },
          "vip": false,
          "_links": {
            "profile": "https://www.republique-numerique.fr/profile/obiwankenobi",
            "settings": "https://www.republique-numerique.fr/profile/edit-profile"
          }
        },
        "_links": {
          "show": "https://www.republique-numerique.fr/consultations/projet-de-loi-numerique/consultation/consultation/opinions/section-3-loyaute-des-plateformes/interdiction-de-la-vente-liee-ordinateur-systeme-d-exploitation#arg-1370",
          "edit": "https://www.republique-numerique.fr/consultations/projet-de-loi-numerique/consultation/consultation/opinions/section-3-loyaute-des-plateformes/interdiction-de-la-vente-liee-ordinateur-systeme-d-exploitation/arguments/1370/edit",
          "report": "https://www.republique-numerique.fr/consultations/projet-de-loi-numerique/consultation/consultation/opinions/section-3-loyaute-des-plateformes/interdiction-de-la-vente-liee-ordinateur-systeme-d-exploitation/arguments/1370/report"
        },
        "has_user_voted": false,
        "has_user_reported": false
      },
      {
        "isContribuable": false,
        "id": 1353,
        "body": "Pour trouver mon ordinateur portable dans le commerce, j'ai du faire 3 magasins où l'on m'a refusé de le vendre sans OS avant de trouver.\nChacun doit pouvoir avoir le choix entre système d'exploitation libre ou pas.\nOn ne peux pas nous imposer un système d'exploitation et en plus nous le faire payer sans qu'on le sache.",
        "created_at": "2015-09-29T19:06:43+0200",
        "updated_at": "2015-09-29T19:06:43+0200",
        "is_enabled": true,
        "votes_count": 16,
        "type": 1,
        "is_trashed": false,
        "author": {
          "username": "Estampe Timothé",
          "displayName": "Estampe Timothé",
          "uniqueId": "estampetimothe1",
          "isAdmin": false,
          "media": null,
          "vip": false,
          "_links": {
            "profile": "https://www.republique-numerique.fr/profile/estampetimothe1",
            "settings": "https://www.republique-numerique.fr/profile/edit-profile"
          }
        },
        "_links": {
          "show": "https://www.republique-numerique.fr/consultations/projet-de-loi-numerique/consultation/consultation/opinions/section-3-loyaute-des-plateformes/interdiction-de-la-vente-liee-ordinateur-systeme-d-exploitation#arg-1353",
          "edit": "https://www.republique-numerique.fr/consultations/projet-de-loi-numerique/consultation/consultation/opinions/section-3-loyaute-des-plateformes/interdiction-de-la-vente-liee-ordinateur-systeme-d-exploitation/arguments/1353/edit",
          "report": "https://www.republique-numerique.fr/consultations/projet-de-loi-numerique/consultation/consultation/opinions/section-3-loyaute-des-plateformes/interdiction-de-la-vente-liee-ordinateur-systeme-d-exploitation/arguments/1353/report"
        },
        "has_user_voted": false,
        "has_user_reported": false
      },
      {
        "isContribuable": false,
        "id": 1150,
        "body": "C'est beaucoup trop restrictif si on le cantonne aux ordinateurs. Tous les \"smart-trucs\" sont conçus comme un tout matériel + logiciel. Exemple d'un smart phone, on n'envisage pas un iphone sans iOs, aujourd'hui même les TV ont un os ( Android la plupart du temps ). Ca pose aussi des soucis de support, vers qui va se retourner l'utilisateur qui a acheté un matériel et n'arrive pas à installer l'os de son choix ( tout le monde n'est pas informaticien ) ?",
        "created_at": "2015-09-29T09:44:03+0200",
        "updated_at": "2015-09-29T09:44:03+0200",
        "is_enabled": true,
        "votes_count": 3,
        "type": 0,
        "is_trashed": false,
        "author": {
          "username": "Olivier Gobert",
          "displayName": "Olivier Gobert",
          "uniqueId": "oliviergobert",
          "isAdmin": false,
          "media": null,
          "vip": false,
          "_links": {
            "profile": "https://www.republique-numerique.fr/profile/oliviergobert",
            "settings": "https://www.republique-numerique.fr/profile/edit-profile"
          }
        },
        "_links": {
          "show": "https://www.republique-numerique.fr/consultations/projet-de-loi-numerique/consultation/consultation/opinions/section-3-loyaute-des-plateformes/interdiction-de-la-vente-liee-ordinateur-systeme-d-exploitation#arg-1150",
          "edit": "https://www.republique-numerique.fr/consultations/projet-de-loi-numerique/consultation/consultation/opinions/section-3-loyaute-des-plateformes/interdiction-de-la-vente-liee-ordinateur-systeme-d-exploitation/arguments/1150/edit",
          "report": "https://www.republique-numerique.fr/consultations/projet-de-loi-numerique/consultation/consultation/opinions/section-3-loyaute-des-plateformes/interdiction-de-la-vente-liee-ordinateur-systeme-d-exploitation/arguments/1150/report"
        },
        "has_user_voted": false,
        "has_user_reported": false
      },
      {
        "isContribuable": false,
        "id": 1054,
        "body": "Le client devrait avoir le droit de refuser de se voir imposer le système d'exploitation lors de l'achat. Il doit pouvoir choisir son système AVEC le cd du système !",
        "created_at": "2015-09-28T22:05:09+0200",
        "updated_at": "2015-09-28T22:05:09+0200",
        "is_enabled": true,
        "votes_count": 10,
        "type": 1,
        "is_trashed": false,
        "author": {
          "username": "Repnum man",
          "displayName": "Repnum man",
          "uniqueId": "repnumman",
          "isAdmin": false,
          "media": null,
          "vip": false,
          "_links": {
            "profile": "https://www.republique-numerique.fr/profile/repnumman",
            "settings": "https://www.republique-numerique.fr/profile/edit-profile"
          }
        },
        "_links": {
          "show": "https://www.republique-numerique.fr/consultations/projet-de-loi-numerique/consultation/consultation/opinions/section-3-loyaute-des-plateformes/interdiction-de-la-vente-liee-ordinateur-systeme-d-exploitation#arg-1054",
          "edit": "https://www.republique-numerique.fr/consultations/projet-de-loi-numerique/consultation/consultation/opinions/section-3-loyaute-des-plateformes/interdiction-de-la-vente-liee-ordinateur-systeme-d-exploitation/arguments/1054/edit",
          "report": "https://www.republique-numerique.fr/consultations/projet-de-loi-numerique/consultation/consultation/opinions/section-3-loyaute-des-plateformes/interdiction-de-la-vente-liee-ordinateur-systeme-d-exploitation/arguments/1054/report"
        },
        "has_user_voted": false,
        "has_user_reported": false
      },
      {
        "isContribuable": false,
        "id": 980,
        "body": "Sujet impossible à régler puisqu'en dehors des PC le système d'exploitation est très intégré au matériel (Apple, mais aussi les smartphones et bon nombre de tablettes).",
        "created_at": "2015-09-28T18:05:13+0200",
        "updated_at": "2015-09-28T18:05:13+0200",
        "is_enabled": true,
        "votes_count": 3,
        "type": 1,
        "is_trashed": false,
        "author": {
          "username": "Yvon LARSONNEUR",
          "displayName": "Yvon LARSONNEUR",
          "uniqueId": "yvonlarsonneur",
          "isAdmin": false,
          "media": null,
          "vip": false,
          "_links": {
            "profile": "https://www.republique-numerique.fr/profile/yvonlarsonneur",
            "settings": "https://www.republique-numerique.fr/profile/edit-profile"
          }
        },
        "_links": {
          "show": "https://www.republique-numerique.fr/consultations/projet-de-loi-numerique/consultation/consultation/opinions/section-3-loyaute-des-plateformes/interdiction-de-la-vente-liee-ordinateur-systeme-d-exploitation#arg-980",
          "edit": "https://www.republique-numerique.fr/consultations/projet-de-loi-numerique/consultation/consultation/opinions/section-3-loyaute-des-plateformes/interdiction-de-la-vente-liee-ordinateur-systeme-d-exploitation/arguments/980/edit",
          "report": "https://www.republique-numerique.fr/consultations/projet-de-loi-numerique/consultation/consultation/opinions/section-3-loyaute-des-plateformes/interdiction-de-la-vente-liee-ordinateur-systeme-d-exploitation/arguments/980/report"
        },
        "has_user_voted": false,
        "has_user_reported": false
      },
      {
        "isContribuable": false,
        "id": 978,
        "body": "On  a le droit de demander un ordinateur sans OS.\nMitigé je trouve.",
        "created_at": "2015-09-28T17:52:10+0200",
        "updated_at": "2015-09-28T17:52:10+0200",
        "is_enabled": true,
        "votes_count": 1,
        "type": 0,
        "is_trashed": false,
        "author": {
          "username": "Romain Dur",
          "displayName": "Romain Dur",
          "uniqueId": "romaindur",
          "isAdmin": false,
          "media": null,
          "vip": false,
          "_links": {
            "profile": "https://www.republique-numerique.fr/profile/romaindur",
            "settings": "https://www.republique-numerique.fr/profile/edit-profile"
          }
        },
        "_links": {
          "show": "https://www.republique-numerique.fr/consultations/projet-de-loi-numerique/consultation/consultation/opinions/section-3-loyaute-des-plateformes/interdiction-de-la-vente-liee-ordinateur-systeme-d-exploitation#arg-978",
          "edit": "https://www.republique-numerique.fr/consultations/projet-de-loi-numerique/consultation/consultation/opinions/section-3-loyaute-des-plateformes/interdiction-de-la-vente-liee-ordinateur-systeme-d-exploitation/arguments/978/edit",
          "report": "https://www.republique-numerique.fr/consultations/projet-de-loi-numerique/consultation/consultation/opinions/section-3-loyaute-des-plateformes/interdiction-de-la-vente-liee-ordinateur-systeme-d-exploitation/arguments/978/report"
        },
        "has_user_voted": false,
        "has_user_reported": false
      },
      {
        "isContribuable": false,
        "id": 954,
        "body": "Pas d'interdiction, un ordinateur doit être acheté avec un système d'exploitation.\nMais laisser le choix (je voudrais bien voir Apple sur ce sujet d'ailleurs...). Cela existe déjà dans une certaine mesure, mais parfois certains revendeurs font payer la désinstallation d'un Windows désinstallé, ce qui est scandaleux.",
        "created_at": "2015-09-28T16:44:08+0200",
        "updated_at": "2015-09-28T16:44:08+0200",
        "is_enabled": true,
        "votes_count": 4,
        "type": 0,
        "is_trashed": false,
        "author": {
          "username": "Geoffrey THIESSET",
          "displayName": "Geoffrey THIESSET",
          "uniqueId": "geoffreythiesset",
          "isAdmin": false,
          "media": {
            "url": "/media/cache/default_avatar/default/0001/01/242_default_avatar.jpg"
          },
          "vip": false,
          "_links": {
            "profile": "https://www.republique-numerique.fr/profile/geoffreythiesset",
            "settings": "https://www.republique-numerique.fr/profile/edit-profile"
          }
        },
        "_links": {
          "show": "https://www.republique-numerique.fr/consultations/projet-de-loi-numerique/consultation/consultation/opinions/section-3-loyaute-des-plateformes/interdiction-de-la-vente-liee-ordinateur-systeme-d-exploitation#arg-954",
          "edit": "https://www.republique-numerique.fr/consultations/projet-de-loi-numerique/consultation/consultation/opinions/section-3-loyaute-des-plateformes/interdiction-de-la-vente-liee-ordinateur-systeme-d-exploitation/arguments/954/edit",
          "report": "https://www.republique-numerique.fr/consultations/projet-de-loi-numerique/consultation/consultation/opinions/section-3-loyaute-des-plateformes/interdiction-de-la-vente-liee-ordinateur-systeme-d-exploitation/arguments/954/report"
        },
        "has_user_voted": false,
        "has_user_reported": false
      },
      {
        "isContribuable": false,
        "id": 700,
        "body": "D'un point de vue fiscal, le fait de lier le matériel et le logiciel pose problème car l'amortissement n'est pas le même. Comment faire pour déclarer séparément les deux quand on ne peut avoir le prix individuel des logiciels ?",
        "created_at": "2015-09-27T22:21:21+0200",
        "updated_at": "2015-09-27T22:21:21+0200",
        "is_enabled": true,
        "votes_count": 11,
        "type": 1,
        "is_trashed": false,
        "author": {
          "username": "totom",
          "displayName": "totom",
          "uniqueId": "totom",
          "isAdmin": false,
          "media": null,
          "vip": false,
          "_links": {
            "profile": "https://www.republique-numerique.fr/profile/totom",
            "settings": "https://www.republique-numerique.fr/profile/edit-profile"
          }
        },
        "_links": {
          "show": "https://www.republique-numerique.fr/consultations/projet-de-loi-numerique/consultation/consultation/opinions/section-3-loyaute-des-plateformes/interdiction-de-la-vente-liee-ordinateur-systeme-d-exploitation#arg-700",
          "edit": "https://www.republique-numerique.fr/consultations/projet-de-loi-numerique/consultation/consultation/opinions/section-3-loyaute-des-plateformes/interdiction-de-la-vente-liee-ordinateur-systeme-d-exploitation/arguments/700/edit",
          "report": "https://www.republique-numerique.fr/consultations/projet-de-loi-numerique/consultation/consultation/opinions/section-3-loyaute-des-plateformes/interdiction-de-la-vente-liee-ordinateur-systeme-d-exploitation/arguments/700/report"
        },
        "has_user_voted": false,
        "has_user_reported": false
      },
      {
        "isContribuable": false,
        "id": 676,
        "body": "Je pense plus qu'il devrait y avoir un choix laissé au consommateur (même si il font souvent les moutons) de quel système devrait être installé avec un choix d'au minimum 2 os/distribution si votre projet passait tel quel les Mac ne devraient pas avoir d'os, votre lecteur dvd, votre télé, votre smartphone,... ",
        "created_at": "2015-09-27T20:40:29+0200",
        "updated_at": "2015-09-27T20:40:29+0200",
        "is_enabled": true,
        "votes_count": 3,
        "type": 0,
        "is_trashed": false,
        "author": {
          "username": "Boulain K",
          "displayName": "Boulain K",
          "uniqueId": "boulaink",
          "isAdmin": false,
          "media": {
            "url": "/media/cache/default_avatar/default/0001/01/180_default_avatar.png"
          },
          "vip": false,
          "_links": {
            "profile": "https://www.republique-numerique.fr/profile/boulaink",
            "settings": "https://www.republique-numerique.fr/profile/edit-profile"
          }
        },
        "_links": {
          "show": "https://www.republique-numerique.fr/consultations/projet-de-loi-numerique/consultation/consultation/opinions/section-3-loyaute-des-plateformes/interdiction-de-la-vente-liee-ordinateur-systeme-d-exploitation#arg-676",
          "edit": "https://www.republique-numerique.fr/consultations/projet-de-loi-numerique/consultation/consultation/opinions/section-3-loyaute-des-plateformes/interdiction-de-la-vente-liee-ordinateur-systeme-d-exploitation/arguments/676/edit",
          "report": "https://www.republique-numerique.fr/consultations/projet-de-loi-numerique/consultation/consultation/opinions/section-3-loyaute-des-plateformes/interdiction-de-la-vente-liee-ordinateur-systeme-d-exploitation/arguments/676/report"
        },
        "has_user_voted": false,
        "has_user_reported": false
      },
      {
        "isContribuable": false,
        "id": 664,
        "body": "Il faut effectivement que système et hardware soit séparé. Cela pour permettre à des développeurs tiers de proposer des mises à jour sur certains équipements comme les tablettes et les smartphones qui sont bien trop vite obsolètes faute de support long terme du constructeur. Actuellement de trop nombreux verrouillages subsistent...(mais bien sûr, cela serait pour votre bien)",
        "created_at": "2015-09-27T20:11:47+0200",
        "updated_at": "2015-09-27T20:13:07+0200",
        "is_enabled": true,
        "votes_count": 11,
        "type": 1,
        "is_trashed": false,
        "author": {
          "username": "Régis Perdreau",
          "displayName": "Régis Perdreau",
          "uniqueId": "regisperdreau",
          "isAdmin": false,
          "media": null,
          "vip": false,
          "_links": {
            "profile": "https://www.republique-numerique.fr/profile/regisperdreau",
            "settings": "https://www.republique-numerique.fr/profile/edit-profile"
          }
        },
        "_links": {
          "show": "https://www.republique-numerique.fr/consultations/projet-de-loi-numerique/consultation/consultation/opinions/section-3-loyaute-des-plateformes/interdiction-de-la-vente-liee-ordinateur-systeme-d-exploitation#arg-664",
          "edit": "https://www.republique-numerique.fr/consultations/projet-de-loi-numerique/consultation/consultation/opinions/section-3-loyaute-des-plateformes/interdiction-de-la-vente-liee-ordinateur-systeme-d-exploitation/arguments/664/edit",
          "report": "https://www.republique-numerique.fr/consultations/projet-de-loi-numerique/consultation/consultation/opinions/section-3-loyaute-des-plateformes/interdiction-de-la-vente-liee-ordinateur-systeme-d-exploitation/arguments/664/report"
        },
        "has_user_voted": false,
        "has_user_reported": false
      },
      {
        "isContribuable": false,
        "id": 654,
        "body": "Interdire cette vente liée serait rajouter un obstacle pour le consommateur qui ne connait pas grand chose à l'informatique.\nImposer de laisser le choix me semblerait alors plus judicieux.",
        "created_at": "2015-09-27T19:32:38+0200",
        "updated_at": "2015-09-27T19:32:38+0200",
        "is_enabled": true,
        "votes_count": 8,
        "type": 0,
        "is_trashed": false,
        "author": {
          "username": "Quentin Burny",
          "displayName": "Quentin Burny",
          "uniqueId": "quentinburny",
          "isAdmin": false,
          "media": null,
          "vip": false,
          "_links": {
            "profile": "https://www.republique-numerique.fr/profile/quentinburny",
            "settings": "https://www.republique-numerique.fr/profile/edit-profile"
          }
        },
        "_links": {
          "show": "https://www.republique-numerique.fr/consultations/projet-de-loi-numerique/consultation/consultation/opinions/section-3-loyaute-des-plateformes/interdiction-de-la-vente-liee-ordinateur-systeme-d-exploitation#arg-654",
          "edit": "https://www.republique-numerique.fr/consultations/projet-de-loi-numerique/consultation/consultation/opinions/section-3-loyaute-des-plateformes/interdiction-de-la-vente-liee-ordinateur-systeme-d-exploitation/arguments/654/edit",
          "report": "https://www.republique-numerique.fr/consultations/projet-de-loi-numerique/consultation/consultation/opinions/section-3-loyaute-des-plateformes/interdiction-de-la-vente-liee-ordinateur-systeme-d-exploitation/arguments/654/report"
        },
        "has_user_voted": false,
        "has_user_reported": false
      },
      {
        "isContribuable": false,
        "id": 617,
        "body": "Microsoft a trop abusé dans ce domaine et aujourd'hui où ils jouent au big brother avec Windows 10, cette question devient vitale pour nos entreprises, nos écoles, etc...",
        "created_at": "2015-09-27T18:11:05+0200",
        "updated_at": "2015-09-27T18:11:05+0200",
        "is_enabled": true,
        "votes_count": 16,
        "type": 1,
        "is_trashed": false,
        "author": {
          "username": "Jeanne Varasco",
          "displayName": "Jeanne Varasco",
          "uniqueId": "jeannevarasco",
          "isAdmin": false,
          "media": {
            "url": "/media/cache/default_avatar/default/0001/01/139_default_avatar.jpg"
          },
          "vip": false,
          "_links": {
            "profile": "https://www.republique-numerique.fr/profile/jeannevarasco",
            "settings": "https://www.republique-numerique.fr/profile/edit-profile"
          }
        },
        "_links": {
          "show": "https://www.republique-numerique.fr/consultations/projet-de-loi-numerique/consultation/consultation/opinions/section-3-loyaute-des-plateformes/interdiction-de-la-vente-liee-ordinateur-systeme-d-exploitation#arg-617",
          "edit": "https://www.republique-numerique.fr/consultations/projet-de-loi-numerique/consultation/consultation/opinions/section-3-loyaute-des-plateformes/interdiction-de-la-vente-liee-ordinateur-systeme-d-exploitation/arguments/617/edit",
          "report": "https://www.republique-numerique.fr/consultations/projet-de-loi-numerique/consultation/consultation/opinions/section-3-loyaute-des-plateformes/interdiction-de-la-vente-liee-ordinateur-systeme-d-exploitation/arguments/617/report"
        },
        "has_user_voted": false,
        "has_user_reported": false
      },
      {
        "isContribuable": false,
        "id": 576,
        "body": "Une licence OEM est liée au matériel et le fournisseur du système d'exploitation ne prend pas en charge le service après-vente, celui-ci est délégué au constructeur. En échange la licence lui est cédée pour une dizaine d'euros.\nSi cette proposition voyait le jour, à produit égal (PC+Licence Microsoft pour ne pas le citer), il reviendrait 100 euros plus cher (Licence Boite) en France que dans les autres pays.",
        "created_at": "2015-09-27T16:42:47+0200",
        "updated_at": "2015-09-27T16:42:47+0200",
        "is_enabled": true,
        "votes_count": 3,
        "type": 0,
        "is_trashed": false,
        "author": {
          "username": "Olivier SERY",
          "displayName": "Olivier SERY",
          "uniqueId": "oliviersery",
          "isAdmin": false,
          "media": null,
          "vip": false,
          "_links": {
            "profile": "https://www.republique-numerique.fr/profile/oliviersery",
            "settings": "https://www.republique-numerique.fr/profile/edit-profile"
          }
        },
        "_links": {
          "show": "https://www.republique-numerique.fr/consultations/projet-de-loi-numerique/consultation/consultation/opinions/section-3-loyaute-des-plateformes/interdiction-de-la-vente-liee-ordinateur-systeme-d-exploitation#arg-576",
          "edit": "https://www.republique-numerique.fr/consultations/projet-de-loi-numerique/consultation/consultation/opinions/section-3-loyaute-des-plateformes/interdiction-de-la-vente-liee-ordinateur-systeme-d-exploitation/arguments/576/edit",
          "report": "https://www.republique-numerique.fr/consultations/projet-de-loi-numerique/consultation/consultation/opinions/section-3-loyaute-des-plateformes/interdiction-de-la-vente-liee-ordinateur-systeme-d-exploitation/arguments/576/report"
        },
        "has_user_voted": false,
        "has_user_reported": false
      },
      {
        "isContribuable": false,
        "id": 481,
        "body": "Et en plus punir les entreprises qui vendent sciemment des appareils avec un OS pré-installé, en cachant le coût réel du système et des logiciels pré-installés et sans laisser le chois de l'OS au client final.",
        "created_at": "2015-09-27T12:05:37+0200",
        "updated_at": "2015-09-27T12:05:37+0200",
        "is_enabled": true,
        "votes_count": 12,
        "type": 1,
        "is_trashed": false,
        "author": {
          "username": "Djan GICQUEL",
          "displayName": "Djan GICQUEL",
          "uniqueId": "djangicquel",
          "isAdmin": false,
          "media": {
            "url": "/media/cache/default_avatar/default/0001/01/122_default_avatar.jpg"
          },
          "vip": false,
          "_links": {
            "profile": "https://www.republique-numerique.fr/profile/djangicquel",
            "settings": "https://www.republique-numerique.fr/profile/edit-profile"
          }
        },
        "_links": {
          "show": "https://www.republique-numerique.fr/consultations/projet-de-loi-numerique/consultation/consultation/opinions/section-3-loyaute-des-plateformes/interdiction-de-la-vente-liee-ordinateur-systeme-d-exploitation#arg-481",
          "edit": "https://www.republique-numerique.fr/consultations/projet-de-loi-numerique/consultation/consultation/opinions/section-3-loyaute-des-plateformes/interdiction-de-la-vente-liee-ordinateur-systeme-d-exploitation/arguments/481/edit",
          "report": "https://www.republique-numerique.fr/consultations/projet-de-loi-numerique/consultation/consultation/opinions/section-3-loyaute-des-plateformes/interdiction-de-la-vente-liee-ordinateur-systeme-d-exploitation/arguments/481/report"
        },
        "has_user_voted": false,
        "has_user_reported": false
      },
      {
        "isContribuable": false,
        "id": 456,
        "body": "La loi devrait effectivement être durcie sur ce sujet afin que les ordinateurs/smartphones/tablettes puissent plus facilement être vendus sans système d'exploitation",
        "created_at": "2015-09-27T11:00:59+0200",
        "updated_at": "2015-09-27T11:00:59+0200",
        "is_enabled": true,
        "votes_count": 24,
        "type": 1,
        "is_trashed": false,
        "author": {
          "username": "Jonathan Crequer",
          "displayName": "Jonathan Crequer",
          "uniqueId": "jonathancrequer",
          "isAdmin": false,
          "media": null,
          "vip": false,
          "_links": {
            "profile": "https://www.republique-numerique.fr/profile/jonathancrequer",
            "settings": "https://www.republique-numerique.fr/profile/edit-profile"
          }
        },
        "_links": {
          "show": "https://www.republique-numerique.fr/consultations/projet-de-loi-numerique/consultation/consultation/opinions/section-3-loyaute-des-plateformes/interdiction-de-la-vente-liee-ordinateur-systeme-d-exploitation#arg-456",
          "edit": "https://www.republique-numerique.fr/consultations/projet-de-loi-numerique/consultation/consultation/opinions/section-3-loyaute-des-plateformes/interdiction-de-la-vente-liee-ordinateur-systeme-d-exploitation/arguments/456/edit",
          "report": "https://www.republique-numerique.fr/consultations/projet-de-loi-numerique/consultation/consultation/opinions/section-3-loyaute-des-plateformes/interdiction-de-la-vente-liee-ordinateur-systeme-d-exploitation/arguments/456/report"
        },
        "has_user_voted": false,
        "has_user_reported": false
      }
    ],
    "modals": [],
    "votes": [
      {
        "user": {
          "username": "Obi Wan Kenobi",
          "displayName": "Obi Wan Kenobi",
          "uniqueId": "obiwankenobi",
          "isAdmin": false,
          "media": {
            "url": "/media/cache/default_avatar/default/0001/01/424_default_avatar.png"
          },
          "vip": false,
          "_links": {
            "profile": "https://www.republique-numerique.fr/profile/obiwankenobi",
            "settings": "https://www.republique-numerique.fr/profile/edit-profile"
          }
        }
      },
      {
        "user": {
          "username": "Jonathan Crequer",
          "displayName": "Jonathan Crequer",
          "uniqueId": "jonathancrequer",
          "isAdmin": false,
          "media": null,
          "vip": false,
          "_links": {
            "profile": "https://www.republique-numerique.fr/profile/jonathancrequer",
            "settings": "https://www.republique-numerique.fr/profile/edit-profile"
          }
        }
      },
      {
        "user": {
          "username": "Luis TITO DE MORAIS",
          "displayName": "Luis TITO DE MORAIS",
          "uniqueId": "luistitodemorais",
          "isAdmin": false,
          "media": null,
          "vip": false,
          "_links": {
            "profile": "https://www.republique-numerique.fr/profile/luistitodemorais",
            "settings": "https://www.republique-numerique.fr/profile/edit-profile"
          }
        }
      },
      {
        "user": {
          "username": "Edouard B.",
          "displayName": "Edouard B.",
          "uniqueId": "edouardb",
          "isAdmin": false,
          "media": {
            "url": "/media/cache/default_avatar/default/0001/01/163_default_avatar.jpg"
          },
          "vip": false,
          "_links": {
            "profile": "https://www.republique-numerique.fr/profile/edouardb",
            "settings": "https://www.republique-numerique.fr/profile/edit-profile"
          }
        }
      },
      {
        "user": {
          "username": "Sébastien Bourru",
          "displayName": "Sébastien Bourru",
          "uniqueId": "sebastienbourru",
          "isAdmin": false,
          "media": null,
          "vip": false,
          "_links": {
            "profile": "https://www.republique-numerique.fr/profile/sebastienbourru",
            "settings": "https://www.republique-numerique.fr/profile/edit-profile"
          }
        }
      }
    ],
    "appendices": [
      {
        "body": "<p>La citoyennet&eacute; num&eacute;rique passe par la libert&eacute; d&#39;utiliser le syst&egrave;me d&#39;exploitation de son choix.</p>\r\n\r\n<p>L&#39;utilisation de logiciels libres repr&eacute;sentant la plus haute marche de l&#39;&eacute;chelle d&#39;ind&eacute;pendance en rompant le lien de d&eacute;pendance que cr&eacute;e un &eacute;diteur envers ses utilisateurs.</p>\r\n\r\n<p>La possibilit&eacute; d&#39;&eacute;tudier le code source met &agrave; l&#39;abri de fonctionnalit&eacute;s cach&eacute;es non-souhait&eacute;es dans le logiciel. La possibilit&eacute; de partager et d&#39;am&eacute;liorer implique le citoyen dans une mont&eacute;e en comp&eacute;tences qui ne peut qu&#39;&ecirc;tre profitable &agrave; la soci&eacute;t&eacute;.</p>",
        "type": {
          "title": "Explication de l'article"
        }
      }
    ],
    "ranking": 10,
    "is_trashed": false,
    "title": "Interdiction de la vente liée ordinateur/système d'exploitation",
    "votes_nok": 32,
    "votes_ok": 1691,
    "votes_mitige": 31,
    "_links": {
      "show": "https://www.republique-numerique.fr/consultations/projet-de-loi-numerique/consultation/consultation/opinions/section-3-loyaute-des-plateformes/interdiction-de-la-vente-liee-ordinateur-systeme-d-exploitation",
      "edit": "https://www.republique-numerique.fr/consultations/projet-de-loi-numerique/consultation/consultation/opinions/section-3-loyaute-des-plateformes/interdiction-de-la-vente-liee-ordinateur-systeme-d-exploitation/edit",
      "report": "https://www.republique-numerique.fr/consultations/projet-de-loi-numerique/consultation/consultation/opinions/section-3-loyaute-des-plateformes/interdiction-de-la-vente-liee-ordinateur-systeme-d-exploitation/report",
      "type": "https://www.republique-numerique.fr/consultations/projet-de-loi-numerique/consultation/consultation/opinions/section-3-loyaute-des-plateformes"
    },
    "user_vote": null,
    "has_user_reported": false
  },
  "rankingThreshold": null,
  "opinionTerm": 1
}