{
  "opinion": {
    "isContribuable": false,
    "votes_total": 997,
    "arguments_yes_count": 13,
    "arguments_no_count": 9,
    "id": 94,
    "created_at": "2015-09-26T11:52:50+0200",
    "updated_at": "2015-09-26T11:52:50+0200",
    "body": "<p>Les donn&eacute;es brutes (sondage, consultation etc..) ayant servi &agrave; la r&eacute;daction d&#39;un rapport doivent &ecirc;tre aussi publi&eacute; avec le rapport.</p>",
    "versions_count": 12,
    "sources_count": 1,
    "arguments_count": 22,
    "author": {
      "username": "dattaz",
      "displayName": "dattaz",
      "uniqueId": "dattaz",
      "isAdmin": false,
      "media": {
        "url": "/media/cache/default_avatar/default/0001/01/94_default_avatar.jpg"
      },
      "vip": false,
      "_links": {
        "profile": "https://www.republique-numerique.fr/profile/dattaz",
        "settings": "https://www.republique-numerique.fr/profile/edit-profile"
      }
    },
    "type": {
      "id": 86,
      "title": "Section 1",
      "subtitle": "Ouverture des données publiques",
      "voteWidgetType": 2,
      "votesHelpText": "Pensez-vous que cette proposition permet d'atteindre les objectifs présentés dans l’explication de l’article ?",
      "commentSystem": 2,
      "color": "blue",
      "versionable": true,
      "sourceable": true,
      "votesThreshold": null,
      "votesThresholdHelpText": null
    },
    "sources": [
      {
        "isContribuable": false,
        "id": 167,
        "title": "Etat des lieux et typologie  des ateliers de  fabrication numérique",
        "link": "http://www.entreprises.gouv.fr/files/files/directions_services/etudes-et-statistiques/etudes/numerique/etat-des-lieux-fablabs-2014.pdf",
        "body": "\" (...) Commençons par une recommandation purement langagière : nous devons cesser \nde nommer tous les ateliers ouverts de fabrication numérique \"Fab Labs\". Selon \nnos contacts étrangers, la France serait le seul pays qui a tendance à désigner la \ndiversité de ces ateliers sous cette appellation commune, alors que la \"charte\" \ndes Fab Labs décrit un type d'atelier précis, avec son équipement, ses vocations, \nses critères notamment en termes d'ouverture et de partage de l'information… \nEn utilisant sans discrimination l'expression \"Fab Lab\", on peut laisser entendre à \ntort que tous les ateliers de fabrication numérique s'inscrivent dans le même \nmouvement, partagent la même charte, s'adressent à la même diversité de \nparticipants, poursuivent des buts similaires. Or ce n'est pas le cas et \nvraisemblablement, ça le sera de moins en moins. \nNous proposons donc d'utiliser une expression délibérément neutre : Ateliers de \nfabrication numérique, ou AFN. L'objectif est de viser une appellation générique, \nqui ne convie pas un sens trop précis, et de laisser à chaque espace ou réseau \nd'espaces le choix d'imposer des \"marques\" plus évocatrices : Fab Lab, \nmakerspace, TechShop et, on l'espère, d'autres noms qui stimulent l'imagination. (...) \"",
        "created_at": "2015-10-01T10:56:38+0200",
        "updated_at": "2015-10-01T10:56:38+0200",
        "author": {
          "username": "Pierre",
          "displayName": "Pierre",
          "uniqueId": "pierre1",
          "isAdmin": false,
          "media": {
            "url": "/media/cache/default_avatar/default/0001/01/199_default_avatar.png"
          },
          "vip": false,
          "_links": {
            "profile": "https://www.republique-numerique.fr/profile/pierre1",
            "settings": "https://www.republique-numerique.fr/profile/edit-profile"
          }
        },
        "category": "Rapport / Étude",
        "votes_count": 0,
        "_links": {
          "edit": "https://www.republique-numerique.fr/consultations/projet-de-loi-numerique/consultation/consultation/opinions/section-1-ouverture-des-donnees-publiques-1/ouvrir-les-donnees-ayant-servi-a-la-redaction-d-un-rapport-publique/sources/etat-des-lieux-et-typologie-des-ateliers-de-fabrication-numerique/edit",
          "report": "https://www.republique-numerique.fr/consultations/projet-de-loi-numerique/consultation/consultation/opinions/section-1-ouverture-des-donnees-publiques-1/ouvrir-les-donnees-ayant-servi-a-la-redaction-d-un-rapport-publique/sources/etat-des-lieux-et-typologie-des-ateliers-de-fabrication-numerique/report"
        },
        "has_user_voted": false,
        "has_user_reported": false
      }
    ],
    "arguments": [
      {
        "isContribuable": false,
        "id": 5659,
        "body": "Attention au risque d'augmentation des coûts d'acquisition des données ayant servi à la rédaction d'un rapport. La publication ou le partage de ces données peut entraîner un surcoût dans le cas d'acquisition des droits de propriété intellectuelle.",
        "created_at": "2015-10-18T01:30:28+0200",
        "updated_at": "2015-10-18T01:30:28+0200",
        "is_enabled": true,
        "votes_count": 0,
        "type": 0,
        "is_trashed": false,
        "author": {
          "username": "Badi Ibrahim",
          "displayName": "Badi Ibrahim",
          "uniqueId": "badiibrahim",
          "isAdmin": false,
          "media": {
            "url": "/media/cache/default_avatar/default/0001/01/126_default_avatar.jpg"
          },
          "vip": false,
          "_links": {
            "profile": "https://www.republique-numerique.fr/profile/badiibrahim",
            "settings": "https://www.republique-numerique.fr/profile/edit-profile"
          }
        },
        "_links": {
          "show": "https://www.republique-numerique.fr/consultations/projet-de-loi-numerique/consultation/consultation/opinions/section-1-ouverture-des-donnees-publiques-1/ouvrir-les-donnees-ayant-servi-a-la-redaction-d-un-rapport-publique#arg-5659",
          "edit": "https://www.republique-numerique.fr/consultations/projet-de-loi-numerique/consultation/consultation/opinions/section-1-ouverture-des-donnees-publiques-1/ouvrir-les-donnees-ayant-servi-a-la-redaction-d-un-rapport-publique/arguments/5659/edit",
          "report": "https://www.republique-numerique.fr/consultations/projet-de-loi-numerique/consultation/consultation/opinions/section-1-ouverture-des-donnees-publiques-1/ouvrir-les-donnees-ayant-servi-a-la-redaction-d-un-rapport-publique/arguments/5659/report"
        },
        "has_user_voted": false,
        "has_user_reported": false
      },
      {
        "isContribuable": false,
        "id": 5097,
        "body": "Attention cependant au regroupement de données.",
        "created_at": "2015-10-17T01:10:43+0200",
        "updated_at": "2015-10-17T01:10:43+0200",
        "is_enabled": true,
        "votes_count": 0,
        "type": 0,
        "is_trashed": false,
        "author": {
          "username": "Larcelet",
          "displayName": "Larcelet",
          "uniqueId": "larcelet",
          "isAdmin": false,
          "media": null,
          "vip": false,
          "_links": {
            "profile": "https://www.republique-numerique.fr/profile/larcelet",
            "settings": "https://www.republique-numerique.fr/profile/edit-profile"
          }
        },
        "_links": {
          "show": "https://www.republique-numerique.fr/consultations/projet-de-loi-numerique/consultation/consultation/opinions/section-1-ouverture-des-donnees-publiques-1/ouvrir-les-donnees-ayant-servi-a-la-redaction-d-un-rapport-publique#arg-5097",
          "edit": "https://www.republique-numerique.fr/consultations/projet-de-loi-numerique/consultation/consultation/opinions/section-1-ouverture-des-donnees-publiques-1/ouvrir-les-donnees-ayant-servi-a-la-redaction-d-un-rapport-publique/arguments/5097/edit",
          "report": "https://www.republique-numerique.fr/consultations/projet-de-loi-numerique/consultation/consultation/opinions/section-1-ouverture-des-donnees-publiques-1/ouvrir-les-donnees-ayant-servi-a-la-redaction-d-un-rapport-publique/arguments/5097/report"
        },
        "has_user_voted": false,
        "has_user_reported": false
      },
      {
        "isContribuable": false,
        "id": 4859,
        "body": "Empêche la publication de rapport dont les données sont encore secrètes (défense) .",
        "created_at": "2015-10-16T16:54:08+0200",
        "updated_at": "2015-10-16T16:54:08+0200",
        "is_enabled": true,
        "votes_count": 1,
        "type": 0,
        "is_trashed": false,
        "author": {
          "username": "Cédric Corrège",
          "displayName": "Cédric Corrège",
          "uniqueId": "cedriccorrege",
          "isAdmin": false,
          "media": null,
          "vip": false,
          "_links": {
            "profile": "https://www.republique-numerique.fr/profile/cedriccorrege",
            "settings": "https://www.republique-numerique.fr/profile/edit-profile"
          }
        },
        "_links": {
          "show": "https://www.republique-numerique.fr/consultations/projet-de-loi-numerique/consultation/consultation/opinions/section-1-ouverture-des-donnees-publiques-1/ouvrir-les-donnees-ayant-servi-a-la-redaction-d-un-rapport-publique#arg-4859",
          "edit": "https://www.republique-numerique.fr/consultations/projet-de-loi-numerique/consultation/consultation/opinions/section-1-ouverture-des-donnees-publiques-1/ouvrir-les-donnees-ayant-servi-a-la-redaction-d-un-rapport-publique/arguments/4859/edit",
          "report": "https://www.republique-numerique.fr/consultations/projet-de-loi-numerique/consultation/consultation/opinions/section-1-ouverture-des-donnees-publiques-1/ouvrir-les-donnees-ayant-servi-a-la-redaction-d-un-rapport-publique/arguments/4859/report"
        },
        "has_user_voted": false,
        "has_user_reported": false
      },
      {
        "isContribuable": false,
        "id": 4205,
        "body": "Je pense aussi que les données doivent être rendues publique.",
        "created_at": "2015-10-15T13:58:47+0200",
        "updated_at": "2015-10-15T13:58:47+0200",
        "is_enabled": true,
        "votes_count": 0,
        "type": 1,
        "is_trashed": false,
        "author": {
          "username": "Laurence Danse",
          "displayName": "Laurence Danse",
          "uniqueId": "laurencedanse",
          "isAdmin": false,
          "media": {
            "url": "/media/cache/default_avatar/default/0001/01/733_default_avatar.jpg"
          },
          "vip": false,
          "_links": {
            "profile": "https://www.republique-numerique.fr/profile/laurencedanse",
            "settings": "https://www.republique-numerique.fr/profile/edit-profile"
          }
        },
        "_links": {
          "show": "https://www.republique-numerique.fr/consultations/projet-de-loi-numerique/consultation/consultation/opinions/section-1-ouverture-des-donnees-publiques-1/ouvrir-les-donnees-ayant-servi-a-la-redaction-d-un-rapport-publique#arg-4205",
          "edit": "https://www.republique-numerique.fr/consultations/projet-de-loi-numerique/consultation/consultation/opinions/section-1-ouverture-des-donnees-publiques-1/ouvrir-les-donnees-ayant-servi-a-la-redaction-d-un-rapport-publique/arguments/4205/edit",
          "report": "https://www.republique-numerique.fr/consultations/projet-de-loi-numerique/consultation/consultation/opinions/section-1-ouverture-des-donnees-publiques-1/ouvrir-les-donnees-ayant-servi-a-la-redaction-d-un-rapport-publique/arguments/4205/report"
        },
        "has_user_voted": false,
        "has_user_reported": false
      },
      {
        "isContribuable": false,
        "id": 4161,
        "body": "Attention : les données brutes peuvent contenir des données personnelles ou suffisamment précises pour identifier une personne.",
        "created_at": "2015-10-15T11:45:48+0200",
        "updated_at": "2015-10-15T11:45:48+0200",
        "is_enabled": true,
        "votes_count": 0,
        "type": 0,
        "is_trashed": false,
        "author": {
          "username": "Adrien Cordonnier",
          "displayName": "Adrien Cordonnier",
          "uniqueId": "adriencordonnier",
          "isAdmin": false,
          "media": null,
          "vip": false,
          "_links": {
            "profile": "https://www.republique-numerique.fr/profile/adriencordonnier",
            "settings": "https://www.republique-numerique.fr/profile/edit-profile"
          }
        },
        "_links": {
          "show": "https://www.republique-numerique.fr/consultations/projet-de-loi-numerique/consultation/consultation/opinions/section-1-ouverture-des-donnees-publiques-1/ouvrir-les-donnees-ayant-servi-a-la-redaction-d-un-rapport-publique#arg-4161",
          "edit": "https://www.republique-numerique.fr/consultations/projet-de-loi-numerique/consultation/consultation/opinions/section-1-ouverture-des-donnees-publiques-1/ouvrir-les-donnees-ayant-servi-a-la-redaction-d-un-rapport-publique/arguments/4161/edit",
          "report": "https://www.republique-numerique.fr/consultations/projet-de-loi-numerique/consultation/consultation/opinions/section-1-ouverture-des-donnees-publiques-1/ouvrir-les-donnees-ayant-servi-a-la-redaction-d-un-rapport-publique/arguments/4161/report"
        },
        "has_user_voted": false,
        "has_user_reported": false
      },
      {
        "isContribuable": false,
        "id": 3580,
        "body": "L'accès aux données statistiques brutes pour remettre en cause des analyses mal établies est fondamentale.",
        "created_at": "2015-10-13T14:27:39+0200",
        "updated_at": "2015-10-13T14:27:39+0200",
        "is_enabled": true,
        "votes_count": 1,
        "type": 1,
        "is_trashed": false,
        "author": {
          "username": "Tristan Duquesne",
          "displayName": "Tristan Duquesne",
          "uniqueId": "tristanduquesne",
          "isAdmin": false,
          "media": null,
          "vip": false,
          "_links": {
            "profile": "https://www.republique-numerique.fr/profile/tristanduquesne",
            "settings": "https://www.republique-numerique.fr/profile/edit-profile"
          }
        },
        "_links": {
          "show": "https://www.republique-numerique.fr/consultations/projet-de-loi-numerique/consultation/consultation/opinions/section-1-ouverture-des-donnees-publiques-1/ouvrir-les-donnees-ayant-servi-a-la-redaction-d-un-rapport-publique#arg-3580",
          "edit": "https://www.republique-numerique.fr/consultations/projet-de-loi-numerique/consultation/consultation/opinions/section-1-ouverture-des-donnees-publiques-1/ouvrir-les-donnees-ayant-servi-a-la-redaction-d-un-rapport-publique/arguments/3580/edit",
          "report": "https://www.republique-numerique.fr/consultations/projet-de-loi-numerique/consultation/consultation/opinions/section-1-ouverture-des-donnees-publiques-1/ouvrir-les-donnees-ayant-servi-a-la-redaction-d-un-rapport-publique/arguments/3580/report"
        },
        "has_user_voted": false,
        "has_user_reported": false
      },
      {
        "isContribuable": false,
        "id": 3191,
        "body": "Il est important de pouvoir tirer ses propres conclusions des données. Ce peut être bien plus pertinent que l'analyse fournie.",
        "created_at": "2015-10-11T18:48:56+0200",
        "updated_at": "2015-10-11T18:48:56+0200",
        "is_enabled": true,
        "votes_count": 3,
        "type": 1,
        "is_trashed": false,
        "author": {
          "username": "Le Poisson Libre",
          "displayName": "Le Poisson Libre",
          "uniqueId": "lepoissonlibre",
          "isAdmin": false,
          "media": {
            "url": "/media/cache/default_avatar/default/0001/01/116_default_avatar.png"
          },
          "vip": false,
          "_links": {
            "profile": "https://www.republique-numerique.fr/profile/lepoissonlibre",
            "settings": "https://www.republique-numerique.fr/profile/edit-profile"
          }
        },
        "_links": {
          "show": "https://www.republique-numerique.fr/consultations/projet-de-loi-numerique/consultation/consultation/opinions/section-1-ouverture-des-donnees-publiques-1/ouvrir-les-donnees-ayant-servi-a-la-redaction-d-un-rapport-publique#arg-3191",
          "edit": "https://www.republique-numerique.fr/consultations/projet-de-loi-numerique/consultation/consultation/opinions/section-1-ouverture-des-donnees-publiques-1/ouvrir-les-donnees-ayant-servi-a-la-redaction-d-un-rapport-publique/arguments/3191/edit",
          "report": "https://www.republique-numerique.fr/consultations/projet-de-loi-numerique/consultation/consultation/opinions/section-1-ouverture-des-donnees-publiques-1/ouvrir-les-donnees-ayant-servi-a-la-redaction-d-un-rapport-publique/arguments/3191/report"
        },
        "has_user_voted": false,
        "has_user_reported": false
      },
      {
        "isContribuable": false,
        "id": 2865,
        "body": "Modification inutile dans la mesure où le projet prévoit déjà d'ouvrir l'intégralité des données dont disposent les administrations (art. 1, al. 1, 3°).",
        "created_at": "2015-10-09T22:48:09+0200",
        "updated_at": "2015-10-09T22:48:09+0200",
        "is_enabled": true,
        "votes_count": 0,
        "type": 0,
        "is_trashed": false,
        "author": {
          "username": "Pierre de Butler",
          "displayName": "Pierre de Butler",
          "uniqueId": "pierredebutler",
          "isAdmin": false,
          "media": null,
          "vip": false,
          "_links": {
            "profile": "https://www.republique-numerique.fr/profile/pierredebutler",
            "settings": "https://www.republique-numerique.fr/profile/edit-profile"
          }
        },
        "_links": {
          "show": "https://www.republique-numerique.fr/consultations/projet-de-loi-numerique/consultation/consultation/opinions/section-1-ouverture-des-donnees-publiques-1/ouvrir-les-donnees-ayant-servi-a-la-redaction-d-un-rapport-publique#arg-2865",
          "edit": "https://www.republique-numerique.fr/consultations/projet-de-loi-numerique/consultation/consultation/opinions/section-1-ouverture-des-donnees-publiques-1/ouvrir-les-donnees-ayant-servi-a-la-redaction-d-un-rapport-publique/arguments/2865/edit",
          "report": "https://www.republique-numerique.fr/consultations/projet-de-loi-numerique/consultation/consultation/opinions/section-1-ouverture-des-donnees-publiques-1/ouvrir-les-donnees-ayant-servi-a-la-redaction-d-un-rapport-publique/arguments/2865/report"
        },
        "has_user_voted": false,
        "has_user_reported": false
      },
      {
        "isContribuable": false,
        "id": 2662,
        "body": "Totalement d'accord avec le principe. Les rapports pourront alors être repris par d'autres experts pour approfondir le sujet si besoin.",
        "created_at": "2015-10-08T14:01:56+0200",
        "updated_at": "2015-10-08T14:01:56+0200",
        "is_enabled": true,
        "votes_count": 2,
        "type": 1,
        "is_trashed": false,
        "author": {
          "username": "Phay Syvoun",
          "displayName": "Phay Syvoun",
          "uniqueId": "phaysyvoun",
          "isAdmin": false,
          "media": null,
          "vip": false,
          "_links": {
            "profile": "https://www.republique-numerique.fr/profile/phaysyvoun",
            "settings": "https://www.republique-numerique.fr/profile/edit-profile"
          }
        },
        "_links": {
          "show": "https://www.republique-numerique.fr/consultations/projet-de-loi-numerique/consultation/consultation/opinions/section-1-ouverture-des-donnees-publiques-1/ouvrir-les-donnees-ayant-servi-a-la-redaction-d-un-rapport-publique#arg-2662",
          "edit": "https://www.republique-numerique.fr/consultations/projet-de-loi-numerique/consultation/consultation/opinions/section-1-ouverture-des-donnees-publiques-1/ouvrir-les-donnees-ayant-servi-a-la-redaction-d-un-rapport-publique/arguments/2662/edit",
          "report": "https://www.republique-numerique.fr/consultations/projet-de-loi-numerique/consultation/consultation/opinions/section-1-ouverture-des-donnees-publiques-1/ouvrir-les-donnees-ayant-servi-a-la-redaction-d-un-rapport-publique/arguments/2662/report"
        },
        "has_user_voted": false,
        "has_user_reported": false
      },
      {
        "isContribuable": false,
        "id": 2544,
        "body": "Je suis d'accord avec ce principe.Cependant, dans l'exemple donné (rapport sur les fablabs), il manque tout simplement la bibliographie et les sources qui permettent de vérifier ce qui est présenté.",
        "created_at": "2015-10-07T19:32:13+0200",
        "updated_at": "2015-10-07T19:32:13+0200",
        "is_enabled": true,
        "votes_count": 0,
        "type": 1,
        "is_trashed": false,
        "author": {
          "username": "Alexandre Vilay",
          "displayName": "Alexandre Vilay",
          "uniqueId": "alexandrevilay",
          "isAdmin": false,
          "media": null,
          "vip": false,
          "_links": {
            "profile": "https://www.republique-numerique.fr/profile/alexandrevilay",
            "settings": "https://www.republique-numerique.fr/profile/edit-profile"
          }
        },
        "_links": {
          "show": "https://www.republique-numerique.fr/consultations/projet-de-loi-numerique/consultation/consultation/opinions/section-1-ouverture-des-donnees-publiques-1/ouvrir-les-donnees-ayant-servi-a-la-redaction-d-un-rapport-publique#arg-2544",
          "edit": "https://www.republique-numerique.fr/consultations/projet-de-loi-numerique/consultation/consultation/opinions/section-1-ouverture-des-donnees-publiques-1/ouvrir-les-donnees-ayant-servi-a-la-redaction-d-un-rapport-publique/arguments/2544/edit",
          "report": "https://www.republique-numerique.fr/consultations/projet-de-loi-numerique/consultation/consultation/opinions/section-1-ouverture-des-donnees-publiques-1/ouvrir-les-donnees-ayant-servi-a-la-redaction-d-un-rapport-publique/arguments/2544/report"
        },
        "has_user_voted": false,
        "has_user_reported": false
      },
      {
        "isContribuable": false,
        "id": 2428,
        "body": "Fournir les données oui mais en fournissant aussi une table explicative du contexte des données telles qu'elles sont livrées afin de ne pas faire dire tout et son contraire aux données extraites et ré utilisées.",
        "created_at": "2015-10-06T21:07:03+0200",
        "updated_at": "2015-10-06T21:07:03+0200",
        "is_enabled": true,
        "votes_count": 1,
        "type": 0,
        "is_trashed": false,
        "author": {
          "username": "Damien Frésier",
          "displayName": "Damien Frésier",
          "uniqueId": "damienfresier",
          "isAdmin": false,
          "media": null,
          "vip": false,
          "_links": {
            "profile": "https://www.republique-numerique.fr/profile/damienfresier",
            "settings": "https://www.republique-numerique.fr/profile/edit-profile"
          }
        },
        "_links": {
          "show": "https://www.republique-numerique.fr/consultations/projet-de-loi-numerique/consultation/consultation/opinions/section-1-ouverture-des-donnees-publiques-1/ouvrir-les-donnees-ayant-servi-a-la-redaction-d-un-rapport-publique#arg-2428",
          "edit": "https://www.republique-numerique.fr/consultations/projet-de-loi-numerique/consultation/consultation/opinions/section-1-ouverture-des-donnees-publiques-1/ouvrir-les-donnees-ayant-servi-a-la-redaction-d-un-rapport-publique/arguments/2428/edit",
          "report": "https://www.republique-numerique.fr/consultations/projet-de-loi-numerique/consultation/consultation/opinions/section-1-ouverture-des-donnees-publiques-1/ouvrir-les-donnees-ayant-servi-a-la-redaction-d-un-rapport-publique/arguments/2428/report"
        },
        "has_user_voted": false,
        "has_user_reported": false
      },
      {
        "isContribuable": false,
        "id": 2374,
        "body": "Les données ayant servies à la rédaction d'un rapport public peuvent être de différente nature (publique, personnelle, privé, flou ...). En l'état, la proposition est difficilement applicable, même si je la soutiens sur le principe, ce qui compte c'est d'élargir le champs général des données publiques.",
        "created_at": "2015-10-06T11:54:14+0200",
        "updated_at": "2015-10-06T11:54:14+0200",
        "is_enabled": true,
        "votes_count": 2,
        "type": 0,
        "is_trashed": false,
        "author": {
          "username": "Pierre Chrzanowski",
          "displayName": "Pierre Chrzanowski",
          "uniqueId": "pierrechrzanowski",
          "isAdmin": false,
          "media": null,
          "vip": false,
          "_links": {
            "profile": "https://www.republique-numerique.fr/profile/pierrechrzanowski",
            "settings": "https://www.republique-numerique.fr/profile/edit-profile"
          }
        },
        "_links": {
          "show": "https://www.republique-numerique.fr/consultations/projet-de-loi-numerique/consultation/consultation/opinions/section-1-ouverture-des-donnees-publiques-1/ouvrir-les-donnees-ayant-servi-a-la-redaction-d-un-rapport-publique#arg-2374",
          "edit": "https://www.republique-numerique.fr/consultations/projet-de-loi-numerique/consultation/consultation/opinions/section-1-ouverture-des-donnees-publiques-1/ouvrir-les-donnees-ayant-servi-a-la-redaction-d-un-rapport-publique/arguments/2374/edit",
          "report": "https://www.republique-numerique.fr/consultations/projet-de-loi-numerique/consultation/consultation/opinions/section-1-ouverture-des-donnees-publiques-1/ouvrir-les-donnees-ayant-servi-a-la-redaction-d-un-rapport-publique/arguments/2374/report"
        },
        "has_user_voted": false,
        "has_user_reported": false
      },
      {
        "isContribuable": false,
        "id": 1712,
        "body": "J’ajouterai même en fournir l’historique.",
        "created_at": "2015-09-30T22:30:44+0200",
        "updated_at": "2015-09-30T22:30:44+0200",
        "is_enabled": true,
        "votes_count": 0,
        "type": 1,
        "is_trashed": false,
        "author": {
          "username": "Jules CH.",
          "displayName": "Jules CH.",
          "uniqueId": "julesch",
          "isAdmin": false,
          "media": null,
          "vip": false,
          "_links": {
            "profile": "https://www.republique-numerique.fr/profile/julesch",
            "settings": "https://www.republique-numerique.fr/profile/edit-profile"
          }
        },
        "_links": {
          "show": "https://www.republique-numerique.fr/consultations/projet-de-loi-numerique/consultation/consultation/opinions/section-1-ouverture-des-donnees-publiques-1/ouvrir-les-donnees-ayant-servi-a-la-redaction-d-un-rapport-publique#arg-1712",
          "edit": "https://www.republique-numerique.fr/consultations/projet-de-loi-numerique/consultation/consultation/opinions/section-1-ouverture-des-donnees-publiques-1/ouvrir-les-donnees-ayant-servi-a-la-redaction-d-un-rapport-publique/arguments/1712/edit",
          "report": "https://www.republique-numerique.fr/consultations/projet-de-loi-numerique/consultation/consultation/opinions/section-1-ouverture-des-donnees-publiques-1/ouvrir-les-donnees-ayant-servi-a-la-redaction-d-un-rapport-publique/arguments/1712/report"
        },
        "has_user_voted": false,
        "has_user_reported": false
      },
      {
        "isContribuable": false,
        "id": 1532,
        "body": "Il serait effectivement intéressant que tout rapport publié soit accompagné d'un jeu de données mis à disposition sur data.gouv.fr pour enrichir le débat, etc.",
        "created_at": "2015-09-30T14:24:39+0200",
        "updated_at": "2015-09-30T14:24:39+0200",
        "is_enabled": true,
        "votes_count": 0,
        "type": 1,
        "is_trashed": false,
        "author": {
          "username": "gef",
          "displayName": "gef",
          "uniqueId": "gef",
          "isAdmin": false,
          "media": null,
          "vip": false,
          "_links": {
            "profile": "https://www.republique-numerique.fr/profile/gef",
            "settings": "https://www.republique-numerique.fr/profile/edit-profile"
          }
        },
        "_links": {
          "show": "https://www.republique-numerique.fr/consultations/projet-de-loi-numerique/consultation/consultation/opinions/section-1-ouverture-des-donnees-publiques-1/ouvrir-les-donnees-ayant-servi-a-la-redaction-d-un-rapport-publique#arg-1532",
          "edit": "https://www.republique-numerique.fr/consultations/projet-de-loi-numerique/consultation/consultation/opinions/section-1-ouverture-des-donnees-publiques-1/ouvrir-les-donnees-ayant-servi-a-la-redaction-d-un-rapport-publique/arguments/1532/edit",
          "report": "https://www.republique-numerique.fr/consultations/projet-de-loi-numerique/consultation/consultation/opinions/section-1-ouverture-des-donnees-publiques-1/ouvrir-les-donnees-ayant-servi-a-la-redaction-d-un-rapport-publique/arguments/1532/report"
        },
        "has_user_voted": false,
        "has_user_reported": false
      },
      {
        "isContribuable": false,
        "id": 1452,
        "body": "tout à fait d'accord. Et d'abord commencer par les données récoltés par ce site : combien de simples citoyens?  combien d'organisation ? combien de vote provenant d'adresse ip des ministères :-) etc.",
        "created_at": "2015-09-30T09:30:19+0200",
        "updated_at": "2015-09-30T09:30:19+0200",
        "is_enabled": true,
        "votes_count": 0,
        "type": 1,
        "is_trashed": false,
        "author": {
          "username": "pierre obrecht",
          "displayName": "pierre obrecht",
          "uniqueId": "pierreobrecht",
          "isAdmin": false,
          "media": {
            "url": "/media/cache/default_avatar/default/0001/01/106_default_avatar.jpg"
          },
          "vip": false,
          "_links": {
            "profile": "https://www.republique-numerique.fr/profile/pierreobrecht",
            "settings": "https://www.republique-numerique.fr/profile/edit-profile"
          }
        },
        "_links": {
          "show": "https://www.republique-numerique.fr/consultations/projet-de-loi-numerique/consultation/consultation/opinions/section-1-ouverture-des-donnees-publiques-1/ouvrir-les-donnees-ayant-servi-a-la-redaction-d-un-rapport-publique#arg-1452",
          "edit": "https://www.republique-numerique.fr/consultations/projet-de-loi-numerique/consultation/consultation/opinions/section-1-ouverture-des-donnees-publiques-1/ouvrir-les-donnees-ayant-servi-a-la-redaction-d-un-rapport-publique/arguments/1452/edit",
          "report": "https://www.republique-numerique.fr/consultations/projet-de-loi-numerique/consultation/consultation/opinions/section-1-ouverture-des-donnees-publiques-1/ouvrir-les-donnees-ayant-servi-a-la-redaction-d-un-rapport-publique/arguments/1452/report"
        },
        "has_user_voted": false,
        "has_user_reported": false
      },
      {
        "isContribuable": false,
        "id": 1009,
        "body": "Attention, il existe plusieurs types de rapports, dont les rapports parlementaires qui suivent un processus de vote. Un rapport qui est rejeté par vote des parlementaire est aujourd'hui impossible à lire. Doit-on, dans cet article prendre en compte tous les rapports (absolus) ou les rapports rendus publics?",
        "created_at": "2015-09-28T20:14:08+0200",
        "updated_at": "2015-09-28T20:14:08+0200",
        "is_enabled": true,
        "votes_count": 3,
        "type": 0,
        "is_trashed": false,
        "author": {
          "username": "François Dambrine",
          "displayName": "François Dambrine",
          "uniqueId": "francoisdambrine",
          "isAdmin": false,
          "media": null,
          "vip": false,
          "_links": {
            "profile": "https://www.republique-numerique.fr/profile/francoisdambrine",
            "settings": "https://www.republique-numerique.fr/profile/edit-profile"
          }
        },
        "_links": {
          "show": "https://www.republique-numerique.fr/consultations/projet-de-loi-numerique/consultation/consultation/opinions/section-1-ouverture-des-donnees-publiques-1/ouvrir-les-donnees-ayant-servi-a-la-redaction-d-un-rapport-publique#arg-1009",
          "edit": "https://www.republique-numerique.fr/consultations/projet-de-loi-numerique/consultation/consultation/opinions/section-1-ouverture-des-donnees-publiques-1/ouvrir-les-donnees-ayant-servi-a-la-redaction-d-un-rapport-publique/arguments/1009/edit",
          "report": "https://www.republique-numerique.fr/consultations/projet-de-loi-numerique/consultation/consultation/opinions/section-1-ouverture-des-donnees-publiques-1/ouvrir-les-donnees-ayant-servi-a-la-redaction-d-un-rapport-publique/arguments/1009/report"
        },
        "has_user_voted": false,
        "has_user_reported": false
      },
      {
        "isContribuable": false,
        "id": 479,
        "body": "Absolument favorable. A l'image d'une démarche scientifique, dans un souci de transparence, les conclusions d'un rapport s'appuyant sur des chiffres doivent être \"reproductibles\", et bien entendu \"contestables\" sur un terrain objectif.",
        "created_at": "2015-09-27T12:02:19+0200",
        "updated_at": "2015-09-27T12:02:19+0200",
        "is_enabled": true,
        "votes_count": 9,
        "type": 1,
        "is_trashed": false,
        "author": {
          "username": "Guy Melançon",
          "displayName": "Guy Melançon",
          "uniqueId": "guymelancon",
          "isAdmin": false,
          "media": null,
          "vip": false,
          "_links": {
            "profile": "https://www.republique-numerique.fr/profile/guymelancon",
            "settings": "https://www.republique-numerique.fr/profile/edit-profile"
          }
        },
        "_links": {
          "show": "https://www.republique-numerique.fr/consultations/projet-de-loi-numerique/consultation/consultation/opinions/section-1-ouverture-des-donnees-publiques-1/ouvrir-les-donnees-ayant-servi-a-la-redaction-d-un-rapport-publique#arg-479",
          "edit": "https://www.republique-numerique.fr/consultations/projet-de-loi-numerique/consultation/consultation/opinions/section-1-ouverture-des-donnees-publiques-1/ouvrir-les-donnees-ayant-servi-a-la-redaction-d-un-rapport-publique/arguments/479/edit",
          "report": "https://www.republique-numerique.fr/consultations/projet-de-loi-numerique/consultation/consultation/opinions/section-1-ouverture-des-donnees-publiques-1/ouvrir-les-donnees-ayant-servi-a-la-redaction-d-un-rapport-publique/arguments/479/report"
        },
        "has_user_voted": false,
        "has_user_reported": false
      },
      {
        "isContribuable": false,
        "id": 446,
        "body": "Un rapport est souvent un condensé des données brutes comme des sondages, consultations diverses etc... le tout avec un avis, plus ou moins objectif. Fournir les sources de ses rapports parait être une évidence, par contre rendre ses rapports lisibles et surtout compréhensibles par tous est indispensable. Il faut également en réduire le nombre et cesser de faire des rapports sur a peu près tout et rien.",
        "created_at": "2015-09-27T10:51:03+0200",
        "updated_at": "2015-09-27T10:51:03+0200",
        "is_enabled": true,
        "votes_count": 7,
        "type": 1,
        "is_trashed": false,
        "author": {
          "username": "CLEMENT",
          "displayName": "CLEMENT",
          "uniqueId": "clement",
          "isAdmin": false,
          "media": null,
          "vip": false,
          "_links": {
            "profile": "https://www.republique-numerique.fr/profile/clement",
            "settings": "https://www.republique-numerique.fr/profile/edit-profile"
          }
        },
        "_links": {
          "show": "https://www.republique-numerique.fr/consultations/projet-de-loi-numerique/consultation/consultation/opinions/section-1-ouverture-des-donnees-publiques-1/ouvrir-les-donnees-ayant-servi-a-la-redaction-d-un-rapport-publique#arg-446",
          "edit": "https://www.republique-numerique.fr/consultations/projet-de-loi-numerique/consultation/consultation/opinions/section-1-ouverture-des-donnees-publiques-1/ouvrir-les-donnees-ayant-servi-a-la-redaction-d-un-rapport-publique/arguments/446/edit",
          "report": "https://www.republique-numerique.fr/consultations/projet-de-loi-numerique/consultation/consultation/opinions/section-1-ouverture-des-donnees-publiques-1/ouvrir-les-donnees-ayant-servi-a-la-redaction-d-un-rapport-publique/arguments/446/report"
        },
        "has_user_voted": false,
        "has_user_reported": false
      },
      {
        "isContribuable": false,
        "id": 250,
        "body": "Principe des sources, bibliographies, études, recherches ou autres que tout document (ou auteur) soucieux de pouvoir être analysé doit proposer.",
        "created_at": "2015-09-26T21:24:53+0200",
        "updated_at": "2015-09-26T21:24:53+0200",
        "is_enabled": true,
        "votes_count": 8,
        "type": 1,
        "is_trashed": false,
        "author": {
          "username": "Olivier SERY",
          "displayName": "Olivier SERY",
          "uniqueId": "oliviersery",
          "isAdmin": false,
          "media": null,
          "vip": false,
          "_links": {
            "profile": "https://www.republique-numerique.fr/profile/oliviersery",
            "settings": "https://www.republique-numerique.fr/profile/edit-profile"
          }
        },
        "_links": {
          "show": "https://www.republique-numerique.fr/consultations/projet-de-loi-numerique/consultation/consultation/opinions/section-1-ouverture-des-donnees-publiques-1/ouvrir-les-donnees-ayant-servi-a-la-redaction-d-un-rapport-publique#arg-250",
          "edit": "https://www.republique-numerique.fr/consultations/projet-de-loi-numerique/consultation/consultation/opinions/section-1-ouverture-des-donnees-publiques-1/ouvrir-les-donnees-ayant-servi-a-la-redaction-d-un-rapport-publique/arguments/250/edit",
          "report": "https://www.republique-numerique.fr/consultations/projet-de-loi-numerique/consultation/consultation/opinions/section-1-ouverture-des-donnees-publiques-1/ouvrir-les-donnees-ayant-servi-a-la-redaction-d-un-rapport-publique/arguments/250/report"
        },
        "has_user_voted": false,
        "has_user_reported": false
      },
      {
        "isContribuable": false,
        "id": 224,
        "body": "Dans le cas de données massives, il faudra trouver un moyen de les mettre à disposition.",
        "created_at": "2015-09-26T19:32:30+0200",
        "updated_at": "2015-09-26T19:32:30+0200",
        "is_enabled": true,
        "votes_count": 1,
        "type": 1,
        "is_trashed": false,
        "author": {
          "username": "William El Kaim",
          "displayName": "William El Kaim",
          "uniqueId": "williamelkaim",
          "isAdmin": false,
          "media": null,
          "vip": false,
          "_links": {
            "profile": "https://www.republique-numerique.fr/profile/williamelkaim",
            "settings": "https://www.republique-numerique.fr/profile/edit-profile"
          }
        },
        "_links": {
          "show": "https://www.republique-numerique.fr/consultations/projet-de-loi-numerique/consultation/consultation/opinions/section-1-ouverture-des-donnees-publiques-1/ouvrir-les-donnees-ayant-servi-a-la-redaction-d-un-rapport-publique#arg-224",
          "edit": "https://www.republique-numerique.fr/consultations/projet-de-loi-numerique/consultation/consultation/opinions/section-1-ouverture-des-donnees-publiques-1/ouvrir-les-donnees-ayant-servi-a-la-redaction-d-un-rapport-publique/arguments/224/edit",
          "report": "https://www.republique-numerique.fr/consultations/projet-de-loi-numerique/consultation/consultation/opinions/section-1-ouverture-des-donnees-publiques-1/ouvrir-les-donnees-ayant-servi-a-la-redaction-d-un-rapport-publique/arguments/224/report"
        },
        "has_user_voted": false,
        "has_user_reported": false
      },
      {
        "isContribuable": false,
        "id": 223,
        "body": "Proposer les données brutes non agrégées et agrégées dans un format lisible par les outils courants.",
        "created_at": "2015-09-26T19:31:40+0200",
        "updated_at": "2015-09-26T19:31:40+0200",
        "is_enabled": true,
        "votes_count": 5,
        "type": 1,
        "is_trashed": false,
        "author": {
          "username": "William El Kaim",
          "displayName": "William El Kaim",
          "uniqueId": "williamelkaim",
          "isAdmin": false,
          "media": null,
          "vip": false,
          "_links": {
            "profile": "https://www.republique-numerique.fr/profile/williamelkaim",
            "settings": "https://www.republique-numerique.fr/profile/edit-profile"
          }
        },
        "_links": {
          "show": "https://www.republique-numerique.fr/consultations/projet-de-loi-numerique/consultation/consultation/opinions/section-1-ouverture-des-donnees-publiques-1/ouvrir-les-donnees-ayant-servi-a-la-redaction-d-un-rapport-publique#arg-223",
          "edit": "https://www.republique-numerique.fr/consultations/projet-de-loi-numerique/consultation/consultation/opinions/section-1-ouverture-des-donnees-publiques-1/ouvrir-les-donnees-ayant-servi-a-la-redaction-d-un-rapport-publique/arguments/223/edit",
          "report": "https://www.republique-numerique.fr/consultations/projet-de-loi-numerique/consultation/consultation/opinions/section-1-ouverture-des-donnees-publiques-1/ouvrir-les-donnees-ayant-servi-a-la-redaction-d-un-rapport-publique/arguments/223/report"
        },
        "has_user_voted": false,
        "has_user_reported": false
      },
      {
        "isContribuable": false,
        "id": 120,
        "body": "Attention à la définition d'un \"rapport public\" et à son périmètre : sécurité sociale, emploi, .. la grande masse des rapports publics touche à la gestion publique et notamment aux finances publiques.  Ils  sont souvent  illisibles pour une grande partie des acteurs et citoyens.\r\nLimiter à ceux  assortis à des fichiers de données brutes ? Imposer leur visualisation accessible à tous ?",
        "created_at": "2015-09-26T16:02:08+0200",
        "updated_at": "2015-09-26T16:03:42+0200",
        "is_enabled": true,
        "votes_count": 3,
        "type": 0,
        "is_trashed": false,
        "author": {
          "username": "Florence Durand Tornare",
          "displayName": "Florence Durand Tornare",
          "uniqueId": "florencedurandtornare",
          "isAdmin": false,
          "media": null,
          "vip": false,
          "_links": {
            "profile": "https://www.republique-numerique.fr/profile/florencedurandtornare",
            "settings": "https://www.republique-numerique.fr/profile/edit-profile"
          }
        },
        "_links": {
          "show": "https://www.republique-numerique.fr/consultations/projet-de-loi-numerique/consultation/consultation/opinions/section-1-ouverture-des-donnees-publiques-1/ouvrir-les-donnees-ayant-servi-a-la-redaction-d-un-rapport-publique#arg-120",
          "edit": "https://www.republique-numerique.fr/consultations/projet-de-loi-numerique/consultation/consultation/opinions/section-1-ouverture-des-donnees-publiques-1/ouvrir-les-donnees-ayant-servi-a-la-redaction-d-un-rapport-publique/arguments/120/edit",
          "report": "https://www.republique-numerique.fr/consultations/projet-de-loi-numerique/consultation/consultation/opinions/section-1-ouverture-des-donnees-publiques-1/ouvrir-les-donnees-ayant-servi-a-la-redaction-d-un-rapport-publique/arguments/120/report"
        },
        "has_user_voted": false,
        "has_user_reported": false
      }
    ],
    "modals": [],
    "votes": [
      {
        "user": {
          "username": "dattaz",
          "displayName": "dattaz",
          "uniqueId": "dattaz",
          "isAdmin": false,
          "media": {
            "url": "/media/cache/default_avatar/default/0001/01/94_default_avatar.jpg"
          },
          "vip": false,
          "_links": {
            "profile": "https://www.republique-numerique.fr/profile/dattaz",
            "settings": "https://www.republique-numerique.fr/profile/edit-profile"
          }
        }
      },
      {
        "user": {
          "username": "Mathieu Santostefano--Féron",
          "displayName": "Mathieu Santostefano--Féron",
          "uniqueId": "mathieusantostefanoferon",
          "isAdmin": false,
          "media": {
            "url": "/media/cache/default_avatar/default/0001/01/85_default_avatar.jpg"
          },
          "vip": false,
          "_links": {
            "profile": "https://www.republique-numerique.fr/profile/mathieusantostefanoferon",
            "settings": "https://www.republique-numerique.fr/profile/edit-profile"
          }
        }
      },
      {
        "user": {
          "username": "Paul",
          "displayName": "Paul",
          "uniqueId": "paul",
          "isAdmin": false,
          "media": null,
          "vip": false,
          "_links": {
            "profile": "https://www.republique-numerique.fr/profile/paul",
            "settings": "https://www.republique-numerique.fr/profile/edit-profile"
          }
        }
      },
      {
        "user": {
          "username": "SPAHR Hugo",
          "displayName": "SPAHR Hugo",
          "uniqueId": "spahrhugo",
          "isAdmin": false,
          "media": {
            "url": "/media/cache/default_avatar/default/0001/01/89_default_avatar.jpg"
          },
          "vip": false,
          "_links": {
            "profile": "https://www.republique-numerique.fr/profile/spahrhugo",
            "settings": "https://www.republique-numerique.fr/profile/edit-profile"
          }
        }
      },
      {
        "user": {
          "username": "Gaël Reyrol",
          "displayName": "Gaël Reyrol",
          "uniqueId": "gaelreyrol",
          "isAdmin": false,
          "media": {
            "url": "/media/cache/default_avatar/default/0001/01/92_default_avatar.jpg"
          },
          "vip": false,
          "_links": {
            "profile": "https://www.republique-numerique.fr/profile/gaelreyrol",
            "settings": "https://www.republique-numerique.fr/profile/edit-profile"
          }
        }
      }
    ],
    "appendices": [
      {
        "body": "<p>L&#39;id&eacute;e est de permettre de r&eacute;utiliser les donn&eacute;es ayant servi &agrave; la r&eacute;daction d&#39;un rapport autrement que tel qu&#39;elles ont &eacute;t&eacute; utilis&eacute;es dans le rapport.</p>\r\n\r\n<p>Exemple :</p>\r\n\r\n<p>Un rapport sur les fablab publi&eacute; par le minist&egrave;re de l&#39;&eacute;conomie disait que 92% de fablab (ayant r&eacute;pondu &agrave; la consultation) poss&eacute;dait une imprimante 3d. Et que 77% fablab (ayant r&eacute;pondu &agrave; la consultation) poss&eacute;dait une fraiseuse num&eacute;rique.</p>\r\n\r\n<p>Mais il &eacute;tait impossible de savoir combien de fablab poss&eacute;dait les 2 &agrave; la fois ou une imprimante 3d et une d&eacute;coupeuse laser par exemple.</p>\r\n\r\n<p><a _src=\"http://www.entreprises.gouv.fr/files/files/directions_services/etudes-et-statistiques/etudes/numerique/etat-des-lieux-fablabs-2014.pdf\" class=\"external-link\" href=\"http://www.entreprises.gouv.fr/files/files/directions_services/etudes-et-statistiques/etudes/numerique/etat-des-lieux-fablabs-2014.pdf\">http://www.entreprises.gouv.fr/files/files/directions_services/etudes-et-statistiques/etudes/numerique/etat-des-lieux-fablabs-2014.pdf</a></p>",
        "type": {
          "title": "Explication de l'article"
        }
      }
    ],
    "ranking": 11,
    "is_trashed": false,
    "title": "Ouvrir les données ayant servi à la rédaction d'un rapport publique",
    "votes_nok": 12,
    "votes_ok": 960,
    "votes_mitige": 25,
    "_links": {
      "show": "https://www.republique-numerique.fr/consultations/projet-de-loi-numerique/consultation/consultation/opinions/section-1-ouverture-des-donnees-publiques-1/ouvrir-les-donnees-ayant-servi-a-la-redaction-d-un-rapport-publique",
      "edit": "https://www.republique-numerique.fr/consultations/projet-de-loi-numerique/consultation/consultation/opinions/section-1-ouverture-des-donnees-publiques-1/ouvrir-les-donnees-ayant-servi-a-la-redaction-d-un-rapport-publique/edit",
      "report": "https://www.republique-numerique.fr/consultations/projet-de-loi-numerique/consultation/consultation/opinions/section-1-ouverture-des-donnees-publiques-1/ouvrir-les-donnees-ayant-servi-a-la-redaction-d-un-rapport-publique/report",
      "type": "https://www.republique-numerique.fr/consultations/projet-de-loi-numerique/consultation/consultation/opinions/section-1-ouverture-des-donnees-publiques-1"
    },
    "user_vote": null,
    "has_user_reported": false
  },
  "rankingThreshold": null,
  "opinionTerm": 1
}