{
  "opinion": {
    "isContribuable": false,
    "votes_total": 25,
    "arguments_yes_count": 0,
    "arguments_no_count": 0,
    "id": 446,
    "created_at": "2015-10-06T14:37:24+0200",
    "updated_at": "2015-10-06T14:37:24+0200",
    "body": "<p>Nous proposons donc d&#39;ajouter un article au code de la recherche:</p>\r\n\r\n<p><strong>Article L. 533-5</strong></p>\r\n\r\n<p><em>&laquo;&nbsp;I.-Les agents de l&#39;Etat investis d&#39;une mission de recherche, auteurs, dans le cadre de recherches financ&eacute;es par des dotations de l&#39;Etat et des collectivit&eacute;s territoriales ou par des subventions d&#39;agences publiques de financement nationales ou internationales, d&#39;une publication scientifique doivent la d&eacute;poser dans l&#39;archive institutionnelle de leur &eacute;tablissement ou dans l&#39;archive nationale HAL d&egrave;s la date de premi&egrave;re publication. Les &eacute;tablissements gestionnaires des archives ouvertes o&ugrave; a &eacute;t&eacute; effectu&eacute; le d&eacute;p&ocirc;t assurent la diffusion publique des publications scientifiques dans le respect des conditions pr&eacute;vues &agrave; l&#39;article L. 533-4 du code de la recherche</em></p>",
    "versions_count": 0,
    "sources_count": 0,
    "arguments_count": 0,
    "author": {
      "username": "Finance Jean-Pierre",
      "displayName": "Finance Jean-Pierre",
      "uniqueId": "financejeanpierre",
      "isAdmin": false,
      "media": null,
      "vip": false,
      "_links": {
        "profile": "https://www.republique-numerique.fr/profile/financejeanpierre",
        "settings": "https://www.republique-numerique.fr/profile/edit-profile"
      }
    },
    "type": {
      "id": 86,
      "title": "Section 1",
      "subtitle": "Ouverture des données publiques",
      "voteWidgetType": 2,
      "votesHelpText": "Pensez-vous que cette proposition permet d'atteindre les objectifs présentés dans l’explication de l’article ?",
      "commentSystem": 2,
      "color": "blue",
      "versionable": true,
      "sourceable": true,
      "votesThreshold": null,
      "votesThresholdHelpText": null
    },
    "sources": [],
    "arguments": [],
    "modals": [],
    "votes": [
      {
        "user": {
          "username": "Finance Jean-Pierre",
          "displayName": "Finance Jean-Pierre",
          "uniqueId": "financejeanpierre",
          "isAdmin": false,
          "media": null,
          "vip": false,
          "_links": {
            "profile": "https://www.republique-numerique.fr/profile/financejeanpierre",
            "settings": "https://www.republique-numerique.fr/profile/edit-profile"
          }
        }
      },
      {
        "user": {
          "username": "Jeanne Varasco",
          "displayName": "Jeanne Varasco",
          "uniqueId": "jeannevarasco",
          "isAdmin": false,
          "media": {
            "url": "/media/cache/default_avatar/default/0001/01/139_default_avatar.jpg"
          },
          "vip": false,
          "_links": {
            "profile": "https://www.republique-numerique.fr/profile/jeannevarasco",
            "settings": "https://www.republique-numerique.fr/profile/edit-profile"
          }
        }
      },
      {
        "user": {
          "username": "Gab ROQ",
          "displayName": "Gab ROQ",
          "uniqueId": "gabroq",
          "isAdmin": false,
          "media": null,
          "vip": false,
          "_links": {
            "profile": "https://www.republique-numerique.fr/profile/gabroq",
            "settings": "https://www.republique-numerique.fr/profile/edit-profile"
          }
        }
      },
      {
        "user": {
          "username": "François Briat",
          "displayName": "François Briat",
          "uniqueId": "francoisbriat",
          "isAdmin": false,
          "media": {
            "url": "/media/cache/default_avatar/default/0001/01/243_default_avatar.jpg"
          },
          "vip": false,
          "_links": {
            "profile": "https://www.republique-numerique.fr/profile/francoisbriat",
            "settings": "https://www.republique-numerique.fr/profile/edit-profile"
          }
        }
      },
      {
        "user": {
          "username": "William Quaranta",
          "displayName": "William Quaranta",
          "uniqueId": "williamquaranta",
          "isAdmin": false,
          "media": null,
          "vip": false,
          "_links": {
            "profile": "https://www.republique-numerique.fr/profile/williamquaranta",
            "settings": "https://www.republique-numerique.fr/profile/edit-profile"
          }
        }
      }
    ],
    "appendices": [
      {
        "body": "<p>Afin de rendre massivement accessibles les publications scientifiques issues de recherches financ&eacute;es par des financements publics, il convient d&#39;instaurer une obligation qui s&#39;appuie sur le droit de diffusion cr&eacute;&eacute; par la loi. Cette obligation de d&eacute;p&ocirc;t dans une archive ouverte permettra une valorisation accrue de la recherche fran&ccedil;aise, par la visibilit&eacute; renforc&eacute;e donn&eacute;e &agrave; ces publications. Cette proposition s&#39;inscrit pleinement dans la d&eacute;marche port&eacute;e par la Commission Europ&eacute;enne qui a d&eacute;j&agrave; instaur&eacute; l&rsquo;obligation de libre acc&egrave;s aux publications issues des recherches financ&eacute;es par l&#39;UE. L&#39;acc&egrave;s par la voie verte (archive ouverte) est l&#39;une des voies possibles, elle est aujourd&#39;hui la solution la moins co&ucirc;teuse et peut s&#39;appuyer sur des infrastructures locales, nationales et internationales existantes (les archives institutionnelles d&#39;&eacute;tablissements, HAL et les archives th&eacute;matiques comme ArXiv)</p>",
        "type": {
          "title": "Explication de l'article"
        }
      }
    ],
    "ranking": 193,
    "is_trashed": false,
    "title": "Ajout d'un article au code de la recherche : Pour une obligation de dépôt des publications scientifiques dans une archive ouverte",
    "votes_nok": 0,
    "votes_ok": 25,
    "votes_mitige": 0,
    "_links": {
      "show": "https://www.republique-numerique.fr/consultations/projet-de-loi-numerique/consultation/consultation/opinions/section-1-ouverture-des-donnees-publiques-1/ajout-d-un-article-au-code-de-la-recherche-pour-une-obligation-de-depot-des-publications-scientifiques-dans-une-archive-ouverte",
      "edit": "https://www.republique-numerique.fr/consultations/projet-de-loi-numerique/consultation/consultation/opinions/section-1-ouverture-des-donnees-publiques-1/ajout-d-un-article-au-code-de-la-recherche-pour-une-obligation-de-depot-des-publications-scientifiques-dans-une-archive-ouverte/edit",
      "report": "https://www.republique-numerique.fr/consultations/projet-de-loi-numerique/consultation/consultation/opinions/section-1-ouverture-des-donnees-publiques-1/ajout-d-un-article-au-code-de-la-recherche-pour-une-obligation-de-depot-des-publications-scientifiques-dans-une-archive-ouverte/report",
      "type": "https://www.republique-numerique.fr/consultations/projet-de-loi-numerique/consultation/consultation/opinions/section-1-ouverture-des-donnees-publiques-1"
    },
    "user_vote": null,
    "has_user_reported": false
  },
  "rankingThreshold": null,
  "opinionTerm": 1
}