{
  "opinion": {
    "isContribuable": false,
    "votes_total": 56,
    "arguments_yes_count": 1,
    "arguments_no_count": 0,
    "id": 550,
    "created_at": "2015-10-12T14:33:45+0200",
    "updated_at": "2015-10-12T14:33:45+0200",
    "body": "<p>La R&eacute;gion &eacute;labore, en concertation avec le(s) p&ocirc;les de la m&eacute;diation num&eacute;rique dont elle rel&egrave;ve ainsi qu&rsquo;avec les organismes et acteurs de la m&eacute;diation num&eacute;rique, une strat&eacute;gie r&eacute;gionale de la m&eacute;diation num&eacute;rique et peut contractualiser avec les d&eacute;partements, les communes et les &eacute;tablissements publics de coop&eacute;ration intercommunale &agrave; fiscalit&eacute; propre pour la mise en &oelig;uvre des strat&eacute;gies concert&eacute;es et le d&eacute;ploiement de la m&eacute;diation num&eacute;rique sur le territoire r&eacute;gional.</p>\r\n\r\n<ol style=\"margin-left:30px\">\r\n\t<li>&ndash; Le repr&eacute;sentant de l&rsquo;Etat dans la r&eacute;gion et le pr&eacute;sident du conseil r&eacute;gional organisent, au moins tous les deux ans, une conf&eacute;rence r&eacute;gionale de la m&eacute;diation num&eacute;rique &agrave; laquelle participent notamment les membres des p&ocirc;les de la m&eacute;diation num&eacute;rique dont rel&egrave;ve le territoire,, les r&eacute;seaux locaux d&rsquo;acteurs de la m&eacute;diation num&eacute;rique, les repr&eacute;sentants des collectivit&eacute;s territoriales concern&eacute;es ainsi que les partenaires sociaux concern&eacute;s.</li>\r\n\t<li>&ndash; Au cours de la conf&eacute;rence r&eacute;gionale de la m&eacute;diation num&eacute;rique, sont d&eacute;battus les orientations, les moyens et les r&eacute;sultats des politiques locales de d&eacute;veloppement de la m&eacute;diation num&eacute;rique. Ces d&eacute;bats donnent lieu &agrave; la formulation de propositions pour le d&eacute;veloppement de politiques publiques territoriales de la m&eacute;diation num&eacute;rique. Est &eacute;galement pr&eacute;sent&eacute;e l&rsquo;&eacute;valuation de la d&eacute;livrance de l&rsquo;agr&eacute;ment &laquo; acteur de la m&eacute;diation num&eacute;rique &raquo;.&nbsp;Les politiques publiques des collectivit&eacute;s territoriales et de leurs groupements en faveur de la m&eacute;diation num&eacute;rique peuvent s&rsquo;inscrire dans des d&eacute;marches de co-construction avec l&rsquo;ensemble des acteurs concern&eacute;s. Les modalit&eacute;s de cette co-construction s&rsquo;appuient notamment sur la mise en place d&rsquo;instances associant les acteurs concern&eacute;s ou de d&eacute;marches associant les citoyens au processus de d&eacute;cision publique.</li>\r\n\t<li>&ndash; Les acteurs publics (services centraux et d&eacute;concentr&eacute;s de l&rsquo;Etat, services r&eacute;gionaux) fixent au sein des Contrats de Projets et des programmations europ&eacute;ennes des moyens explicitement d&eacute;di&eacute;s &agrave; services de la m&eacute;diation num&eacute;rique.</li>\r\n\t<li>&ndash; Afin de contribuer &agrave; l&rsquo;observation et l&rsquo;&eacute;valuation des politiques territoriales en mati&egrave;re d&rsquo;appropriation sociale des usages num&eacute;riques et de l&rsquo;appui &agrave; la transition num&eacute;rique, les acteurs de la m&eacute;diation num&eacute;rique font l&rsquo;objet d&rsquo;une repr&eacute;sentation au sein des Conseils &Eacute;conomiques Sociaux et Environnementaux R&eacute;gionaux (CESER).</li>\r\n</ol>",
    "versions_count": 2,
    "sources_count": 0,
    "arguments_count": 1,
    "author": {
      "username": "MEDIAS-CITE",
      "displayName": "MEDIAS-CITE",
      "uniqueId": "mediascite",
      "isAdmin": false,
      "media": {
        "url": "/media/cache/default_avatar/default/0001/01/532_default_avatar.jpg"
      },
      "vip": false,
      "_links": {
        "profile": "https://www.republique-numerique.fr/profile/mediascite",
        "settings": "https://www.republique-numerique.fr/profile/edit-profile"
      }
    },
    "type": {
      "id": 103,
      "title": "Section 1",
      "subtitle": "Compétences et organisation",
      "voteWidgetType": 2,
      "votesHelpText": "Pensez-vous que cette proposition permet d'atteindre les objectifs présentés dans l’explication de l’article ?",
      "commentSystem": 2,
      "color": "blue",
      "versionable": true,
      "sourceable": true,
      "votesThreshold": null,
      "votesThresholdHelpText": null
    },
    "sources": [],
    "arguments": [
      {
        "isContribuable": false,
        "id": 5816,
        "body": "Accord global sur les propositions. En §3. les collectivités locales pourraient être citées parmi les acteurs publics ?",
        "created_at": "2015-10-18T14:10:23+0200",
        "updated_at": "2015-10-18T14:10:23+0200",
        "is_enabled": true,
        "votes_count": 0,
        "type": 1,
        "is_trashed": false,
        "author": {
          "username": "Bénédicte",
          "displayName": "Bénédicte",
          "uniqueId": "benedicte1",
          "isAdmin": false,
          "media": {
            "url": "/media/cache/default_avatar/default/0001/01/981_default_avatar.jpg"
          },
          "vip": false,
          "_links": {
            "profile": "https://www.republique-numerique.fr/profile/benedicte1",
            "settings": "https://www.republique-numerique.fr/profile/edit-profile"
          }
        },
        "_links": {
          "show": "https://www.republique-numerique.fr/consultations/projet-de-loi-numerique/consultation/consultation/opinions/section-1-competences-et-organisation/les-politiques-territoriales-de-la-mediation-numerique#arg-5816",
          "edit": "https://www.republique-numerique.fr/consultations/projet-de-loi-numerique/consultation/consultation/opinions/section-1-competences-et-organisation/les-politiques-territoriales-de-la-mediation-numerique/arguments/5816/edit",
          "report": "https://www.republique-numerique.fr/consultations/projet-de-loi-numerique/consultation/consultation/opinions/section-1-competences-et-organisation/les-politiques-territoriales-de-la-mediation-numerique/arguments/5816/report"
        },
        "has_user_voted": false,
        "has_user_reported": false
      }
    ],
    "modals": [],
    "votes": [
      {
        "user": {
          "username": "Jeanne Varasco",
          "displayName": "Jeanne Varasco",
          "uniqueId": "jeannevarasco",
          "isAdmin": false,
          "media": {
            "url": "/media/cache/default_avatar/default/0001/01/139_default_avatar.jpg"
          },
          "vip": false,
          "_links": {
            "profile": "https://www.republique-numerique.fr/profile/jeannevarasco",
            "settings": "https://www.republique-numerique.fr/profile/edit-profile"
          }
        }
      },
      {
        "user": {
          "username": "NIZON G.",
          "displayName": "NIZON G.",
          "uniqueId": "nizong",
          "isAdmin": false,
          "media": null,
          "vip": false,
          "_links": {
            "profile": "https://www.republique-numerique.fr/profile/nizong",
            "settings": "https://www.republique-numerique.fr/profile/edit-profile"
          }
        }
      },
      {
        "user": {
          "username": "Animateur Multimédia Valence",
          "displayName": "Animateur Multimédia Valence",
          "uniqueId": "animateurmultimediavalence",
          "isAdmin": false,
          "media": null,
          "vip": false,
          "_links": {
            "profile": "https://www.republique-numerique.fr/profile/animateurmultimediavalence",
            "settings": "https://www.republique-numerique.fr/profile/edit-profile"
          }
        }
      },
      {
        "user": {
          "username": "Vincent Reverdy",
          "displayName": "Vincent Reverdy",
          "uniqueId": "vincentreverdy",
          "isAdmin": false,
          "media": {
            "url": "/media/cache/default_avatar/default/0001/01/268_default_avatar.jpg"
          },
          "vip": false,
          "_links": {
            "profile": "https://www.republique-numerique.fr/profile/vincentreverdy",
            "settings": "https://www.republique-numerique.fr/profile/edit-profile"
          }
        }
      },
      {
        "user": {
          "username": "Samuel Pabion",
          "displayName": "Samuel Pabion",
          "uniqueId": "samuelpabion",
          "isAdmin": false,
          "media": null,
          "vip": false,
          "_links": {
            "profile": "https://www.republique-numerique.fr/profile/samuelpabion",
            "settings": "https://www.republique-numerique.fr/profile/edit-profile"
          }
        }
      }
    ],
    "appendices": [
      {
        "body": "<p>Il s&#39;agit dans le pr&eacute;sent article de d&eacute;finir les politiques territoriales de la m&eacute;diation num&eacute;rique, au m&ecirc;me titre que les politiques d&#39;am&eacute;nagement en infrastructures du territoire. Les deux - infrastructure et m&eacute;diation - constituant la notion d&#39;am&eacute;nagement num&eacute;rique du territoire.</p>",
        "type": {
          "title": "Explication de l'article"
        }
      }
    ],
    "ranking": 141,
    "is_trashed": false,
    "title": "Les politiques territoriales de la médiation numérique",
    "votes_nok": 0,
    "votes_ok": 55,
    "votes_mitige": 1,
    "_links": {
      "show": "https://www.republique-numerique.fr/consultations/projet-de-loi-numerique/consultation/consultation/opinions/section-1-competences-et-organisation/les-politiques-territoriales-de-la-mediation-numerique",
      "edit": "https://www.republique-numerique.fr/consultations/projet-de-loi-numerique/consultation/consultation/opinions/section-1-competences-et-organisation/les-politiques-territoriales-de-la-mediation-numerique/edit",
      "report": "https://www.republique-numerique.fr/consultations/projet-de-loi-numerique/consultation/consultation/opinions/section-1-competences-et-organisation/les-politiques-territoriales-de-la-mediation-numerique/report",
      "type": "https://www.republique-numerique.fr/consultations/projet-de-loi-numerique/consultation/consultation/opinions/section-1-competences-et-organisation"
    },
    "user_vote": null,
    "has_user_reported": false
  },
  "rankingThreshold": null,
  "opinionTerm": 1
}