{
  "opinion": {
    "isContribuable": false,
    "votes_total": 9,
    "arguments_yes_count": 0,
    "arguments_no_count": 0,
    "id": 314,
    "created_at": "2015-09-29T19:16:39+0200",
    "updated_at": "2015-09-29T19:16:39+0200",
    "body": "<p>Il est ins&eacute;r&eacute; un article 44-1 au sein du chapitre VI de la loi n&deg; 78-17 du 6 janvier 1978, qui est ainsi r&eacute;dig&eacute; :<br />\r\n&laquo; Art. 44-1.- La Commission nationale de l&rsquo;informatique et des libert&eacute;s met en oeuvre un dispositif de<br />\r\nsignalement permettant aux salari&eacute;s et aux agents publics, dans les conditions pr&eacute;vues par l&rsquo;article L. 1132-3-3<br />\r\ndu code du travail et l&rsquo;article 6 ter A de la loi n&deg; 83-634 du 13 juillet 1983 portant droits et obligations des<br />\r\nfonctionnaires, de t&eacute;moigner de faits constitutifs de l&rsquo;un des d&eacute;lits pr&eacute;vus par les articles 226-16 &agrave; 226-22-1 du<br />\r\ncode p&eacute;nal.<br />\r\n&laquo; La Commission informe la personne des suites donn&eacute;es &agrave; son t&eacute;moignage. &raquo;</p>",
    "versions_count": 0,
    "sources_count": 0,
    "arguments_count": 0,
    "author": {
      "username": "Cellular1988",
      "displayName": "Cellular1988",
      "uniqueId": "cellular1988",
      "isAdmin": false,
      "media": null,
      "vip": false,
      "_links": {
        "profile": "https://www.republique-numerique.fr/profile/cellular1988",
        "settings": "https://www.republique-numerique.fr/profile/edit-profile"
      }
    },
    "type": {
      "id": 97,
      "title": "Section 4",
      "subtitle": "Information des consommateurs",
      "voteWidgetType": 2,
      "votesHelpText": "Pensez-vous que cette proposition permet d'atteindre les objectifs présentés dans l’explication de l’article ?",
      "commentSystem": 2,
      "color": "blue",
      "versionable": true,
      "sourceable": true,
      "votesThreshold": null,
      "votesThresholdHelpText": null
    },
    "sources": [],
    "arguments": [],
    "modals": [],
    "votes": [
      {
        "user": {
          "username": "Pierre",
          "displayName": "Pierre",
          "uniqueId": "pierre1",
          "isAdmin": false,
          "media": {
            "url": "/media/cache/default_avatar/default/0001/01/199_default_avatar.png"
          },
          "vip": false,
          "_links": {
            "profile": "https://www.republique-numerique.fr/profile/pierre1",
            "settings": "https://www.republique-numerique.fr/profile/edit-profile"
          }
        }
      },
      {
        "user": {
          "username": "berger",
          "displayName": "berger",
          "uniqueId": "berger",
          "isAdmin": false,
          "media": {
            "url": "/media/cache/default_avatar/default/0001/01/364_default_avatar.jpg"
          },
          "vip": false,
          "_links": {
            "profile": "https://www.republique-numerique.fr/profile/berger",
            "settings": "https://www.republique-numerique.fr/profile/edit-profile"
          }
        }
      },
      {
        "user": {
          "username": "François Briat",
          "displayName": "François Briat",
          "uniqueId": "francoisbriat",
          "isAdmin": false,
          "media": {
            "url": "/media/cache/default_avatar/default/0001/01/243_default_avatar.jpg"
          },
          "vip": false,
          "_links": {
            "profile": "https://www.republique-numerique.fr/profile/francoisbriat",
            "settings": "https://www.republique-numerique.fr/profile/edit-profile"
          }
        }
      },
      {
        "user": {
          "username": "Hugo Mathieu",
          "displayName": "Hugo Mathieu",
          "uniqueId": "hugomathieu",
          "isAdmin": false,
          "media": null,
          "vip": false,
          "_links": {
            "profile": "https://www.republique-numerique.fr/profile/hugomathieu",
            "settings": "https://www.republique-numerique.fr/profile/edit-profile"
          }
        }
      },
      {
        "user": {
          "username": "Vincent Reverdy",
          "displayName": "Vincent Reverdy",
          "uniqueId": "vincentreverdy",
          "isAdmin": false,
          "media": {
            "url": "/media/cache/default_avatar/default/0001/01/268_default_avatar.jpg"
          },
          "vip": false,
          "_links": {
            "profile": "https://www.republique-numerique.fr/profile/vincentreverdy",
            "settings": "https://www.republique-numerique.fr/profile/edit-profile"
          }
        }
      }
    ],
    "appendices": [
      {
        "body": "<p>Afin de mieux informer les personnes de ce qu&#39;il advient r&eacute;ellement et conforme &agrave; la version de juillet de ce texte.</p>",
        "type": {
          "title": "Explication de l'article"
        }
      }
    ],
    "ranking": 427,
    "is_trashed": false,
    "title": "Droit d'alerte des salariés",
    "votes_nok": 1,
    "votes_ok": 6,
    "votes_mitige": 2,
    "_links": {
      "show": "https://www.republique-numerique.fr/consultations/projet-de-loi-numerique/consultation/consultation/opinions/section-4-information-des-consommateurs/droit-d-alerte-des-salaries",
      "edit": "https://www.republique-numerique.fr/consultations/projet-de-loi-numerique/consultation/consultation/opinions/section-4-information-des-consommateurs/droit-d-alerte-des-salaries/edit",
      "report": "https://www.republique-numerique.fr/consultations/projet-de-loi-numerique/consultation/consultation/opinions/section-4-information-des-consommateurs/droit-d-alerte-des-salaries/report",
      "type": "https://www.republique-numerique.fr/consultations/projet-de-loi-numerique/consultation/consultation/opinions/section-4-information-des-consommateurs"
    },
    "user_vote": null,
    "has_user_reported": false
  },
  "rankingThreshold": null,
  "opinionTerm": 1
}