{
  "opinion": {
    "isContribuable": false,
    "votes_total": 3,
    "arguments_yes_count": 0,
    "arguments_no_count": 0,
    "id": 580,
    "created_at": "2015-10-13T16:13:18+0200",
    "updated_at": "2015-10-13T16:13:18+0200",
    "body": "<p>Les services de l&rsquo;Etat, des collectivités territoriales et des établissements publics &nbsp;doivent&nbsp;cr&eacute;er les conditions&nbsp;en faveur de politiques publiques&nbsp;en mati&egrave;re de TICs qui renforcent l&rsquo;acc&egrave;s &agrave; l&rsquo;information et qui soient guid&eacute;es par des principes de gouvernance garantissant la transparence, la responsabilit&eacute;, le multilinguisme, l&rsquo;inclusion, l&rsquo;&eacute;galit&eacute; des sexes et la participation citoyenne y compris des jeunes, des personnes handicap&eacute;es et d&rsquo;autres groupes marginalis&eacute;s et vuln&eacute;rables.&nbsp;</p>\r\n\r\n<p>Les services de l&rsquo;Etat, des collectivités territoriales et des établissements publics &nbsp;doivent &nbsp;cr&eacute;er les conditions d&rsquo;un acc&egrave;s universel, ouvert, abordable et sans entrave &agrave; l&rsquo;information et au savoir et r&eacute;duire la fracture num&eacute;rique&nbsp;tout en promouvant et en&nbsp;prot&eacute;geantet les normes relatives aux droits humains et &agrave; la libert&eacute; d&rsquo;expression et &agrave; la libre circulation de l&rsquo;information et des id&eacute;es sur l&rsquo;Internet.</p>\r\n\r\n<p>&nbsp;</p>\r\n\r\n<p>&nbsp;</p>",
    "versions_count": 0,
    "sources_count": 0,
    "arguments_count": 0,
    "author": {
      "username": "Serge G Laurens",
      "displayName": "Serge G Laurens",
      "uniqueId": "sergeglaurens",
      "isAdmin": false,
      "media": null,
      "vip": false,
      "_links": {
        "profile": "https://www.republique-numerique.fr/profile/sergeglaurens",
        "settings": "https://www.republique-numerique.fr/profile/edit-profile"
      }
    },
    "type": {
      "id": 109,
      "title": "Section 1",
      "subtitle": "Accessibilité des personnes handicapées aux services téléphoniques",
      "voteWidgetType": 2,
      "votesHelpText": "Pensez-vous que cette proposition permet d'atteindre les objectifs présentés dans l’explication de l’article ?",
      "commentSystem": 2,
      "color": "blue",
      "versionable": true,
      "sourceable": true,
      "votesThreshold": null,
      "votesThresholdHelpText": null
    },
    "sources": [],
    "arguments": [],
    "modals": [],
    "votes": [
      {
        "user": {
          "username": "Jeanne Varasco",
          "displayName": "Jeanne Varasco",
          "uniqueId": "jeannevarasco",
          "isAdmin": false,
          "media": {
            "url": "/media/cache/default_avatar/default/0001/01/139_default_avatar.jpg"
          },
          "vip": false,
          "_links": {
            "profile": "https://www.republique-numerique.fr/profile/jeannevarasco",
            "settings": "https://www.republique-numerique.fr/profile/edit-profile"
          }
        }
      },
      {
        "user": {
          "username": "Vincent Reverdy",
          "displayName": "Vincent Reverdy",
          "uniqueId": "vincentreverdy",
          "isAdmin": false,
          "media": {
            "url": "/media/cache/default_avatar/default/0001/01/268_default_avatar.jpg"
          },
          "vip": false,
          "_links": {
            "profile": "https://www.republique-numerique.fr/profile/vincentreverdy",
            "settings": "https://www.republique-numerique.fr/profile/edit-profile"
          }
        }
      },
      {
        "user": {
          "username": "turlet",
          "displayName": "turlet",
          "uniqueId": "turlet",
          "isAdmin": false,
          "media": null,
          "vip": false,
          "_links": {
            "profile": "https://www.republique-numerique.fr/profile/turlet",
            "settings": "https://www.republique-numerique.fr/profile/edit-profile"
          }
        }
      }
    ],
    "appendices": [
      {
        "body": "<p>Promouvoir&nbsp;l&rsquo;acc&egrave;s universel &agrave; l&rsquo;information et au savoir ainsi qu&rsquo;aux TICs en favorisant la cr&eacute;ation d&rsquo;infrastructures d&rsquo;acc&egrave;s public, et en aidant les utilisateurs quels qu&rsquo;ils soient &agrave; renforcer leur capacit&eacute; &agrave; se servir de l&rsquo;Internet comme des cr&eacute;ateurs d&rsquo;information et de savoir.</p>\r\n\r\n<p>R&eacute;affirmer la contribution importante que constitue un acc&egrave;s ouvert aux informations savantes, scientifiques et journalistiques, aux donn&eacute;es des pouvoirs publics, et aux logiciels gratuits &agrave; source ouverte pour la construction de ressources transparentes de savoir.</p>\r\n\r\n<p>R&eacute;affirmer que la libert&eacute; d&rsquo;expression s&rsquo;applique et doit &ecirc;tre respect&eacute;e en ligne et hors connexion, conform&eacute;ment &agrave; l&rsquo;Article 19 de la D&eacute;claration universelle des droits de l&rsquo;homme et &agrave; l&rsquo;Article 19 du Pacte international relatif aux droits civils et politiques, et que toute restriction &agrave; la libert&eacute; d&rsquo;information doit se conformer aux normes internationales figurant dans l&rsquo;Article 19(3) du Pacte international relatif aux droits civils et politiques.</p>\r\n\r\n<p>Noter la pertinence pour l&rsquo;Internet et pour les communications num&eacute;riques de la Convention relative au droit des handicap&eacute;s, de la Convention sur l&rsquo;&eacute;limination de toutes les formes de discrimination &agrave; l&rsquo;&eacute;gard des femmes, ainsi que des travaux du Bureau du HautCommissaire aux droits de l&rsquo;homme concernant l&rsquo;interdiction de l&rsquo;incitation &agrave; la haine nationale, raciale ou religieuse qui constitue une incitation &agrave; la discrimination, &agrave; l&rsquo;hostilit&eacute; ou &agrave; la violence (Plan d&rsquo;action de Rabat 2012) et promouvoir des m&eacute;canismes &eacute;ducatifs et sociaux cr&eacute;atifs pour lutter contre les propos haineux en ligne, sans pour autant que cette mesure soit utilis&eacute;e pour limiter la libert&eacute; d&rsquo;expression</p>",
        "type": {
          "title": "Explication de l'article"
        }
      }
    ],
    "ranking": 506,
    "is_trashed": false,
    "title": "Accès universel à l’information et au savoir",
    "votes_nok": 0,
    "votes_ok": 3,
    "votes_mitige": 0,
    "_links": {
      "show": "https://www.republique-numerique.fr/consultations/projet-de-loi-numerique/consultation/consultation/opinions/section-1-accessibilite-des-personnes-handicapees-aux-services-telephoniques/acces-universel-a-l-information-et-au-savoir",
      "edit": "https://www.republique-numerique.fr/consultations/projet-de-loi-numerique/consultation/consultation/opinions/section-1-accessibilite-des-personnes-handicapees-aux-services-telephoniques/acces-universel-a-l-information-et-au-savoir/edit",
      "report": "https://www.republique-numerique.fr/consultations/projet-de-loi-numerique/consultation/consultation/opinions/section-1-accessibilite-des-personnes-handicapees-aux-services-telephoniques/acces-universel-a-l-information-et-au-savoir/report",
      "type": "https://www.republique-numerique.fr/consultations/projet-de-loi-numerique/consultation/consultation/opinions/section-1-accessibilite-des-personnes-handicapees-aux-services-telephoniques"
    },
    "user_vote": null,
    "has_user_reported": false
  },
  "rankingThreshold": null,
  "opinionTerm": 1
}