{
  "opinion": {
    "isContribuable": false,
    "votes_total": 5,
    "arguments_yes_count": 1,
    "arguments_no_count": 0,
    "id": 574,
    "created_at": "2015-10-13T11:55:46+0200",
    "updated_at": "2015-10-13T11:55:46+0200",
    "body": "<p>Les administrations utilisent pour leurs &eacute;changes et leurs correspondances exclusivement des formats ouverts.</p>",
    "versions_count": 0,
    "sources_count": 0,
    "arguments_count": 1,
    "author": {
      "username": "mathieu betton",
      "displayName": "mathieu betton",
      "uniqueId": "mathieubetton",
      "isAdmin": false,
      "media": null,
      "vip": false,
      "_links": {
        "profile": "https://www.republique-numerique.fr/profile/mathieubetton",
        "settings": "https://www.republique-numerique.fr/profile/edit-profile"
      }
    },
    "type": {
      "id": 106,
      "title": "Section 1",
      "subtitle": "Recommandé électronique",
      "voteWidgetType": 2,
      "votesHelpText": "Pensez-vous que cette proposition permet d'atteindre les objectifs présentés dans l’explication de l’article ?",
      "commentSystem": 2,
      "color": "blue",
      "versionable": true,
      "sourceable": true,
      "votesThreshold": null,
      "votesThresholdHelpText": null
    },
    "sources": [],
    "arguments": [
      {
        "isContribuable": false,
        "id": 3917,
        "body": "plus que doublon",
        "created_at": "2015-10-14T15:41:12+0200",
        "updated_at": "2015-10-14T15:41:12+0200",
        "is_enabled": true,
        "votes_count": 0,
        "type": 1,
        "is_trashed": false,
        "author": {
          "username": "Jeanne Varasco",
          "displayName": "Jeanne Varasco",
          "uniqueId": "jeannevarasco",
          "isAdmin": false,
          "media": {
            "url": "/media/cache/default_avatar/default/0001/01/139_default_avatar.jpg"
          },
          "vip": false,
          "_links": {
            "profile": "https://www.republique-numerique.fr/profile/jeannevarasco",
            "settings": "https://www.republique-numerique.fr/profile/edit-profile"
          }
        },
        "_links": {
          "show": "https://www.republique-numerique.fr/consultations/projet-de-loi-numerique/consultation/consultation/opinions/section-1-recommande-electronique/usage-des-formats-ouverts-exclusivement#arg-3917",
          "edit": "https://www.republique-numerique.fr/consultations/projet-de-loi-numerique/consultation/consultation/opinions/section-1-recommande-electronique/usage-des-formats-ouverts-exclusivement/arguments/3917/edit",
          "report": "https://www.republique-numerique.fr/consultations/projet-de-loi-numerique/consultation/consultation/opinions/section-1-recommande-electronique/usage-des-formats-ouverts-exclusivement/arguments/3917/report"
        },
        "has_user_voted": false,
        "has_user_reported": false
      }
    ],
    "modals": [],
    "votes": [
      {
        "user": {
          "username": "Vincent Reverdy",
          "displayName": "Vincent Reverdy",
          "uniqueId": "vincentreverdy",
          "isAdmin": false,
          "media": {
            "url": "/media/cache/default_avatar/default/0001/01/268_default_avatar.jpg"
          },
          "vip": false,
          "_links": {
            "profile": "https://www.republique-numerique.fr/profile/vincentreverdy",
            "settings": "https://www.republique-numerique.fr/profile/edit-profile"
          }
        }
      },
      {
        "user": {
          "username": "Jeanne Varasco",
          "displayName": "Jeanne Varasco",
          "uniqueId": "jeannevarasco",
          "isAdmin": false,
          "media": {
            "url": "/media/cache/default_avatar/default/0001/01/139_default_avatar.jpg"
          },
          "vip": false,
          "_links": {
            "profile": "https://www.republique-numerique.fr/profile/jeannevarasco",
            "settings": "https://www.republique-numerique.fr/profile/edit-profile"
          }
        }
      },
      {
        "user": {
          "username": "Bruno Ebstein",
          "displayName": "Bruno Ebstein",
          "uniqueId": "brunoebstein",
          "isAdmin": false,
          "media": null,
          "vip": false,
          "_links": {
            "profile": "https://www.republique-numerique.fr/profile/brunoebstein",
            "settings": "https://www.republique-numerique.fr/profile/edit-profile"
          }
        }
      },
      {
        "user": {
          "username": "Christophe Pi.",
          "displayName": "Christophe Pi.",
          "uniqueId": "christophepi",
          "isAdmin": false,
          "media": null,
          "vip": false,
          "_links": {
            "profile": "https://www.republique-numerique.fr/profile/christophepi",
            "settings": "https://www.republique-numerique.fr/profile/edit-profile"
          }
        }
      },
      {
        "user": {
          "username": "momb",
          "displayName": "momb",
          "uniqueId": "momb",
          "isAdmin": false,
          "media": null,
          "vip": false,
          "_links": {
            "profile": "https://www.republique-numerique.fr/profile/momb",
            "settings": "https://www.republique-numerique.fr/profile/edit-profile"
          }
        }
      }
    ],
    "appendices": [
      {
        "body": "<p>Afin de garantir la p&eacute;r&eacute;nit&eacute; des donn&eacute;es et l&#39;&eacute;gal acc&egrave;s de tous &agrave; l&#39;information et &agrave; la communication.</p>\r\n\r\n<p>Par exemple, actuellement pour remplir certains dossiers europ&eacute;ens il faut utiliser une version de acrobat reader obsol&egrave;te (la 11) Impossibilit&eacute; de remplir les dossiers si on a mis &agrave; jour son logiciel (et &eacute;videmment impossibilit&eacute; depuis un syst&egrave;me d&#39;exploitation non propri&eacute;taire). Certaines administrations envoient leurs documents en .docx et on ne peut utiliser de logiciel libre pour r&eacute;pondre. Ce qui oblige le citoyen &agrave; acheter une licence aupr&egrave;s de Microsoft pour effectuer ses d&eacute;marches citoyennes.</p>\r\n\r\n<p>Enfin le format ouvert permet de s&#39;assurer de leur usage ult&eacute;rieur puisque les sp&eacute;cifications resteront disponibles pour les futurs d&eacute;veloppeurs.</p>",
        "type": {
          "title": "Explication de l'article"
        }
      }
    ],
    "ranking": 506,
    "is_trashed": false,
    "title": "Usage des formats ouverts exclusivement",
    "votes_nok": 1,
    "votes_ok": 3,
    "votes_mitige": 1,
    "_links": {
      "show": "https://www.republique-numerique.fr/consultations/projet-de-loi-numerique/consultation/consultation/opinions/section-1-recommande-electronique/usage-des-formats-ouverts-exclusivement",
      "edit": "https://www.republique-numerique.fr/consultations/projet-de-loi-numerique/consultation/consultation/opinions/section-1-recommande-electronique/usage-des-formats-ouverts-exclusivement/edit",
      "report": "https://www.republique-numerique.fr/consultations/projet-de-loi-numerique/consultation/consultation/opinions/section-1-recommande-electronique/usage-des-formats-ouverts-exclusivement/report",
      "type": "https://www.republique-numerique.fr/consultations/projet-de-loi-numerique/consultation/consultation/opinions/section-1-recommande-electronique"
    },
    "user_vote": null,
    "has_user_reported": false
  },
  "rankingThreshold": null,
  "opinionTerm": 1
}