{
  "opinion": {
    "isContribuable": false,
    "votes_total": 9,
    "arguments_yes_count": 1,
    "arguments_no_count": 5,
    "id": 454,
    "created_at": "2015-10-07T11:03:12+0200",
    "updated_at": "2015-10-07T11:03:12+0200",
    "body": "<p>Les services en ligne pourront constituer un dossier qui sera analys&eacute; par une commission d&#39;experts comp&eacute;tents qui sera charg&eacute;e d&#39;attribuer ou non le label &quot;service en ligne loyal&quot;</p>\r\n\r\n<p>Cela sera visible sur le site par un logo sp&eacute;cifique.</p>",
    "versions_count": 0,
    "sources_count": 0,
    "arguments_count": 6,
    "author": {
      "username": "JEANNAS Jean-Yves",
      "displayName": "JEANNAS Jean-Yves",
      "uniqueId": "jeannasjeanyves",
      "isAdmin": false,
      "media": {
        "url": "/media/cache/default_avatar/default/0001/01/429_default_avatar.jpg"
      },
      "vip": false,
      "_links": {
        "profile": "https://www.republique-numerique.fr/profile/jeannasjeanyves",
        "settings": "https://www.republique-numerique.fr/profile/edit-profile"
      }
    },
    "type": {
      "id": 96,
      "title": "Section 3",
      "subtitle": "Loyauté des plateformes",
      "voteWidgetType": 2,
      "votesHelpText": "Pensez-vous que cette proposition permet d'atteindre les objectifs présentés dans l’explication de l’article ?",
      "commentSystem": 2,
      "color": "blue",
      "versionable": true,
      "sourceable": true,
      "votesThreshold": null,
      "votesThresholdHelpText": null
    },
    "sources": [],
    "arguments": [
      {
        "isContribuable": false,
        "id": 5384,
        "body": "Non, il va encore falloir financer tout cela.",
        "created_at": "2015-10-17T16:57:08+0200",
        "updated_at": "2015-10-17T16:57:08+0200",
        "is_enabled": true,
        "votes_count": 0,
        "type": 0,
        "is_trashed": false,
        "author": {
          "username": "Tanéléo",
          "displayName": "Tanéléo",
          "uniqueId": "taneleo",
          "isAdmin": false,
          "media": null,
          "vip": false,
          "_links": {
            "profile": "https://www.republique-numerique.fr/profile/taneleo",
            "settings": "https://www.republique-numerique.fr/profile/edit-profile"
          }
        },
        "_links": {
          "show": "https://www.republique-numerique.fr/consultations/projet-de-loi-numerique/consultation/consultation/opinions/section-3-loyaute-des-plateformes/instaurer-un-label-service-en-ligne-loyal#arg-5384",
          "edit": "https://www.republique-numerique.fr/consultations/projet-de-loi-numerique/consultation/consultation/opinions/section-3-loyaute-des-plateformes/instaurer-un-label-service-en-ligne-loyal/arguments/5384/edit",
          "report": "https://www.republique-numerique.fr/consultations/projet-de-loi-numerique/consultation/consultation/opinions/section-3-loyaute-des-plateformes/instaurer-un-label-service-en-ligne-loyal/arguments/5384/report"
        },
        "has_user_voted": false,
        "has_user_reported": false
      },
      {
        "isContribuable": false,
        "id": 4860,
        "body": "Bonjour,\nMis à part pour les amateurs de théorie du complot, il y a toujours une solution technique possible, nous avons un peu progressé en sécurité depuis le 20ème siècle !...\nMais surtout, c'est beaucoup plus général qu'uniquement pour les organismes de sécurité sociale !\nMerci\n",
        "created_at": "2015-10-16T16:54:53+0200",
        "updated_at": "2015-10-16T16:54:53+0200",
        "is_enabled": true,
        "votes_count": 0,
        "type": 1,
        "is_trashed": false,
        "author": {
          "username": "JEANNAS Jean-Yves",
          "displayName": "JEANNAS Jean-Yves",
          "uniqueId": "jeannasjeanyves",
          "isAdmin": false,
          "media": {
            "url": "/media/cache/default_avatar/default/0001/01/429_default_avatar.jpg"
          },
          "vip": false,
          "_links": {
            "profile": "https://www.republique-numerique.fr/profile/jeannasjeanyves",
            "settings": "https://www.republique-numerique.fr/profile/edit-profile"
          }
        },
        "_links": {
          "show": "https://www.republique-numerique.fr/consultations/projet-de-loi-numerique/consultation/consultation/opinions/section-3-loyaute-des-plateformes/instaurer-un-label-service-en-ligne-loyal#arg-4860",
          "edit": "https://www.republique-numerique.fr/consultations/projet-de-loi-numerique/consultation/consultation/opinions/section-3-loyaute-des-plateformes/instaurer-un-label-service-en-ligne-loyal/arguments/4860/edit",
          "report": "https://www.republique-numerique.fr/consultations/projet-de-loi-numerique/consultation/consultation/opinions/section-3-loyaute-des-plateformes/instaurer-un-label-service-en-ligne-loyal/arguments/4860/report"
        },
        "has_user_voted": false,
        "has_user_reported": false
      },
      {
        "isContribuable": false,
        "id": 3296,
        "body": "Un logo apposé sur un site est facile à copier/coller vers un autre site. L'utilisation frauduleuse de ce logo conduirait à une décrédibilisation de ce logo censé justement garantir la crédibilité du site.",
        "created_at": "2015-10-12T14:31:50+0200",
        "updated_at": "2015-10-12T14:31:50+0200",
        "is_enabled": true,
        "votes_count": 0,
        "type": 0,
        "is_trashed": false,
        "author": {
          "username": "Antoine Varet",
          "displayName": "Antoine Varet",
          "uniqueId": "antoinevaret",
          "isAdmin": false,
          "media": null,
          "vip": false,
          "_links": {
            "profile": "https://www.republique-numerique.fr/profile/antoinevaret",
            "settings": "https://www.republique-numerique.fr/profile/edit-profile"
          }
        },
        "_links": {
          "show": "https://www.republique-numerique.fr/consultations/projet-de-loi-numerique/consultation/consultation/opinions/section-3-loyaute-des-plateformes/instaurer-un-label-service-en-ligne-loyal#arg-3296",
          "edit": "https://www.republique-numerique.fr/consultations/projet-de-loi-numerique/consultation/consultation/opinions/section-3-loyaute-des-plateformes/instaurer-un-label-service-en-ligne-loyal/arguments/3296/edit",
          "report": "https://www.republique-numerique.fr/consultations/projet-de-loi-numerique/consultation/consultation/opinions/section-3-loyaute-des-plateformes/instaurer-un-label-service-en-ligne-loyal/arguments/3296/report"
        },
        "has_user_voted": false,
        "has_user_reported": false
      },
      {
        "isContribuable": false,
        "id": 3055,
        "body": "Doublon avec https://www.republique-numerique.fr/consultations/projet-de-loi-numerique/consultation/consultation/opinions/section-3-loyaute-des-plateformes/creation-d-un-label-tiers-de-confiance-pour-les-organismes-de-securite-sociale",
        "created_at": "2015-10-10T21:37:00+0200",
        "updated_at": "2015-10-10T21:37:00+0200",
        "is_enabled": true,
        "votes_count": 0,
        "type": 0,
        "is_trashed": false,
        "author": {
          "username": "Bernard Martinez",
          "displayName": "Bernard Martinez",
          "uniqueId": "bernardmartinez",
          "isAdmin": false,
          "media": null,
          "vip": false,
          "_links": {
            "profile": "https://www.republique-numerique.fr/profile/bernardmartinez",
            "settings": "https://www.republique-numerique.fr/profile/edit-profile"
          }
        },
        "_links": {
          "show": "https://www.republique-numerique.fr/consultations/projet-de-loi-numerique/consultation/consultation/opinions/section-3-loyaute-des-plateformes/instaurer-un-label-service-en-ligne-loyal#arg-3055",
          "edit": "https://www.republique-numerique.fr/consultations/projet-de-loi-numerique/consultation/consultation/opinions/section-3-loyaute-des-plateformes/instaurer-un-label-service-en-ligne-loyal/arguments/3055/edit",
          "report": "https://www.republique-numerique.fr/consultations/projet-de-loi-numerique/consultation/consultation/opinions/section-3-loyaute-des-plateformes/instaurer-un-label-service-en-ligne-loyal/arguments/3055/report"
        },
        "has_user_voted": false,
        "has_user_reported": false
      },
      {
        "isContribuable": false,
        "id": 2971,
        "body": "Qui nomme les prétendus « experts » ? Qui les payent et comment est-ce financé ? Un logo, ça se copie-colle (surtout sur un site hors juridiction). C'est coûteux, inefficace et propice aux intrigues et autres copinages.",
        "created_at": "2015-10-10T16:12:55+0200",
        "updated_at": "2015-10-10T16:12:55+0200",
        "is_enabled": true,
        "votes_count": 0,
        "type": 0,
        "is_trashed": false,
        "author": {
          "username": "Bernard Martinez",
          "displayName": "Bernard Martinez",
          "uniqueId": "bernardmartinez",
          "isAdmin": false,
          "media": null,
          "vip": false,
          "_links": {
            "profile": "https://www.republique-numerique.fr/profile/bernardmartinez",
            "settings": "https://www.republique-numerique.fr/profile/edit-profile"
          }
        },
        "_links": {
          "show": "https://www.republique-numerique.fr/consultations/projet-de-loi-numerique/consultation/consultation/opinions/section-3-loyaute-des-plateformes/instaurer-un-label-service-en-ligne-loyal#arg-2971",
          "edit": "https://www.republique-numerique.fr/consultations/projet-de-loi-numerique/consultation/consultation/opinions/section-3-loyaute-des-plateformes/instaurer-un-label-service-en-ligne-loyal/arguments/2971/edit",
          "report": "https://www.republique-numerique.fr/consultations/projet-de-loi-numerique/consultation/consultation/opinions/section-3-loyaute-des-plateformes/instaurer-un-label-service-en-ligne-loyal/arguments/2971/report"
        },
        "has_user_voted": false,
        "has_user_reported": false
      },
      {
        "isContribuable": false,
        "id": 2567,
        "body": "Qui, comment et avec quels moyens pourrait décerner ce label ? Quid des sites étrangers ? Cela me semble plutôt inutile en rapport qualité/coût de mise en place.",
        "created_at": "2015-10-07T21:10:44+0200",
        "updated_at": "2015-10-07T21:10:44+0200",
        "is_enabled": true,
        "votes_count": 2,
        "type": 0,
        "is_trashed": false,
        "author": {
          "username": "Jeanne Varasco",
          "displayName": "Jeanne Varasco",
          "uniqueId": "jeannevarasco",
          "isAdmin": false,
          "media": {
            "url": "/media/cache/default_avatar/default/0001/01/139_default_avatar.jpg"
          },
          "vip": false,
          "_links": {
            "profile": "https://www.republique-numerique.fr/profile/jeannevarasco",
            "settings": "https://www.republique-numerique.fr/profile/edit-profile"
          }
        },
        "_links": {
          "show": "https://www.republique-numerique.fr/consultations/projet-de-loi-numerique/consultation/consultation/opinions/section-3-loyaute-des-plateformes/instaurer-un-label-service-en-ligne-loyal#arg-2567",
          "edit": "https://www.republique-numerique.fr/consultations/projet-de-loi-numerique/consultation/consultation/opinions/section-3-loyaute-des-plateformes/instaurer-un-label-service-en-ligne-loyal/arguments/2567/edit",
          "report": "https://www.republique-numerique.fr/consultations/projet-de-loi-numerique/consultation/consultation/opinions/section-3-loyaute-des-plateformes/instaurer-un-label-service-en-ligne-loyal/arguments/2567/report"
        },
        "has_user_voted": false,
        "has_user_reported": false
      }
    ],
    "modals": [],
    "votes": [
      {
        "user": {
          "username": "JEANNAS Jean-Yves",
          "displayName": "JEANNAS Jean-Yves",
          "uniqueId": "jeannasjeanyves",
          "isAdmin": false,
          "media": {
            "url": "/media/cache/default_avatar/default/0001/01/429_default_avatar.jpg"
          },
          "vip": false,
          "_links": {
            "profile": "https://www.republique-numerique.fr/profile/jeannasjeanyves",
            "settings": "https://www.republique-numerique.fr/profile/edit-profile"
          }
        }
      },
      {
        "user": {
          "username": "Mathilde Cariou",
          "displayName": "Mathilde Cariou",
          "uniqueId": "mathildecariou",
          "isAdmin": false,
          "media": null,
          "vip": false,
          "_links": {
            "profile": "https://www.republique-numerique.fr/profile/mathildecariou",
            "settings": "https://www.republique-numerique.fr/profile/edit-profile"
          }
        }
      },
      {
        "user": {
          "username": "Jeanne Varasco",
          "displayName": "Jeanne Varasco",
          "uniqueId": "jeannevarasco",
          "isAdmin": false,
          "media": {
            "url": "/media/cache/default_avatar/default/0001/01/139_default_avatar.jpg"
          },
          "vip": false,
          "_links": {
            "profile": "https://www.republique-numerique.fr/profile/jeannevarasco",
            "settings": "https://www.republique-numerique.fr/profile/edit-profile"
          }
        }
      },
      {
        "user": {
          "username": "PETER",
          "displayName": "PETER",
          "uniqueId": "peter",
          "isAdmin": false,
          "media": null,
          "vip": false,
          "_links": {
            "profile": "https://www.republique-numerique.fr/profile/peter",
            "settings": "https://www.republique-numerique.fr/profile/edit-profile"
          }
        }
      },
      {
        "user": {
          "username": "Bernard Martinez",
          "displayName": "Bernard Martinez",
          "uniqueId": "bernardmartinez",
          "isAdmin": false,
          "media": null,
          "vip": false,
          "_links": {
            "profile": "https://www.republique-numerique.fr/profile/bernardmartinez",
            "settings": "https://www.republique-numerique.fr/profile/edit-profile"
          }
        }
      }
    ],
    "appendices": [
      {
        "body": "<p>C&#39;est le m&ecirc;me principe que pour la &quot;viande fran&ccedil;aise&quot;, il n&#39;est pas normal que nos citoyens ne soient pas inform&eacute;s facilement de la loyaut&eacute; ou non des plateformes.</p>\r\n\r\n<p>En attendant que tous les enfants de la r&eacute;publique soient form&eacute;s aux Sciences du Num&eacute;rique et sachent se d&eacute;brouiller seuls, ce label serait une solution rapide &agrave; mettre en oeuvre.</p>",
        "type": {
          "title": "Explication de l'article"
        }
      }
    ],
    "ranking": 473,
    "is_trashed": false,
    "title": "Instaurer un label \"service en ligne loyal\"",
    "votes_nok": 4,
    "votes_ok": 4,
    "votes_mitige": 1,
    "_links": {
      "show": "https://www.republique-numerique.fr/consultations/projet-de-loi-numerique/consultation/consultation/opinions/section-3-loyaute-des-plateformes/instaurer-un-label-service-en-ligne-loyal",
      "edit": "https://www.republique-numerique.fr/consultations/projet-de-loi-numerique/consultation/consultation/opinions/section-3-loyaute-des-plateformes/instaurer-un-label-service-en-ligne-loyal/edit",
      "report": "https://www.republique-numerique.fr/consultations/projet-de-loi-numerique/consultation/consultation/opinions/section-3-loyaute-des-plateformes/instaurer-un-label-service-en-ligne-loyal/report",
      "type": "https://www.republique-numerique.fr/consultations/projet-de-loi-numerique/consultation/consultation/opinions/section-3-loyaute-des-plateformes"
    },
    "user_vote": null,
    "has_user_reported": false
  },
  "rankingThreshold": null,
  "opinionTerm": 1
}