{
  "opinion": {
    "isContribuable": false,
    "votes_total": 302,
    "arguments_yes_count": 2,
    "arguments_no_count": 1,
    "id": 433,
    "created_at": "2015-10-05T17:25:06+0200",
    "updated_at": "2015-10-05T18:21:48+0200",
    "body": "<div style=\"margin-left:100px !important; margin-right:100px\">1) L&#39;article L. 133-1 du Code de&nbsp;la Propri&eacute;t&eacute; intellectuelle est remplac&eacute; par l&#39;article suivant :</div>\r\n\r\n<div style=\"margin-left:100px !important; margin-right:100px\"><strong>&nbsp;</strong></div>\r\n\r\n<div style=\"margin-left:100px !important; margin-right:100px\">&laquo; Lorsqu&#39;une oeuvre a fait l&#39;objet d&#39;un contrat d&#39;&eacute;dition pour sa diffusion sous forme de livre, l&#39;auteur ne peut s&#39;opposer, pour les livres num&eacute;riques, au pr&ecirc;t d&#39;exemplaires de cette &eacute;dition par une biblioth&egrave;que accueillant du public et, pour les livres num&eacute;riques tels que d&eacute;finis &agrave; l&#39;article 1 de la loi n&deg;2011-590 du 26 mai 2011, &agrave; leur acquisition p&eacute;renne et &agrave; leur mise &agrave; disposition, sur place ou &agrave; distance, par une biblioth&egrave;que accueillant du public.</div>\r\n\r\n<div style=\"margin-left:100px !important; margin-right:100px\">&nbsp;</div>\r\n\r\n<div style=\"margin-left:100px !important; margin-right:100px\">Ces actes de pr&ecirc;t et de mise &agrave; disposition ouvrent droit &agrave; r&eacute;mun&eacute;ration au profit de l&#39;auteur selon les modalit&eacute;s pr&eacute;vues &agrave; l&#39;article L. 133-4, en prenant en compte la r&eacute;mun&eacute;ration &eacute;quitable des usages et la n&eacute;cessit&eacute; de pr&eacute;server les conditions d&#39;exercice des missions des biblioth&egrave;ques. &raquo;</div>\r\n\r\n<div style=\"margin-left:100px !important; margin-right:100px\">&nbsp;</div>\r\n\r\n<div style=\"margin-left:100px !important; margin-right:100px\">2) A l&#39;article L.133-3 du Code de propri&eacute;t&eacute; intellectuelle, la premi&egrave;re phrase est remplac&eacute;e parla suivante :</div>\r\n\r\n<div style=\"margin-left:100px !important; margin-right:100px\">&nbsp;</div>\r\n\r\n<div style=\"margin-left:100px !important; margin-right:100px\">&laquo; La r&eacute;mun&eacute;ration&nbsp;pr&eacute;vue au second alin&eacute;a de l&#39;article L. 133-1 au titre du pr&ecirc;t d&#39;exemplaires de livres imprim&eacute;s comprend&nbsp;deux parts. &raquo;</div>\r\n\r\n<div style=\"margin-left:100px !important; margin-right:100px\">&nbsp;</div>\r\n\r\n<div style=\"margin-left:100px !important; margin-right:100px\">3) A l&#39;article L. 133-4&nbsp;du Code de propri&eacute;t&eacute; intellectuelle, la premi&egrave;re phrase est remplac&eacute;e par la phrase&nbsp;suivante :</div>\r\n\r\n<div style=\"margin-left:100px !important; margin-right:100px\">&nbsp;</div>\r\n\r\n<div style=\"margin-left:100px !important; margin-right:100px\">&laquo; La r&eacute;mun&eacute;ration&nbsp;au titre du pr&ecirc;t d&#39;exemplaires d&eacute;livr&eacute;s imprim&eacute;s en biblioth&egrave;que est r&eacute;partie dans les conditions&nbsp;suivantes : &raquo;</div>\r\n\r\n<div style=\"margin-left:100px !important; margin-right:100px\">&nbsp;</div>\r\n\r\n<div style=\"margin-left:100px !important; margin-right:100px\">4) A l&#39;article L. 133-4&nbsp;du Code de propri&eacute;t&eacute; intellectuelle, un 3&deg; est ajout&eacute;, ainsi r&eacute;dig&eacute; :</div>\r\n\r\n<div style=\"margin-left:100px !important; margin-right:100px\">&nbsp;&nbsp;</div>\r\n\r\n<div style=\"margin-left:100px !important; margin-right:100px\">&laquo; Concernant les livres &eacute;dit&eacute;s sous forme num&eacute;rique, les conditions&nbsp;de mise &agrave; disposition ainsi que les modalit&eacute;s de la r&eacute;mun&eacute;ration pr&eacute;vue au&nbsp;second alin&eacute;a de l&#39;article L. 133-1 sont fix&eacute;es par d&eacute;cret, au terme d&#39;une&nbsp;consultation publique nationale conduite par le M&eacute;diateur du&nbsp;livre avec tous les acteurs professionnels concern&eacute;s. &raquo;</div>",
    "versions_count": 0,
    "sources_count": 0,
    "arguments_count": 3,
    "author": {
      "username": "SavoirCom1",
      "displayName": "SavoirCom1",
      "uniqueId": "savoircom1",
      "isAdmin": false,
      "media": {
        "url": "/media/cache/default_avatar/default/0001/01/244_default_avatar.jpg"
      },
      "vip": false,
      "_links": {
        "profile": "https://www.republique-numerique.fr/profile/savoircom1",
        "settings": "https://www.republique-numerique.fr/profile/edit-profile"
      }
    },
    "type": {
      "id": 86,
      "title": "Section 1",
      "subtitle": "Ouverture des données publiques",
      "voteWidgetType": 2,
      "votesHelpText": "Pensez-vous que cette proposition permet d'atteindre les objectifs présentés dans l’explication de l’article ?",
      "commentSystem": 2,
      "color": "blue",
      "versionable": true,
      "sourceable": true,
      "votesThreshold": null,
      "votesThresholdHelpText": null
    },
    "sources": [],
    "arguments": [
      {
        "isContribuable": false,
        "id": 6170,
        "body": "POUR mais seulement si 1) il faut étendre cela à tout document numérique et pas juste les livres. 2) Il faut une obligation de mise à disposition dans plusieurs formats (epub, pdf...), sur plusieurs matériels et sans DRM.",
        "created_at": "2015-10-18T22:56:14+0200",
        "updated_at": "2015-10-18T22:57:26+0200",
        "is_enabled": true,
        "votes_count": 1,
        "type": 1,
        "is_trashed": false,
        "author": {
          "username": "glucas",
          "displayName": "glucas",
          "uniqueId": "glucas",
          "isAdmin": false,
          "media": null,
          "vip": false,
          "_links": {
            "profile": "https://www.republique-numerique.fr/profile/glucas",
            "settings": "https://www.republique-numerique.fr/profile/edit-profile"
          }
        },
        "_links": {
          "show": "https://www.republique-numerique.fr/consultations/projet-de-loi-numerique/consultation/consultation/opinions/section-1-ouverture-des-donnees-publiques-1/promouvoir-la-mise-a-disposition-de-livres-numeriques-dans-les-bibliotheques-publiques#arg-6170",
          "edit": "https://www.republique-numerique.fr/consultations/projet-de-loi-numerique/consultation/consultation/opinions/section-1-ouverture-des-donnees-publiques-1/promouvoir-la-mise-a-disposition-de-livres-numeriques-dans-les-bibliotheques-publiques/arguments/6170/edit",
          "report": "https://www.republique-numerique.fr/consultations/projet-de-loi-numerique/consultation/consultation/opinions/section-1-ouverture-des-donnees-publiques-1/promouvoir-la-mise-a-disposition-de-livres-numeriques-dans-les-bibliotheques-publiques/arguments/6170/report"
        },
        "has_user_voted": false,
        "has_user_reported": false
      },
      {
        "isContribuable": false,
        "id": 5657,
        "body": "Sur le principe je suis d'accord, sauf que malheureusement la plupart seront disponibles uniquement avec des DRM, donc pas pour tous (rupture d'égalité). Il faudrait rendre obligatoire la mise à disposition d'une version sans DRM, mais jamais cela ne sera accepté.",
        "created_at": "2015-10-18T01:23:50+0200",
        "updated_at": "2015-10-18T01:23:50+0200",
        "is_enabled": true,
        "votes_count": 2,
        "type": 0,
        "is_trashed": false,
        "author": {
          "username": "François Revol",
          "displayName": "François Revol",
          "uniqueId": "francoisrevol",
          "isAdmin": false,
          "media": {
            "url": "/media/cache/default_avatar/default/0001/01/958_default_avatar.jpg"
          },
          "vip": false,
          "_links": {
            "profile": "https://www.republique-numerique.fr/profile/francoisrevol",
            "settings": "https://www.republique-numerique.fr/profile/edit-profile"
          }
        },
        "_links": {
          "show": "https://www.republique-numerique.fr/consultations/projet-de-loi-numerique/consultation/consultation/opinions/section-1-ouverture-des-donnees-publiques-1/promouvoir-la-mise-a-disposition-de-livres-numeriques-dans-les-bibliotheques-publiques#arg-5657",
          "edit": "https://www.republique-numerique.fr/consultations/projet-de-loi-numerique/consultation/consultation/opinions/section-1-ouverture-des-donnees-publiques-1/promouvoir-la-mise-a-disposition-de-livres-numeriques-dans-les-bibliotheques-publiques/arguments/5657/edit",
          "report": "https://www.republique-numerique.fr/consultations/projet-de-loi-numerique/consultation/consultation/opinions/section-1-ouverture-des-donnees-publiques-1/promouvoir-la-mise-a-disposition-de-livres-numeriques-dans-les-bibliotheques-publiques/arguments/5657/report"
        },
        "has_user_voted": false,
        "has_user_reported": false
      },
      {
        "isContribuable": false,
        "id": 5656,
        "body": "Sur le principe je suis d'accord, sauf que malheureusement la plupart seront disponibles uniquement avec des DRM, donc pas pour tous (rupture d'égalité). Il faudrait rendre obligatoire la mise à disposition d'une version sans DRM, mais jamais cela ne sera accepté.",
        "created_at": "2015-10-18T01:23:47+0200",
        "updated_at": "2015-10-18T01:23:47+0200",
        "is_enabled": true,
        "votes_count": 2,
        "type": 1,
        "is_trashed": false,
        "author": {
          "username": "François Revol",
          "displayName": "François Revol",
          "uniqueId": "francoisrevol",
          "isAdmin": false,
          "media": {
            "url": "/media/cache/default_avatar/default/0001/01/958_default_avatar.jpg"
          },
          "vip": false,
          "_links": {
            "profile": "https://www.republique-numerique.fr/profile/francoisrevol",
            "settings": "https://www.republique-numerique.fr/profile/edit-profile"
          }
        },
        "_links": {
          "show": "https://www.republique-numerique.fr/consultations/projet-de-loi-numerique/consultation/consultation/opinions/section-1-ouverture-des-donnees-publiques-1/promouvoir-la-mise-a-disposition-de-livres-numeriques-dans-les-bibliotheques-publiques#arg-5656",
          "edit": "https://www.republique-numerique.fr/consultations/projet-de-loi-numerique/consultation/consultation/opinions/section-1-ouverture-des-donnees-publiques-1/promouvoir-la-mise-a-disposition-de-livres-numeriques-dans-les-bibliotheques-publiques/arguments/5656/edit",
          "report": "https://www.republique-numerique.fr/consultations/projet-de-loi-numerique/consultation/consultation/opinions/section-1-ouverture-des-donnees-publiques-1/promouvoir-la-mise-a-disposition-de-livres-numeriques-dans-les-bibliotheques-publiques/arguments/5656/report"
        },
        "has_user_voted": false,
        "has_user_reported": false
      }
    ],
    "modals": [],
    "votes": [
      {
        "user": {
          "username": "Xavier G.",
          "displayName": "Xavier G.",
          "uniqueId": "xavierg",
          "isAdmin": false,
          "media": null,
          "vip": false,
          "_links": {
            "profile": "https://www.republique-numerique.fr/profile/xavierg",
            "settings": "https://www.republique-numerique.fr/profile/edit-profile"
          }
        }
      },
      {
        "user": {
          "username": "Thomas Colombera",
          "displayName": "Thomas Colombera",
          "uniqueId": "thomascolombera",
          "isAdmin": false,
          "media": null,
          "vip": false,
          "_links": {
            "profile": "https://www.republique-numerique.fr/profile/thomascolombera",
            "settings": "https://www.republique-numerique.fr/profile/edit-profile"
          }
        }
      },
      {
        "user": {
          "username": "AC",
          "displayName": "AC",
          "uniqueId": "ac",
          "isAdmin": false,
          "media": null,
          "vip": false,
          "_links": {
            "profile": "https://www.republique-numerique.fr/profile/ac",
            "settings": "https://www.republique-numerique.fr/profile/edit-profile"
          }
        }
      },
      {
        "user": {
          "username": "Julien Prost",
          "displayName": "Julien Prost",
          "uniqueId": "julienprost",
          "isAdmin": false,
          "media": null,
          "vip": false,
          "_links": {
            "profile": "https://www.republique-numerique.fr/profile/julienprost",
            "settings": "https://www.republique-numerique.fr/profile/edit-profile"
          }
        }
      },
      {
        "user": {
          "username": "Pierre Naegelen",
          "displayName": "Pierre Naegelen",
          "uniqueId": "pierrenaegelen",
          "isAdmin": false,
          "media": {
            "url": "/media/cache/default_avatar/default/0001/01/292_default_avatar.jpg"
          },
          "vip": false,
          "_links": {
            "profile": "https://www.republique-numerique.fr/profile/pierrenaegelen",
            "settings": "https://www.republique-numerique.fr/profile/edit-profile"
          }
        }
      }
    ],
    "appendices": [
      {
        "body": "<p>Le pr&ecirc;t de livres imprim&eacute;s en biblioth&egrave;que est r&eacute;gi depuis 2003 par un m&eacute;canisme de licence l&eacute;gale, permettant un &eacute;quilibre entre d&#39;une part, l&#39;acc&egrave;s pour le public aux oeuvres dans les &eacute;tablissements accueillant du public et d&#39;autre part, une juste r&eacute;mun&eacute;ration des titulaires de droits. En l&#39;&eacute;tat actuel du droit, ce syst&egrave;me ne s&#39;applique cependant pas aux livres num&eacute;riques, qui prennent pourtant une place de plus en plus importante dans les pratiques de lecture de nos concitoyens. Les offres de livres num&eacute;riques propos&eacute;es aux biblioth&egrave;ques se&nbsp;font sur une base purement volontaire et contractuelle par les &eacute;diteurs, dans&nbsp;des conditions souvent peu satisfaisantes, que ce soit en termes de contenu des&nbsp;offres, de conditions de mise &agrave; disposition ou de tarifs pratiqu&eacute;s. Pour permettre aux biblioth&egrave;ques de continuer &agrave; jouer le r&ocirc;le qui &eacute;tait le leur vis-&agrave;-vis du livre num&eacute;rique, il importe d&#39;&eacute;tendre le m&eacute;canisme de licence l&eacute;gale pr&eacute;vu par la loi de 2003. Une telle r&eacute;forme garantira une homoth&eacute;tie entre l&#39;offre &eacute;ditoriale g&eacute;n&eacute;rale et les titres sous forme num&eacute;rique que pourront proposer les biblioth&egrave;ques &agrave; leurs usagers apr&egrave;s acquisition. Lemaintien du principe d&#39;une juste r&eacute;mun&eacute;ration des auteurs constituera &eacute;galement&nbsp;une opportunit&eacute; de nouveaux revenus pour les cr&eacute;ateurs. Les modalit&eacute;s concr&egrave;tes de mise &agrave; disposition des livres num&eacute;riques, ainsi que le mod&egrave;le de r&eacute;mun&eacute;ration seront fix&eacute;s par d&eacute;cret apr&egrave;s une large concertation des acteurs professionnels concern&eacute;s conduite sous l&#39;&eacute;gide du M&eacute;diateur du livre, afin que l&#39;ensemble des points de vue de la fili&egrave;re (auteurs, &eacute;diteurs, libraires, biblioth&egrave;ques,lecteurs) puissent &ecirc;tre entendus.&nbsp;&nbsp;&nbsp;</p>",
        "type": {
          "title": "Explication de l'article"
        }
      }
    ],
    "ranking": 34,
    "is_trashed": false,
    "title": "Promouvoir la mise à disposition de livres numériques dans les bibliothèques publiques",
    "votes_nok": 20,
    "votes_ok": 280,
    "votes_mitige": 2,
    "_links": {
      "show": "https://www.republique-numerique.fr/consultations/projet-de-loi-numerique/consultation/consultation/opinions/section-1-ouverture-des-donnees-publiques-1/promouvoir-la-mise-a-disposition-de-livres-numeriques-dans-les-bibliotheques-publiques",
      "edit": "https://www.republique-numerique.fr/consultations/projet-de-loi-numerique/consultation/consultation/opinions/section-1-ouverture-des-donnees-publiques-1/promouvoir-la-mise-a-disposition-de-livres-numeriques-dans-les-bibliotheques-publiques/edit",
      "report": "https://www.republique-numerique.fr/consultations/projet-de-loi-numerique/consultation/consultation/opinions/section-1-ouverture-des-donnees-publiques-1/promouvoir-la-mise-a-disposition-de-livres-numeriques-dans-les-bibliotheques-publiques/report",
      "type": "https://www.republique-numerique.fr/consultations/projet-de-loi-numerique/consultation/consultation/opinions/section-1-ouverture-des-donnees-publiques-1"
    },
    "user_vote": null,
    "has_user_reported": false
  },
  "rankingThreshold": null,
  "opinionTerm": 1
}