{
  "opinion": {
    "isContribuable": false,
    "votes_total": 22,
    "arguments_yes_count": 1,
    "arguments_no_count": 1,
    "id": 346,
    "created_at": "2015-09-30T12:17:58+0200",
    "updated_at": "2015-09-30T12:17:58+0200",
    "body": "<p>Chaques elu&nbsp;(du maire au president en passant par les senateurs/prefets/prefet fantome//etc..) devrait apparaitre dans un immensse organigramme afin que chaque citoyen puisse connaitre les acteurs de la politique francaise.</p>\r\n\r\n<p>En plus du nom de la personne, une petite description du poste,&nbsp;attributions, adresse (professionnel), numero de telephone et adresse mail (professionnel) sera accessible.</p>\r\n\r\n<p>&nbsp;</p>",
    "versions_count": 1,
    "sources_count": 0,
    "arguments_count": 2,
    "author": {
      "username": "thomas",
      "displayName": "thomas",
      "uniqueId": "thomas1",
      "isAdmin": false,
      "media": null,
      "vip": false,
      "_links": {
        "profile": "https://www.republique-numerique.fr/profile/thomas1",
        "settings": "https://www.republique-numerique.fr/profile/edit-profile"
      }
    },
    "type": {
      "id": 87,
      "title": "Section 2",
      "subtitle": "Service public de la donnée",
      "voteWidgetType": 2,
      "votesHelpText": "Pensez-vous que cette proposition permet d'atteindre les objectifs présentés dans l’explication de l’article ?",
      "commentSystem": 2,
      "color": "blue",
      "versionable": true,
      "sourceable": true,
      "votesThreshold": null,
      "votesThresholdHelpText": null
    },
    "sources": [],
    "arguments": [
      {
        "isContribuable": false,
        "id": 5294,
        "body": "Tout est déjà publique, pour qui veut bien se donner la peine de s'informer.",
        "created_at": "2015-10-17T15:26:26+0200",
        "updated_at": "2015-10-17T15:26:26+0200",
        "is_enabled": true,
        "votes_count": 1,
        "type": 0,
        "is_trashed": false,
        "author": {
          "username": "Tanéléo",
          "displayName": "Tanéléo",
          "uniqueId": "taneleo",
          "isAdmin": false,
          "media": null,
          "vip": false,
          "_links": {
            "profile": "https://www.republique-numerique.fr/profile/taneleo",
            "settings": "https://www.republique-numerique.fr/profile/edit-profile"
          }
        },
        "_links": {
          "show": "https://www.republique-numerique.fr/consultations/projet-de-loi-numerique/consultation/consultation/opinions/section-2-service-public-de-la-donnee-1/organigramme-gouvernementale#arg-5294",
          "edit": "https://www.republique-numerique.fr/consultations/projet-de-loi-numerique/consultation/consultation/opinions/section-2-service-public-de-la-donnee-1/organigramme-gouvernementale/arguments/5294/edit",
          "report": "https://www.republique-numerique.fr/consultations/projet-de-loi-numerique/consultation/consultation/opinions/section-2-service-public-de-la-donnee-1/organigramme-gouvernementale/arguments/5294/report"
        },
        "has_user_voted": false,
        "has_user_reported": false
      },
      {
        "isContribuable": false,
        "id": 1633,
        "body": "On risque d'avoir des surprises !",
        "created_at": "2015-09-30T17:21:49+0200",
        "updated_at": "2015-09-30T17:21:49+0200",
        "is_enabled": true,
        "votes_count": 1,
        "type": 1,
        "is_trashed": false,
        "author": {
          "username": "Jeanne Varasco",
          "displayName": "Jeanne Varasco",
          "uniqueId": "jeannevarasco",
          "isAdmin": false,
          "media": {
            "url": "/media/cache/default_avatar/default/0001/01/139_default_avatar.jpg"
          },
          "vip": false,
          "_links": {
            "profile": "https://www.republique-numerique.fr/profile/jeannevarasco",
            "settings": "https://www.republique-numerique.fr/profile/edit-profile"
          }
        },
        "_links": {
          "show": "https://www.republique-numerique.fr/consultations/projet-de-loi-numerique/consultation/consultation/opinions/section-2-service-public-de-la-donnee-1/organigramme-gouvernementale#arg-1633",
          "edit": "https://www.republique-numerique.fr/consultations/projet-de-loi-numerique/consultation/consultation/opinions/section-2-service-public-de-la-donnee-1/organigramme-gouvernementale/arguments/1633/edit",
          "report": "https://www.republique-numerique.fr/consultations/projet-de-loi-numerique/consultation/consultation/opinions/section-2-service-public-de-la-donnee-1/organigramme-gouvernementale/arguments/1633/report"
        },
        "has_user_voted": false,
        "has_user_reported": false
      }
    ],
    "modals": [],
    "votes": [
      {
        "user": {
          "username": "thomas",
          "displayName": "thomas",
          "uniqueId": "thomas1",
          "isAdmin": false,
          "media": null,
          "vip": false,
          "_links": {
            "profile": "https://www.republique-numerique.fr/profile/thomas1",
            "settings": "https://www.republique-numerique.fr/profile/edit-profile"
          }
        }
      },
      {
        "user": {
          "username": "Jeanne Varasco",
          "displayName": "Jeanne Varasco",
          "uniqueId": "jeannevarasco",
          "isAdmin": false,
          "media": {
            "url": "/media/cache/default_avatar/default/0001/01/139_default_avatar.jpg"
          },
          "vip": false,
          "_links": {
            "profile": "https://www.republique-numerique.fr/profile/jeannevarasco",
            "settings": "https://www.republique-numerique.fr/profile/edit-profile"
          }
        }
      },
      {
        "user": {
          "username": "Vincent Reverdy",
          "displayName": "Vincent Reverdy",
          "uniqueId": "vincentreverdy",
          "isAdmin": false,
          "media": {
            "url": "/media/cache/default_avatar/default/0001/01/268_default_avatar.jpg"
          },
          "vip": false,
          "_links": {
            "profile": "https://www.republique-numerique.fr/profile/vincentreverdy",
            "settings": "https://www.republique-numerique.fr/profile/edit-profile"
          }
        }
      },
      {
        "user": {
          "username": "François Briat",
          "displayName": "François Briat",
          "uniqueId": "francoisbriat",
          "isAdmin": false,
          "media": {
            "url": "/media/cache/default_avatar/default/0001/01/243_default_avatar.jpg"
          },
          "vip": false,
          "_links": {
            "profile": "https://www.republique-numerique.fr/profile/francoisbriat",
            "settings": "https://www.republique-numerique.fr/profile/edit-profile"
          }
        }
      },
      {
        "user": {
          "username": "Yoann Sculo",
          "displayName": "Yoann Sculo",
          "uniqueId": "yoannsculo",
          "isAdmin": false,
          "media": null,
          "vip": false,
          "_links": {
            "profile": "https://www.republique-numerique.fr/profile/yoannsculo",
            "settings": "https://www.republique-numerique.fr/profile/edit-profile"
          }
        }
      }
    ],
    "appendices": [
      {
        "body": "<p>Il faut plus de transparence. Le numerique et l&#39;informatique nous permet ca.</p>",
        "type": {
          "title": "Explication de l'article"
        }
      }
    ],
    "ranking": 223,
    "is_trashed": false,
    "title": "Organigramme gouvernementale",
    "votes_nok": 1,
    "votes_ok": 20,
    "votes_mitige": 1,
    "_links": {
      "show": "https://www.republique-numerique.fr/consultations/projet-de-loi-numerique/consultation/consultation/opinions/section-2-service-public-de-la-donnee-1/organigramme-gouvernementale",
      "edit": "https://www.republique-numerique.fr/consultations/projet-de-loi-numerique/consultation/consultation/opinions/section-2-service-public-de-la-donnee-1/organigramme-gouvernementale/edit",
      "report": "https://www.republique-numerique.fr/consultations/projet-de-loi-numerique/consultation/consultation/opinions/section-2-service-public-de-la-donnee-1/organigramme-gouvernementale/report",
      "type": "https://www.republique-numerique.fr/consultations/projet-de-loi-numerique/consultation/consultation/opinions/section-2-service-public-de-la-donnee-1"
    },
    "user_vote": null,
    "has_user_reported": false
  },
  "rankingThreshold": null,
  "opinionTerm": 1
}