{
  "opinion": {
    "isContribuable": false,
    "votes_total": 6,
    "arguments_yes_count": 1,
    "arguments_no_count": 0,
    "id": 593,
    "created_at": "2015-10-14T00:22:35+0200",
    "updated_at": "2015-10-14T00:29:43+0200",
    "body": "<p>Vu l&#39;article L122-1 du code de la consommation qui interdit la vente d&#39;un bien ou d&#39;un service, si celle-ci est subordonn&eacute;e &agrave; l&#39;achat concommitant d&#39;un autre produit ou service.</p>\r\n\r\n<p>Art. 1: L&#39;achat d&#39;un &eacute;quipement &eacute;lectronique n&eacute;cessitant, pour son fonctionnenment nominal, la mise en oeuvre d&#39;un logiciel stock&eacute; sur un support r&eacute;inscriptible, ne saurait &ecirc;tre concommitant au dit logiciel.</p>\r\n\r\n<p>Art 2: Tout contrevenant &agrave; l&#39;article 1 s&#39;expose &agrave; une amende journali&egrave;re de 1 000 &euro;</p>\r\n\r\n<p>Art 3: D&eacute;lai de mise en oeuvre.</p>\r\n\r\n<p>Tout produit, d&eacute;finit par ces caract&eacute;ristiques techniques, mis sur le march&eacute; durant la premi&egrave;re ann&eacute;e apr&egrave;s la parution du d&eacute;cret d&#39;application n&#39;est pas soumis &agrave; l&#39;article 2.</p>",
    "versions_count": 0,
    "sources_count": 0,
    "arguments_count": 1,
    "author": {
      "username": "Nicolas Palix",
      "displayName": "Nicolas Palix",
      "uniqueId": "nicolaspalix",
      "isAdmin": false,
      "media": null,
      "vip": false,
      "_links": {
        "profile": "https://www.republique-numerique.fr/profile/nicolaspalix",
        "settings": "https://www.republique-numerique.fr/profile/edit-profile"
      }
    },
    "type": {
      "id": 96,
      "title": "Section 3",
      "subtitle": "Loyauté des plateformes",
      "voteWidgetType": 2,
      "votesHelpText": "Pensez-vous que cette proposition permet d'atteindre les objectifs présentés dans l’explication de l’article ?",
      "commentSystem": 2,
      "color": "blue",
      "versionable": true,
      "sourceable": true,
      "votesThreshold": null,
      "votesThresholdHelpText": null
    },
    "sources": [],
    "arguments": [
      {
        "isContribuable": false,
        "id": 5313,
        "body": "Voir ici ce qui concerne l'interdiction de la vente liée : https://www.republique-numerique.fr/consultations/projet-de-loi-numerique/consultation/consultation/opinions/section-3-loyaute-des-plateformes/interdiction-de-la-vente-liee-ordinateur-systeme-d-exploitation\n",
        "created_at": "2015-10-17T15:49:42+0200",
        "updated_at": "2015-10-17T15:49:42+0200",
        "is_enabled": true,
        "votes_count": 0,
        "type": 1,
        "is_trashed": false,
        "author": {
          "username": "momb",
          "displayName": "momb",
          "uniqueId": "momb",
          "isAdmin": false,
          "media": null,
          "vip": false,
          "_links": {
            "profile": "https://www.republique-numerique.fr/profile/momb",
            "settings": "https://www.republique-numerique.fr/profile/edit-profile"
          }
        },
        "_links": {
          "show": "https://www.republique-numerique.fr/consultations/projet-de-loi-numerique/consultation/consultation/opinions/section-3-loyaute-des-plateformes/rappel-de-l-interdiction-de-la-vente-concommitante#arg-5313",
          "edit": "https://www.republique-numerique.fr/consultations/projet-de-loi-numerique/consultation/consultation/opinions/section-3-loyaute-des-plateformes/rappel-de-l-interdiction-de-la-vente-concommitante/arguments/5313/edit",
          "report": "https://www.republique-numerique.fr/consultations/projet-de-loi-numerique/consultation/consultation/opinions/section-3-loyaute-des-plateformes/rappel-de-l-interdiction-de-la-vente-concommitante/arguments/5313/report"
        },
        "has_user_voted": false,
        "has_user_reported": false
      }
    ],
    "modals": [],
    "votes": [
      {
        "user": {
          "username": "Nicolas Palix",
          "displayName": "Nicolas Palix",
          "uniqueId": "nicolaspalix",
          "isAdmin": false,
          "media": null,
          "vip": false,
          "_links": {
            "profile": "https://www.republique-numerique.fr/profile/nicolaspalix",
            "settings": "https://www.republique-numerique.fr/profile/edit-profile"
          }
        }
      },
      {
        "user": {
          "username": "Jeanne Varasco",
          "displayName": "Jeanne Varasco",
          "uniqueId": "jeannevarasco",
          "isAdmin": false,
          "media": {
            "url": "/media/cache/default_avatar/default/0001/01/139_default_avatar.jpg"
          },
          "vip": false,
          "_links": {
            "profile": "https://www.republique-numerique.fr/profile/jeannevarasco",
            "settings": "https://www.republique-numerique.fr/profile/edit-profile"
          }
        }
      },
      {
        "user": {
          "username": "Emilien",
          "displayName": "Emilien",
          "uniqueId": "emilien",
          "isAdmin": false,
          "media": null,
          "vip": false,
          "_links": {
            "profile": "https://www.republique-numerique.fr/profile/emilien",
            "settings": "https://www.republique-numerique.fr/profile/edit-profile"
          }
        }
      },
      {
        "user": {
          "username": "Laurent BLONDEL",
          "displayName": "Laurent BLONDEL",
          "uniqueId": "laurentblondel",
          "isAdmin": false,
          "media": null,
          "vip": false,
          "_links": {
            "profile": "https://www.republique-numerique.fr/profile/laurentblondel",
            "settings": "https://www.republique-numerique.fr/profile/edit-profile"
          }
        }
      },
      {
        "user": {
          "username": "Nicole Vidallet",
          "displayName": "Nicole Vidallet",
          "uniqueId": "nicolevidallet",
          "isAdmin": false,
          "media": null,
          "vip": false,
          "_links": {
            "profile": "https://www.republique-numerique.fr/profile/nicolevidallet",
            "settings": "https://www.republique-numerique.fr/profile/edit-profile"
          }
        }
      }
    ],
    "appendices": [
      {
        "body": "<p>G&eacute;n&eacute;ralisation de la probl&eacute;matique qui ne doit pas trait&eacute; uniquement des PC sous Microsoft Windows.</p>\r\n\r\n<p>Favoriser l&#39;application de la loi (article du code de la consommation existant) par une amende concernant ce cas de vente li&eacute;e qui dure depuis d&eacute;j&agrave; plusieurs d&eacute;cennies.</p>\r\n\r\n<p>Faire sortir du champ d&#39;application, pour l&#39;instant, les syst&egrave;mes pour lesquels le logiciel n&#39;est pas directement remplacable. Un support r&eacute;inscriptible est ici une carte SD, un disque dur magn&eacute;tique ou SSD...</p>\r\n\r\n<p>Les navigateurs GPS, les t&eacute;l&eacute;phones, les tablettes, et autres PC seraient ainsi concern&eacute;s. Les consommateurs seraient enfin libre d&#39;acheter la brique de silicium de leur choix.</p>",
        "type": {
          "title": "Explication de l'article"
        }
      }
    ],
    "ranking": 427,
    "is_trashed": false,
    "title": "Rappel de l'interdiction de la vente concommitante",
    "votes_nok": 0,
    "votes_ok": 6,
    "votes_mitige": 0,
    "_links": {
      "show": "https://www.republique-numerique.fr/consultations/projet-de-loi-numerique/consultation/consultation/opinions/section-3-loyaute-des-plateformes/rappel-de-l-interdiction-de-la-vente-concommitante",
      "edit": "https://www.republique-numerique.fr/consultations/projet-de-loi-numerique/consultation/consultation/opinions/section-3-loyaute-des-plateformes/rappel-de-l-interdiction-de-la-vente-concommitante/edit",
      "report": "https://www.republique-numerique.fr/consultations/projet-de-loi-numerique/consultation/consultation/opinions/section-3-loyaute-des-plateformes/rappel-de-l-interdiction-de-la-vente-concommitante/report",
      "type": "https://www.republique-numerique.fr/consultations/projet-de-loi-numerique/consultation/consultation/opinions/section-3-loyaute-des-plateformes"
    },
    "user_vote": null,
    "has_user_reported": false
  },
  "rankingThreshold": null,
  "opinionTerm": 1
}