{
  "opinion": {
    "isContribuable": false,
    "votes_total": 36,
    "arguments_yes_count": 0,
    "arguments_no_count": 3,
    "id": 471,
    "created_at": "2015-10-08T10:59:13+0200",
    "updated_at": "2015-10-08T10:59:13+0200",
    "body": "<p>Favoriser l&rsquo;&eacute;mergence d&rsquo;un <strong>&Eacute;tat plateforme </strong>et simplifier les d&eacute;marches administratives, supposant, &agrave; terme, la mise en commun des donn&eacute;es des diff&eacute;rentes administrations dans une base unifi&eacute;e.</p>",
    "versions_count": 1,
    "sources_count": 1,
    "arguments_count": 3,
    "author": {
      "username": "Institut Montaigne",
      "displayName": "Institut Montaigne",
      "uniqueId": "institutmontaigne",
      "isAdmin": false,
      "media": {
        "url": "/media/cache/default_avatar/default/0001/01/215_default_avatar.jpg"
      },
      "vip": false,
      "_links": {
        "profile": "https://www.republique-numerique.fr/profile/institutmontaigne",
        "settings": "https://www.republique-numerique.fr/profile/edit-profile"
      }
    },
    "type": {
      "id": 87,
      "title": "Section 2",
      "subtitle": "Service public de la donnée",
      "voteWidgetType": 2,
      "votesHelpText": "Pensez-vous que cette proposition permet d'atteindre les objectifs présentés dans l’explication de l’article ?",
      "commentSystem": 2,
      "color": "blue",
      "versionable": true,
      "sourceable": true,
      "votesThreshold": null,
      "votesThresholdHelpText": null
    },
    "sources": [
      {
        "isContribuable": false,
        "id": 320,
        "title": "Présentation de l'État plateforme (version complète en français)",
        "link": "http://references.modernisation.gouv.fr/sites/default/files/Pr%C3%A9sentation%20G%C3%A9n%C3%A9rale%20Strat%C3%A9gie%20Plateforme%20v422%20Compl%C3%A8te.pdf",
        "body": "Description de l'État plateforme par la DINSIC et notamment de FranceConnect.",
        "created_at": "2015-10-14T19:25:38+0200",
        "updated_at": "2015-10-14T19:25:38+0200",
        "author": {
          "username": "Aurélien DUMAINE",
          "displayName": "Aurélien DUMAINE",
          "uniqueId": "aureliendumaine",
          "isAdmin": false,
          "media": null,
          "vip": false,
          "_links": {
            "profile": "https://www.republique-numerique.fr/profile/aureliendumaine",
            "settings": "https://www.republique-numerique.fr/profile/edit-profile"
          }
        },
        "category": "Rapport / Étude",
        "votes_count": 0,
        "_links": {
          "edit": "https://www.republique-numerique.fr/consultations/projet-de-loi-numerique/consultation/consultation/opinions/section-2-service-public-de-la-donnee-1/creation-d-un-veritable-etat-plateforme/sources/presentation-de-l-etat-plateforme-version-complete-en-francais/edit",
          "report": "https://www.republique-numerique.fr/consultations/projet-de-loi-numerique/consultation/consultation/opinions/section-2-service-public-de-la-donnee-1/creation-d-un-veritable-etat-plateforme/sources/presentation-de-l-etat-plateforme-version-complete-en-francais/report"
        },
        "has_user_voted": false,
        "has_user_reported": false
      }
    ],
    "arguments": [
      {
        "isContribuable": false,
        "id": 6206,
        "body": "base unifiée probablement très (trop) complexe si elle doit tout gérer; représente une cible beaucoup plus fragile au point de vue sécurité qu'une multitudes de bases indépendantes",
        "created_at": "2015-10-18T23:34:28+0200",
        "updated_at": "2015-10-18T23:34:28+0200",
        "is_enabled": true,
        "votes_count": 0,
        "type": 0,
        "is_trashed": false,
        "author": {
          "username": "Georges Alain",
          "displayName": "Georges Alain",
          "uniqueId": "georgesalain",
          "isAdmin": false,
          "media": null,
          "vip": false,
          "_links": {
            "profile": "https://www.republique-numerique.fr/profile/georgesalain",
            "settings": "https://www.republique-numerique.fr/profile/edit-profile"
          }
        },
        "_links": {
          "show": "https://www.republique-numerique.fr/consultations/projet-de-loi-numerique/consultation/consultation/opinions/section-2-service-public-de-la-donnee-1/creation-d-un-veritable-etat-plateforme#arg-6206",
          "edit": "https://www.republique-numerique.fr/consultations/projet-de-loi-numerique/consultation/consultation/opinions/section-2-service-public-de-la-donnee-1/creation-d-un-veritable-etat-plateforme/arguments/6206/edit",
          "report": "https://www.republique-numerique.fr/consultations/projet-de-loi-numerique/consultation/consultation/opinions/section-2-service-public-de-la-donnee-1/creation-d-un-veritable-etat-plateforme/arguments/6206/report"
        },
        "has_user_voted": false,
        "has_user_reported": false
      },
      {
        "isContribuable": false,
        "id": 5299,
        "body": "L'institut Montaigne, think tank de droite, est-il prêt à donner de ses impôts pour cet Etat-plateforme ?",
        "created_at": "2015-10-17T15:33:57+0200",
        "updated_at": "2015-10-17T15:33:57+0200",
        "is_enabled": true,
        "votes_count": 0,
        "type": 0,
        "is_trashed": false,
        "author": {
          "username": "Tanéléo",
          "displayName": "Tanéléo",
          "uniqueId": "taneleo",
          "isAdmin": false,
          "media": null,
          "vip": false,
          "_links": {
            "profile": "https://www.republique-numerique.fr/profile/taneleo",
            "settings": "https://www.republique-numerique.fr/profile/edit-profile"
          }
        },
        "_links": {
          "show": "https://www.republique-numerique.fr/consultations/projet-de-loi-numerique/consultation/consultation/opinions/section-2-service-public-de-la-donnee-1/creation-d-un-veritable-etat-plateforme#arg-5299",
          "edit": "https://www.republique-numerique.fr/consultations/projet-de-loi-numerique/consultation/consultation/opinions/section-2-service-public-de-la-donnee-1/creation-d-un-veritable-etat-plateforme/arguments/5299/edit",
          "report": "https://www.republique-numerique.fr/consultations/projet-de-loi-numerique/consultation/consultation/opinions/section-2-service-public-de-la-donnee-1/creation-d-un-veritable-etat-plateforme/arguments/5299/report"
        },
        "has_user_voted": false,
        "has_user_reported": false
      },
      {
        "isContribuable": false,
        "id": 4034,
        "body": "Le dispositif FranceConnect ne me semble pas être un « identifiant unique » mais un dispositif de fédération d’identités et n’induira pas la distribution d’un identifiant unique commun aux administrations utilisatrices.\n\nCette proposition ne me semble pas du tout adaptée à la situation : \n1- Le SI de l’état, et les SI publics en général, sont par nature distribués. Ils reflètent l’organisation de la sphère publique mais aussi l’historique d’outils de gestion en perpétuelle évolution. Vouloir concentrer les données au sein d’une base unique ne me parait ni réaliste, ni souhaitable. En revanche, maîtriser le caractère distribué du SI est indispensable : cela passe notamment par FranceConnect.\n2- Cette centralisation me parait anxiogène ce qui risquerait, de remettre en cause l’édifice proposé (cf affaire Safari 1974).\n3- Cette base unique me parait peu utile. L’usager se moque totalement de savoir si ces données sont stockées dans une base centrale unique ou non. L’important pour lui est de ne pas avoir à fournir une information déjà connue de l’administration. Cette simplification est déjà au cœur de FranceConnect et ne nécessite pas l’usage d’une base de données centralisatrice unique. \n\nLe modèle proposé par FranceConnect me parait plus pertinent : aucune donnée ne transite par un quelconque point central et l’usager maîtrise les autorisations d’accès à ses données, autorisations qui sont historisées. C'est un mélange très pragmatique et équilibré de sécurité informatique a priori (protocoles) et juridique a posteriori (responsabilisation des fournisseurs de données) qui reflète une réflexion d’architecture poussée. FranceConnect procurera ainsi aux administrations volontaires les moyens de partager facilement de l’information en pleine adéquation avec le principe d’autodétermination informationnelle prôné par l’État plateforme.\n\nCette proposition me paraît en décalage avec la philosophie l’État plateforme : quelque chose de souple, pragmatique et pérenne.",
        "created_at": "2015-10-14T19:10:18+0200",
        "updated_at": "2015-10-14T19:10:18+0200",
        "is_enabled": true,
        "votes_count": 1,
        "type": 0,
        "is_trashed": false,
        "author": {
          "username": "Aurélien DUMAINE",
          "displayName": "Aurélien DUMAINE",
          "uniqueId": "aureliendumaine",
          "isAdmin": false,
          "media": null,
          "vip": false,
          "_links": {
            "profile": "https://www.republique-numerique.fr/profile/aureliendumaine",
            "settings": "https://www.republique-numerique.fr/profile/edit-profile"
          }
        },
        "_links": {
          "show": "https://www.republique-numerique.fr/consultations/projet-de-loi-numerique/consultation/consultation/opinions/section-2-service-public-de-la-donnee-1/creation-d-un-veritable-etat-plateforme#arg-4034",
          "edit": "https://www.republique-numerique.fr/consultations/projet-de-loi-numerique/consultation/consultation/opinions/section-2-service-public-de-la-donnee-1/creation-d-un-veritable-etat-plateforme/arguments/4034/edit",
          "report": "https://www.republique-numerique.fr/consultations/projet-de-loi-numerique/consultation/consultation/opinions/section-2-service-public-de-la-donnee-1/creation-d-un-veritable-etat-plateforme/arguments/4034/report"
        },
        "has_user_voted": false,
        "has_user_reported": false
      }
    ],
    "modals": [],
    "votes": [
      {
        "user": {
          "username": "Jeanne Varasco",
          "displayName": "Jeanne Varasco",
          "uniqueId": "jeannevarasco",
          "isAdmin": false,
          "media": {
            "url": "/media/cache/default_avatar/default/0001/01/139_default_avatar.jpg"
          },
          "vip": false,
          "_links": {
            "profile": "https://www.republique-numerique.fr/profile/jeannevarasco",
            "settings": "https://www.republique-numerique.fr/profile/edit-profile"
          }
        }
      },
      {
        "user": {
          "username": "Bernard Martinez",
          "displayName": "Bernard Martinez",
          "uniqueId": "bernardmartinez",
          "isAdmin": false,
          "media": null,
          "vip": false,
          "_links": {
            "profile": "https://www.republique-numerique.fr/profile/bernardmartinez",
            "settings": "https://www.republique-numerique.fr/profile/edit-profile"
          }
        }
      },
      {
        "user": {
          "username": "Mlier",
          "displayName": "Mlier",
          "uniqueId": "mlier",
          "isAdmin": false,
          "media": null,
          "vip": false,
          "_links": {
            "profile": "https://www.republique-numerique.fr/profile/mlier",
            "settings": "https://www.republique-numerique.fr/profile/edit-profile"
          }
        }
      },
      {
        "user": {
          "username": "Gilles Babinet",
          "displayName": "Gilles Babinet",
          "uniqueId": "gillesbabinet",
          "isAdmin": false,
          "media": null,
          "vip": false,
          "_links": {
            "profile": "https://www.republique-numerique.fr/profile/gillesbabinet",
            "settings": "https://www.republique-numerique.fr/profile/edit-profile"
          }
        }
      },
      {
        "user": {
          "username": "Thomas Landrain",
          "displayName": "Thomas Landrain",
          "uniqueId": "thomaslandrain",
          "isAdmin": false,
          "media": null,
          "vip": false,
          "_links": {
            "profile": "https://www.republique-numerique.fr/profile/thomaslandrain",
            "settings": "https://www.republique-numerique.fr/profile/edit-profile"
          }
        }
      }
    ],
    "appendices": [
      {
        "body": "<p>Comme l&rsquo;explique l&rsquo;Institut Montaigne dans son <a href=\"http://www.institutmontaigne.org/fr/publications/big-data-et-objets-connectes-faire-de-la-france-un-champion-de-la-revolution-numerique\">rapport d&rsquo;avril 2015 &laquo;&nbsp;Big data et objets connect&eacute;s. Faire de la France un champion de la r&eacute;volution num&eacute;rique&nbsp;&raquo;</a>, cet &Eacute;tat plateforme doit permettre les &eacute;changes de donn&eacute;es entre les diff&eacute;rents services de l&rsquo;&Eacute;tat mais aussi entre l&rsquo;&Eacute;tat et le citoyen. Au-del&agrave; de France Connect, projet d&rsquo;identifiant unique pour les administrations qui laisse au citoyen le choix de la nature des donn&eacute;es partag&eacute;es, l&rsquo;&Eacute;tat plateforme supposera &agrave; terme la mise en commun des donn&eacute;es des diff&eacute;rentes administrations dans une base unifi&eacute;e. Les enjeux li&eacute;s &agrave; la gouvernance et &agrave; la protection de cette base devront &ecirc;tre adress&eacute;s de fa&ccedil;on pr&eacute;alable &agrave; sa mise en place.&nbsp;</p>",
        "type": {
          "title": "Explication de l'article"
        }
      }
    ],
    "ranking": 182,
    "is_trashed": false,
    "title": "Création d’un véritable État plateforme",
    "votes_nok": 4,
    "votes_ok": 28,
    "votes_mitige": 4,
    "_links": {
      "show": "https://www.republique-numerique.fr/consultations/projet-de-loi-numerique/consultation/consultation/opinions/section-2-service-public-de-la-donnee-1/creation-d-un-veritable-etat-plateforme",
      "edit": "https://www.republique-numerique.fr/consultations/projet-de-loi-numerique/consultation/consultation/opinions/section-2-service-public-de-la-donnee-1/creation-d-un-veritable-etat-plateforme/edit",
      "report": "https://www.republique-numerique.fr/consultations/projet-de-loi-numerique/consultation/consultation/opinions/section-2-service-public-de-la-donnee-1/creation-d-un-veritable-etat-plateforme/report",
      "type": "https://www.republique-numerique.fr/consultations/projet-de-loi-numerique/consultation/consultation/opinions/section-2-service-public-de-la-donnee-1"
    },
    "user_vote": null,
    "has_user_reported": false
  },
  "rankingThreshold": null,
  "opinionTerm": 1
}