{
  "opinion": {
    "isContribuable": false,
    "votes_total": 5,
    "arguments_yes_count": 0,
    "arguments_no_count": 0,
    "id": 218,
    "created_at": "2015-09-28T06:38:15+0200",
    "updated_at": "2015-09-28T06:38:15+0200",
    "body": "<p>Il conviendrait de pr&eacute;ciser que cette disposition ne s&#39;applique pas aux donn&eacute;es collect&eacute;es dans le cadre de t&eacute;l&eacute;services (administration &agrave; distance).</p>",
    "versions_count": 0,
    "sources_count": 0,
    "arguments_count": 0,
    "author": {
      "username": "RASLE Bruno",
      "displayName": "RASLE Bruno",
      "uniqueId": "raslebruno",
      "isAdmin": false,
      "media": {
        "url": "/media/cache/default_avatar/default/0001/01/187_default_avatar.jpg"
      },
      "vip": false,
      "_links": {
        "profile": "https://www.republique-numerique.fr/profile/raslebruno",
        "settings": "https://www.republique-numerique.fr/profile/edit-profile"
      }
    },
    "type": {
      "id": 99,
      "title": "Section 1",
      "subtitle": "Protection des données à caractère personnel",
      "voteWidgetType": 2,
      "votesHelpText": "Pensez-vous que cette proposition permet d'atteindre les objectifs présentés dans l’explication de l’article ?",
      "commentSystem": 2,
      "color": "blue",
      "versionable": true,
      "sourceable": true,
      "votesThreshold": null,
      "votesThresholdHelpText": null
    },
    "sources": [],
    "arguments": [],
    "modals": [],
    "votes": [
      {
        "user": {
          "username": "Patrick Blum",
          "displayName": "Patrick Blum",
          "uniqueId": "patrickblum",
          "isAdmin": false,
          "media": null,
          "vip": false,
          "_links": {
            "profile": "https://www.republique-numerique.fr/profile/patrickblum",
            "settings": "https://www.republique-numerique.fr/profile/edit-profile"
          }
        }
      },
      {
        "user": {
          "username": "Christine Hennion",
          "displayName": "Christine Hennion",
          "uniqueId": "christinehennion",
          "isAdmin": false,
          "media": null,
          "vip": false,
          "_links": {
            "profile": "https://www.republique-numerique.fr/profile/christinehennion",
            "settings": "https://www.republique-numerique.fr/profile/edit-profile"
          }
        }
      },
      {
        "user": {
          "username": "cil",
          "displayName": "cil",
          "uniqueId": "cil",
          "isAdmin": false,
          "media": null,
          "vip": false,
          "_links": {
            "profile": "https://www.republique-numerique.fr/profile/cil",
            "settings": "https://www.republique-numerique.fr/profile/edit-profile"
          }
        }
      },
      {
        "user": {
          "username": "Vincent Reverdy",
          "displayName": "Vincent Reverdy",
          "uniqueId": "vincentreverdy",
          "isAdmin": false,
          "media": {
            "url": "/media/cache/default_avatar/default/0001/01/268_default_avatar.jpg"
          },
          "vip": false,
          "_links": {
            "profile": "https://www.republique-numerique.fr/profile/vincentreverdy",
            "settings": "https://www.republique-numerique.fr/profile/edit-profile"
          }
        }
      },
      {
        "user": {
          "username": "Emilien",
          "displayName": "Emilien",
          "uniqueId": "emilien",
          "isAdmin": false,
          "media": null,
          "vip": false,
          "_links": {
            "profile": "https://www.republique-numerique.fr/profile/emilien",
            "settings": "https://www.republique-numerique.fr/profile/edit-profile"
          }
        }
      }
    ],
    "appendices": [
      {
        "body": "<p>&nbsp;</p>\r\n\r\n<p>&nbsp;</p>",
        "type": {
          "title": "Explication de l'article"
        }
      }
    ],
    "ranking": 455,
    "is_trashed": false,
    "title": "Mort numérique : Préciser le champ d'application",
    "votes_nok": 0,
    "votes_ok": 5,
    "votes_mitige": 0,
    "_links": {
      "show": "https://www.republique-numerique.fr/consultations/projet-de-loi-numerique/consultation/consultation/opinions/section-1-protection-des-donnees-a-caractere-personnel/mort-numerique-preciser-le-champ-d-application",
      "edit": "https://www.republique-numerique.fr/consultations/projet-de-loi-numerique/consultation/consultation/opinions/section-1-protection-des-donnees-a-caractere-personnel/mort-numerique-preciser-le-champ-d-application/edit",
      "report": "https://www.republique-numerique.fr/consultations/projet-de-loi-numerique/consultation/consultation/opinions/section-1-protection-des-donnees-a-caractere-personnel/mort-numerique-preciser-le-champ-d-application/report",
      "type": "https://www.republique-numerique.fr/consultations/projet-de-loi-numerique/consultation/consultation/opinions/section-1-protection-des-donnees-a-caractere-personnel"
    },
    "user_vote": null,
    "has_user_reported": false
  },
  "rankingThreshold": null,
  "opinionTerm": 1
}