{
  "opinion": {
    "isContribuable": false,
    "votes_total": 200,
    "arguments_yes_count": 3,
    "arguments_no_count": 13,
    "id": 112,
    "created_at": "2015-09-26T15:16:08+0200",
    "updated_at": "2015-09-26T15:16:08+0200",
    "body": "<p>A r&eacute;diger</p>",
    "versions_count": 4,
    "sources_count": 0,
    "arguments_count": 16,
    "author": {
      "username": "François David",
      "displayName": "François David",
      "uniqueId": "francoisdavid",
      "isAdmin": false,
      "media": null,
      "vip": false,
      "_links": {
        "profile": "https://www.republique-numerique.fr/profile/francoisdavid",
        "settings": "https://www.republique-numerique.fr/profile/edit-profile"
      }
    },
    "type": {
      "id": 86,
      "title": "Section 1",
      "subtitle": "Ouverture des données publiques",
      "voteWidgetType": 2,
      "votesHelpText": "Pensez-vous que cette proposition permet d'atteindre les objectifs présentés dans l’explication de l’article ?",
      "commentSystem": 2,
      "color": "blue",
      "versionable": true,
      "sourceable": true,
      "votesThreshold": null,
      "votesThresholdHelpText": null
    },
    "sources": [],
    "arguments": [
      {
        "isContribuable": false,
        "id": 5718,
        "body": "C'est un peu trop à cheval sur plusieurs domaines où il serait utile (urgent ?) de légiférer.<br>\r\nIl faudrait à mon sens commencer par définir des lois régissant l'ensemble de toute forme de robotique :<br>\r\n- qu'est-il légal de faire avec un robot ;<br>\r\n- qui est responsable de ce qui est fait par un robot ;<br>\r\n- qu'est-ce qu'une décision « propre » d'un robot (I.A.) ;<br>\r\n- limite d'autonomie de ce que peut faire un robot sur la base de décisions « propres ».",
        "created_at": "2015-10-18T10:58:55+0200",
        "updated_at": "2015-10-18T11:00:17+0200",
        "is_enabled": true,
        "votes_count": 0,
        "type": 0,
        "is_trashed": false,
        "author": {
          "username": "daniel Azuelos",
          "displayName": "daniel Azuelos",
          "uniqueId": "danielazuelos",
          "isAdmin": false,
          "media": {
            "url": "/media/cache/default_avatar/default/0001/01/952_default_avatar.jpg"
          },
          "vip": false,
          "_links": {
            "profile": "https://www.republique-numerique.fr/profile/danielazuelos",
            "settings": "https://www.republique-numerique.fr/profile/edit-profile"
          }
        },
        "_links": {
          "show": "https://www.republique-numerique.fr/consultations/projet-de-loi-numerique/consultation/consultation/opinions/section-1-ouverture-des-donnees-publiques-1/clarification-sur-le-statut-des-drones-de-combats-et-de-reconnaissances#arg-5718",
          "edit": "https://www.republique-numerique.fr/consultations/projet-de-loi-numerique/consultation/consultation/opinions/section-1-ouverture-des-donnees-publiques-1/clarification-sur-le-statut-des-drones-de-combats-et-de-reconnaissances/arguments/5718/edit",
          "report": "https://www.republique-numerique.fr/consultations/projet-de-loi-numerique/consultation/consultation/opinions/section-1-ouverture-des-donnees-publiques-1/clarification-sur-le-statut-des-drones-de-combats-et-de-reconnaissances/arguments/5718/report"
        },
        "has_user_voted": false,
        "has_user_reported": false
      },
      {
        "isContribuable": false,
        "id": 4953,
        "body": "L'utilisation des drones par les forces armées comme la police doit faire l'objet de discussions. Un livre pose une série de questionnement : \"La théorie du drone, de Grégoire Chamayou\". Cet ouvrage permet de voir les différents aspects de l'utilisation de ces systèmes, avec le risque de perdre une partie de nos repères, de nos exigences vis à vis de la façon dont la force doit / peut être utilisé contre des cibles / des civiles. Ce livre justement réclame un débat citoyen, pas que ces questions soient occultées et laissées aux gouvernants et aux militaires.",
        "created_at": "2015-10-16T18:59:16+0200",
        "updated_at": "2015-10-16T18:59:16+0200",
        "is_enabled": true,
        "votes_count": 0,
        "type": 1,
        "is_trashed": false,
        "author": {
          "username": "Franck Gandi",
          "displayName": "Franck Gandi",
          "uniqueId": "franckgandi",
          "isAdmin": false,
          "media": null,
          "vip": false,
          "_links": {
            "profile": "https://www.republique-numerique.fr/profile/franckgandi",
            "settings": "https://www.republique-numerique.fr/profile/edit-profile"
          }
        },
        "_links": {
          "show": "https://www.republique-numerique.fr/consultations/projet-de-loi-numerique/consultation/consultation/opinions/section-1-ouverture-des-donnees-publiques-1/clarification-sur-le-statut-des-drones-de-combats-et-de-reconnaissances#arg-4953",
          "edit": "https://www.republique-numerique.fr/consultations/projet-de-loi-numerique/consultation/consultation/opinions/section-1-ouverture-des-donnees-publiques-1/clarification-sur-le-statut-des-drones-de-combats-et-de-reconnaissances/arguments/4953/edit",
          "report": "https://www.republique-numerique.fr/consultations/projet-de-loi-numerique/consultation/consultation/opinions/section-1-ouverture-des-donnees-publiques-1/clarification-sur-le-statut-des-drones-de-combats-et-de-reconnaissances/arguments/4953/report"
        },
        "has_user_voted": false,
        "has_user_reported": false
      },
      {
        "isContribuable": false,
        "id": 3588,
        "body": "Mélange de plusieurs choses : législation des drones, recueil de données en général, recueil de données par les forces de police, autonomie des robots...\n\n",
        "created_at": "2015-10-13T14:46:22+0200",
        "updated_at": "2015-10-13T14:46:22+0200",
        "is_enabled": true,
        "votes_count": 3,
        "type": 0,
        "is_trashed": false,
        "author": {
          "username": "Aymeric Poulain Maubant",
          "displayName": "Aymeric Poulain Maubant",
          "uniqueId": "aymericpoulainmaubant",
          "isAdmin": false,
          "media": {
            "url": "/media/cache/default_avatar/default/0001/01/515_default_avatar.jpg"
          },
          "vip": false,
          "_links": {
            "profile": "https://www.republique-numerique.fr/profile/aymericpoulainmaubant",
            "settings": "https://www.republique-numerique.fr/profile/edit-profile"
          }
        },
        "_links": {
          "show": "https://www.republique-numerique.fr/consultations/projet-de-loi-numerique/consultation/consultation/opinions/section-1-ouverture-des-donnees-publiques-1/clarification-sur-le-statut-des-drones-de-combats-et-de-reconnaissances#arg-3588",
          "edit": "https://www.republique-numerique.fr/consultations/projet-de-loi-numerique/consultation/consultation/opinions/section-1-ouverture-des-donnees-publiques-1/clarification-sur-le-statut-des-drones-de-combats-et-de-reconnaissances/arguments/3588/edit",
          "report": "https://www.republique-numerique.fr/consultations/projet-de-loi-numerique/consultation/consultation/opinions/section-1-ouverture-des-donnees-publiques-1/clarification-sur-le-statut-des-drones-de-combats-et-de-reconnaissances/arguments/3588/report"
        },
        "has_user_voted": false,
        "has_user_reported": false
      },
      {
        "isContribuable": false,
        "id": 2696,
        "body": "ça n'est pas suffisant. L'utilisation d'une arme non létale (et pourtant potentiellement dangereuse) par une intelligence artificielle ne vaut pas forcément mieux que l'utilisation d'une arme létale.\r\nEn attendant d'avoir des IA suffisament \"lucides\" pour discerner ce qui relève des 3 lois de la robotique (inspirées par la littérature d'Asimov), peut être devrions nous tout simplement interdire l'usage d'IA à des fins militaires... Un drône de combat n'est pour le moment pas nécessairement muni d'une IA, il est plus souvent \"télécommandé\"... peut être est-ce déjà une limite à ne pas franchir. \r\nSi on voulait vraiment prendre les choses dans l'ordre, l'intelligence relative d'une machine mériterait sans doute tout simplement d'être quantifiée, et évaluée avant de se poser ce genre de question. On pourrait déjà classer ce qui relève d'une sorte d'assistance robotique sur des engins militaires (avec une commande néanmoins 100% humaine), d'un dispositif autonome qui agirait aveuglément selon sa programmation.\r\nDe toutes manières, on aura beau déblatérer sur la question, il finira tôt ou tard par y avoir un imbécile à franchir la ligne rouge du drône autonome de combat (par pur intérêt), avec un degré de perfectionnement qui nous obligera à nous aligner sur ces technologies, en dépit de toute règle d'éthique... au nom de la sécurité nationale, on a déjà constaté de nombreux piétinement de l'éthique me semble-t-il...\r\nC'est un débat qui dépasse très largement la concertation nationale, je crois...",
        "created_at": "2015-10-08T19:10:31+0200",
        "updated_at": "2015-10-08T19:11:20+0200",
        "is_enabled": true,
        "votes_count": 1,
        "type": 0,
        "is_trashed": false,
        "author": {
          "username": "Nicolas Joly",
          "displayName": "Nicolas Joly",
          "uniqueId": "nicolasjoly",
          "isAdmin": false,
          "media": null,
          "vip": false,
          "_links": {
            "profile": "https://www.republique-numerique.fr/profile/nicolasjoly",
            "settings": "https://www.republique-numerique.fr/profile/edit-profile"
          }
        },
        "_links": {
          "show": "https://www.republique-numerique.fr/consultations/projet-de-loi-numerique/consultation/consultation/opinions/section-1-ouverture-des-donnees-publiques-1/clarification-sur-le-statut-des-drones-de-combats-et-de-reconnaissances#arg-2696",
          "edit": "https://www.republique-numerique.fr/consultations/projet-de-loi-numerique/consultation/consultation/opinions/section-1-ouverture-des-donnees-publiques-1/clarification-sur-le-statut-des-drones-de-combats-et-de-reconnaissances/arguments/2696/edit",
          "report": "https://www.republique-numerique.fr/consultations/projet-de-loi-numerique/consultation/consultation/opinions/section-1-ouverture-des-donnees-publiques-1/clarification-sur-le-statut-des-drones-de-combats-et-de-reconnaissances/arguments/2696/report"
        },
        "has_user_voted": false,
        "has_user_reported": false
      },
      {
        "isContribuable": false,
        "id": 2416,
        "body": "Il ne s'agit pas d'un problème numérique propre, mais d'un sujet de protection nationale et/ou personnelle. A voir donc dans un cadre élargi.",
        "created_at": "2015-10-06T19:57:21+0200",
        "updated_at": "2015-10-06T19:57:21+0200",
        "is_enabled": true,
        "votes_count": 1,
        "type": 0,
        "is_trashed": false,
        "author": {
          "username": "Deux Chlafont",
          "displayName": "Deux Chlafont",
          "uniqueId": "deuxchlafont",
          "isAdmin": false,
          "media": null,
          "vip": false,
          "_links": {
            "profile": "https://www.republique-numerique.fr/profile/deuxchlafont",
            "settings": "https://www.republique-numerique.fr/profile/edit-profile"
          }
        },
        "_links": {
          "show": "https://www.republique-numerique.fr/consultations/projet-de-loi-numerique/consultation/consultation/opinions/section-1-ouverture-des-donnees-publiques-1/clarification-sur-le-statut-des-drones-de-combats-et-de-reconnaissances#arg-2416",
          "edit": "https://www.republique-numerique.fr/consultations/projet-de-loi-numerique/consultation/consultation/opinions/section-1-ouverture-des-donnees-publiques-1/clarification-sur-le-statut-des-drones-de-combats-et-de-reconnaissances/arguments/2416/edit",
          "report": "https://www.republique-numerique.fr/consultations/projet-de-loi-numerique/consultation/consultation/opinions/section-1-ouverture-des-donnees-publiques-1/clarification-sur-le-statut-des-drones-de-combats-et-de-reconnaissances/arguments/2416/report"
        },
        "has_user_voted": false,
        "has_user_reported": false
      },
      {
        "isContribuable": false,
        "id": 1992,
        "body": "http://www.leparisien.fr/automobile/securite-routiere/securite-routiere-valls-annonce-plus-de-radars-des-leurres-et-des-drones-02-10-2015-5148023.php",
        "created_at": "2015-10-02T13:10:49+0200",
        "updated_at": "2015-10-02T13:10:49+0200",
        "is_enabled": true,
        "votes_count": 0,
        "type": 0,
        "is_trashed": false,
        "author": {
          "username": "François David",
          "displayName": "François David",
          "uniqueId": "francoisdavid",
          "isAdmin": false,
          "media": null,
          "vip": false,
          "_links": {
            "profile": "https://www.republique-numerique.fr/profile/francoisdavid",
            "settings": "https://www.republique-numerique.fr/profile/edit-profile"
          }
        },
        "_links": {
          "show": "https://www.republique-numerique.fr/consultations/projet-de-loi-numerique/consultation/consultation/opinions/section-1-ouverture-des-donnees-publiques-1/clarification-sur-le-statut-des-drones-de-combats-et-de-reconnaissances#arg-1992",
          "edit": "https://www.republique-numerique.fr/consultations/projet-de-loi-numerique/consultation/consultation/opinions/section-1-ouverture-des-donnees-publiques-1/clarification-sur-le-statut-des-drones-de-combats-et-de-reconnaissances/arguments/1992/edit",
          "report": "https://www.republique-numerique.fr/consultations/projet-de-loi-numerique/consultation/consultation/opinions/section-1-ouverture-des-donnees-publiques-1/clarification-sur-le-statut-des-drones-de-combats-et-de-reconnaissances/arguments/1992/report"
        },
        "has_user_voted": false,
        "has_user_reported": false
      },
      {
        "isContribuable": false,
        "id": 1604,
        "body": "Je suis partagé : d'un côté, on peut considérer que TERMINATOR, dans le premier film, est une arme de guerre extrêmement dangereuse, et qu'interdire à priori les drones de combat éviterait d'aboutir à sa conception.\nCependant, en prenant en compte le second film, on constate que TERMINATOR permet une protection accrue de John Connor, conduisant ainsi à la victoire finale de l'humanité. Vous comprendrez donc ma réserve...",
        "created_at": "2015-09-30T16:40:10+0200",
        "updated_at": "2015-09-30T16:40:10+0200",
        "is_enabled": true,
        "votes_count": 3,
        "type": 0,
        "is_trashed": false,
        "author": {
          "username": "Michel Denisot",
          "displayName": "Michel Denisot",
          "uniqueId": "micheldenisot",
          "isAdmin": false,
          "media": {
            "url": "/media/cache/default_avatar/default/0001/01/337_default_avatar.jpg"
          },
          "vip": false,
          "_links": {
            "profile": "https://www.republique-numerique.fr/profile/micheldenisot",
            "settings": "https://www.republique-numerique.fr/profile/edit-profile"
          }
        },
        "_links": {
          "show": "https://www.republique-numerique.fr/consultations/projet-de-loi-numerique/consultation/consultation/opinions/section-1-ouverture-des-donnees-publiques-1/clarification-sur-le-statut-des-drones-de-combats-et-de-reconnaissances#arg-1604",
          "edit": "https://www.republique-numerique.fr/consultations/projet-de-loi-numerique/consultation/consultation/opinions/section-1-ouverture-des-donnees-publiques-1/clarification-sur-le-statut-des-drones-de-combats-et-de-reconnaissances/arguments/1604/edit",
          "report": "https://www.republique-numerique.fr/consultations/projet-de-loi-numerique/consultation/consultation/opinions/section-1-ouverture-des-donnees-publiques-1/clarification-sur-le-statut-des-drones-de-combats-et-de-reconnaissances/arguments/1604/report"
        },
        "has_user_voted": false,
        "has_user_reported": false
      },
      {
        "isContribuable": false,
        "id": 1461,
        "body": "Il y a des lois déjà très drastiques pour les drones civils mais pas de solution pour les faire respecter. Un survol de drone prend 5 mn et la police en voiture ne peut pas les suivre...\nSur les zones sensibles (Centrale nucléaire...) il faudrait des drones anti drones.\n",
        "created_at": "2015-09-30T10:02:26+0200",
        "updated_at": "2015-09-30T10:02:26+0200",
        "is_enabled": true,
        "votes_count": 0,
        "type": 0,
        "is_trashed": false,
        "author": {
          "username": "Sandrine WLG",
          "displayName": "Sandrine WLG",
          "uniqueId": "sandrinewlg",
          "isAdmin": false,
          "media": null,
          "vip": false,
          "_links": {
            "profile": "https://www.republique-numerique.fr/profile/sandrinewlg",
            "settings": "https://www.republique-numerique.fr/profile/edit-profile"
          }
        },
        "_links": {
          "show": "https://www.republique-numerique.fr/consultations/projet-de-loi-numerique/consultation/consultation/opinions/section-1-ouverture-des-donnees-publiques-1/clarification-sur-le-statut-des-drones-de-combats-et-de-reconnaissances#arg-1461",
          "edit": "https://www.republique-numerique.fr/consultations/projet-de-loi-numerique/consultation/consultation/opinions/section-1-ouverture-des-donnees-publiques-1/clarification-sur-le-statut-des-drones-de-combats-et-de-reconnaissances/arguments/1461/edit",
          "report": "https://www.republique-numerique.fr/consultations/projet-de-loi-numerique/consultation/consultation/opinions/section-1-ouverture-des-donnees-publiques-1/clarification-sur-le-statut-des-drones-de-combats-et-de-reconnaissances/arguments/1461/report"
        },
        "has_user_voted": false,
        "has_user_reported": false
      },
      {
        "isContribuable": false,
        "id": 1271,
        "body": "Ne vaut-il pas mieux ce concentre sur des drone anti-drone ? Car dans tous les cas les autre état ne feront ce qu'il voudrons chez eux, à nos frontière, en espionage, en temps de guerre ...",
        "created_at": "2015-09-29T15:46:53+0200",
        "updated_at": "2015-09-29T15:46:53+0200",
        "is_enabled": true,
        "votes_count": 0,
        "type": 0,
        "is_trashed": false,
        "author": {
          "username": "lacombe",
          "displayName": "lacombe",
          "uniqueId": "lacombe",
          "isAdmin": false,
          "media": {
            "url": "/media/cache/default_avatar/default/0001/01/310_default_avatar.png"
          },
          "vip": false,
          "_links": {
            "profile": "https://www.republique-numerique.fr/profile/lacombe",
            "settings": "https://www.republique-numerique.fr/profile/edit-profile"
          }
        },
        "_links": {
          "show": "https://www.republique-numerique.fr/consultations/projet-de-loi-numerique/consultation/consultation/opinions/section-1-ouverture-des-donnees-publiques-1/clarification-sur-le-statut-des-drones-de-combats-et-de-reconnaissances#arg-1271",
          "edit": "https://www.republique-numerique.fr/consultations/projet-de-loi-numerique/consultation/consultation/opinions/section-1-ouverture-des-donnees-publiques-1/clarification-sur-le-statut-des-drones-de-combats-et-de-reconnaissances/arguments/1271/edit",
          "report": "https://www.republique-numerique.fr/consultations/projet-de-loi-numerique/consultation/consultation/opinions/section-1-ouverture-des-donnees-publiques-1/clarification-sur-le-statut-des-drones-de-combats-et-de-reconnaissances/arguments/1271/report"
        },
        "has_user_voted": false,
        "has_user_reported": false
      },
      {
        "isContribuable": false,
        "id": 1269,
        "body": "Pour rappel sous Petain heuresement que la police n'avait pas ces drone et le droit d'en faire ce qu'elle voullait",
        "created_at": "2015-09-29T15:43:41+0200",
        "updated_at": "2015-09-29T15:43:41+0200",
        "is_enabled": true,
        "votes_count": 0,
        "type": 0,
        "is_trashed": false,
        "author": {
          "username": "lacombe",
          "displayName": "lacombe",
          "uniqueId": "lacombe",
          "isAdmin": false,
          "media": {
            "url": "/media/cache/default_avatar/default/0001/01/310_default_avatar.png"
          },
          "vip": false,
          "_links": {
            "profile": "https://www.republique-numerique.fr/profile/lacombe",
            "settings": "https://www.republique-numerique.fr/profile/edit-profile"
          }
        },
        "_links": {
          "show": "https://www.republique-numerique.fr/consultations/projet-de-loi-numerique/consultation/consultation/opinions/section-1-ouverture-des-donnees-publiques-1/clarification-sur-le-statut-des-drones-de-combats-et-de-reconnaissances#arg-1269",
          "edit": "https://www.republique-numerique.fr/consultations/projet-de-loi-numerique/consultation/consultation/opinions/section-1-ouverture-des-donnees-publiques-1/clarification-sur-le-statut-des-drones-de-combats-et-de-reconnaissances/arguments/1269/edit",
          "report": "https://www.republique-numerique.fr/consultations/projet-de-loi-numerique/consultation/consultation/opinions/section-1-ouverture-des-donnees-publiques-1/clarification-sur-le-statut-des-drones-de-combats-et-de-reconnaissances/arguments/1269/report"
        },
        "has_user_voted": false,
        "has_user_reported": false
      },
      {
        "isContribuable": false,
        "id": 1267,
        "body": "Qui surveille la police ?",
        "created_at": "2015-09-29T15:41:55+0200",
        "updated_at": "2015-09-29T15:41:55+0200",
        "is_enabled": true,
        "votes_count": 1,
        "type": 0,
        "is_trashed": false,
        "author": {
          "username": "lacombe",
          "displayName": "lacombe",
          "uniqueId": "lacombe",
          "isAdmin": false,
          "media": {
            "url": "/media/cache/default_avatar/default/0001/01/310_default_avatar.png"
          },
          "vip": false,
          "_links": {
            "profile": "https://www.republique-numerique.fr/profile/lacombe",
            "settings": "https://www.republique-numerique.fr/profile/edit-profile"
          }
        },
        "_links": {
          "show": "https://www.republique-numerique.fr/consultations/projet-de-loi-numerique/consultation/consultation/opinions/section-1-ouverture-des-donnees-publiques-1/clarification-sur-le-statut-des-drones-de-combats-et-de-reconnaissances#arg-1267",
          "edit": "https://www.republique-numerique.fr/consultations/projet-de-loi-numerique/consultation/consultation/opinions/section-1-ouverture-des-donnees-publiques-1/clarification-sur-le-statut-des-drones-de-combats-et-de-reconnaissances/arguments/1267/edit",
          "report": "https://www.republique-numerique.fr/consultations/projet-de-loi-numerique/consultation/consultation/opinions/section-1-ouverture-des-donnees-publiques-1/clarification-sur-le-statut-des-drones-de-combats-et-de-reconnaissances/arguments/1267/report"
        },
        "has_user_voted": false,
        "has_user_reported": false
      },
      {
        "isContribuable": false,
        "id": 875,
        "body": "Sur les drones en général, leur utilisation peut être détournée pour tout et n'importe quoi. Besoin de classer ces appareils dans une catégorie surveillée. Un drone \"civil\" peut même être détourné pour larguer une grenade..",
        "created_at": "2015-09-28T14:21:53+0200",
        "updated_at": "2015-09-28T14:21:53+0200",
        "is_enabled": true,
        "votes_count": 4,
        "type": 1,
        "is_trashed": false,
        "author": {
          "username": "Fred Clooney",
          "displayName": "Fred Clooney",
          "uniqueId": "fredclooney",
          "isAdmin": false,
          "media": {
            "url": "/media/cache/default_avatar/default/0001/01/172_default_avatar.jpg"
          },
          "vip": false,
          "_links": {
            "profile": "https://www.republique-numerique.fr/profile/fredclooney",
            "settings": "https://www.republique-numerique.fr/profile/edit-profile"
          }
        },
        "_links": {
          "show": "https://www.republique-numerique.fr/consultations/projet-de-loi-numerique/consultation/consultation/opinions/section-1-ouverture-des-donnees-publiques-1/clarification-sur-le-statut-des-drones-de-combats-et-de-reconnaissances#arg-875",
          "edit": "https://www.republique-numerique.fr/consultations/projet-de-loi-numerique/consultation/consultation/opinions/section-1-ouverture-des-donnees-publiques-1/clarification-sur-le-statut-des-drones-de-combats-et-de-reconnaissances/arguments/875/edit",
          "report": "https://www.republique-numerique.fr/consultations/projet-de-loi-numerique/consultation/consultation/opinions/section-1-ouverture-des-donnees-publiques-1/clarification-sur-le-statut-des-drones-de-combats-et-de-reconnaissances/arguments/875/report"
        },
        "has_user_voted": false,
        "has_user_reported": false
      },
      {
        "isContribuable": false,
        "id": 328,
        "body": "cela reste du registre régalien et n'a pas à être mis en loi surtout pour les drones de reco ou les drones de combat. Leur emploi est à réserver aux forces de l'ordre et ça n'a pas à être encadré!.",
        "created_at": "2015-09-27T00:28:19+0200",
        "updated_at": "2015-09-27T00:28:19+0200",
        "is_enabled": true,
        "votes_count": 0,
        "type": 0,
        "is_trashed": false,
        "author": {
          "username": "Frédéric Boutin",
          "displayName": "Frédéric Boutin",
          "uniqueId": "fredericboutin",
          "isAdmin": false,
          "media": null,
          "vip": false,
          "_links": {
            "profile": "https://www.republique-numerique.fr/profile/fredericboutin",
            "settings": "https://www.republique-numerique.fr/profile/edit-profile"
          }
        },
        "_links": {
          "show": "https://www.republique-numerique.fr/consultations/projet-de-loi-numerique/consultation/consultation/opinions/section-1-ouverture-des-donnees-publiques-1/clarification-sur-le-statut-des-drones-de-combats-et-de-reconnaissances#arg-328",
          "edit": "https://www.republique-numerique.fr/consultations/projet-de-loi-numerique/consultation/consultation/opinions/section-1-ouverture-des-donnees-publiques-1/clarification-sur-le-statut-des-drones-de-combats-et-de-reconnaissances/arguments/328/edit",
          "report": "https://www.republique-numerique.fr/consultations/projet-de-loi-numerique/consultation/consultation/opinions/section-1-ouverture-des-donnees-publiques-1/clarification-sur-le-statut-des-drones-de-combats-et-de-reconnaissances/arguments/328/report"
        },
        "has_user_voted": false,
        "has_user_reported": false
      },
      {
        "isContribuable": false,
        "id": 260,
        "body": "Clarification sur le statut des drones de combats et de reconnaissances\nLes drones peuvent être autorisés à usage personnel sans filmer ou prendre des photos sur des territoires publics ou privés comme le voisinage.\nPour des raisons de sécurité d’état interdire l’utilisation quand le plan Vigipirate est renforcé en France sous peine d'amende.\n",
        "created_at": "2015-09-26T21:55:54+0200",
        "updated_at": "2015-09-26T21:55:54+0200",
        "is_enabled": true,
        "votes_count": 1,
        "type": 1,
        "is_trashed": false,
        "author": {
          "username": "Delinard Franck",
          "displayName": "Delinard Franck",
          "uniqueId": "delinardfranck",
          "isAdmin": false,
          "media": null,
          "vip": false,
          "_links": {
            "profile": "https://www.republique-numerique.fr/profile/delinardfranck",
            "settings": "https://www.republique-numerique.fr/profile/edit-profile"
          }
        },
        "_links": {
          "show": "https://www.republique-numerique.fr/consultations/projet-de-loi-numerique/consultation/consultation/opinions/section-1-ouverture-des-donnees-publiques-1/clarification-sur-le-statut-des-drones-de-combats-et-de-reconnaissances#arg-260",
          "edit": "https://www.republique-numerique.fr/consultations/projet-de-loi-numerique/consultation/consultation/opinions/section-1-ouverture-des-donnees-publiques-1/clarification-sur-le-statut-des-drones-de-combats-et-de-reconnaissances/arguments/260/edit",
          "report": "https://www.republique-numerique.fr/consultations/projet-de-loi-numerique/consultation/consultation/opinions/section-1-ouverture-des-donnees-publiques-1/clarification-sur-le-statut-des-drones-de-combats-et-de-reconnaissances/arguments/260/report"
        },
        "has_user_voted": false,
        "has_user_reported": false
      },
      {
        "isContribuable": false,
        "id": 172,
        "body": "Les drones et l'utilisation de leurs données doivent s'inscrire dans un ensemble. Quid des données survolant une centrale nucléaire ou une propriété privée. Quelles limites ? etc. Mais je suis d'accord avec Damien Boucet. Ceci est hors sujet.",
        "created_at": "2015-09-26T17:47:56+0200",
        "updated_at": "2015-09-26T17:47:56+0200",
        "is_enabled": true,
        "votes_count": 3,
        "type": 0,
        "is_trashed": false,
        "author": {
          "username": "Jeanne Varasco",
          "displayName": "Jeanne Varasco",
          "uniqueId": "jeannevarasco",
          "isAdmin": false,
          "media": {
            "url": "/media/cache/default_avatar/default/0001/01/139_default_avatar.jpg"
          },
          "vip": false,
          "_links": {
            "profile": "https://www.republique-numerique.fr/profile/jeannevarasco",
            "settings": "https://www.republique-numerique.fr/profile/edit-profile"
          }
        },
        "_links": {
          "show": "https://www.republique-numerique.fr/consultations/projet-de-loi-numerique/consultation/consultation/opinions/section-1-ouverture-des-donnees-publiques-1/clarification-sur-le-statut-des-drones-de-combats-et-de-reconnaissances#arg-172",
          "edit": "https://www.republique-numerique.fr/consultations/projet-de-loi-numerique/consultation/consultation/opinions/section-1-ouverture-des-donnees-publiques-1/clarification-sur-le-statut-des-drones-de-combats-et-de-reconnaissances/arguments/172/edit",
          "report": "https://www.republique-numerique.fr/consultations/projet-de-loi-numerique/consultation/consultation/opinions/section-1-ouverture-des-donnees-publiques-1/clarification-sur-le-statut-des-drones-de-combats-et-de-reconnaissances/arguments/172/report"
        },
        "has_user_voted": false,
        "has_user_reported": false
      },
      {
        "isContribuable": false,
        "id": 136,
        "body": "Je ne pense pas que cet article ait sa place dans ce texte de loi. \n\nUne clarification du rôle des drones est utile et nécessaire, mais essayons de rester sur le sujet principal. ",
        "created_at": "2015-09-26T16:47:25+0200",
        "updated_at": "2015-09-26T16:47:25+0200",
        "is_enabled": true,
        "votes_count": 15,
        "type": 0,
        "is_trashed": false,
        "author": {
          "username": "Damien Boucet",
          "displayName": "Damien Boucet",
          "uniqueId": "damienboucet",
          "isAdmin": false,
          "media": null,
          "vip": false,
          "_links": {
            "profile": "https://www.republique-numerique.fr/profile/damienboucet",
            "settings": "https://www.republique-numerique.fr/profile/edit-profile"
          }
        },
        "_links": {
          "show": "https://www.republique-numerique.fr/consultations/projet-de-loi-numerique/consultation/consultation/opinions/section-1-ouverture-des-donnees-publiques-1/clarification-sur-le-statut-des-drones-de-combats-et-de-reconnaissances#arg-136",
          "edit": "https://www.republique-numerique.fr/consultations/projet-de-loi-numerique/consultation/consultation/opinions/section-1-ouverture-des-donnees-publiques-1/clarification-sur-le-statut-des-drones-de-combats-et-de-reconnaissances/arguments/136/edit",
          "report": "https://www.republique-numerique.fr/consultations/projet-de-loi-numerique/consultation/consultation/opinions/section-1-ouverture-des-donnees-publiques-1/clarification-sur-le-statut-des-drones-de-combats-et-de-reconnaissances/arguments/136/report"
        },
        "has_user_voted": false,
        "has_user_reported": false
      }
    ],
    "modals": [],
    "votes": [
      {
        "user": {
          "username": "Cellular1988",
          "displayName": "Cellular1988",
          "uniqueId": "cellular1988",
          "isAdmin": false,
          "media": null,
          "vip": false,
          "_links": {
            "profile": "https://www.republique-numerique.fr/profile/cellular1988",
            "settings": "https://www.republique-numerique.fr/profile/edit-profile"
          }
        }
      },
      {
        "user": {
          "username": "Maltese Nadine",
          "displayName": "Maltese Nadine",
          "uniqueId": "maltesenadine",
          "isAdmin": false,
          "media": {
            "url": "/media/cache/default_avatar/default/0001/01/113_default_avatar.png"
          },
          "vip": false,
          "_links": {
            "profile": "https://www.republique-numerique.fr/profile/maltesenadine",
            "settings": "https://www.republique-numerique.fr/profile/edit-profile"
          }
        }
      },
      {
        "user": {
          "username": "Solarus",
          "displayName": "Solarus",
          "uniqueId": "solarus",
          "isAdmin": false,
          "media": {
            "url": "/media/cache/default_avatar/default/0001/01/91_default_avatar.jpg"
          },
          "vip": false,
          "_links": {
            "profile": "https://www.republique-numerique.fr/profile/solarus",
            "settings": "https://www.republique-numerique.fr/profile/edit-profile"
          }
        }
      },
      {
        "user": {
          "username": "Quentin Flaceliere",
          "displayName": "Quentin Flaceliere",
          "uniqueId": "quentinflaceliere",
          "isAdmin": false,
          "media": null,
          "vip": false,
          "_links": {
            "profile": "https://www.republique-numerique.fr/profile/quentinflaceliere",
            "settings": "https://www.republique-numerique.fr/profile/edit-profile"
          }
        }
      },
      {
        "user": {
          "username": "Damien Boucet",
          "displayName": "Damien Boucet",
          "uniqueId": "damienboucet",
          "isAdmin": false,
          "media": null,
          "vip": false,
          "_links": {
            "profile": "https://www.republique-numerique.fr/profile/damienboucet",
            "settings": "https://www.republique-numerique.fr/profile/edit-profile"
          }
        }
      }
    ],
    "appendices": [
      {
        "body": "<p>Doit permettre d&#39;encadrer l&#39;utilisation des drones de reconnaissance et le recueil de donn&eacute;es associ&eacute; sur le territoire fran&ccedil;ais par les services de police ou de renseignements.</p>\r\n\r\n<p>Interdire l&#39;utilisation d&#39;intelligences artificielles aux commandes d&#39;appareils l&eacute;taux.</p>",
        "type": {
          "title": "Explication de l'article"
        }
      }
    ],
    "ranking": 95,
    "is_trashed": false,
    "title": "Clarification sur le statut des drones de combats et de reconnaissances",
    "votes_nok": 64,
    "votes_ok": 101,
    "votes_mitige": 35,
    "_links": {
      "show": "https://www.republique-numerique.fr/consultations/projet-de-loi-numerique/consultation/consultation/opinions/section-1-ouverture-des-donnees-publiques-1/clarification-sur-le-statut-des-drones-de-combats-et-de-reconnaissances",
      "edit": "https://www.republique-numerique.fr/consultations/projet-de-loi-numerique/consultation/consultation/opinions/section-1-ouverture-des-donnees-publiques-1/clarification-sur-le-statut-des-drones-de-combats-et-de-reconnaissances/edit",
      "report": "https://www.republique-numerique.fr/consultations/projet-de-loi-numerique/consultation/consultation/opinions/section-1-ouverture-des-donnees-publiques-1/clarification-sur-le-statut-des-drones-de-combats-et-de-reconnaissances/report",
      "type": "https://www.republique-numerique.fr/consultations/projet-de-loi-numerique/consultation/consultation/opinions/section-1-ouverture-des-donnees-publiques-1"
    },
    "user_vote": null,
    "has_user_reported": false
  },
  "rankingThreshold": null,
  "opinionTerm": 1
}