{
  "opinion": {
    "isContribuable": false,
    "votes_total": 368,
    "arguments_yes_count": 12,
    "arguments_no_count": 10,
    "id": 83,
    "created_at": "2015-09-26T02:28:02+0200",
    "updated_at": "2015-09-26T07:25:54+0200",
    "body": "<p>Le chapitre V du titre II du livre IV du code g&eacute;n&eacute;ral des collectivit&eacute;s territoriales est compl&eacute;t&eacute; par un article L. 1425-3 r&eacute;dig&eacute; comme suit&nbsp;:</p>\r\n\r\n<p>&laquo;&nbsp;Art. L. 1425-3 -Dans les domaines de comp&eacute;tence que la loi leur attribue, les conseils d&eacute;partementaux ou les conseils r&eacute;gionaux peuvent &eacute;tablir une strat&eacute;gie de d&eacute;veloppement des usages et services num&eacute;riques existants, identifier les zones qu&#39;ils desservent et pr&eacute;senter une strat&eacute;gie de d&eacute;veloppement de ceux-ci, sur leur territoire. Cette strat&eacute;gie, qui a une valeur indicative, vise &agrave; favoriser la coh&eacute;rence des initiatives publiques et leur bonne articulation avec l&#39;investissement priv&eacute;, ainsi que la mise en place de ressources partag&eacute;es et mutualis&eacute;es afin de doter l&rsquo;ensemble des territoires d&rsquo;un maillage &eacute;quilibr&eacute; de services num&eacute;riques. Elle est &eacute;tablie en coh&eacute;rence avec les sch&eacute;mas r&eacute;gionaux de d&eacute;veloppement &eacute;conomique. Cette strat&eacute;gie constitue un volet du sch&eacute;ma directeur territorial d&rsquo;am&eacute;nagement num&eacute;rique.&nbsp;&raquo;</p>",
    "versions_count": 41,
    "sources_count": 2,
    "arguments_count": 22,
    "author": {
      "username": "Gouvernement",
      "displayName": "Gouvernement",
      "uniqueId": "gouvernement",
      "isAdmin": false,
      "media": {
        "url": "/media/cache/default_avatar/default/0001/01/72_default_avatar.jpg"
      },
      "vip": true,
      "_links": {
        "profile": "https://www.republique-numerique.fr/profile/gouvernement",
        "settings": "https://www.republique-numerique.fr/profile/edit-profile"
      }
    },
    "type": {
      "id": 103,
      "title": "Section 1",
      "subtitle": "Compétences et organisation",
      "voteWidgetType": 2,
      "votesHelpText": "Pensez-vous que cette proposition permet d'atteindre les objectifs présentés dans l’explication de l’article ?",
      "commentSystem": 2,
      "color": "blue",
      "versionable": true,
      "sourceable": true,
      "votesThreshold": null,
      "votesThresholdHelpText": null
    },
    "sources": [
      {
        "isContribuable": false,
        "id": 41,
        "title": "Schéma directeur des usages et des services numériques pour les Alpes Maritimes",
        "link": "http://www.sictiam.fr/download/annexes-sddan-06/",
        "body": "Le Schéma directeur départemental des usages et des services numériques (SDDUSN) dresse un état des lieux de la présence publique dans les Alpes-Maritimes dans un contexte où la mobilité et la modernisation des services locaux sont à l’épicentre des enjeux pour les territoires. \n(...) \nUn document de référence indissociable du Schéma directeur départemental d’Aménagement Numérique (SDDAN 06) qui définit les opérations de déploiement du réseau Très Haut Débit dont l’échéance de couverture totale du territoire est fixée en 2020.\n\nhttp://www.sictiam.fr/sdusn/",
        "created_at": "2015-09-28T14:04:39+0200",
        "updated_at": "2015-09-28T14:04:39+0200",
        "author": {
          "username": "Thibaut Le Corre",
          "displayName": "Thibaut Le Corre",
          "uniqueId": "thibautlecorre",
          "isAdmin": false,
          "media": {
            "url": "/media/cache/default_avatar/default/0001/01/231_default_avatar.jpg"
          },
          "vip": false,
          "_links": {
            "profile": "https://www.republique-numerique.fr/profile/thibautlecorre",
            "settings": "https://www.republique-numerique.fr/profile/edit-profile"
          }
        },
        "category": "Autre",
        "votes_count": 0,
        "_links": {
          "edit": "https://www.republique-numerique.fr/consultations/projet-de-loi-numerique/consultation/consultation/opinions/section-1-competences-et-organisation/article-23-schema-directeur-numerique-des-collectivites/sources/schema-directeur-des-usages-et-des-services-numeriques-pour-les-alpes-maritimes/edit",
          "report": "https://www.republique-numerique.fr/consultations/projet-de-loi-numerique/consultation/consultation/opinions/section-1-competences-et-organisation/article-23-schema-directeur-numerique-des-collectivites/sources/schema-directeur-des-usages-et-des-services-numeriques-pour-les-alpes-maritimes/report"
        },
        "has_user_voted": false,
        "has_user_reported": false
      },
      {
        "isContribuable": false,
        "id": 38,
        "title": "Définition des schémas directeurs territoriaux d'aménagement numérique",
        "link": "http://www.legifrance.gouv.fr/affichCodeArticle.do;jsessionid=08E9A5AEE8575DC0FD6F440E4173D334.tpdila21v_2?cidTexte=LEGITEXT000006070633&idArticle=LEGIARTI000021492886&dateTexte=&categorieLien=cid",
        "body": "Article L1425-2 du Code général des collectivités territoriales\n\n\"Les schémas directeurs territoriaux d'aménagement numérique recensent les infrastructures et réseaux de communications électroniques existants, identifient les zones qu'ils desservent et présentent une stratégie de développement de ces réseaux, concernant prioritairement les réseaux à très haut débit fixe et mobile, y compris satellitaire, permettant d'assurer la couverture du territoire concerné. Ces schémas, qui ont une valeur indicative, visent à favoriser la cohérence des initiatives publiques et leur bonne articulation avec l'investissement privé.\"",
        "created_at": "2015-09-28T12:53:36+0200",
        "updated_at": "2015-09-28T12:53:36+0200",
        "author": {
          "username": "Thibaut Le Corre",
          "displayName": "Thibaut Le Corre",
          "uniqueId": "thibautlecorre",
          "isAdmin": false,
          "media": {
            "url": "/media/cache/default_avatar/default/0001/01/231_default_avatar.jpg"
          },
          "vip": false,
          "_links": {
            "profile": "https://www.republique-numerique.fr/profile/thibautlecorre",
            "settings": "https://www.republique-numerique.fr/profile/edit-profile"
          }
        },
        "category": "Lois et règlements",
        "votes_count": 0,
        "_links": {
          "edit": "https://www.republique-numerique.fr/consultations/projet-de-loi-numerique/consultation/consultation/opinions/section-1-competences-et-organisation/article-23-schema-directeur-numerique-des-collectivites/sources/definition-des-schemas-directeurs-territoriaux-d-amenagement-numerique/edit",
          "report": "https://www.republique-numerique.fr/consultations/projet-de-loi-numerique/consultation/consultation/opinions/section-1-competences-et-organisation/article-23-schema-directeur-numerique-des-collectivites/sources/definition-des-schemas-directeurs-territoriaux-d-amenagement-numerique/report"
        },
        "has_user_voted": false,
        "has_user_reported": false
      }
    ],
    "arguments": [
      {
        "isContribuable": false,
        "id": 6162,
        "body": "Je suis évidement pour le développement des usages numérique sur le territoire. Cependant tel que formulé dans cet article, je trouve cela trop vague et pas assez ambitieux. Il y a, comme plusieurs personnes l'ont fait remarquer, un problème sur la notion d'échelon compétent. La modification de l'AVICCA va dans le bon sens sur ce point ainsi que sur la notion de schéma et de secteur. https://www.republique-numerique.fr/consultations/projet-de-loi-numerique/consultation/consultation/opinions/section-1-competences-et-organisation/article-23-schema-directeur-numerique-des-collectivites/versions/developper-les-usages-et-services-par-secteurs-par-les-echelons-territoriaux-concernes Il est évident que la première étape est le déploiement d'une infrastructure qui en irriguant le territoire donnera l'opportunité non seulement de développer les usages connus ou attendus mais surtout donner l'opportunité de favoriser l'innovation et en faisant naitre de nouveaux usages. Dans un même département, il y a de grandes disparités entre les besoins en infrastructures, en services et usages. De plus le déploiement d'EPN, de tiers lieux et de FabLab est primordial pour développer l'accès, la formation et l'appropriation des usages. D'un point de vue social, cela permet de lutter contre l'isolement et de désenclaver des territoires. Du point de vue de l'Etat et su service public, c'est un enjeu fort de modernisation et de renforcement de la \"puissance publique\" en jouant ce rôle de prescripteur et de \"facilitateur\".",
        "created_at": "2015-10-18T22:48:21+0200",
        "updated_at": "2015-10-18T22:54:22+0200",
        "is_enabled": true,
        "votes_count": 0,
        "type": 0,
        "is_trashed": false,
        "author": {
          "username": "Sylvain Gladieux",
          "displayName": "Sylvain Gladieux",
          "uniqueId": "sylvaingladieux",
          "isAdmin": false,
          "media": {
            "url": "/media/cache/default_avatar/default/0001/01/974_default_avatar.jpg"
          },
          "vip": false,
          "_links": {
            "profile": "https://www.republique-numerique.fr/profile/sylvaingladieux",
            "settings": "https://www.republique-numerique.fr/profile/edit-profile"
          }
        },
        "_links": {
          "show": "https://www.republique-numerique.fr/consultations/projet-de-loi-numerique/consultation/consultation/opinions/section-1-competences-et-organisation/article-23-schema-directeur-numerique-des-collectivites#arg-6162",
          "edit": "https://www.republique-numerique.fr/consultations/projet-de-loi-numerique/consultation/consultation/opinions/section-1-competences-et-organisation/article-23-schema-directeur-numerique-des-collectivites/arguments/6162/edit",
          "report": "https://www.republique-numerique.fr/consultations/projet-de-loi-numerique/consultation/consultation/opinions/section-1-competences-et-organisation/article-23-schema-directeur-numerique-des-collectivites/arguments/6162/report"
        },
        "has_user_voted": false,
        "has_user_reported": false
      },
      {
        "isContribuable": false,
        "id": 6059,
        "body": "Yves Martin a écrit \"\"les conseils départementaux ou les conseils régionaux\" : pourquoi les deux niveaux d'organisations auraient ils la même compétence ?\"\nEn effet cet article va à l'inverse de la loi NOTRE, dans la mesure où celle-ci a supprimé la clause de compétence générale.\n\nIl serait préférable d'attribuer ce rôle soit aux régions (dans le cadre du développement économique) soit aux départements (dans le cadre du développement social…).",
        "created_at": "2015-10-18T20:10:59+0200",
        "updated_at": "2015-10-18T20:10:59+0200",
        "is_enabled": true,
        "votes_count": 0,
        "type": 1,
        "is_trashed": false,
        "author": {
          "username": "Lefebvre-Naré Frédéric",
          "displayName": "Lefebvre-Naré Frédéric",
          "uniqueId": "lefebvrenarefrederic",
          "isAdmin": false,
          "media": {
            "url": "/media/cache/default_avatar/default/0001/02/1044_default_avatar.jpg"
          },
          "vip": false,
          "_links": {
            "profile": "https://www.republique-numerique.fr/profile/lefebvrenarefrederic",
            "settings": "https://www.republique-numerique.fr/profile/edit-profile"
          }
        },
        "_links": {
          "show": "https://www.republique-numerique.fr/consultations/projet-de-loi-numerique/consultation/consultation/opinions/section-1-competences-et-organisation/article-23-schema-directeur-numerique-des-collectivites#arg-6059",
          "edit": "https://www.republique-numerique.fr/consultations/projet-de-loi-numerique/consultation/consultation/opinions/section-1-competences-et-organisation/article-23-schema-directeur-numerique-des-collectivites/arguments/6059/edit",
          "report": "https://www.republique-numerique.fr/consultations/projet-de-loi-numerique/consultation/consultation/opinions/section-1-competences-et-organisation/article-23-schema-directeur-numerique-des-collectivites/arguments/6059/report"
        },
        "has_user_voted": false,
        "has_user_reported": false
      },
      {
        "isContribuable": false,
        "id": 6017,
        "body": "- clarifier l'échelon compétent, à l'échelle de l'ensemble de son territoire (y compris des métropoles qu'elle intègre).\n- clarifier la répartition public / privé des interventions: qui a la primauté d'intervention? qui comble les carences de l'autre?\n- clarifier les notions de financement de ces éléments mutualisés, qui doivent impliquer l'ensemble des collectivités d'un territoire\n- une stratégie territoriale, s'appliquant de fait à une pluralité d'acteurs publics, doit avoir une valeur prescriptive.",
        "created_at": "2015-10-18T19:26:16+0200",
        "updated_at": "2015-10-18T19:26:16+0200",
        "is_enabled": true,
        "votes_count": 1,
        "type": 0,
        "is_trashed": false,
        "author": {
          "username": "Ali S",
          "displayName": "Ali S",
          "uniqueId": "alis",
          "isAdmin": false,
          "media": null,
          "vip": false,
          "_links": {
            "profile": "https://www.republique-numerique.fr/profile/alis",
            "settings": "https://www.republique-numerique.fr/profile/edit-profile"
          }
        },
        "_links": {
          "show": "https://www.republique-numerique.fr/consultations/projet-de-loi-numerique/consultation/consultation/opinions/section-1-competences-et-organisation/article-23-schema-directeur-numerique-des-collectivites#arg-6017",
          "edit": "https://www.republique-numerique.fr/consultations/projet-de-loi-numerique/consultation/consultation/opinions/section-1-competences-et-organisation/article-23-schema-directeur-numerique-des-collectivites/arguments/6017/edit",
          "report": "https://www.republique-numerique.fr/consultations/projet-de-loi-numerique/consultation/consultation/opinions/section-1-competences-et-organisation/article-23-schema-directeur-numerique-des-collectivites/arguments/6017/report"
        },
        "has_user_voted": false,
        "has_user_reported": false
      },
      {
        "isContribuable": false,
        "id": 5737,
        "body": "Il me semble nécessaire d'assurer la couverture en THD partout sur le territoire d'une part. Pour établir la stratégie des services et usages, déployer en parallèle des plans de développement associant les collectivités concernées, incluant les intercommunalités en lien avec leurs démarches de mutualisation des services communaux notamment, ainsi que les professionnels concernés par la lutte contre la fracture numérique et la lutte contre la pauvreté sur un territoire : travailleurs sociaux, services insertion des CD, service public de l'Emploi, Centre Sociaux, associations, notamment mobilisés dans des politiques de la Ville.",
        "created_at": "2015-10-18T11:31:19+0200",
        "updated_at": "2015-10-18T11:32:27+0200",
        "is_enabled": true,
        "votes_count": 0,
        "type": 1,
        "is_trashed": false,
        "author": {
          "username": "Bénédicte",
          "displayName": "Bénédicte",
          "uniqueId": "benedicte1",
          "isAdmin": false,
          "media": {
            "url": "/media/cache/default_avatar/default/0001/01/981_default_avatar.jpg"
          },
          "vip": false,
          "_links": {
            "profile": "https://www.republique-numerique.fr/profile/benedicte1",
            "settings": "https://www.republique-numerique.fr/profile/edit-profile"
          }
        },
        "_links": {
          "show": "https://www.republique-numerique.fr/consultations/projet-de-loi-numerique/consultation/consultation/opinions/section-1-competences-et-organisation/article-23-schema-directeur-numerique-des-collectivites#arg-5737",
          "edit": "https://www.republique-numerique.fr/consultations/projet-de-loi-numerique/consultation/consultation/opinions/section-1-competences-et-organisation/article-23-schema-directeur-numerique-des-collectivites/arguments/5737/edit",
          "report": "https://www.republique-numerique.fr/consultations/projet-de-loi-numerique/consultation/consultation/opinions/section-1-competences-et-organisation/article-23-schema-directeur-numerique-des-collectivites/arguments/5737/report"
        },
        "has_user_voted": false,
        "has_user_reported": false
      },
      {
        "isContribuable": false,
        "id": 5699,
        "body": "Il manque tout un volet sur le fait qu'un bon nombre de citoyens ont besoin d'aide pour utiliser un ordinateur, ne serait-ce que pour faire des démarches e-administratives, et que ça induit des inégalités.\nPour moi, l'article est incomplet, ou alors il faut un deuxième article sur le sujet.",
        "created_at": "2015-10-18T10:13:26+0200",
        "updated_at": "2015-10-18T10:13:26+0200",
        "is_enabled": true,
        "votes_count": 0,
        "type": 0,
        "is_trashed": false,
        "author": {
          "username": "Emmanuelle Helly",
          "displayName": "Emmanuelle Helly",
          "uniqueId": "emmanuellehelly",
          "isAdmin": false,
          "media": null,
          "vip": false,
          "_links": {
            "profile": "https://www.republique-numerique.fr/profile/emmanuellehelly",
            "settings": "https://www.republique-numerique.fr/profile/edit-profile"
          }
        },
        "_links": {
          "show": "https://www.republique-numerique.fr/consultations/projet-de-loi-numerique/consultation/consultation/opinions/section-1-competences-et-organisation/article-23-schema-directeur-numerique-des-collectivites#arg-5699",
          "edit": "https://www.republique-numerique.fr/consultations/projet-de-loi-numerique/consultation/consultation/opinions/section-1-competences-et-organisation/article-23-schema-directeur-numerique-des-collectivites/arguments/5699/edit",
          "report": "https://www.republique-numerique.fr/consultations/projet-de-loi-numerique/consultation/consultation/opinions/section-1-competences-et-organisation/article-23-schema-directeur-numerique-des-collectivites/arguments/5699/report"
        },
        "has_user_voted": false,
        "has_user_reported": false
      },
      {
        "isContribuable": false,
        "id": 5689,
        "body": "Pas assez fort : \"peuvent établir\", \"stratégie qui a une valeur indicative\" ...",
        "created_at": "2015-10-18T10:01:46+0200",
        "updated_at": "2015-10-18T10:01:46+0200",
        "is_enabled": true,
        "votes_count": 1,
        "type": 0,
        "is_trashed": false,
        "author": {
          "username": "Emmanuelle Helly",
          "displayName": "Emmanuelle Helly",
          "uniqueId": "emmanuellehelly",
          "isAdmin": false,
          "media": null,
          "vip": false,
          "_links": {
            "profile": "https://www.republique-numerique.fr/profile/emmanuellehelly",
            "settings": "https://www.republique-numerique.fr/profile/edit-profile"
          }
        },
        "_links": {
          "show": "https://www.republique-numerique.fr/consultations/projet-de-loi-numerique/consultation/consultation/opinions/section-1-competences-et-organisation/article-23-schema-directeur-numerique-des-collectivites#arg-5689",
          "edit": "https://www.republique-numerique.fr/consultations/projet-de-loi-numerique/consultation/consultation/opinions/section-1-competences-et-organisation/article-23-schema-directeur-numerique-des-collectivites/arguments/5689/edit",
          "report": "https://www.republique-numerique.fr/consultations/projet-de-loi-numerique/consultation/consultation/opinions/section-1-competences-et-organisation/article-23-schema-directeur-numerique-des-collectivites/arguments/5689/report"
        },
        "has_user_voted": false,
        "has_user_reported": false
      },
      {
        "isContribuable": false,
        "id": 4771,
        "body": "Il faudrait déjà disposer d'un réseau haut débit vraiment partout en France avant de passer à la vitesse supérieure. Ce qui est loin d'être le cas aujourd'hui.",
        "created_at": "2015-10-16T15:18:36+0200",
        "updated_at": "2015-10-16T15:18:36+0200",
        "is_enabled": true,
        "votes_count": 1,
        "type": 1,
        "is_trashed": false,
        "author": {
          "username": "bagneres",
          "displayName": "bagneres",
          "uniqueId": "bagneres",
          "isAdmin": false,
          "media": null,
          "vip": false,
          "_links": {
            "profile": "https://www.republique-numerique.fr/profile/bagneres",
            "settings": "https://www.republique-numerique.fr/profile/edit-profile"
          }
        },
        "_links": {
          "show": "https://www.republique-numerique.fr/consultations/projet-de-loi-numerique/consultation/consultation/opinions/section-1-competences-et-organisation/article-23-schema-directeur-numerique-des-collectivites#arg-4771",
          "edit": "https://www.republique-numerique.fr/consultations/projet-de-loi-numerique/consultation/consultation/opinions/section-1-competences-et-organisation/article-23-schema-directeur-numerique-des-collectivites/arguments/4771/edit",
          "report": "https://www.republique-numerique.fr/consultations/projet-de-loi-numerique/consultation/consultation/opinions/section-1-competences-et-organisation/article-23-schema-directeur-numerique-des-collectivites/arguments/4771/report"
        },
        "has_user_voted": false,
        "has_user_reported": false
      },
      {
        "isContribuable": false,
        "id": 4537,
        "body": "Il est fondamental de :\n-\tassurer un maillage équilibré du territoire en offre numérique : télémédecine ;\nservices dématérialisés pour les administrés, les exploitations agricoles ; usages innovants pour l’éducation, l’e-tourisme, etc.\n-\taccompagner les entreprises vers le numérique \n-\téquiper les plans communaux de sauvegarde en solutions de communications résilientes en cas de crise \nLa technologie satellitaire est un outil de lutte contre la fracture numérique à bien recenser dans le cadre de l’ouverture des SDTAN à la question des usages.",
        "created_at": "2015-10-16T10:00:35+0200",
        "updated_at": "2015-10-16T10:00:35+0200",
        "is_enabled": true,
        "votes_count": 2,
        "type": 1,
        "is_trashed": false,
        "author": {
          "username": "Eutelsat",
          "displayName": "Eutelsat",
          "uniqueId": "eutelsat",
          "isAdmin": false,
          "media": null,
          "vip": false,
          "_links": {
            "profile": "https://www.republique-numerique.fr/profile/eutelsat",
            "settings": "https://www.republique-numerique.fr/profile/edit-profile"
          }
        },
        "_links": {
          "show": "https://www.republique-numerique.fr/consultations/projet-de-loi-numerique/consultation/consultation/opinions/section-1-competences-et-organisation/article-23-schema-directeur-numerique-des-collectivites#arg-4537",
          "edit": "https://www.republique-numerique.fr/consultations/projet-de-loi-numerique/consultation/consultation/opinions/section-1-competences-et-organisation/article-23-schema-directeur-numerique-des-collectivites/arguments/4537/edit",
          "report": "https://www.republique-numerique.fr/consultations/projet-de-loi-numerique/consultation/consultation/opinions/section-1-competences-et-organisation/article-23-schema-directeur-numerique-des-collectivites/arguments/4537/report"
        },
        "has_user_voted": false,
        "has_user_reported": false
      },
      {
        "isContribuable": false,
        "id": 4436,
        "body": "Les usages d'aujourd'hui c'est bien, les usages de demain c'est mieux ! Infrastructures et Usages ? La poule et l'oeuf !Un territoire numérique , c’est un immeuble dont les fondations sont les infrastructures et les étages les usages ! Sachant que personne ne peut dire combien d’étages aura l’immeuble , les fondations devront etre très solides donc en fibre optique , seule façon de permettre à chaque rural d’avoir la même qualité de services que pour les citadins.https://websdugevaudan.wordpress.com/2012/09/10/services-publics-tous-egaux/ En Lozère si l’on additionne les programmes « fibre » du conseil départemental et d’Orange il reste plus de 150 communes « hors fibre » . Equipons ces 150 communes, à défaut de vrai FTTH, du FTTH rural : Fiber To The Hameau , concept en filigramme dans une note de 2009 !! https://websdugevaudan.wordpress.com/2009/10/17/boucle-locale-et-montee-en-debit/ ; Quasi Impossible sans modification de la réglementation : Votons pour un droit à la fibre ! https://websdugevaudan.wordpress.com/ ",
        "created_at": "2015-10-15T22:14:48+0200",
        "updated_at": "2015-10-15T22:14:48+0200",
        "is_enabled": true,
        "votes_count": 0,
        "type": 1,
        "is_trashed": false,
        "author": {
          "username": "Webs du Gévaudan",
          "displayName": "Webs du Gévaudan",
          "uniqueId": "websdugevaudan",
          "isAdmin": false,
          "media": null,
          "vip": false,
          "_links": {
            "profile": "https://www.republique-numerique.fr/profile/websdugevaudan",
            "settings": "https://www.republique-numerique.fr/profile/edit-profile"
          }
        },
        "_links": {
          "show": "https://www.republique-numerique.fr/consultations/projet-de-loi-numerique/consultation/consultation/opinions/section-1-competences-et-organisation/article-23-schema-directeur-numerique-des-collectivites#arg-4436",
          "edit": "https://www.republique-numerique.fr/consultations/projet-de-loi-numerique/consultation/consultation/opinions/section-1-competences-et-organisation/article-23-schema-directeur-numerique-des-collectivites/arguments/4436/edit",
          "report": "https://www.republique-numerique.fr/consultations/projet-de-loi-numerique/consultation/consultation/opinions/section-1-competences-et-organisation/article-23-schema-directeur-numerique-des-collectivites/arguments/4436/report"
        },
        "has_user_voted": false,
        "has_user_reported": false
      },
      {
        "isContribuable": false,
        "id": 4433,
        "body": "Les usages existants c'est bien, les usages futurs c'est mieux ! Infrastructures et Usages ? La poule et l'oeuf !Un territoire numérique , c’est un immeuble dont les fondations sont les infrastructures et les étages les usages ! Sachant que personne ne peut dire combien d’étages aura l’immeuble , les fondations devront etre très solides donc en fibre optique , seule façon de permettre à chaque rural d’avoir la même qualité de services que pour les citadins.https://websdugevaudan.wordpress.com/2012/09/10/services-publics-tous-egaux/ En Lozère si l’on additionne les programmes « fibre » du conseil départemental et d’Orange il reste plus de 150 communes « hors fibre » . Equipons ces 150 communes, à défaut de vrai FTTH, du FTTH rural : Fiber To The Hameau , concept en filigramme dans une note de 2009 !! https://websdugevaudan.wordpress.com/2009/10/17/boucle-locale-et-montee-en-debit/ ; Quasi Impossible sans modification de la réglementation : Votons pour un droit à la fibre ! https://websdugevaudan.wordpress.com/ ",
        "created_at": "2015-10-15T22:08:55+0200",
        "updated_at": "2015-10-15T22:08:55+0200",
        "is_enabled": true,
        "votes_count": 1,
        "type": 1,
        "is_trashed": false,
        "author": {
          "username": "Webs du Gévaudan",
          "displayName": "Webs du Gévaudan",
          "uniqueId": "websdugevaudan",
          "isAdmin": false,
          "media": null,
          "vip": false,
          "_links": {
            "profile": "https://www.republique-numerique.fr/profile/websdugevaudan",
            "settings": "https://www.republique-numerique.fr/profile/edit-profile"
          }
        },
        "_links": {
          "show": "https://www.republique-numerique.fr/consultations/projet-de-loi-numerique/consultation/consultation/opinions/section-1-competences-et-organisation/article-23-schema-directeur-numerique-des-collectivites#arg-4433",
          "edit": "https://www.republique-numerique.fr/consultations/projet-de-loi-numerique/consultation/consultation/opinions/section-1-competences-et-organisation/article-23-schema-directeur-numerique-des-collectivites/arguments/4433/edit",
          "report": "https://www.republique-numerique.fr/consultations/projet-de-loi-numerique/consultation/consultation/opinions/section-1-competences-et-organisation/article-23-schema-directeur-numerique-des-collectivites/arguments/4433/report"
        },
        "has_user_voted": false,
        "has_user_reported": false
      },
      {
        "isContribuable": false,
        "id": 4338,
        "body": "Les données et services émanant du spatial peuvent avoir une valeur ajoutée considérable pour des applications numériques innovantes, que ce soit dans le domaine de l’agriculture de précision ou dans celui des transports intelligents. Le COSPACE recommande que les travaux qui inspirent aujourd’hui l’appel d’offre « boosters » soient valorisés auprès des collectivités territoriales et pris en compte dans les SDTAN.",
        "created_at": "2015-10-15T17:57:09+0200",
        "updated_at": "2015-10-15T18:01:50+0200",
        "is_enabled": true,
        "votes_count": 1,
        "type": 1,
        "is_trashed": false,
        "author": {
          "username": "COSPACE",
          "displayName": "COSPACE",
          "uniqueId": "cospace",
          "isAdmin": false,
          "media": {
            "url": "/media/cache/default_avatar/default/0001/01/764_default_avatar.jpg"
          },
          "vip": false,
          "_links": {
            "profile": "https://www.republique-numerique.fr/profile/cospace",
            "settings": "https://www.republique-numerique.fr/profile/edit-profile"
          }
        },
        "_links": {
          "show": "https://www.republique-numerique.fr/consultations/projet-de-loi-numerique/consultation/consultation/opinions/section-1-competences-et-organisation/article-23-schema-directeur-numerique-des-collectivites#arg-4338",
          "edit": "https://www.republique-numerique.fr/consultations/projet-de-loi-numerique/consultation/consultation/opinions/section-1-competences-et-organisation/article-23-schema-directeur-numerique-des-collectivites/arguments/4338/edit",
          "report": "https://www.republique-numerique.fr/consultations/projet-de-loi-numerique/consultation/consultation/opinions/section-1-competences-et-organisation/article-23-schema-directeur-numerique-des-collectivites/arguments/4338/report"
        },
        "has_user_voted": false,
        "has_user_reported": false
      },
      {
        "isContribuable": false,
        "id": 4286,
        "body": "Nous sommes tout à fait d’accord avec la FIEEC, les usages numériques et la mise en place de leur socle numérique vont de paire ; il faut effectuer des analyses d’usages en même temps que des schémas de déploiements de réseaux.  Cependant, il faut noter que des réseaux largement dimensionnés ont toujours permis l’éclosion d’usages innovants.  Les réseaux ne doivent donc pas être dimensionnés uniquement en fonction d’étude de base, mais également sur des études de stratégie prospectives de long terme incluant des comparaisons par rapport à ce qui se met en place dans le monde.\n\nConcrètement, le déploiement de FTTH est plus pérenne et plus évolutif (par exemple des débits gigantesques sont déjà mis en place dans le cadre de réseaux sous marins sur cette technologie). Le FTTH  est devenu un marqueur de croissance économique et de dynamisme du territoire : cette technologie affiche un impact très positif sur l’économie et l’attractivité locale à travers la création d’entreprises, la croissance d’emplois et des services THD (par ex. télémédecine et télé-expertise).\n",
        "created_at": "2015-10-15T16:42:45+0200",
        "updated_at": "2015-10-15T16:42:45+0200",
        "is_enabled": true,
        "votes_count": 0,
        "type": 1,
        "is_trashed": false,
        "author": {
          "username": "Alcatel-Lucent",
          "displayName": "Alcatel-Lucent",
          "uniqueId": "alcatellucent",
          "isAdmin": false,
          "media": null,
          "vip": false,
          "_links": {
            "profile": "https://www.republique-numerique.fr/profile/alcatellucent",
            "settings": "https://www.republique-numerique.fr/profile/edit-profile"
          }
        },
        "_links": {
          "show": "https://www.republique-numerique.fr/consultations/projet-de-loi-numerique/consultation/consultation/opinions/section-1-competences-et-organisation/article-23-schema-directeur-numerique-des-collectivites#arg-4286",
          "edit": "https://www.republique-numerique.fr/consultations/projet-de-loi-numerique/consultation/consultation/opinions/section-1-competences-et-organisation/article-23-schema-directeur-numerique-des-collectivites/arguments/4286/edit",
          "report": "https://www.republique-numerique.fr/consultations/projet-de-loi-numerique/consultation/consultation/opinions/section-1-competences-et-organisation/article-23-schema-directeur-numerique-des-collectivites/arguments/4286/report"
        },
        "has_user_voted": false,
        "has_user_reported": false
      },
      {
        "isContribuable": false,
        "id": 3999,
        "body": "Nous partageons l'objectif de cette proposition. Le développement des data centers et le déploiement des réseaux très haut débit fixe (notamment la fibre optique) et mobile -et pour lequel une infrastructure fibre dense sera aussi nécessaire- sont une condition sine qua non de l’essor de l’économie numérique. Des réseaux numériques de qualité, pérennes et déployés massivement, aussi bien à l’extérieur qu’à l’intérieur du bâtiment, sont en effet indispensables pour permettre le bon fonctionnement des nouveaux usages numériques. C‘est un outil essentiel et nécessaire à la mise en œuvre des politiques publiques.",
        "created_at": "2015-10-14T18:00:54+0200",
        "updated_at": "2015-10-14T18:00:54+0200",
        "is_enabled": true,
        "votes_count": 0,
        "type": 1,
        "is_trashed": false,
        "author": {
          "username": "FIEEC",
          "displayName": "FIEEC",
          "uniqueId": "fieec",
          "isAdmin": false,
          "media": {
            "url": "/media/cache/default_avatar/default/0001/01/628_default_avatar.jpg"
          },
          "vip": false,
          "_links": {
            "profile": "https://www.republique-numerique.fr/profile/fieec",
            "settings": "https://www.republique-numerique.fr/profile/edit-profile"
          }
        },
        "_links": {
          "show": "https://www.republique-numerique.fr/consultations/projet-de-loi-numerique/consultation/consultation/opinions/section-1-competences-et-organisation/article-23-schema-directeur-numerique-des-collectivites#arg-3999",
          "edit": "https://www.republique-numerique.fr/consultations/projet-de-loi-numerique/consultation/consultation/opinions/section-1-competences-et-organisation/article-23-schema-directeur-numerique-des-collectivites/arguments/3999/edit",
          "report": "https://www.republique-numerique.fr/consultations/projet-de-loi-numerique/consultation/consultation/opinions/section-1-competences-et-organisation/article-23-schema-directeur-numerique-des-collectivites/arguments/3999/report"
        },
        "has_user_voted": false,
        "has_user_reported": false
      },
      {
        "isContribuable": false,
        "id": 3651,
        "body": "Risque de d'accentuer les inégalités d'accès. Certaines collectivités sont moins riches que d'autres. D'accord pour favoriser la création de l'infrastructure, mais ça ne me parait pas être la bonne solution. Si vous voulez que \"l’arrivée du très haut débit s’inscrive dans une stratégie globale au service de la population\", j'insiste sur \"stratégie globale\", il vaudrait mieux nationaliser les réseaux physiques, et en confier l'entretient et l'expansion à l'État, en en laissant l'exploitation aux fournisseurs de services. L'État peut facturer aux FAI l'utilisation des réseaux physiques, mais garde ainsi un certain contrôle sur les prix, et surtout pourrait s'assurer sans incertitude de la possibilité d'accès de tous les citoyens au réseau. Ça, ce serait une \"stratégie globale\". Développement du réseau Fibre assuré, comme ça (juste un mot en passant : non, on ne remplacera jamais la qualité d'un accès à un réseau physique de bonne qualité, cuivre ou fibre, par la 3G, 4G ou autre rustine sans-fil). Après, oui, les collectivités peuvent s'occuper des stratégies sur les usages et les services, mais pas tant que le réseau physique ne sera pas correctement déployé.",
        "created_at": "2015-10-13T17:46:38+0200",
        "updated_at": "2015-10-13T17:46:38+0200",
        "is_enabled": true,
        "votes_count": 3,
        "type": 0,
        "is_trashed": false,
        "author": {
          "username": "Nathan Frenot",
          "displayName": "Nathan Frenot",
          "uniqueId": "nathanfrenot",
          "isAdmin": false,
          "media": null,
          "vip": false,
          "_links": {
            "profile": "https://www.republique-numerique.fr/profile/nathanfrenot",
            "settings": "https://www.republique-numerique.fr/profile/edit-profile"
          }
        },
        "_links": {
          "show": "https://www.republique-numerique.fr/consultations/projet-de-loi-numerique/consultation/consultation/opinions/section-1-competences-et-organisation/article-23-schema-directeur-numerique-des-collectivites#arg-3651",
          "edit": "https://www.republique-numerique.fr/consultations/projet-de-loi-numerique/consultation/consultation/opinions/section-1-competences-et-organisation/article-23-schema-directeur-numerique-des-collectivites/arguments/3651/edit",
          "report": "https://www.republique-numerique.fr/consultations/projet-de-loi-numerique/consultation/consultation/opinions/section-1-competences-et-organisation/article-23-schema-directeur-numerique-des-collectivites/arguments/3651/report"
        },
        "has_user_voted": false,
        "has_user_reported": false
      },
      {
        "isContribuable": false,
        "id": 3159,
        "body": "Mitigé et plutôt Contre la formulation actuelle, qui ne semble pas avoir beaucoup de force. Les collectivités peuvent déjà avoir une telle stratégie, et certaines régions l'ont déjà formulée dans les S3. Je ne vois pas ce que cet article apporte de plus.",
        "created_at": "2015-10-11T16:25:31+0200",
        "updated_at": "2015-10-11T16:25:31+0200",
        "is_enabled": true,
        "votes_count": 4,
        "type": 0,
        "is_trashed": false,
        "author": {
          "username": "Aymeric Poulain Maubant",
          "displayName": "Aymeric Poulain Maubant",
          "uniqueId": "aymericpoulainmaubant",
          "isAdmin": false,
          "media": {
            "url": "/media/cache/default_avatar/default/0001/01/515_default_avatar.jpg"
          },
          "vip": false,
          "_links": {
            "profile": "https://www.republique-numerique.fr/profile/aymericpoulainmaubant",
            "settings": "https://www.republique-numerique.fr/profile/edit-profile"
          }
        },
        "_links": {
          "show": "https://www.republique-numerique.fr/consultations/projet-de-loi-numerique/consultation/consultation/opinions/section-1-competences-et-organisation/article-23-schema-directeur-numerique-des-collectivites#arg-3159",
          "edit": "https://www.republique-numerique.fr/consultations/projet-de-loi-numerique/consultation/consultation/opinions/section-1-competences-et-organisation/article-23-schema-directeur-numerique-des-collectivites/arguments/3159/edit",
          "report": "https://www.republique-numerique.fr/consultations/projet-de-loi-numerique/consultation/consultation/opinions/section-1-competences-et-organisation/article-23-schema-directeur-numerique-des-collectivites/arguments/3159/report"
        },
        "has_user_voted": false,
        "has_user_reported": false
      },
      {
        "isContribuable": false,
        "id": 3117,
        "body": "Qu'est-ce que c’est, ces 'usages numériques'? Ça ne veut rien dire.  L'article parle aussi de \"services\", c'est d'accord. Mais aussi d' \"identifier des zones\" et de \"stratégie de développement\". Tout cela est très confus...   Parle-t-on d'identifier les besoins des usagers ?  des besoins en services numériques spécifiques? ou de l’infrastructure requise?  On mentionne aussi \"Maillage\"... S'agit-il de lier tous les services pour éviter les duplications? donc d'une planification de l'offre de service numérique... etc...  Article a revoir... ",
        "created_at": "2015-10-11T11:45:55+0200",
        "updated_at": "2015-10-11T11:45:55+0200",
        "is_enabled": true,
        "votes_count": 3,
        "type": 0,
        "is_trashed": false,
        "author": {
          "username": "Marcel Poualion",
          "displayName": "Marcel Poualion",
          "uniqueId": "marcelpoualion",
          "isAdmin": false,
          "media": null,
          "vip": false,
          "_links": {
            "profile": "https://www.republique-numerique.fr/profile/marcelpoualion",
            "settings": "https://www.republique-numerique.fr/profile/edit-profile"
          }
        },
        "_links": {
          "show": "https://www.republique-numerique.fr/consultations/projet-de-loi-numerique/consultation/consultation/opinions/section-1-competences-et-organisation/article-23-schema-directeur-numerique-des-collectivites#arg-3117",
          "edit": "https://www.republique-numerique.fr/consultations/projet-de-loi-numerique/consultation/consultation/opinions/section-1-competences-et-organisation/article-23-schema-directeur-numerique-des-collectivites/arguments/3117/edit",
          "report": "https://www.republique-numerique.fr/consultations/projet-de-loi-numerique/consultation/consultation/opinions/section-1-competences-et-organisation/article-23-schema-directeur-numerique-des-collectivites/arguments/3117/report"
        },
        "has_user_voted": false,
        "has_user_reported": false
      },
      {
        "isContribuable": false,
        "id": 2906,
        "body": "Le texte opère une confusion entre les services et les infrastructures. Le déploiement et l'usage des services ne peuvent progresser que lorsque les infrastructures existent. Celles-ci sont nécessaires mais pas suffisantes. Ce texte est à ré-écrire en distinguant ces deux parties.",
        "created_at": "2015-10-10T10:51:47+0200",
        "updated_at": "2015-10-10T10:51:47+0200",
        "is_enabled": true,
        "votes_count": 0,
        "type": 0,
        "is_trashed": false,
        "author": {
          "username": "Alain Marc Chaumet",
          "displayName": "Alain Marc Chaumet",
          "uniqueId": "alainmarcchaumet1",
          "isAdmin": false,
          "media": {
            "url": "/media/cache/default_avatar/default/0001/01/503_default_avatar.jpg"
          },
          "vip": false,
          "_links": {
            "profile": "https://www.republique-numerique.fr/profile/alainmarcchaumet1",
            "settings": "https://www.republique-numerique.fr/profile/edit-profile"
          }
        },
        "_links": {
          "show": "https://www.republique-numerique.fr/consultations/projet-de-loi-numerique/consultation/consultation/opinions/section-1-competences-et-organisation/article-23-schema-directeur-numerique-des-collectivites#arg-2906",
          "edit": "https://www.republique-numerique.fr/consultations/projet-de-loi-numerique/consultation/consultation/opinions/section-1-competences-et-organisation/article-23-schema-directeur-numerique-des-collectivites/arguments/2906/edit",
          "report": "https://www.republique-numerique.fr/consultations/projet-de-loi-numerique/consultation/consultation/opinions/section-1-competences-et-organisation/article-23-schema-directeur-numerique-des-collectivites/arguments/2906/report"
        },
        "has_user_voted": false,
        "has_user_reported": false
      },
      {
        "isContribuable": false,
        "id": 2905,
        "body": "Cet article n'est qu'un verbiage supplémentaire et inutile. La clause de compétence générale permet déjà aux collectivités locales d'investir sur le déploiement des réseaux.\nIl manque seulement une meilleure mise en cohérence des moyens d'ensemble, une action plus jacobine et une commande claire des pouvoirs publics, notamment nationaux, aux opérateurs.",
        "created_at": "2015-10-10T10:47:56+0200",
        "updated_at": "2015-10-10T10:47:56+0200",
        "is_enabled": true,
        "votes_count": 3,
        "type": 0,
        "is_trashed": false,
        "author": {
          "username": "Alain Marc Chaumet",
          "displayName": "Alain Marc Chaumet",
          "uniqueId": "alainmarcchaumet1",
          "isAdmin": false,
          "media": {
            "url": "/media/cache/default_avatar/default/0001/01/503_default_avatar.jpg"
          },
          "vip": false,
          "_links": {
            "profile": "https://www.republique-numerique.fr/profile/alainmarcchaumet1",
            "settings": "https://www.republique-numerique.fr/profile/edit-profile"
          }
        },
        "_links": {
          "show": "https://www.republique-numerique.fr/consultations/projet-de-loi-numerique/consultation/consultation/opinions/section-1-competences-et-organisation/article-23-schema-directeur-numerique-des-collectivites#arg-2905",
          "edit": "https://www.republique-numerique.fr/consultations/projet-de-loi-numerique/consultation/consultation/opinions/section-1-competences-et-organisation/article-23-schema-directeur-numerique-des-collectivites/arguments/2905/edit",
          "report": "https://www.republique-numerique.fr/consultations/projet-de-loi-numerique/consultation/consultation/opinions/section-1-competences-et-organisation/article-23-schema-directeur-numerique-des-collectivites/arguments/2905/report"
        },
        "has_user_voted": false,
        "has_user_reported": false
      },
      {
        "isContribuable": false,
        "id": 1934,
        "body": "La France numérique sera un \"immeuble\" dont les fondations (infrastructures)devront etre très solides pour supporter des étages(usages) dont le nombre sera exponentiel... d'où l'importance de couvrir la France en fibre optique partout ! https://websdugevaudan.wordpress.com/2015/09/29/les-webs-du-gevaudan-proposenr-un-droit-a-la-fibre/",
        "created_at": "2015-10-01T19:40:11+0200",
        "updated_at": "2015-10-01T19:40:11+0200",
        "is_enabled": true,
        "votes_count": 1,
        "type": 1,
        "is_trashed": false,
        "author": {
          "username": "Webs du Gévaudan",
          "displayName": "Webs du Gévaudan",
          "uniqueId": "websdugevaudan",
          "isAdmin": false,
          "media": null,
          "vip": false,
          "_links": {
            "profile": "https://www.republique-numerique.fr/profile/websdugevaudan",
            "settings": "https://www.republique-numerique.fr/profile/edit-profile"
          }
        },
        "_links": {
          "show": "https://www.republique-numerique.fr/consultations/projet-de-loi-numerique/consultation/consultation/opinions/section-1-competences-et-organisation/article-23-schema-directeur-numerique-des-collectivites#arg-1934",
          "edit": "https://www.republique-numerique.fr/consultations/projet-de-loi-numerique/consultation/consultation/opinions/section-1-competences-et-organisation/article-23-schema-directeur-numerique-des-collectivites/arguments/1934/edit",
          "report": "https://www.republique-numerique.fr/consultations/projet-de-loi-numerique/consultation/consultation/opinions/section-1-competences-et-organisation/article-23-schema-directeur-numerique-des-collectivites/arguments/1934/report"
        },
        "has_user_voted": false,
        "has_user_reported": false
      },
      {
        "isContribuable": false,
        "id": 865,
        "body": "Encore faudrait-il disposer, déjà, d'un réseau très haut débit ... PARTOUT en france !!!\n\nEt pas que dans les grandes villes ... à ce que je sache la Fance a bien réussi à disposer d'un réseau cuivre partout, pourquoi la fibre n'est pas partout en 2015 ?\nDésolé ... la charrue avant les bœufs : c'est juste pas bon.",
        "created_at": "2015-09-28T14:04:45+0200",
        "updated_at": "2015-09-28T14:04:45+0200",
        "is_enabled": true,
        "votes_count": 3,
        "type": 0,
        "is_trashed": false,
        "author": {
          "username": "DUFOUR Stéphane",
          "displayName": "DUFOUR Stéphane",
          "uniqueId": "dufourstephane",
          "isAdmin": false,
          "media": null,
          "vip": false,
          "_links": {
            "profile": "https://www.republique-numerique.fr/profile/dufourstephane",
            "settings": "https://www.republique-numerique.fr/profile/edit-profile"
          }
        },
        "_links": {
          "show": "https://www.republique-numerique.fr/consultations/projet-de-loi-numerique/consultation/consultation/opinions/section-1-competences-et-organisation/article-23-schema-directeur-numerique-des-collectivites#arg-865",
          "edit": "https://www.republique-numerique.fr/consultations/projet-de-loi-numerique/consultation/consultation/opinions/section-1-competences-et-organisation/article-23-schema-directeur-numerique-des-collectivites/arguments/865/edit",
          "report": "https://www.republique-numerique.fr/consultations/projet-de-loi-numerique/consultation/consultation/opinions/section-1-competences-et-organisation/article-23-schema-directeur-numerique-des-collectivites/arguments/865/report"
        },
        "has_user_voted": false,
        "has_user_reported": false
      },
      {
        "isContribuable": false,
        "id": 855,
        "body": "Trop longtemps l'Etat et les collectivités se sont focalisés uniquement sur les enjeux d'aménagement numérique du territoire (couverture numérique du territoire) en mettant de côté ce qui devrait être le cœur de l'action publique du XXI ième siècle : les USAGES !\n\nLe Plan France Très Haut Débit ayant atteint sa vitesse de croisière et les Schémas de Cohérence Territoriale (SCoT) [territoire supra communal] couvrant maintenant le champ de la couverture numérique :\n\nIl faut miser sur le développement de ces usages et services numériques avec une vision partagée à l'ensemble des acteurs d'un territoire donné (l'échelle départementale ou bi-départementale semblant cohérente).\n\nCela se fera par la mise en place [prévu par cet article de loi] d'une Stratégie de Développement des Usages et Services Numériques (SDUSN) comme volet du Schéma Directeur Territorial d’Aménagement Numérique (SDTAN). Le SDTAN étant la déclinaison plus locale de la Stratégie de Cohérence régionale pour l’Aménagement Numérique (SCoRAN) qui fixe les grandes orientations souhaitées par les acteurs régionaux.\n\nMAIS il faudrait alors définir dans cet article l'existence obligatoire d'un volet \"Usages et Services Numériques\" dans les SCoRAN.\n\nA l'inverse lier un SDUSN, de par la loi, uniquement au Schéma Régional de Développement Economique (SRDE) me semble inutile et restrictif. Pourquoi ne pas citer alors Schéma régional pour l’enseignement supérieur, la recherche et l’innovation (SRESRI), le Plan Stratégique Régional de Santé (PSRS), etc.\n",
        "created_at": "2015-09-28T13:42:19+0200",
        "updated_at": "2015-09-28T13:42:19+0200",
        "is_enabled": true,
        "votes_count": 5,
        "type": 1,
        "is_trashed": false,
        "author": {
          "username": "Thibaut Le Corre",
          "displayName": "Thibaut Le Corre",
          "uniqueId": "thibautlecorre",
          "isAdmin": false,
          "media": {
            "url": "/media/cache/default_avatar/default/0001/01/231_default_avatar.jpg"
          },
          "vip": false,
          "_links": {
            "profile": "https://www.republique-numerique.fr/profile/thibautlecorre",
            "settings": "https://www.republique-numerique.fr/profile/edit-profile"
          }
        },
        "_links": {
          "show": "https://www.republique-numerique.fr/consultations/projet-de-loi-numerique/consultation/consultation/opinions/section-1-competences-et-organisation/article-23-schema-directeur-numerique-des-collectivites#arg-855",
          "edit": "https://www.republique-numerique.fr/consultations/projet-de-loi-numerique/consultation/consultation/opinions/section-1-competences-et-organisation/article-23-schema-directeur-numerique-des-collectivites/arguments/855/edit",
          "report": "https://www.republique-numerique.fr/consultations/projet-de-loi-numerique/consultation/consultation/opinions/section-1-competences-et-organisation/article-23-schema-directeur-numerique-des-collectivites/arguments/855/report"
        },
        "has_user_voted": false,
        "has_user_reported": false
      },
      {
        "isContribuable": false,
        "id": 394,
        "body": "\"les conseils départementaux ou les conseils régionaux\" : pourquoi les deux niveaux d'organisations auraient ils la même compétence ?  Si ça peut être fait localement ça devrait être au niveau du département ( principe de subsidiarité). Il faut éviter les doublons : une entité unique devrait avoir la compétence sur le sujet ( et la pleine responsabilité des résultats). ",
        "created_at": "2015-09-27T08:33:23+0200",
        "updated_at": "2015-09-27T08:33:23+0200",
        "is_enabled": true,
        "votes_count": 4,
        "type": 1,
        "is_trashed": false,
        "author": {
          "username": "Yves Martin",
          "displayName": "Yves Martin",
          "uniqueId": "yvesmartin",
          "isAdmin": false,
          "media": null,
          "vip": false,
          "_links": {
            "profile": "https://www.republique-numerique.fr/profile/yvesmartin",
            "settings": "https://www.republique-numerique.fr/profile/edit-profile"
          }
        },
        "_links": {
          "show": "https://www.republique-numerique.fr/consultations/projet-de-loi-numerique/consultation/consultation/opinions/section-1-competences-et-organisation/article-23-schema-directeur-numerique-des-collectivites#arg-394",
          "edit": "https://www.republique-numerique.fr/consultations/projet-de-loi-numerique/consultation/consultation/opinions/section-1-competences-et-organisation/article-23-schema-directeur-numerique-des-collectivites/arguments/394/edit",
          "report": "https://www.republique-numerique.fr/consultations/projet-de-loi-numerique/consultation/consultation/opinions/section-1-competences-et-organisation/article-23-schema-directeur-numerique-des-collectivites/arguments/394/report"
        },
        "has_user_voted": false,
        "has_user_reported": false
      }
    ],
    "modals": [
      {
        "key": "article L. 1425-3",
        "before": "",
        "after": "<p>« Dans les domaines de compétence que la loi leur attribue, les conseils départementaux ou les conseils régionaux peuvent établir une stratégie de développement des usages et services numériques existants, identifier les zones qu'ils desservent et présenter une stratégie de développement de ceux-ci, sur leur territoire. Cette stratégie, qui a une valeur indicative, vise à favoriser la cohérence des initiatives publiques et leur bonne articulation avec l'investissement privé, ainsi que la mise en place de ressources partagées et mutualisées afin de doter l’ensemble des territoires d’un maillage équilibré de services numériques. Elle est établie en cohérence avec les schémas régionaux de développement économique. Cette stratégie constitue un volet du schéma directeur territorial d’aménagement numérique. »</p>",
        "title": "Création du nouvel article L1425-3 du code général des collectivités territoriales"
      }
    ],
    "votes": [
      {
        "user": {
          "username": "Michel LEBON",
          "displayName": "Michel LEBON",
          "uniqueId": "michellebon",
          "isAdmin": false,
          "media": {
            "url": "/media/cache/default_avatar/default/0001/01/88_default_avatar.jpg"
          },
          "vip": false,
          "_links": {
            "profile": "https://www.republique-numerique.fr/profile/michellebon",
            "settings": "https://www.republique-numerique.fr/profile/edit-profile"
          }
        }
      },
      {
        "user": {
          "username": "Simon Barthélemy",
          "displayName": "Simon Barthélemy",
          "uniqueId": "simonbarthelemy1",
          "isAdmin": false,
          "media": null,
          "vip": false,
          "_links": {
            "profile": "https://www.republique-numerique.fr/profile/simonbarthelemy1",
            "settings": "https://www.republique-numerique.fr/profile/edit-profile"
          }
        }
      },
      {
        "user": {
          "username": "Gautier Fauquembergue",
          "displayName": "Gautier Fauquembergue",
          "uniqueId": "gautierfauquembergue",
          "isAdmin": false,
          "media": null,
          "vip": false,
          "_links": {
            "profile": "https://www.republique-numerique.fr/profile/gautierfauquembergue",
            "settings": "https://www.republique-numerique.fr/profile/edit-profile"
          }
        }
      },
      {
        "user": {
          "username": "MAINGUY-PELERIN laurane",
          "displayName": "MAINGUY-PELERIN laurane",
          "uniqueId": "mainguypelerinlaurane",
          "isAdmin": false,
          "media": null,
          "vip": false,
          "_links": {
            "profile": "https://www.republique-numerique.fr/profile/mainguypelerinlaurane",
            "settings": "https://www.republique-numerique.fr/profile/edit-profile"
          }
        }
      },
      {
        "user": {
          "username": "Pierre Penlou",
          "displayName": "Pierre Penlou",
          "uniqueId": "pierrepenlou",
          "isAdmin": false,
          "media": null,
          "vip": false,
          "_links": {
            "profile": "https://www.republique-numerique.fr/profile/pierrepenlou",
            "settings": "https://www.republique-numerique.fr/profile/edit-profile"
          }
        }
      }
    ],
    "appendices": [
      {
        "body": "<p><strong>Objectif :</strong> Etendre au domaine des services num&eacute;riques collectifs la d&eacute;marche de concertation et de d&eacute;finition des besoins locaux engag&eacute;e pour le d&eacute;ploiement des r&eacute;seaux.</p>\r\n\r\n<p><strong>Explication :</strong> Les sch&eacute;mas directeurs territoriaux d&rsquo;am&eacute;nagement num&eacute;rique (SDTAN) ont contribu&eacute; &agrave; structurer l&rsquo;intervention des collectivit&eacute;s territoriales pour le d&eacute;ploiement du tr&egrave;s haut d&eacute;bit et concernent d&eacute;sormais la quasi-totalit&eacute; des d&eacute;partements. L&rsquo;extension de cette d&eacute;marche au domaine des services num&eacute;riques va permettre aux collectivit&eacute;s territoriales de mettre en ad&eacute;quation leurs ambitions en mati&egrave;re de d&eacute;ploiement d&rsquo;infrastructures et leurs strat&eacute;gies de d&eacute;veloppement des services num&eacute;riques de proximit&eacute;, afin que l&rsquo;arriv&eacute;e du tr&egrave;s haut d&eacute;bit s&rsquo;inscrive dans une strat&eacute;gie globale au service de la population, pour la e-sant&eacute;, la ville intelligente ou l&rsquo;am&eacute;lioration des services locaux.</p>\r\n\r\n<p><strong>Exemple :</strong> un d&eacute;partement va pouvoir structurer l&rsquo;offre de service de maintien &agrave; domicile des personnes &acirc;g&eacute;es &agrave; mesure que du d&eacute;ploiement du tr&egrave;s haut d&eacute;bit sur l&rsquo;ensemble de son territoire.</p>",
        "type": {
          "title": "Explication de l'article"
        }
      }
    ],
    "ranking": null,
    "is_trashed": false,
    "title": "Article 23 - Développement des usages numériques dans les territoires",
    "votes_nok": 18,
    "votes_ok": 317,
    "votes_mitige": 33,
    "_links": {
      "show": "https://www.republique-numerique.fr/consultations/projet-de-loi-numerique/consultation/consultation/opinions/section-1-competences-et-organisation/article-23-schema-directeur-numerique-des-collectivites",
      "edit": "https://www.republique-numerique.fr/consultations/projet-de-loi-numerique/consultation/consultation/opinions/section-1-competences-et-organisation/article-23-schema-directeur-numerique-des-collectivites/edit",
      "report": "https://www.republique-numerique.fr/consultations/projet-de-loi-numerique/consultation/consultation/opinions/section-1-competences-et-organisation/article-23-schema-directeur-numerique-des-collectivites/report",
      "type": "https://www.republique-numerique.fr/consultations/projet-de-loi-numerique/consultation/consultation/opinions/section-1-competences-et-organisation"
    },
    "user_vote": null,
    "has_user_reported": false
  },
  "rankingThreshold": null,
  "opinionTerm": 1
}