{
  "opinion": {
    "isContribuable": false,
    "votes_total": 64,
    "arguments_yes_count": 7,
    "arguments_no_count": 1,
    "id": 438,
    "created_at": "2015-10-06T10:59:12+0200",
    "updated_at": "2015-10-06T10:59:12+0200",
    "body": "<p>L&#39;achat de logiciels pour assurer le bon fonctionnement des administrations publiques co&ucirc;tent chaque ann&eacute;e des millions au contribuable fran&ccedil;ais. Afin de parer &agrave; ces d&eacute;penses inutiles, cet article propose de g&eacute;n&eacute;raliser l&#39;utilisation de logicieles Open sources dans les administrations.</p>",
    "versions_count": 0,
    "sources_count": 0,
    "arguments_count": 8,
    "author": {
      "username": "Timothé Poulain",
      "displayName": "Timothé Poulain",
      "uniqueId": "timothepoulain",
      "isAdmin": false,
      "media": null,
      "vip": false,
      "_links": {
        "profile": "https://www.republique-numerique.fr/profile/timothepoulain",
        "settings": "https://www.republique-numerique.fr/profile/edit-profile"
      }
    },
    "type": {
      "id": 86,
      "title": "Section 1",
      "subtitle": "Ouverture des données publiques",
      "voteWidgetType": 2,
      "votesHelpText": "Pensez-vous que cette proposition permet d'atteindre les objectifs présentés dans l’explication de l’article ?",
      "commentSystem": 2,
      "color": "blue",
      "versionable": true,
      "sourceable": true,
      "votesThreshold": null,
      "votesThresholdHelpText": null
    },
    "sources": [],
    "arguments": [
      {
        "isContribuable": false,
        "id": 5874,
        "body": "@Tanéléo.\nNon, ce n'est pas contraire au principe des marchés publics. Cela a d'ailleurs été confirmé en cassation il me semble. Toutes les entreprises sont mises à pied d'égalité avec un logiciel libre à l'opposé de ce qui se passe en imposant un logiciel fermé. D'autre part, le développement dans le cadre du libre est un marché de service et pas un marché de fourniture.",
        "created_at": "2015-10-18T15:46:49+0200",
        "updated_at": "2015-10-18T15:46:49+0200",
        "is_enabled": true,
        "votes_count": 1,
        "type": 1,
        "is_trashed": false,
        "author": {
          "username": "Maisonobe Luc",
          "displayName": "Maisonobe Luc",
          "uniqueId": "maisonobeluc",
          "isAdmin": false,
          "media": {
            "url": "/media/cache/default_avatar/default/0001/01/710_default_avatar.jpg"
          },
          "vip": false,
          "_links": {
            "profile": "https://www.republique-numerique.fr/profile/maisonobeluc",
            "settings": "https://www.republique-numerique.fr/profile/edit-profile"
          }
        },
        "_links": {
          "show": "https://www.republique-numerique.fr/consultations/projet-de-loi-numerique/consultation/consultation/opinions/section-1-ouverture-des-donnees-publiques-1/generalisation-de-l-utilisation-des-logiciels-open-source-par-les-instances-publiques#arg-5874",
          "edit": "https://www.republique-numerique.fr/consultations/projet-de-loi-numerique/consultation/consultation/opinions/section-1-ouverture-des-donnees-publiques-1/generalisation-de-l-utilisation-des-logiciels-open-source-par-les-instances-publiques/arguments/5874/edit",
          "report": "https://www.republique-numerique.fr/consultations/projet-de-loi-numerique/consultation/consultation/opinions/section-1-ouverture-des-donnees-publiques-1/generalisation-de-l-utilisation-des-logiciels-open-source-par-les-instances-publiques/arguments/5874/report"
        },
        "has_user_voted": false,
        "has_user_reported": false
      },
      {
        "isContribuable": false,
        "id": 5246,
        "body": "Proposition contraire à l'impératif de recours au marché public.",
        "created_at": "2015-10-17T14:37:36+0200",
        "updated_at": "2015-10-17T14:37:36+0200",
        "is_enabled": true,
        "votes_count": 0,
        "type": 0,
        "is_trashed": false,
        "author": {
          "username": "Tanéléo",
          "displayName": "Tanéléo",
          "uniqueId": "taneleo",
          "isAdmin": false,
          "media": null,
          "vip": false,
          "_links": {
            "profile": "https://www.republique-numerique.fr/profile/taneleo",
            "settings": "https://www.republique-numerique.fr/profile/edit-profile"
          }
        },
        "_links": {
          "show": "https://www.republique-numerique.fr/consultations/projet-de-loi-numerique/consultation/consultation/opinions/section-1-ouverture-des-donnees-publiques-1/generalisation-de-l-utilisation-des-logiciels-open-source-par-les-instances-publiques#arg-5246",
          "edit": "https://www.republique-numerique.fr/consultations/projet-de-loi-numerique/consultation/consultation/opinions/section-1-ouverture-des-donnees-publiques-1/generalisation-de-l-utilisation-des-logiciels-open-source-par-les-instances-publiques/arguments/5246/edit",
          "report": "https://www.republique-numerique.fr/consultations/projet-de-loi-numerique/consultation/consultation/opinions/section-1-ouverture-des-donnees-publiques-1/generalisation-de-l-utilisation-des-logiciels-open-source-par-les-instances-publiques/arguments/5246/report"
        },
        "has_user_voted": false,
        "has_user_reported": false
      },
      {
        "isContribuable": false,
        "id": 5141,
        "body": "Le coût existera au départ, mais c'est un investissement pour l'avenir.\nSi on joue vite et bien le jeu du logiciel libre, le produit deviendra même plus efficace que la version fermée et payante concurrente. On ne dépendra plus de firmes étrangères dont nous ne maîtrisons pas l'intégrité (vis à vis de notre pays car parfois elles jouent plus pour leur pays d'origine).",
        "created_at": "2015-10-17T10:14:25+0200",
        "updated_at": "2015-10-17T10:14:25+0200",
        "is_enabled": true,
        "votes_count": 2,
        "type": 1,
        "is_trashed": false,
        "author": {
          "username": "Siaud Bernard Albert Lucien",
          "displayName": "Siaud Bernard Albert Lucien",
          "uniqueId": "siaudbernardalbertlucien",
          "isAdmin": false,
          "media": null,
          "vip": false,
          "_links": {
            "profile": "https://www.republique-numerique.fr/profile/siaudbernardalbertlucien",
            "settings": "https://www.republique-numerique.fr/profile/edit-profile"
          }
        },
        "_links": {
          "show": "https://www.republique-numerique.fr/consultations/projet-de-loi-numerique/consultation/consultation/opinions/section-1-ouverture-des-donnees-publiques-1/generalisation-de-l-utilisation-des-logiciels-open-source-par-les-instances-publiques#arg-5141",
          "edit": "https://www.republique-numerique.fr/consultations/projet-de-loi-numerique/consultation/consultation/opinions/section-1-ouverture-des-donnees-publiques-1/generalisation-de-l-utilisation-des-logiciels-open-source-par-les-instances-publiques/arguments/5141/edit",
          "report": "https://www.republique-numerique.fr/consultations/projet-de-loi-numerique/consultation/consultation/opinions/section-1-ouverture-des-donnees-publiques-1/generalisation-de-l-utilisation-des-logiciels-open-source-par-les-instances-publiques/arguments/5141/report"
        },
        "has_user_voted": false,
        "has_user_reported": false
      },
      {
        "isContribuable": false,
        "id": 4657,
        "body": "Je suis d'accord, mais pas pour le motif indiqué: il ne me semble pas évident que l'Open Source soit moins cher. Oui, les licences commerciales sont onéreuses, mais il ne faut pas négliger le coût de formation à de nouveaux logiciels (Open Source ou non), et le coût engendré par une ergonomie souvent moindre. L'argument principal me paraît être surtout une question de principe. Il ne faut pas plus lier le fonctionnement de l'administration de la République à un unique éditeur de logiciels qu'à un unique fournisseur de ramettes de papier ou à un unique constructeur automobile. Dans le paysage éditorial informatique actuel, surtout en Europe, la bureautique est monopolisée par un éditeur. Donc la seule réponse à cette absence de choix est l'Open Source.",
        "created_at": "2015-10-16T12:50:39+0200",
        "updated_at": "2015-10-16T12:50:39+0200",
        "is_enabled": true,
        "votes_count": 0,
        "type": 1,
        "is_trashed": false,
        "author": {
          "username": "Frédéric Da Vitoria",
          "displayName": "Frédéric Da Vitoria",
          "uniqueId": "fredericdavitoria",
          "isAdmin": false,
          "media": null,
          "vip": false,
          "_links": {
            "profile": "https://www.republique-numerique.fr/profile/fredericdavitoria",
            "settings": "https://www.republique-numerique.fr/profile/edit-profile"
          }
        },
        "_links": {
          "show": "https://www.republique-numerique.fr/consultations/projet-de-loi-numerique/consultation/consultation/opinions/section-1-ouverture-des-donnees-publiques-1/generalisation-de-l-utilisation-des-logiciels-open-source-par-les-instances-publiques#arg-4657",
          "edit": "https://www.republique-numerique.fr/consultations/projet-de-loi-numerique/consultation/consultation/opinions/section-1-ouverture-des-donnees-publiques-1/generalisation-de-l-utilisation-des-logiciels-open-source-par-les-instances-publiques/arguments/4657/edit",
          "report": "https://www.republique-numerique.fr/consultations/projet-de-loi-numerique/consultation/consultation/opinions/section-1-ouverture-des-donnees-publiques-1/generalisation-de-l-utilisation-des-logiciels-open-source-par-les-instances-publiques/arguments/4657/report"
        },
        "has_user_voted": false,
        "has_user_reported": false
      },
      {
        "isContribuable": false,
        "id": 4060,
        "body": "Il y a une ambigüité entre le titre de l'article et son explication: confusion entre libre (Open source) et gratuit.",
        "created_at": "2015-10-14T21:52:44+0200",
        "updated_at": "2015-10-14T21:52:44+0200",
        "is_enabled": true,
        "votes_count": 1,
        "type": 1,
        "is_trashed": false,
        "author": {
          "username": "Bruno Charrière",
          "displayName": "Bruno Charrière",
          "uniqueId": "brunocharriere",
          "isAdmin": false,
          "media": null,
          "vip": false,
          "_links": {
            "profile": "https://www.republique-numerique.fr/profile/brunocharriere",
            "settings": "https://www.republique-numerique.fr/profile/edit-profile"
          }
        },
        "_links": {
          "show": "https://www.republique-numerique.fr/consultations/projet-de-loi-numerique/consultation/consultation/opinions/section-1-ouverture-des-donnees-publiques-1/generalisation-de-l-utilisation-des-logiciels-open-source-par-les-instances-publiques#arg-4060",
          "edit": "https://www.republique-numerique.fr/consultations/projet-de-loi-numerique/consultation/consultation/opinions/section-1-ouverture-des-donnees-publiques-1/generalisation-de-l-utilisation-des-logiciels-open-source-par-les-instances-publiques/arguments/4060/edit",
          "report": "https://www.republique-numerique.fr/consultations/projet-de-loi-numerique/consultation/consultation/opinions/section-1-ouverture-des-donnees-publiques-1/generalisation-de-l-utilisation-des-logiciels-open-source-par-les-instances-publiques/arguments/4060/report"
        },
        "has_user_voted": false,
        "has_user_reported": false
      },
      {
        "isContribuable": false,
        "id": 3406,
        "body": "Avec des agents dédiés à l'amélioration permanente des logiciels libres !",
        "created_at": "2015-10-12T22:06:35+0200",
        "updated_at": "2015-10-12T22:06:35+0200",
        "is_enabled": true,
        "votes_count": 1,
        "type": 1,
        "is_trashed": false,
        "author": {
          "username": "William Quaranta",
          "displayName": "William Quaranta",
          "uniqueId": "williamquaranta",
          "isAdmin": false,
          "media": null,
          "vip": false,
          "_links": {
            "profile": "https://www.republique-numerique.fr/profile/williamquaranta",
            "settings": "https://www.republique-numerique.fr/profile/edit-profile"
          }
        },
        "_links": {
          "show": "https://www.republique-numerique.fr/consultations/projet-de-loi-numerique/consultation/consultation/opinions/section-1-ouverture-des-donnees-publiques-1/generalisation-de-l-utilisation-des-logiciels-open-source-par-les-instances-publiques#arg-3406",
          "edit": "https://www.republique-numerique.fr/consultations/projet-de-loi-numerique/consultation/consultation/opinions/section-1-ouverture-des-donnees-publiques-1/generalisation-de-l-utilisation-des-logiciels-open-source-par-les-instances-publiques/arguments/3406/edit",
          "report": "https://www.republique-numerique.fr/consultations/projet-de-loi-numerique/consultation/consultation/opinions/section-1-ouverture-des-donnees-publiques-1/generalisation-de-l-utilisation-des-logiciels-open-source-par-les-instances-publiques/arguments/3406/report"
        },
        "has_user_voted": false,
        "has_user_reported": false
      },
      {
        "isContribuable": false,
        "id": 3087,
        "body": "La proposition a deja été faite, mais a ce sujet autant insister !",
        "created_at": "2015-10-11T02:54:26+0200",
        "updated_at": "2015-10-11T02:54:26+0200",
        "is_enabled": true,
        "votes_count": 1,
        "type": 1,
        "is_trashed": false,
        "author": {
          "username": "Maltese Nadine",
          "displayName": "Maltese Nadine",
          "uniqueId": "maltesenadine",
          "isAdmin": false,
          "media": {
            "url": "/media/cache/default_avatar/default/0001/01/113_default_avatar.png"
          },
          "vip": false,
          "_links": {
            "profile": "https://www.republique-numerique.fr/profile/maltesenadine",
            "settings": "https://www.republique-numerique.fr/profile/edit-profile"
          }
        },
        "_links": {
          "show": "https://www.republique-numerique.fr/consultations/projet-de-loi-numerique/consultation/consultation/opinions/section-1-ouverture-des-donnees-publiques-1/generalisation-de-l-utilisation-des-logiciels-open-source-par-les-instances-publiques#arg-3087",
          "edit": "https://www.republique-numerique.fr/consultations/projet-de-loi-numerique/consultation/consultation/opinions/section-1-ouverture-des-donnees-publiques-1/generalisation-de-l-utilisation-des-logiciels-open-source-par-les-instances-publiques/arguments/3087/edit",
          "report": "https://www.republique-numerique.fr/consultations/projet-de-loi-numerique/consultation/consultation/opinions/section-1-ouverture-des-donnees-publiques-1/generalisation-de-l-utilisation-des-logiciels-open-source-par-les-instances-publiques/arguments/3087/report"
        },
        "has_user_voted": false,
        "has_user_reported": false
      },
      {
        "isContribuable": false,
        "id": 2403,
        "body": "Doublon",
        "created_at": "2015-10-06T18:26:21+0200",
        "updated_at": "2015-10-06T18:26:21+0200",
        "is_enabled": true,
        "votes_count": 2,
        "type": 1,
        "is_trashed": false,
        "author": {
          "username": "Jeanne Varasco",
          "displayName": "Jeanne Varasco",
          "uniqueId": "jeannevarasco",
          "isAdmin": false,
          "media": {
            "url": "/media/cache/default_avatar/default/0001/01/139_default_avatar.jpg"
          },
          "vip": false,
          "_links": {
            "profile": "https://www.republique-numerique.fr/profile/jeannevarasco",
            "settings": "https://www.republique-numerique.fr/profile/edit-profile"
          }
        },
        "_links": {
          "show": "https://www.republique-numerique.fr/consultations/projet-de-loi-numerique/consultation/consultation/opinions/section-1-ouverture-des-donnees-publiques-1/generalisation-de-l-utilisation-des-logiciels-open-source-par-les-instances-publiques#arg-2403",
          "edit": "https://www.republique-numerique.fr/consultations/projet-de-loi-numerique/consultation/consultation/opinions/section-1-ouverture-des-donnees-publiques-1/generalisation-de-l-utilisation-des-logiciels-open-source-par-les-instances-publiques/arguments/2403/edit",
          "report": "https://www.republique-numerique.fr/consultations/projet-de-loi-numerique/consultation/consultation/opinions/section-1-ouverture-des-donnees-publiques-1/generalisation-de-l-utilisation-des-logiciels-open-source-par-les-instances-publiques/arguments/2403/report"
        },
        "has_user_voted": false,
        "has_user_reported": false
      }
    ],
    "modals": [],
    "votes": [
      {
        "user": {
          "username": "Timothé Poulain",
          "displayName": "Timothé Poulain",
          "uniqueId": "timothepoulain",
          "isAdmin": false,
          "media": null,
          "vip": false,
          "_links": {
            "profile": "https://www.republique-numerique.fr/profile/timothepoulain",
            "settings": "https://www.republique-numerique.fr/profile/edit-profile"
          }
        }
      },
      {
        "user": {
          "username": "Jeanne Varasco",
          "displayName": "Jeanne Varasco",
          "uniqueId": "jeannevarasco",
          "isAdmin": false,
          "media": {
            "url": "/media/cache/default_avatar/default/0001/01/139_default_avatar.jpg"
          },
          "vip": false,
          "_links": {
            "profile": "https://www.republique-numerique.fr/profile/jeannevarasco",
            "settings": "https://www.republique-numerique.fr/profile/edit-profile"
          }
        }
      },
      {
        "user": {
          "username": "Sylvain Bud",
          "displayName": "Sylvain Bud",
          "uniqueId": "sylvainbud",
          "isAdmin": false,
          "media": null,
          "vip": false,
          "_links": {
            "profile": "https://www.republique-numerique.fr/profile/sylvainbud",
            "settings": "https://www.republique-numerique.fr/profile/edit-profile"
          }
        }
      },
      {
        "user": {
          "username": "Tommy Guyennot",
          "displayName": "Tommy Guyennot",
          "uniqueId": "tommyguyennot",
          "isAdmin": false,
          "media": {
            "url": "/media/cache/default_avatar/default/0001/01/664_default_avatar.jpg"
          },
          "vip": false,
          "_links": {
            "profile": "https://www.republique-numerique.fr/profile/tommyguyennot",
            "settings": "https://www.republique-numerique.fr/profile/edit-profile"
          }
        }
      },
      {
        "user": {
          "username": "David Snel-Larochette",
          "displayName": "David Snel-Larochette",
          "uniqueId": "davidsnellarochette",
          "isAdmin": false,
          "media": null,
          "vip": false,
          "_links": {
            "profile": "https://www.republique-numerique.fr/profile/davidsnellarochette",
            "settings": "https://www.republique-numerique.fr/profile/edit-profile"
          }
        }
      }
    ],
    "appendices": [
      {
        "body": "<p>Gratuits ces logiciels permettront &agrave; court terme de r&eacute;aliser de substantielles &eacute;conomies et seront le gage d&rsquo;ind&eacute;pendance budg&eacute;taire (le changement de logiciel est fonction du besoin du service et non du fournisseur). Mal&eacute;ables, les logiciels Open source&nbsp;permettront des d&eacute;veloppements informatiques locaux et personnalis&eacute;s qui renforceront l&#39;effiacit&eacute; des sercices.</p>",
        "type": {
          "title": "Explication de l'article"
        }
      }
    ],
    "ranking": 135,
    "is_trashed": false,
    "title": "Généralisation de l’utilisation des logiciels Open source par les instances publiques",
    "votes_nok": 2,
    "votes_ok": 61,
    "votes_mitige": 1,
    "_links": {
      "show": "https://www.republique-numerique.fr/consultations/projet-de-loi-numerique/consultation/consultation/opinions/section-1-ouverture-des-donnees-publiques-1/generalisation-de-l-utilisation-des-logiciels-open-source-par-les-instances-publiques",
      "edit": "https://www.republique-numerique.fr/consultations/projet-de-loi-numerique/consultation/consultation/opinions/section-1-ouverture-des-donnees-publiques-1/generalisation-de-l-utilisation-des-logiciels-open-source-par-les-instances-publiques/edit",
      "report": "https://www.republique-numerique.fr/consultations/projet-de-loi-numerique/consultation/consultation/opinions/section-1-ouverture-des-donnees-publiques-1/generalisation-de-l-utilisation-des-logiciels-open-source-par-les-instances-publiques/report",
      "type": "https://www.republique-numerique.fr/consultations/projet-de-loi-numerique/consultation/consultation/opinions/section-1-ouverture-des-donnees-publiques-1"
    },
    "user_vote": null,
    "has_user_reported": false
  },
  "rankingThreshold": null,
  "opinionTerm": 1
}