{
  "opinion": {
    "isContribuable": false,
    "votes_total": 0,
    "arguments_yes_count": 0,
    "arguments_no_count": 0,
    "id": 762,
    "created_at": "2015-10-18T19:13:38+0200",
    "updated_at": "2015-10-18T19:13:38+0200",
    "body": "<p>Ajouter &agrave; l&#39;article 23 et donc au nouvel article L. 1425-3, les deux alineas suivants,&nbsp;:</p>\r\n\r\n<p>&nbsp;</p>\r\n\r\n<ul>\r\n\t<li>\r\n\t<p>Le sch&eacute;ma directeur territorial d&#39;am&eacute;nagement num&eacute;rique est d&eacute;fini &agrave; l&#39;issue d&#39;une vaste concertation avec les populations concern&eacute;es&nbsp;;</p>\r\n\t</li>\r\n\t<li>\r\n\t<p>Le sch&eacute;ma directeur territorial d&#39;am&eacute;nagement num&eacute;rique est fond&eacute; sur le principe du d&eacute;ploiement d&#39;un r&eacute;seau filaire performant.</p>\r\n\t</li>\r\n</ul>",
    "versions_count": 0,
    "sources_count": 0,
    "arguments_count": 0,
    "author": {
      "username": "Priartem",
      "displayName": "Priartem",
      "uniqueId": "priartem",
      "isAdmin": false,
      "media": null,
      "vip": false,
      "_links": {
        "profile": "https://www.republique-numerique.fr/profile/priartem",
        "settings": "https://www.republique-numerique.fr/profile/edit-profile"
      }
    },
    "type": {
      "id": 103,
      "title": "Section 1",
      "subtitle": "Compétences et organisation",
      "voteWidgetType": 2,
      "votesHelpText": "Pensez-vous que cette proposition permet d'atteindre les objectifs présentés dans l’explication de l’article ?",
      "commentSystem": 2,
      "color": "blue",
      "versionable": true,
      "sourceable": true,
      "votesThreshold": null,
      "votesThresholdHelpText": null
    },
    "sources": [],
    "arguments": [],
    "modals": [],
    "votes": [],
    "appendices": [
      {
        "body": "<p>Le projet de loi tel que pr&eacute;sent&eacute; aujourd&#39;hui ne pr&eacute;voit rien sur les r&eacute;seaux de communication. Or l&#39;incidence du d&eacute;veloppement de l&#39;acc&egrave;s au num&eacute;rique sur les conditions de vie et de sant&eacute; des populations concern&eacute;es d&eacute;pend des choix technologiques retenus. Le d&eacute;veloppement d&#39;un r&eacute;seau filaire performant pour faire circuler les donn&eacute;es au sein des territoires est non seulement l&#39;orientation technologique la plus fiable mais &eacute;galement celle qui contribue le moins &agrave; l&#39;augmentation de l&#39;exposition des populations aux ondes &eacute;lectromagn&eacute;tiques. De trop nombreuses personnes souffrent d&eacute;j&agrave; d&#39;&eacute;lectrosensibilit&eacute;, trop d&#39;interrogations p&egrave;sent sur les effets sur les enfants pour qu&#39;on laisse se d&eacute;velopper des technologies hertziennes invasives.</p>",
        "type": {
          "title": "Explication de l'article"
        }
      }
    ],
    "ranking": 633,
    "is_trashed": false,
    "title": "Schéma directeur numérique des collectivités",
    "votes_nok": 0,
    "votes_ok": 0,
    "votes_mitige": 0,
    "_links": {
      "show": "https://www.republique-numerique.fr/consultations/projet-de-loi-numerique/consultation/consultation/opinions/section-1-competences-et-organisation/schema-directeur-numerique-des-collectivites",
      "edit": "https://www.republique-numerique.fr/consultations/projet-de-loi-numerique/consultation/consultation/opinions/section-1-competences-et-organisation/schema-directeur-numerique-des-collectivites/edit",
      "report": "https://www.republique-numerique.fr/consultations/projet-de-loi-numerique/consultation/consultation/opinions/section-1-competences-et-organisation/schema-directeur-numerique-des-collectivites/report",
      "type": "https://www.republique-numerique.fr/consultations/projet-de-loi-numerique/consultation/consultation/opinions/section-1-competences-et-organisation"
    },
    "user_vote": null,
    "has_user_reported": false
  },
  "rankingThreshold": null,
  "opinionTerm": 1
}