{
  "opinion": {
    "isContribuable": false,
    "votes_total": 30,
    "arguments_yes_count": 3,
    "arguments_no_count": 3,
    "id": 259,
    "created_at": "2015-09-28T18:27:02+0200",
    "updated_at": "2015-09-28T18:29:55+0200",
    "body": "<p>Lorsque l&#39;on re&ccedil;oit un SPAM publicitaire pour une certaine marque organis&eacute;e par une soci&eacute;t&eacute; marketing&nbsp;et que l&#39;on d&eacute;sire se desinscrire de cette publicit&eacute;, il faut que :</p>\r\n\r\n<p>&#39;- la soci&eacute;t&eacute; de marketing ne puisse plus nous contacter sur aucun sujet</p>\r\n\r\n<p>- la marque ne doit plus pouvoir nous faire de la publicit&eacute; par SPAM en passant par une autre soci&eacute;t&eacute; de marketing</p>\r\n\r\n<p>- on doit pouvoir facilement&nbsp;r&eacute;clamer par quelles sources cons&eacute;cutives notre adresse mail a pu &ecirc;tre r&eacute;cup&eacute;r&eacute;e&nbsp;pour pouvoir &eacute;ventuellement se retourner pour porter plainte devant la CNIL</p>",
    "versions_count": 1,
    "sources_count": 0,
    "arguments_count": 6,
    "author": {
      "username": "Keller Pascal",
      "displayName": "Keller Pascal",
      "uniqueId": "kellerpascal",
      "isAdmin": false,
      "media": null,
      "vip": false,
      "_links": {
        "profile": "https://www.republique-numerique.fr/profile/kellerpascal",
        "settings": "https://www.republique-numerique.fr/profile/edit-profile"
      }
    },
    "type": {
      "id": 97,
      "title": "Section 4",
      "subtitle": "Information des consommateurs",
      "voteWidgetType": 2,
      "votesHelpText": "Pensez-vous que cette proposition permet d'atteindre les objectifs présentés dans l’explication de l’article ?",
      "commentSystem": 2,
      "color": "blue",
      "versionable": true,
      "sourceable": true,
      "votesThreshold": null,
      "votesThresholdHelpText": null
    },
    "sources": [],
    "arguments": [
      {
        "isContribuable": false,
        "id": 5872,
        "body": "\"on doit pouvoir facilement réclamer par quelles sources consécutives ...\" -> c'est là le point intéressant de cet article, au niveau de l'applicabilité : cela peut être imposé à toutes les entreprises françaises, qui devront alors demander des comptes à leurs prestataires.",
        "created_at": "2015-10-18T15:45:04+0200",
        "updated_at": "2015-10-18T15:45:04+0200",
        "is_enabled": true,
        "votes_count": 0,
        "type": 1,
        "is_trashed": false,
        "author": {
          "username": "Gami",
          "displayName": "Gami",
          "uniqueId": "gami",
          "isAdmin": false,
          "media": null,
          "vip": false,
          "_links": {
            "profile": "https://www.republique-numerique.fr/profile/gami",
            "settings": "https://www.republique-numerique.fr/profile/edit-profile"
          }
        },
        "_links": {
          "show": "https://www.republique-numerique.fr/consultations/projet-de-loi-numerique/consultation/consultation/opinions/section-4-information-des-consommateurs/mieux-reglementer-les-publicites-par-spam#arg-5872",
          "edit": "https://www.republique-numerique.fr/consultations/projet-de-loi-numerique/consultation/consultation/opinions/section-4-information-des-consommateurs/mieux-reglementer-les-publicites-par-spam/arguments/5872/edit",
          "report": "https://www.republique-numerique.fr/consultations/projet-de-loi-numerique/consultation/consultation/opinions/section-4-information-des-consommateurs/mieux-reglementer-les-publicites-par-spam/arguments/5872/report"
        },
        "has_user_voted": false,
        "has_user_reported": false
      },
      {
        "isContribuable": false,
        "id": 4515,
        "body": "Si on peut porter plainte contre le bénéficiaire de la publicité (très facile à identifier), cela risque fort de vite les calmer et de leur faire gérer plus sérieusement leur base de données.",
        "created_at": "2015-10-16T08:40:19+0200",
        "updated_at": "2015-10-16T08:40:19+0200",
        "is_enabled": true,
        "votes_count": 0,
        "type": 1,
        "is_trashed": false,
        "author": {
          "username": "Keller Pascal",
          "displayName": "Keller Pascal",
          "uniqueId": "kellerpascal",
          "isAdmin": false,
          "media": null,
          "vip": false,
          "_links": {
            "profile": "https://www.republique-numerique.fr/profile/kellerpascal",
            "settings": "https://www.republique-numerique.fr/profile/edit-profile"
          }
        },
        "_links": {
          "show": "https://www.republique-numerique.fr/consultations/projet-de-loi-numerique/consultation/consultation/opinions/section-4-information-des-consommateurs/mieux-reglementer-les-publicites-par-spam#arg-4515",
          "edit": "https://www.republique-numerique.fr/consultations/projet-de-loi-numerique/consultation/consultation/opinions/section-4-information-des-consommateurs/mieux-reglementer-les-publicites-par-spam/arguments/4515/edit",
          "report": "https://www.republique-numerique.fr/consultations/projet-de-loi-numerique/consultation/consultation/opinions/section-4-information-des-consommateurs/mieux-reglementer-les-publicites-par-spam/arguments/4515/report"
        },
        "has_user_voted": false,
        "has_user_reported": false
      },
      {
        "isContribuable": false,
        "id": 2874,
        "body": "C'est inapplicable, tout ça passe par des sociétés écrans qui n'ont que faire du droit : quand vous recevez un spam, il a été envoyé par des spambot contrôlés par des botnets contrôlés par des russes qui rebondissent par des serveurs chinois... bref, c'est impossible.\n\nC'est inhérent au protocole de l'email qui est dépassé. La solution réside plutôt dans la mise en œuvre de protocoles bien plus sûr pour la messagerie, tels que XMPP par exemple.",
        "created_at": "2015-10-09T23:09:44+0200",
        "updated_at": "2015-10-09T23:09:44+0200",
        "is_enabled": true,
        "votes_count": 0,
        "type": 0,
        "is_trashed": false,
        "author": {
          "username": "Bernard Martinez",
          "displayName": "Bernard Martinez",
          "uniqueId": "bernardmartinez",
          "isAdmin": false,
          "media": null,
          "vip": false,
          "_links": {
            "profile": "https://www.republique-numerique.fr/profile/bernardmartinez",
            "settings": "https://www.republique-numerique.fr/profile/edit-profile"
          }
        },
        "_links": {
          "show": "https://www.republique-numerique.fr/consultations/projet-de-loi-numerique/consultation/consultation/opinions/section-4-information-des-consommateurs/mieux-reglementer-les-publicites-par-spam#arg-2874",
          "edit": "https://www.republique-numerique.fr/consultations/projet-de-loi-numerique/consultation/consultation/opinions/section-4-information-des-consommateurs/mieux-reglementer-les-publicites-par-spam/arguments/2874/edit",
          "report": "https://www.republique-numerique.fr/consultations/projet-de-loi-numerique/consultation/consultation/opinions/section-4-information-des-consommateurs/mieux-reglementer-les-publicites-par-spam/arguments/2874/report"
        },
        "has_user_voted": false,
        "has_user_reported": false
      },
      {
        "isContribuable": false,
        "id": 1263,
        "body": "combien d’entre nous ont demandé de se désabonner des spam sans aucun effet!",
        "created_at": "2015-09-29T15:24:40+0200",
        "updated_at": "2015-09-29T15:24:40+0200",
        "is_enabled": true,
        "votes_count": 0,
        "type": 0,
        "is_trashed": false,
        "author": {
          "username": "NADPERR",
          "displayName": "NADPERR",
          "uniqueId": "nadperr",
          "isAdmin": false,
          "media": {
            "url": "/media/cache/default_avatar/default/0001/01/154_default_avatar.jpg"
          },
          "vip": false,
          "_links": {
            "profile": "https://www.republique-numerique.fr/profile/nadperr",
            "settings": "https://www.republique-numerique.fr/profile/edit-profile"
          }
        },
        "_links": {
          "show": "https://www.republique-numerique.fr/consultations/projet-de-loi-numerique/consultation/consultation/opinions/section-4-information-des-consommateurs/mieux-reglementer-les-publicites-par-spam#arg-1263",
          "edit": "https://www.republique-numerique.fr/consultations/projet-de-loi-numerique/consultation/consultation/opinions/section-4-information-des-consommateurs/mieux-reglementer-les-publicites-par-spam/arguments/1263/edit",
          "report": "https://www.republique-numerique.fr/consultations/projet-de-loi-numerique/consultation/consultation/opinions/section-4-information-des-consommateurs/mieux-reglementer-les-publicites-par-spam/arguments/1263/report"
        },
        "has_user_voted": false,
        "has_user_reported": false
      },
      {
        "isContribuable": false,
        "id": 1153,
        "body": "Sur le principe, 100% pour, même si dans la pratique ca me parait compliqué à mettre en oeuvre...",
        "created_at": "2015-09-29T09:47:23+0200",
        "updated_at": "2015-09-29T09:47:23+0200",
        "is_enabled": true,
        "votes_count": 4,
        "type": 1,
        "is_trashed": false,
        "author": {
          "username": "Olivier Gobert",
          "displayName": "Olivier Gobert",
          "uniqueId": "oliviergobert",
          "isAdmin": false,
          "media": null,
          "vip": false,
          "_links": {
            "profile": "https://www.republique-numerique.fr/profile/oliviergobert",
            "settings": "https://www.republique-numerique.fr/profile/edit-profile"
          }
        },
        "_links": {
          "show": "https://www.republique-numerique.fr/consultations/projet-de-loi-numerique/consultation/consultation/opinions/section-4-information-des-consommateurs/mieux-reglementer-les-publicites-par-spam#arg-1153",
          "edit": "https://www.republique-numerique.fr/consultations/projet-de-loi-numerique/consultation/consultation/opinions/section-4-information-des-consommateurs/mieux-reglementer-les-publicites-par-spam/arguments/1153/edit",
          "report": "https://www.republique-numerique.fr/consultations/projet-de-loi-numerique/consultation/consultation/opinions/section-4-information-des-consommateurs/mieux-reglementer-les-publicites-par-spam/arguments/1153/report"
        },
        "has_user_voted": false,
        "has_user_reported": false
      },
      {
        "isContribuable": false,
        "id": 1106,
        "body": "Aujourd'hui, le désabonnement est facile, même si, en effet, on ne sait pas toujours comment ils ont fait pour nous pister.",
        "created_at": "2015-09-29T00:57:50+0200",
        "updated_at": "2015-09-29T00:57:50+0200",
        "is_enabled": true,
        "votes_count": 0,
        "type": 0,
        "is_trashed": false,
        "author": {
          "username": "Jeanne Varasco",
          "displayName": "Jeanne Varasco",
          "uniqueId": "jeannevarasco",
          "isAdmin": false,
          "media": {
            "url": "/media/cache/default_avatar/default/0001/01/139_default_avatar.jpg"
          },
          "vip": false,
          "_links": {
            "profile": "https://www.republique-numerique.fr/profile/jeannevarasco",
            "settings": "https://www.republique-numerique.fr/profile/edit-profile"
          }
        },
        "_links": {
          "show": "https://www.republique-numerique.fr/consultations/projet-de-loi-numerique/consultation/consultation/opinions/section-4-information-des-consommateurs/mieux-reglementer-les-publicites-par-spam#arg-1106",
          "edit": "https://www.republique-numerique.fr/consultations/projet-de-loi-numerique/consultation/consultation/opinions/section-4-information-des-consommateurs/mieux-reglementer-les-publicites-par-spam/arguments/1106/edit",
          "report": "https://www.republique-numerique.fr/consultations/projet-de-loi-numerique/consultation/consultation/opinions/section-4-information-des-consommateurs/mieux-reglementer-les-publicites-par-spam/arguments/1106/report"
        },
        "has_user_voted": false,
        "has_user_reported": false
      }
    ],
    "modals": [],
    "votes": [
      {
        "user": {
          "username": "Keller Pascal",
          "displayName": "Keller Pascal",
          "uniqueId": "kellerpascal",
          "isAdmin": false,
          "media": null,
          "vip": false,
          "_links": {
            "profile": "https://www.republique-numerique.fr/profile/kellerpascal",
            "settings": "https://www.republique-numerique.fr/profile/edit-profile"
          }
        }
      },
      {
        "user": {
          "username": "Dumoncel",
          "displayName": "Dumoncel",
          "uniqueId": "dumoncel",
          "isAdmin": false,
          "media": null,
          "vip": false,
          "_links": {
            "profile": "https://www.republique-numerique.fr/profile/dumoncel",
            "settings": "https://www.republique-numerique.fr/profile/edit-profile"
          }
        }
      },
      {
        "user": {
          "username": "Jeanne Varasco",
          "displayName": "Jeanne Varasco",
          "uniqueId": "jeannevarasco",
          "isAdmin": false,
          "media": {
            "url": "/media/cache/default_avatar/default/0001/01/139_default_avatar.jpg"
          },
          "vip": false,
          "_links": {
            "profile": "https://www.republique-numerique.fr/profile/jeannevarasco",
            "settings": "https://www.republique-numerique.fr/profile/edit-profile"
          }
        }
      },
      {
        "user": {
          "username": "Olivier Gobert",
          "displayName": "Olivier Gobert",
          "uniqueId": "oliviergobert",
          "isAdmin": false,
          "media": null,
          "vip": false,
          "_links": {
            "profile": "https://www.republique-numerique.fr/profile/oliviergobert",
            "settings": "https://www.republique-numerique.fr/profile/edit-profile"
          }
        }
      },
      {
        "user": {
          "username": "NADPERR",
          "displayName": "NADPERR",
          "uniqueId": "nadperr",
          "isAdmin": false,
          "media": {
            "url": "/media/cache/default_avatar/default/0001/01/154_default_avatar.jpg"
          },
          "vip": false,
          "_links": {
            "profile": "https://www.republique-numerique.fr/profile/nadperr",
            "settings": "https://www.republique-numerique.fr/profile/edit-profile"
          }
        }
      }
    ],
    "appendices": [
      {
        "body": "<p>Dans nos bo&icirc;tes aux lettres personnelles, on re&ccedil;oit sans arr&ecirc;t des&nbsp;publicit&eacute;s&nbsp;pour les m&ecirc;mes marques car ces marques&nbsp;passent sans cesse par de nouvelles soci&eacute;t&eacute;s de marketing pour contourner la loi qui nous permet de nous d&eacute;sincrire de listes&nbsp;de distribution. En se desinscrivant, on confirme notre adresse mail, on est tranquille quelques jours, puis la publicit&eacute; nous arrive identique d&#39;une autre soci&eacute;t&eacute;...</p>\r\n\r\n<p>On se demande aussi souvent comment nos adresses mail ont&nbsp;pu &ecirc;tre r&eacute;cup&eacute;r&eacute;es...</p>",
        "type": {
          "title": "Explication de l'article"
        }
      }
    ],
    "ranking": 189,
    "is_trashed": false,
    "title": "Mieux réglementer les publicités par SPAM",
    "votes_nok": 1,
    "votes_ok": 26,
    "votes_mitige": 3,
    "_links": {
      "show": "https://www.republique-numerique.fr/consultations/projet-de-loi-numerique/consultation/consultation/opinions/section-4-information-des-consommateurs/mieux-reglementer-les-publicites-par-spam",
      "edit": "https://www.republique-numerique.fr/consultations/projet-de-loi-numerique/consultation/consultation/opinions/section-4-information-des-consommateurs/mieux-reglementer-les-publicites-par-spam/edit",
      "report": "https://www.republique-numerique.fr/consultations/projet-de-loi-numerique/consultation/consultation/opinions/section-4-information-des-consommateurs/mieux-reglementer-les-publicites-par-spam/report",
      "type": "https://www.republique-numerique.fr/consultations/projet-de-loi-numerique/consultation/consultation/opinions/section-4-information-des-consommateurs"
    },
    "user_vote": null,
    "has_user_reported": false
  },
  "rankingThreshold": null,
  "opinionTerm": 1
}