{
  "opinion": {
    "isContribuable": false,
    "votes_total": 2,
    "arguments_yes_count": 0,
    "arguments_no_count": 0,
    "id": 760,
    "created_at": "2015-10-18T18:45:55+0200",
    "updated_at": "2015-10-18T18:45:55+0200",
    "body": "<p>Ins&eacute;rer un article ainsi r&eacute;dig&eacute; :</p>\r\n\r\n<p>&laquo;&nbsp;Tous les r&eacute;f&eacute;rentiels s&rsquo;appliquant &agrave; l&rsquo;administration doivent prendre appui sur les travaux men&eacute;s par l&rsquo;association fran&ccedil;aise de normalisation&nbsp;&raquo;.</p>",
    "versions_count": 0,
    "sources_count": 0,
    "arguments_count": 0,
    "author": {
      "username": "Syntec Numérique",
      "displayName": "Syntec Numérique",
      "uniqueId": "syntecnumerique",
      "isAdmin": false,
      "media": {
        "url": "/media/cache/default_avatar/default/0001/01/202_default_avatar.png"
      },
      "vip": false,
      "_links": {
        "profile": "https://www.republique-numerique.fr/profile/syntecnumerique",
        "settings": "https://www.republique-numerique.fr/profile/edit-profile"
      }
    },
    "type": {
      "id": 87,
      "title": "Section 2",
      "subtitle": "Service public de la donnée",
      "voteWidgetType": 2,
      "votesHelpText": "Pensez-vous que cette proposition permet d'atteindre les objectifs présentés dans l’explication de l’article ?",
      "commentSystem": 2,
      "color": "blue",
      "versionable": true,
      "sourceable": true,
      "votesThreshold": null,
      "votesThresholdHelpText": null
    },
    "sources": [],
    "arguments": [],
    "modals": [],
    "votes": [
      {
        "user": {
          "username": "Benoit Phuez",
          "displayName": "Benoit Phuez",
          "uniqueId": "benoitphuez",
          "isAdmin": false,
          "media": {
            "url": "/media/cache/default_avatar/default/0001/01/191_default_avatar.jpg"
          },
          "vip": false,
          "_links": {
            "profile": "https://www.republique-numerique.fr/profile/benoitphuez",
            "settings": "https://www.republique-numerique.fr/profile/edit-profile"
          }
        }
      },
      {
        "user": {
          "username": "Maltese Nadine",
          "displayName": "Maltese Nadine",
          "uniqueId": "maltesenadine",
          "isAdmin": false,
          "media": {
            "url": "/media/cache/default_avatar/default/0001/01/113_default_avatar.png"
          },
          "vip": false,
          "_links": {
            "profile": "https://www.republique-numerique.fr/profile/maltesenadine",
            "settings": "https://www.republique-numerique.fr/profile/edit-profile"
          }
        }
      }
    ],
    "appendices": [
      {
        "body": null,
        "type": {
          "title": "Explication de l'article"
        }
      }
    ],
    "ranking": 542,
    "is_trashed": false,
    "title": "Normalisation",
    "votes_nok": 0,
    "votes_ok": 2,
    "votes_mitige": 0,
    "_links": {
      "show": "https://www.republique-numerique.fr/consultations/projet-de-loi-numerique/consultation/consultation/opinions/section-2-service-public-de-la-donnee-1/normalisation",
      "edit": "https://www.republique-numerique.fr/consultations/projet-de-loi-numerique/consultation/consultation/opinions/section-2-service-public-de-la-donnee-1/normalisation/edit",
      "report": "https://www.republique-numerique.fr/consultations/projet-de-loi-numerique/consultation/consultation/opinions/section-2-service-public-de-la-donnee-1/normalisation/report",
      "type": "https://www.republique-numerique.fr/consultations/projet-de-loi-numerique/consultation/consultation/opinions/section-2-service-public-de-la-donnee-1"
    },
    "user_vote": null,
    "has_user_reported": false
  },
  "rankingThreshold": null,
  "opinionTerm": 1
}