{
  "opinion": {
    "isContribuable": false,
    "votes_total": 10,
    "arguments_yes_count": 0,
    "arguments_no_count": 1,
    "id": 578,
    "created_at": "2015-10-13T14:45:48+0200",
    "updated_at": "2015-10-13T14:45:48+0200",
    "body": "S'inscrire sur un site comme Academia. edu  pour telecharger les oeuvres protégées. Quand l'auteur est encore vivant.",
    "versions_count": 0,
    "sources_count": 0,
    "arguments_count": 1,
    "author": {
      "username": "Nathalie Robisco",
      "displayName": "Nathalie Robisco",
      "uniqueId": "nathalierobisco",
      "isAdmin": false,
      "media": null,
      "vip": false,
      "_links": {
        "profile": "https://www.republique-numerique.fr/profile/nathalierobisco",
        "settings": "https://www.republique-numerique.fr/profile/edit-profile"
      }
    },
    "type": {
      "id": 90,
      "title": "Section 1",
      "subtitle": "Les Communs",
      "voteWidgetType": 2,
      "votesHelpText": "Pensez-vous que cette proposition permet d'atteindre les objectifs présentés dans l’explication de l’article ?",
      "commentSystem": 2,
      "color": "blue",
      "versionable": true,
      "sourceable": true,
      "votesThreshold": null,
      "votesThresholdHelpText": null
    },
    "sources": [],
    "arguments": [
      {
        "isContribuable": false,
        "id": 3939,
        "body": "Pas spécialement \"academia.edu, par contre se fier aux sites proposés par \"netpublic.fr\"",
        "created_at": "2015-10-14T16:25:58+0200",
        "updated_at": "2015-10-14T16:25:58+0200",
        "is_enabled": true,
        "votes_count": 2,
        "type": 0,
        "is_trashed": false,
        "author": {
          "username": "Jeanne Varasco",
          "displayName": "Jeanne Varasco",
          "uniqueId": "jeannevarasco",
          "isAdmin": false,
          "media": {
            "url": "/media/cache/default_avatar/default/0001/01/139_default_avatar.jpg"
          },
          "vip": false,
          "_links": {
            "profile": "https://www.republique-numerique.fr/profile/jeannevarasco",
            "settings": "https://www.republique-numerique.fr/profile/edit-profile"
          }
        },
        "_links": {
          "show": "https://www.republique-numerique.fr/consultations/projet-de-loi-numerique/consultation/consultation/opinions/section-1-les-communs/devoir-s-inscrire-sur-un-site-pour-les-oeuvres-protegees#arg-3939",
          "edit": "https://www.republique-numerique.fr/consultations/projet-de-loi-numerique/consultation/consultation/opinions/section-1-les-communs/devoir-s-inscrire-sur-un-site-pour-les-oeuvres-protegees/arguments/3939/edit",
          "report": "https://www.republique-numerique.fr/consultations/projet-de-loi-numerique/consultation/consultation/opinions/section-1-les-communs/devoir-s-inscrire-sur-un-site-pour-les-oeuvres-protegees/arguments/3939/report"
        },
        "has_user_voted": false,
        "has_user_reported": false
      }
    ],
    "modals": [],
    "votes": [
      {
        "user": {
          "username": "J'aime Lire",
          "displayName": "J'aime Lire",
          "uniqueId": "jaimelire",
          "isAdmin": false,
          "media": null,
          "vip": false,
          "_links": {
            "profile": "https://www.republique-numerique.fr/profile/jaimelire",
            "settings": "https://www.republique-numerique.fr/profile/edit-profile"
          }
        }
      },
      {
        "user": {
          "username": "Emile Gersch",
          "displayName": "Emile Gersch",
          "uniqueId": "emilegersch",
          "isAdmin": false,
          "media": null,
          "vip": false,
          "_links": {
            "profile": "https://www.republique-numerique.fr/profile/emilegersch",
            "settings": "https://www.republique-numerique.fr/profile/edit-profile"
          }
        }
      },
      {
        "user": {
          "username": "Pierre Lavayssière",
          "displayName": "Pierre Lavayssière",
          "uniqueId": "pierrelavayssiere",
          "isAdmin": false,
          "media": null,
          "vip": false,
          "_links": {
            "profile": "https://www.republique-numerique.fr/profile/pierrelavayssiere",
            "settings": "https://www.republique-numerique.fr/profile/edit-profile"
          }
        }
      },
      {
        "user": {
          "username": "Jeanne Varasco",
          "displayName": "Jeanne Varasco",
          "uniqueId": "jeannevarasco",
          "isAdmin": false,
          "media": {
            "url": "/media/cache/default_avatar/default/0001/01/139_default_avatar.jpg"
          },
          "vip": false,
          "_links": {
            "profile": "https://www.republique-numerique.fr/profile/jeannevarasco",
            "settings": "https://www.republique-numerique.fr/profile/edit-profile"
          }
        }
      },
      {
        "user": {
          "username": "Maltese Nadine",
          "displayName": "Maltese Nadine",
          "uniqueId": "maltesenadine",
          "isAdmin": false,
          "media": {
            "url": "/media/cache/default_avatar/default/0001/01/113_default_avatar.png"
          },
          "vip": false,
          "_links": {
            "profile": "https://www.republique-numerique.fr/profile/maltesenadine",
            "settings": "https://www.republique-numerique.fr/profile/edit-profile"
          }
        }
      }
    ],
    "appendices": [
      {
        "body": "Si le simple fait de mettre enligne un article ou un lien vers un livre suffit pour le telecharger,  alors à quoi sert la propriété intellectuelle?  On se crée bien un compte sur un site commercial,  alors la culture doit être protégée aussi d'une  manière à ne pas léser l'auteur",
        "type": {
          "title": "Explication de l'article"
        }
      }
    ],
    "ranking": 397,
    "is_trashed": false,
    "title": "Devoir s'inscrire sur un site pour les oeuvres protégées",
    "votes_nok": 1,
    "votes_ok": 7,
    "votes_mitige": 2,
    "_links": {
      "show": "https://www.republique-numerique.fr/consultations/projet-de-loi-numerique/consultation/consultation/opinions/section-1-les-communs/devoir-s-inscrire-sur-un-site-pour-les-oeuvres-protegees",
      "edit": "https://www.republique-numerique.fr/consultations/projet-de-loi-numerique/consultation/consultation/opinions/section-1-les-communs/devoir-s-inscrire-sur-un-site-pour-les-oeuvres-protegees/edit",
      "report": "https://www.republique-numerique.fr/consultations/projet-de-loi-numerique/consultation/consultation/opinions/section-1-les-communs/devoir-s-inscrire-sur-un-site-pour-les-oeuvres-protegees/report",
      "type": "https://www.republique-numerique.fr/consultations/projet-de-loi-numerique/consultation/consultation/opinions/section-1-les-communs"
    },
    "user_vote": null,
    "has_user_reported": false
  },
  "rankingThreshold": null,
  "opinionTerm": 1
}